<?xml version='1.0' encoding='UTF-8'?>
<osm version='0.6' upload='false' generator='JOSM'>
  <node id='-74' visible='true' lat='-34.20400265564' lon='151.02025112197' />
  <node id='-76' visible='true' lat='-34.2038286' lon='151.0198958' />
  <node id='-78' visible='true' lat='-34.2038269' lon='151.0183352' />
  <node id='-80' visible='true' lat='-34.2046187' lon='151.0165423' />
  <node id='-82' visible='true' lat='-34.2056937' lon='151.0158472' />
  <node id='-84' visible='true' lat='-34.2061481' lon='151.0159461' />
  <node id='-86' visible='true' lat='-34.2067243' lon='151.0155704' />
  <node id='-88' visible='true' lat='-34.207953' lon='151.015478' />
  <node id='-90' visible='true' lat='-34.2083038' lon='151.0150714' />
  <node id='-92' visible='true' lat='-34.2085402' lon='151.0145351' />
  <node id='-94' visible='true' lat='-34.2089491' lon='151.0139768' />
  <node id='-96' visible='true' lat='-34.2093347' lon='151.0132525' />
  <node id='-98' visible='true' lat='-34.2093809' lon='151.0124332' />
  <node id='-100' action='modify' visible='true' lat='-34.1945523' lon='151.0385681' />
  <node id='-102' visible='true' lat='-34.1942704' lon='151.0387706' />
  <node id='-104' visible='true' lat='-34.193809' lon='151.0388691' />
  <node id='-106' visible='true' lat='-34.1931643' lon='151.0390578' />
  <node id='-108' visible='true' lat='-34.1928996' lon='151.0389511' />
  <node id='-110' visible='true' lat='-34.1924246' lon='151.0389675' />
  <node id='-112' visible='true' lat='-34.1919428' lon='151.0390824' />
  <node id='-114' visible='true' lat='-34.1915288' lon='151.0393203' />
  <node id='-116' visible='true' lat='-34.1913759' lon='151.0396511' />
  <node id='-118' visible='true' lat='-34.1913022' lon='151.0399669' />
  <node id='-120' visible='true' lat='-34.1911861' lon='151.0402828' />
  <node id='-122' visible='true' lat='-34.1911035' lon='151.0405474' />
  <node id='-124' visible='true' lat='-34.1911325' lon='151.0407714' />
  <node id='-126' visible='true' lat='-34.191099' lon='151.040982' />
  <node id='-128' visible='true' lat='-34.1910477' lon='151.0411278' />
  <node id='-130' visible='true' lat='-34.1909628' lon='151.0413897' />
  <node id='-132' visible='true' lat='-34.1908578' lon='151.0416299' />
  <node id='-134' visible='true' lat='-34.1906167' lon='151.0417811' />
  <node id='-136' visible='true' lat='-34.1904001' lon='151.0418486' />
  <node id='-138' visible='true' lat='-34.1900338' lon='151.0419026' />
  <node id='-140' action='modify' visible='true' lat='-34.1898328' lon='151.0419107'>
    <tag k='note' v='This section may be especially hazardous at high tide/rough seas.' />
    <tag k='role' v='warn' />
    <tag k='warn' v='hazard' />
  </node>
  <node id='-142' visible='true' lat='-34.1896006' lon='151.0419215' />
  <node id='-144' visible='true' lat='-34.1894532' lon='151.0419809' />
  <node id='-146' visible='true' lat='-34.1892634' lon='151.0420538' />
  <node id='-148' visible='true' lat='-34.1889396' lon='151.0421348' />
  <node id='-150' visible='true' lat='-34.1887096' lon='151.0421429' />
  <node id='-152' visible='true' lat='-34.1885061' lon='151.0421892' />
  <node id='-154' visible='true' lat='-34.18811185771' lon='151.04261980164' />
  <node id='-156' visible='true' lat='-34.18738403204' lon='151.04349966747' />
  <node id='-158' visible='true' lat='-34.18645308308' lon='151.04457392225' />
  <node id='-160' action='modify' visible='true' lat='-34.18595479982' lon='151.04525695319' />
  <node id='-162' visible='true' lat='-34.1855159' lon='151.0452412' />
  <node id='-164' visible='true' lat='-34.1854239' lon='151.0452419' />
  <node id='-166' visible='true' lat='-34.1853377' lon='151.0452287' />
  <node id='-168' visible='true' lat='-34.1853129' lon='151.0451738' />
  <node id='-170' visible='true' lat='-34.1852475' lon='151.0451134' />
  <node id='-172' visible='true' lat='-34.1851614' lon='151.0450347' />
  <node id='-174' visible='true' lat='-34.1850446' lon='151.044889' />
  <node id='-176' visible='true' lat='-34.1850328' lon='151.0447931' />
  <node id='-178' visible='true' lat='-34.185067' lon='151.0447586' />
  <node id='-180' visible='true' lat='-34.1851174' lon='151.0446977' />
  <node id='-182' visible='true' lat='-34.1852534' lon='151.0445645' />
  <node id='-184' visible='true' lat='-34.1854298' lon='151.0445089' />
  <node id='-186' visible='true' lat='-34.1855938' lon='151.0444807' />
  <node id='-188' visible='true' lat='-34.1857706' lon='151.0444231' />
  <node id='-190' visible='true' lat='-34.1858061' lon='151.0443029' />
  <node id='-192' visible='true' lat='-34.1858274' lon='151.0441484' />
  <node id='-194' visible='true' lat='-34.1859978' lon='151.0438909' />
  <node id='-196' visible='true' lat='-34.1861606' lon='151.0433473' />
  <node id='-198' visible='true' lat='-34.1862742' lon='151.043064' />
  <node id='-200' visible='true' lat='-34.186473' lon='151.042858' />
  <node id='-202' visible='true' lat='-34.1865349' lon='151.0424209' />
  <node id='-204' visible='true' lat='-34.1867504' lon='151.0421056' />
  <node id='-206' visible='true' lat='-34.1869558' lon='151.0418195' />
  <node id='-208' visible='true' lat='-34.1871688' lon='151.041562' />
  <node id='-210' visible='true' lat='-34.1873108' lon='151.0415105' />
  <node id='-212' visible='true' lat='-34.1876019' lon='151.0414504' />
  <node id='-214' visible='true' lat='-34.1878722' lon='151.0413246' />
  <node id='-216' visible='true' lat='-34.1879985' lon='151.0412605' />
  <node id='-218' visible='true' lat='-34.1880923' lon='151.041213' />
  <node id='-220' visible='true' lat='-34.1884828' lon='151.0409984' />
  <node id='-222' visible='true' lat='-34.188994' lon='151.0407066' />
  <node id='-224' visible='true' lat='-34.1892354' lon='151.0406551' />
  <node id='-226' visible='true' lat='-34.1893135' lon='151.0404577' />
  <node id='-228' visible='true' lat='-34.189349' lon='151.0403633' />
  <node id='-230' visible='true' lat='-34.1896259' lon='151.04008' />
  <node id='-232' visible='true' lat='-34.1897182' lon='151.0399599' />
  <node id='-234' visible='true' lat='-34.1897963' lon='151.0399513' />
  <node id='-236' visible='true' lat='-34.1899524' lon='151.039874' />
  <node id='-238' visible='true' lat='-34.1900731' lon='151.039668' />
  <node id='-240' visible='true' lat='-34.1902861' lon='151.0396423' />
  <node id='-242' visible='true' lat='-34.19035' lon='151.0394878' />
  <node id='-244' visible='true' lat='-34.1904281' lon='151.0392475' />
  <node id='-246' visible='true' lat='-34.1906624' lon='151.0391187' />
  <node id='-248' visible='true' lat='-34.1907334' lon='151.0389041' />
  <node id='-250' visible='true' lat='-34.1908186' lon='151.0388784' />
  <node id='-252' visible='true' lat='-34.1908541' lon='151.038784' />
  <node id='-254' visible='true' lat='-34.1909819' lon='151.0386295' />
  <node id='-256' visible='true' lat='-34.1910742' lon='151.0384664' />
  <node id='-258' visible='true' lat='-34.1911239' lon='151.0383634' />
  <node id='-260' visible='true' lat='-34.1914079' lon='151.0381402' />
  <node id='-262' visible='true' lat='-34.1916351' lon='151.0379171' />
  <node id='-264' visible='true' lat='-34.1918197' lon='151.0378055' />
  <node id='-266' visible='true' lat='-34.1921178' lon='151.0377883' />
  <node id='-268' visible='true' lat='-34.1924089' lon='151.0376939' />
  <node id='-270' visible='true' lat='-34.1925666' lon='151.0376453' />
  <node id='-272' visible='true' lat='-34.1928733' lon='151.0377745' />
  <node id='-274' visible='true' lat='-34.1930858' lon='151.0377804' />
  <node id='-276' visible='true' lat='-34.1932901' lon='151.0376469' />
  <node id='-278' visible='true' lat='-34.1934245' lon='151.0374514' />
  <node id='-280' visible='true' lat='-34.1934898' lon='151.0372416' />
  <node id='-282' visible='true' lat='-34.1934598' lon='151.0369949' />
  <node id='-284' visible='true' lat='-34.1935519' lon='151.0364408' />
  <node id='-286' visible='true' lat='-34.1936939' lon='151.0360717' />
  <node id='-288' visible='true' lat='-34.1937861' lon='151.0358627' />
  <node id='-290' visible='true' lat='-34.1939211' lon='151.0355567' />
  <node id='-292' visible='true' lat='-34.193977' lon='151.0354067' />
  <node id='-294' visible='true' lat='-34.1939779' lon='151.0352392' />
  <node id='-296' visible='true' lat='-34.194109' lon='151.0350594' />
  <node id='-298' visible='true' lat='-34.1941483' lon='151.0348958' />
  <node id='-300' visible='true' lat='-34.1941838' lon='151.0346469' />
  <node id='-302' visible='true' lat='-34.194269' lon='151.0345697' />
  <node id='-304' visible='true' lat='-34.1942722' lon='151.0343381' />
  <node id='-306' visible='true' lat='-34.1943423' lon='151.0341577' />
  <node id='-308' visible='true' lat='-34.1946097' lon='151.0338487' />
  <node id='-310' visible='true' lat='-34.1946097' lon='151.0336942' />
  <node id='-312' visible='true' lat='-34.1947304' lon='151.033617' />
  <node id='-314' visible='true' lat='-34.194986' lon='151.0334796' />
  <node id='-316' visible='true' lat='-34.1953623' lon='151.0330333' />
  <node id='-318' visible='true' lat='-34.1955114' lon='151.0325355' />
  <node id='-320' visible='true' lat='-34.1956063' lon='151.0324579' />
  <node id='-322' visible='true' lat='-34.1957314' lon='151.0323896' />
  <node id='-324' visible='true' lat='-34.1960296' lon='151.0320205' />
  <node id='-326' visible='true' lat='-34.1960651' lon='151.0317888' />
  <node id='-328' visible='true' lat='-34.1961716' lon='151.0314369' />
  <node id='-330' visible='true' lat='-34.1963136' lon='151.0309219' />
  <node id='-332' visible='true' lat='-34.1965265' lon='151.0308532' />
  <node id='-334' visible='true' lat='-34.1965762' lon='151.0306901' />
  <node id='-336' visible='true' lat='-34.1966969' lon='151.0306558' />
  <node id='-338' visible='true' lat='-34.1970661' lon='151.0303554' />
  <node id='-340' visible='true' lat='-34.1972775' lon='151.0300845' />
  <node id='-342' visible='true' lat='-34.197776' lon='151.0294456' />
  <node id='-344' visible='true' lat='-34.1978967' lon='151.0291881' />
  <node id='-346' visible='true' lat='-34.1980387' lon='151.0291194' />
  <node id='-348' visible='true' lat='-34.198138' lon='151.0290164' />
  <node id='-350' visible='true' lat='-34.1983084' lon='151.0286474' />
  <node id='-352' visible='true' lat='-34.1985711' lon='151.0282354' />
  <node id='-354' visible='true' lat='-34.1985782' lon='151.028141' />
  <node id='-356' visible='true' lat='-34.1986939' lon='151.0280486' />
  <node id='-358' visible='true' lat='-34.1987557' lon='151.027935' />
  <node id='-360' visible='true' lat='-34.1989402' lon='151.0277633' />
  <node id='-362' visible='true' lat='-34.1990822' lon='151.0276088' />
  <node id='-364' visible='true' lat='-34.1991531' lon='151.0274317' />
  <node id='-366' visible='true' lat='-34.1992786' lon='151.0267753' />
  <node id='-368' visible='true' lat='-34.1993896' lon='151.0262177' />
  <node id='-370' visible='true' lat='-34.1994301' lon='151.025815' />
  <node id='-372' visible='true' lat='-34.1994506' lon='151.0255585' />
  <node id='-374' visible='true' lat='-34.1995711' lon='151.0253611' />
  <node id='-376' visible='true' lat='-34.1997219' lon='151.0251878' />
  <node id='-378' visible='true' lat='-34.1997567' lon='151.0250097' />
  <node id='-380' visible='true' lat='-34.1998333' lon='151.0248124' />
  <node id='-382' visible='true' lat='-34.1999044' lon='151.0245686' />
  <node id='-384' visible='true' lat='-34.2000619' lon='151.0242872' />
  <node id='-386' visible='true' lat='-34.2002232' lon='151.0239995' />
  <node id='-388' visible='true' lat='-34.2002243' lon='151.0237441' />
  <node id='-390' visible='true' lat='-34.2001181' lon='151.0235773' />
  <node id='-392' visible='true' lat='-34.1997967' lon='151.0235029' />
  <node id='-394' visible='true' lat='-34.1994602' lon='151.0235844' />
  <node id='-396' visible='true' lat='-34.199126' lon='151.0235611' />
  <node id='-398' visible='true' lat='-34.1988432' lon='151.0235182' />
  <node id='-400' visible='true' lat='-34.1988678' lon='151.0233214' />
  <node id='-402' visible='true' lat='-34.1988337' lon='151.0231027' />
  <node id='-404' visible='true' lat='-34.1987693' lon='151.0229711' />
  <node id='-406' visible='true' lat='-34.1986634' lon='151.0228109' />
  <node id='-408' visible='true' lat='-34.1986177' lon='151.0226598' />
  <node id='-410' visible='true' lat='-34.1985569' lon='151.022459' />
  <node id='-412' visible='true' lat='-34.198422' lon='151.0220985' />
  <node id='-414' visible='true' lat='-34.1983368' lon='151.0217723' />
  <node id='-416' visible='true' lat='-34.1982374' lon='151.0215063' />
  <node id='-418' visible='true' lat='-34.19806' lon='151.0214548' />
  <node id='-420' visible='true' lat='-34.1980955' lon='151.021326' />
  <node id='-422' visible='true' lat='-34.1980316' lon='151.0209827' />
  <node id='-424' visible='true' lat='-34.1980245' lon='151.0208539' />
  <node id='-426' visible='true' lat='-34.1979393' lon='151.0207338' />
  <node id='-428' visible='true' lat='-34.197918' lon='151.0205278' />
  <node id='-430' visible='true' lat='-34.1978482' lon='151.0204434' />
  <node id='-432' visible='true' lat='-34.1977255' lon='151.0202249' />
  <node id='-434' visible='true' lat='-34.1976691' lon='151.0198681' />
  <node id='-436' visible='true' lat='-34.1975985' lon='151.019618' />
  <node id='-438' visible='true' lat='-34.1974849' lon='151.0195236' />
  <node id='-440' visible='true' lat='-34.1973992' lon='151.0191414' />
  <node id='-442' visible='true' lat='-34.1974778' lon='151.0187253' />
  <node id='-444' visible='true' lat='-34.1974059' lon='151.0183714' />
  <node id='-446' visible='true' lat='-34.1975054' lon='151.0181997' />
  <node id='-448' visible='true' lat='-34.1979277' lon='151.0176984' />
  <node id='-450' visible='true' lat='-34.198221' lon='151.0170561' />
  <node id='-452' visible='true' lat='-34.1987254' lon='151.0163237' />
  <node id='-454' visible='true' lat='-34.1994771' lon='151.0156636' />
  <node id='-456' visible='true' lat='-34.1999961' lon='151.0152069' />
  <node id='-458' visible='true' lat='-34.2001692' lon='151.015066' />
  <node id='-460' visible='true' lat='-34.2003769' lon='151.0150584' />
  <node id='-462' visible='true' lat='-34.200899' lon='151.0149173' />
  <node id='-464' visible='true' lat='-34.2016944' lon='151.0146611' />
  <node id='-466' visible='true' lat='-34.2020225' lon='151.0143805' />
  <node id='-468' visible='true' lat='-34.2023023' lon='151.0143107' />
  <node id='-470' visible='true' lat='-34.2026003' lon='151.0141004' />
  <node id='-472' visible='true' lat='-34.2031461' lon='151.0137476' />
  <node id='-474' visible='true' lat='-34.2032129' lon='151.013589' />
  <node id='-476' visible='true' lat='-34.2033334' lon='151.0135403' />
  <node id='-478' visible='true' lat='-34.2039251' lon='151.0135784' />
  <node id='-480' visible='true' lat='-34.2042658' lon='151.0136304' />
  <node id='-482' visible='true' lat='-34.2047678' lon='151.0135726' />
  <node id='-484' visible='true' lat='-34.2050795' lon='151.0134652' />
  <node id='-486' visible='true' lat='-34.2053859' lon='151.013473' />
  <node id='-488' visible='true' lat='-34.2056575' lon='151.0135059' />
  <node id='-490' visible='true' lat='-34.2061047' lon='151.013686' />
  <node id='-492' visible='true' lat='-34.2063453' lon='151.0137326' />
  <node id='-494' visible='true' lat='-34.2066639' lon='151.0135552' />
  <node id='-496' visible='true' lat='-34.2069113' lon='151.0134298' />
  <node id='-498' visible='true' lat='-34.2073303' lon='151.0132722' />
  <node id='-500' visible='true' lat='-34.2075208' lon='151.0131875' />
  <node id='-502' visible='true' lat='-34.2078262' lon='151.0131346' />
  <node id='-504' visible='true' lat='-34.2079576' lon='151.0131533' />
  <node id='-506' visible='true' lat='-34.2080223' lon='151.0129249' />
  <node id='-508' visible='true' lat='-34.208094' lon='151.0128043' />
  <node id='-510' visible='true' lat='-34.2083756' lon='151.0128255' />
  <node id='-512' visible='true' lat='-34.2085488' lon='151.0128657' />
  <node id='-514' visible='true' lat='-34.2086939' lon='151.0129002' />
  <node id='-516' visible='true' lat='-34.2087897' lon='151.0129402' />
  <node id='-518' visible='true' lat='-34.2089443' lon='151.0128714' />
  <node id='-520' visible='true' lat='-34.2089752' lon='151.0127862' />
  <node id='-522' visible='true' lat='-34.2090408' lon='151.0127592' />
  <node id='-524' visible='true' lat='-34.2090581' lon='151.0126875' />
  <node id='-526' visible='true' lat='-34.2091545' lon='151.0126336' />
  <node id='-528' visible='true' lat='-34.2091954' lon='151.0125469' />
  <node id='-530' visible='true' lat='-34.2093166' lon='151.0124886' />
  <node id='-532' visible='true' lat='-34.2093809' lon='151.0124332' />
  <node id='-534' visible='true' lat='-34.2093759' lon='151.0123121' />
  <node id='-536' visible='true' lat='-34.2094588' lon='151.0122239' />
  <node id='-538' visible='true' lat='-34.2095676' lon='151.0121371' />
  <node id='-540' visible='true' lat='-34.2097816' lon='151.0120519' />
  <node id='-542' visible='true' lat='-34.2099572' lon='151.0119741' />
  <node id='-544' visible='true' lat='-34.2101291' lon='151.0119487' />
  <node id='-546' visible='true' lat='-34.2102404' lon='151.0118545' />
  <node id='-548' visible='true' lat='-34.2103686' lon='151.0117576' />
  <node id='-550' visible='true' lat='-34.2105063' lon='151.0116586' />
  <node id='-552' visible='true' lat='-34.210698' lon='151.0115569' />
  <node id='-554' visible='true' lat='-34.2108418' lon='151.0114571' />
  <node id='-556' visible='true' lat='-34.2110163' lon='151.0112687' />
  <node id='-558' visible='true' lat='-34.2112176' lon='151.0111798' />
  <node id='-560' visible='true' lat='-34.2112514' lon='151.0110146' />
  <node id='-562' visible='true' lat='-34.211365' lon='151.0108772' />
  <node id='-564' visible='true' lat='-34.2113389' lon='151.0104759' />
  <node id='-566' visible='true' lat='-34.2115718' lon='151.009906' />
  <node id='-568' visible='true' lat='-34.2118526' lon='151.0094024' />
  <node id='-570' visible='true' lat='-34.2112343' lon='151.0089376' />
  <node id='-572' visible='true' lat='-34.2106046' lon='151.0083983' />
  <node id='-574' visible='true' lat='-34.2104087' lon='151.0081783' />
  <node id='-576' visible='true' lat='-34.2103056' lon='151.0079647' />
  <node id='-578' visible='true' lat='-34.2102793' lon='151.0076856' />
  <node id='-580' visible='true' lat='-34.2103773' lon='151.0075756' />
  <node id='-582' visible='true' lat='-34.2106833' lon='151.0073599' />
  <node id='-584' visible='true' lat='-34.2112466' lon='151.0067818' />
  <node id='-586' visible='true' lat='-34.2115197' lon='151.0061124' />
  <node id='-588' visible='true' lat='-34.2118322' lon='151.0055045' />
  <node id='-590' visible='true' lat='-34.2115051' lon='151.0053873' />
  <node id='-592' visible='true' lat='-34.2112574' lon='151.0052674' />
  <node id='-594' visible='true' lat='-34.2110924' lon='151.0055073' />
  <node id='-596' visible='true' lat='-34.2109737' lon='151.0055891' />
  <node id='-598' visible='true' lat='-34.2108722' lon='151.0056835' />
  <node id='-600' visible='true' lat='-34.2107413' lon='151.005904' />
  <node id='-602' visible='true' lat='-34.2107263' lon='151.0058865' />
  <node id='-604' visible='true' lat='-34.2106794' lon='151.0059488' />
  <node id='-606' visible='true' lat='-34.2106344' lon='151.0059928' />
  <node id='-608' visible='true' lat='-34.2106075' lon='151.0060225' />
  <node id='-610' action='modify' visible='true' lat='-34.2105403' lon='151.0060953' />
  <way id='-612' action='modify' visible='true'>
    <nd ref='-98' />
    <nd ref='-96' />
    <nd ref='-94' />
    <nd ref='-92' />
    <nd ref='-90' />
    <nd ref='-88' />
    <nd ref='-86' />
    <nd ref='-84' />
    <nd ref='-82' />
    <nd ref='-80' />
    <nd ref='-78' />
    <nd ref='-76' />
    <nd ref='-74' />
    <tag k='name' v='Werrong Beach' />
    <tag k='role' v='sidetrack' />
    <tag k='style' v='return' />
  </way>
  <way id='-614' action='modify' visible='true'>
    <nd ref='-160' />
    <nd ref='-158' />
    <nd ref='-156' />
    <nd ref='-154' />
    <nd ref='-152' />
    <nd ref='-150' />
    <nd ref='-148' />
    <nd ref='-146' />
    <nd ref='-144' />
    <nd ref='-142' />
    <nd ref='-140' />
    <nd ref='-138' />
    <nd ref='-136' />
    <nd ref='-134' />
    <nd ref='-132' />
    <nd ref='-130' />
    <nd ref='-128' />
    <nd ref='-126' />
    <nd ref='-124' />
    <nd ref='-122' />
    <nd ref='-120' />
    <nd ref='-118' />
    <nd ref='-116' />
    <nd ref='-114' />
    <nd ref='-112' />
    <nd ref='-110' />
    <nd ref='-108' />
    <nd ref='-106' />
    <nd ref='-104' />
    <nd ref='-102' />
    <nd ref='-100' />
    <tag k='name' v='Figure Eight Pool' />
    <tag k='role' v='sidetrack' />
    <tag k='style' v='return' />
  </way>
  <way id='-616' action='modify' visible='true'>
    <nd ref='-610' />
    <nd ref='-608' />
    <nd ref='-606' />
    <nd ref='-604' />
    <nd ref='-602' />
    <nd ref='-600' />
    <nd ref='-598' />
    <nd ref='-596' />
    <nd ref='-594' />
    <nd ref='-592' />
    <nd ref='-590' />
    <nd ref='-588' />
    <nd ref='-586' />
    <nd ref='-584' />
    <nd ref='-582' />
    <nd ref='-580' />
    <nd ref='-578' />
    <nd ref='-576' />
    <nd ref='-574' />
    <nd ref='-572' />
    <nd ref='-570' />
    <nd ref='-568' />
    <nd ref='-566' />
    <nd ref='-564' />
    <nd ref='-562' />
    <nd ref='-560' />
    <nd ref='-558' />
    <nd ref='-556' />
    <nd ref='-554' />
    <nd ref='-552' />
    <nd ref='-550' />
    <nd ref='-548' />
    <nd ref='-546' />
    <nd ref='-544' />
    <nd ref='-542' />
    <nd ref='-540' />
    <nd ref='-538' />
    <nd ref='-536' />
    <nd ref='-534' />
    <nd ref='-532' />
    <nd ref='-530' />
    <nd ref='-528' />
    <nd ref='-526' />
    <nd ref='-524' />
    <nd ref='-522' />
    <nd ref='-520' />
    <nd ref='-518' />
    <nd ref='-516' />
    <nd ref='-514' />
    <nd ref='-512' />
    <nd ref='-510' />
    <nd ref='-508' />
    <nd ref='-506' />
    <nd ref='-504' />
    <nd ref='-502' />
    <nd ref='-500' />
    <nd ref='-498' />
    <nd ref='-496' />
    <nd ref='-494' />
    <nd ref='-492' />
    <nd ref='-490' />
    <nd ref='-488' />
    <nd ref='-486' />
    <nd ref='-484' />
    <nd ref='-482' />
    <nd ref='-480' />
    <nd ref='-478' />
    <nd ref='-476' />
    <nd ref='-474' />
    <nd ref='-472' />
    <nd ref='-470' />
    <nd ref='-468' />
    <nd ref='-466' />
    <nd ref='-464' />
    <nd ref='-462' />
    <nd ref='-460' />
    <nd ref='-458' />
    <nd ref='-456' />
    <nd ref='-454' />
    <nd ref='-452' />
    <nd ref='-450' />
    <nd ref='-448' />
    <nd ref='-446' />
    <nd ref='-444' />
    <nd ref='-442' />
    <nd ref='-440' />
    <nd ref='-438' />
    <nd ref='-436' />
    <nd ref='-434' />
    <nd ref='-432' />
    <nd ref='-430' />
    <nd ref='-428' />
    <nd ref='-426' />
    <nd ref='-424' />
    <nd ref='-422' />
    <nd ref='-420' />
    <nd ref='-418' />
    <nd ref='-416' />
    <nd ref='-414' />
    <nd ref='-412' />
    <nd ref='-410' />
    <nd ref='-408' />
    <nd ref='-406' />
    <nd ref='-404' />
    <nd ref='-402' />
    <nd ref='-400' />
    <nd ref='-398' />
    <nd ref='-396' />
    <nd ref='-394' />
    <nd ref='-392' />
    <nd ref='-390' />
    <nd ref='-388' />
    <nd ref='-386' />
    <nd ref='-384' />
    <nd ref='-382' />
    <nd ref='-380' />
    <nd ref='-378' />
    <nd ref='-376' />
    <nd ref='-374' />
    <nd ref='-372' />
    <nd ref='-370' />
    <nd ref='-368' />
    <nd ref='-366' />
    <nd ref='-364' />
    <nd ref='-362' />
    <nd ref='-360' />
    <nd ref='-358' />
    <nd ref='-356' />
    <nd ref='-354' />
    <nd ref='-352' />
    <nd ref='-350' />
    <nd ref='-348' />
    <nd ref='-346' />
    <nd ref='-344' />
    <nd ref='-342' />
    <nd ref='-340' />
    <nd ref='-338' />
    <nd ref='-336' />
    <nd ref='-334' />
    <nd ref='-332' />
    <nd ref='-330' />
    <nd ref='-328' />
    <nd ref='-326' />
    <nd ref='-324' />
    <nd ref='-322' />
    <nd ref='-320' />
    <nd ref='-318' />
    <nd ref='-316' />
    <nd ref='-314' />
    <nd ref='-312' />
    <nd ref='-310' />
    <nd ref='-308' />
    <nd ref='-306' />
    <nd ref='-304' />
    <nd ref='-302' />
    <nd ref='-300' />
    <nd ref='-298' />
    <nd ref='-296' />
    <nd ref='-294' />
    <nd ref='-292' />
    <nd ref='-290' />
    <nd ref='-288' />
    <nd ref='-286' />
    <nd ref='-284' />
    <nd ref='-282' />
    <nd ref='-280' />
    <nd ref='-278' />
    <nd ref='-276' />
    <nd ref='-274' />
    <nd ref='-272' />
    <nd ref='-270' />
    <nd ref='-268' />
    <nd ref='-266' />
    <nd ref='-264' />
    <nd ref='-262' />
    <nd ref='-260' />
    <nd ref='-258' />
    <nd ref='-256' />
    <nd ref='-254' />
    <nd ref='-252' />
    <nd ref='-250' />
    <nd ref='-248' />
    <nd ref='-246' />
    <nd ref='-244' />
    <nd ref='-242' />
    <nd ref='-240' />
    <nd ref='-238' />
    <nd ref='-236' />
    <nd ref='-234' />
    <nd ref='-232' />
    <nd ref='-230' />
    <nd ref='-228' />
    <nd ref='-226' />
    <nd ref='-224' />
    <nd ref='-222' />
    <nd ref='-220' />
    <nd ref='-218' />
    <nd ref='-216' />
    <nd ref='-214' />
    <nd ref='-212' />
    <nd ref='-210' />
    <nd ref='-208' />
    <nd ref='-206' />
    <nd ref='-204' />
    <nd ref='-202' />
    <nd ref='-200' />
    <nd ref='-198' />
    <nd ref='-196' />
    <nd ref='-194' />
    <nd ref='-192' />
    <nd ref='-190' />
    <nd ref='-188' />
    <nd ref='-186' />
    <nd ref='-184' />
    <nd ref='-182' />
    <nd ref='-180' />
    <nd ref='-178' />
    <nd ref='-176' />
    <nd ref='-174' />
    <nd ref='-172' />
    <nd ref='-170' />
    <nd ref='-168' />
    <nd ref='-166' />
    <nd ref='-164' />
    <nd ref='-162' />
    <nd ref='-160' />
    <tag k='name' v='Otford to Burning Palms Return' />
    <tag k='park' v='Royal National Park' />
    <tag k='photo' v='136319147@N08/23512705191' />
    <tag k='role' v='primary' />
    <tag k='style' v='return' />
    <tag k='transport' v='train;car' />
  </way>
</osm>
