<?xml version='1.0' encoding='UTF-8'?>
<osm version='0.6' upload='false' generator='JOSM'>
  <node id='-110726' visible='true' lat='-34.067646768' lon='151.01482907752' />
  <node id='-110728' visible='true' lat='-34.06737145226' lon='151.0150712005' />
  <node id='-110730' visible='true' lat='-34.06720165297' lon='151.01478677978' />
  <node id='-110732' visible='true' lat='-34.06712589576' lon='151.0148378228' />
  <node id='-110734' visible='true' lat='-34.06571620246' lon='151.01276075144' />
  <node id='-110736' visible='true' lat='-34.06567568046' lon='151.01275437106' />
  <node id='-110738' visible='true' lat='-34.06523522267' lon='151.01233113934' />
  <node id='-110740' visible='true' lat='-34.06476833492' lon='151.01181220195' />
  <node id='-110742' visible='true' lat='-34.06435358824' lon='151.01162000895' />
  <node id='-110744' visible='true' lat='-34.06523537305' lon='151.00864419786' />
  <node id='-110746' visible='true' lat='-34.06527941893' lon='151.00845916691' />
  <node id='-110748' visible='true' lat='-34.06349466148' lon='151.00766800007' />
  <node id='-110750' visible='true' lat='-34.06268290294' lon='151.00765213229' />
  <node id='-110752' visible='true' lat='-34.06261595114' lon='151.00759470889' />
  <node id='-110754' visible='true' lat='-34.06249966631' lon='151.00760108927' />
  <node id='-110756' visible='true' lat='-34.06241861921' lon='151.00765638588' />
  <node id='-110758' visible='true' lat='-34.06109312335' lon='151.0076584371' />
  <node id='-110760' visible='true' lat='-34.06033064938' lon='151.00785394013' />
  <node id='-110762' visible='true' lat='-34.06025314405' lon='151.00779077761' />
  <node id='-110764' visible='true' lat='-34.06010690296' lon='151.00785458139' />
  <node id='-110766' visible='true' lat='-34.0597668474' lon='151.00654873074' />
  <node id='-110768' visible='true' lat='-34.05971308307' lon='151.00654884337' />
  <node id='-110770' visible='true' lat='-34.05725336443' lon='151.00741657475' />
  <node id='-110772' visible='true' lat='-34.0568669' lon='151.0070088' />
  <node id='-110774' visible='true' lat='-34.0568038' lon='151.0070989' />
  <node id='-110776' visible='true' lat='-34.0567013' lon='151.0071656' />
  <node id='-110778' visible='true' lat='-34.0565858' lon='151.0072568' />
  <node id='-110780' visible='true' lat='-34.0565013' lon='151.0073507' />
  <node id='-110782' visible='true' lat='-34.0564058' lon='151.0074339' />
  <node id='-110784' visible='true' lat='-34.0563429' lon='151.0074917' />
  <node id='-110786' visible='true' lat='-34.056208' lon='151.0075787' />
  <node id='-110788' visible='true' lat='-34.0560836' lon='151.0076458' />
  <node id='-110790' visible='true' lat='-34.0559727' lon='151.007705' />
  <node id='-110792' visible='true' lat='-34.0559102' lon='151.0077423' />
  <node id='-110794' visible='true' lat='-34.0558393' lon='151.0078365' />
  <node id='-110796' visible='true' lat='-34.0557927' lon='151.0079491' />
  <node id='-110798' visible='true' lat='-34.0557391' lon='151.008091' />
  <node id='-110800' visible='true' lat='-34.0556793' lon='151.0082898' />
  <node id='-110802' visible='true' lat='-34.0556127' lon='151.00844' />
  <node id='-110804' visible='true' lat='-34.0554769' lon='151.0086355' />
  <node id='-110806' visible='true' lat='-34.0554193' lon='151.0087189' />
  <node id='-110808' visible='true' lat='-34.0553749' lon='151.0087833' />
  <node id='-110810' visible='true' lat='-34.0552813' lon='151.008893' />
  <node id='-110812' visible='true' lat='-34.0552258' lon='151.0090056' />
  <node id='-110814' visible='true' lat='-34.0550925' lon='151.0091344' />
  <node id='-110816' visible='true' lat='-34.0549636' lon='151.0092363' />
  <node id='-110818' visible='true' lat='-34.0548347' lon='151.0093275' />
  <node id='-110820' visible='true' lat='-34.0547258' lon='151.0093624' />
  <node id='-110822' visible='true' lat='-34.054663' lon='151.0093987' />
  <node id='-110824' visible='true' lat='-34.0545636' lon='151.0094562' />
  <node id='-110826' visible='true' lat='-34.0544369' lon='151.0095448' />
  <node id='-110828' visible='true' lat='-34.0543747' lon='151.009585' />
  <node id='-110830' visible='true' lat='-34.0542347' lon='151.009644' />
  <node id='-110832' visible='true' lat='-34.0541347' lon='151.009695' />
  <node id='-110834' visible='true' lat='-34.0539995' lon='151.0097703' />
  <node id='-110836' visible='true' lat='-34.0538369' lon='151.009821' />
  <node id='-110838' visible='true' lat='-34.053688' lon='151.0098988' />
  <node id='-110840' visible='true' lat='-34.0535772' lon='151.0100493' />
  <node id='-110842' visible='true' lat='-34.053528' lon='151.010108' />
  <node id='-110844' visible='true' lat='-34.0534124' lon='151.0103011' />
  <node id='-110846' visible='true' lat='-34.0533058' lon='151.0104674' />
  <node id='-110848' visible='true' lat='-34.053188' lon='151.0105881' />
  <node id='-110850' visible='true' lat='-34.0531436' lon='151.010615' />
  <node id='-110852' visible='true' lat='-34.0531033' lon='151.0106659' />
  <node id='-110854' visible='true' lat='-34.0530922' lon='151.0107126' />
  <node id='-110856' visible='true' lat='-34.0529069' lon='151.0109959' />
  <node id='-110858' visible='true' lat='-34.0526787' lon='151.0113788' />
  <node id='-110860' visible='true' lat='-34.0525941' lon='151.0115495' />
  <node id='-110862' visible='true' lat='-34.0524258' lon='151.0117066' />
  <node id='-110864' visible='true' lat='-34.0523324' lon='151.0118246' />
  <node id='-110866' visible='true' lat='-34.0522878' lon='151.0119113' />
  <node id='-110868' visible='true' lat='-34.0522035' lon='151.0121411' />
  <node id='-110870' visible='true' lat='-34.0520969' lon='151.0123986' />
  <node id='-110872' visible='true' lat='-34.0520213' lon='151.0126239' />
  <node id='-110874' visible='true' lat='-34.0519342' lon='151.0128042' />
  <node id='-110876' visible='true' lat='-34.051784' lon='151.0130024' />
  <node id='-110878' visible='true' lat='-34.051648' lon='151.0131496' />
  <node id='-110880' visible='true' lat='-34.0515724' lon='151.0133428' />
  <node id='-110882' visible='true' lat='-34.0514657' lon='151.0135305' />
  <node id='-110884' visible='true' lat='-34.0513531' lon='151.0136963' />
  <node id='-110886' visible='true' lat='-34.0511591' lon='151.0137826' />
  <node id='-110888' visible='true' lat='-34.0509413' lon='151.0138363' />
  <node id='-110890' visible='true' lat='-34.0508905' lon='151.0139492' />
  <node id='-110892' visible='true' lat='-34.0508413' lon='151.0140884' />
  <node id='-110894' visible='true' lat='-34.050746' lon='151.0142389' />
  <node id='-110896' visible='true' lat='-34.0506768' lon='151.0143459' />
  <node id='-110898' visible='true' lat='-34.0505816' lon='151.0144883' />
  <node id='-110900' visible='true' lat='-34.0504901' lon='151.0146249' />
  <node id='-110902' visible='true' lat='-34.0504216' lon='151.0146895' />
  <node id='-110904' visible='true' lat='-34.0503146' lon='151.0147482' />
  <node id='-110906' visible='true' lat='-34.0501857' lon='151.0146731' />
  <node id='-110908' visible='true' lat='-34.0500857' lon='151.0145954' />
  <node id='-110910' visible='true' lat='-34.049999' lon='151.0145363' />
  <node id='-110912' visible='true' lat='-34.0498415' lon='151.0145071' />
  <node id='-110914' visible='true' lat='-34.0497145' lon='151.0145149' />
  <node id='-110916' visible='true' lat='-34.0495567' lon='151.0145337' />
  <node id='-110918' visible='true' lat='-34.0494301' lon='151.0145551' />
  <node id='-110920' visible='true' lat='-34.0493482' lon='151.0145903' />
  <node id='-110922' visible='true' lat='-34.0494902' lon='151.0147513' />
  <node id='-110924' visible='true' lat='-34.0495658' lon='151.0148961' />
  <node id='-110926' visible='true' lat='-34.0496503' lon='151.0150077' />
  <node id='-110928' visible='true' lat='-34.0497125' lon='151.0150828' />
  <node id='-110930' visible='true' lat='-34.0497947' lon='151.0151713' />
  <node id='-110932' visible='true' lat='-34.049897' lon='151.015276' />
  <node id='-110934' visible='true' lat='-34.049997' lon='151.0153725' />
  <node id='-110936' visible='true' lat='-34.0500925' lon='151.0154557' />
  <node id='-110938' visible='true' lat='-34.0501571' lon='151.0155237' />
  <node id='-110940' visible='true' lat='-34.050197' lon='151.0155817' />
  <node id='-110942' visible='true' lat='-34.0501482' lon='151.0156417' />
  <node id='-110944' visible='true' lat='-34.0501548' lon='151.0156971' />
  <node id='-110946' visible='true' lat='-34.0501926' lon='151.0157757' />
  <node id='-110948' visible='true' lat='-34.0501327' lon='151.0157463' />
  <node id='-110950' visible='true' lat='-34.0500504' lon='151.0157785' />
  <node id='-110952' visible='true' lat='-34.0499438' lon='151.0157999' />
  <node id='-110954' visible='true' lat='-34.0497437' lon='151.0159689' />
  <node id='-110956' visible='true' lat='-34.0496704' lon='151.0159877' />
  <node id='-110958' visible='true' lat='-34.049546' lon='151.0160762' />
  <node id='-110960' visible='true' lat='-34.0494638' lon='151.0161112' />
  <node id='-110962' visible='true' lat='-34.0493971' lon='151.0160789' />
  <node id='-110964' visible='true' lat='-34.0493682' lon='151.0160789' />
  <node id='-110966' visible='true' lat='-34.0492015' lon='151.0161003' />
  <node id='-110968' visible='true' lat='-34.0491193' lon='151.0161486' />
  <node id='-110970' visible='true' lat='-34.0490482' lon='151.0161594' />
  <node id='-110972' visible='true' lat='-34.0489548' lon='151.0162345' />
  <node id='-110974' visible='true' lat='-34.0489259' lon='151.0162961' />
  <node id='-110976' visible='true' lat='-34.0488815' lon='151.0163417' />
  <node id='-110978' visible='true' lat='-34.0487681' lon='151.0163525' />
  <node id='-110980' visible='true' lat='-34.0487104' lon='151.0164142' />
  <node id='-110982' visible='true' lat='-34.0486526' lon='151.0164195' />
  <node id='-110984' visible='true' lat='-34.0485948' lon='151.0164598' />
  <node id='-110986' visible='true' lat='-34.0484903' lon='151.0164946' />
  <node id='-110988' visible='true' lat='-34.0484459' lon='151.0165483' />
  <node id='-110990' visible='true' lat='-34.048437' lon='151.0166261' />
  <node id='-110992' visible='true' lat='-34.0483837' lon='151.0166717' />
  <node id='-110994' visible='true' lat='-34.0483303' lon='151.0166878' />
  <node id='-110996' visible='true' lat='-34.0482903' lon='151.0167307' />
  <node id='-110998' visible='true' lat='-34.0482303' lon='151.0167629' />
  <node id='-111000' visible='true' lat='-34.048097' lon='151.0168916' />
  <node id='-111002' visible='true' lat='-34.0479703' lon='151.0169211' />
  <node id='-111004' visible='true' lat='-34.0479303' lon='151.0169694' />
  <node id='-111006' visible='true' lat='-34.047897' lon='151.0170713' />
  <node id='-111008' visible='true' lat='-34.0478525' lon='151.0171518' />
  <node id='-111010' visible='true' lat='-34.0478658' lon='151.0172322' />
  <node id='-111012' visible='true' lat='-34.0478614' lon='151.0172966' />
  <node id='-111014' visible='true' lat='-34.047857' lon='151.0173798' />
  <node id='-111016' visible='true' lat='-34.0477836' lon='151.0175782' />
  <node id='-111018' visible='true' lat='-34.0477125' lon='151.0176855' />
  <node id='-111020' visible='true' lat='-34.0476569' lon='151.0178116' />
  <node id='-111022' visible='true' lat='-34.047648' lon='151.0178787' />
  <node id='-111024' visible='true' lat='-34.0476058' lon='151.0179216' />
  <node id='-111026' visible='true' lat='-34.0475436' lon='151.0179296' />
  <node id='-111028' visible='true' lat='-34.0475258' lon='151.0179913' />
  <node id='-111030' visible='true' lat='-34.0474791' lon='151.018053' />
  <node id='-111032' visible='true' lat='-34.0474614' lon='151.0181201' />
  <node id='-111034' visible='true' lat='-34.0473658' lon='151.0181978' />
  <node id='-111036' visible='true' lat='-34.047328' lon='151.0183024' />
  <node id='-111038' visible='true' lat='-34.0473191' lon='151.0184044' />
  <node id='-111040' visible='true' lat='-34.0472747' lon='151.0184634' />
  <node id='-111042' visible='true' lat='-34.0472013' lon='151.0184768' />
  <node id='-111044' visible='true' lat='-34.047128' lon='151.0184714' />
  <node id='-111046' visible='true' lat='-34.0470369' lon='151.0185063' />
  <node id='-111048' visible='true' lat='-34.046988' lon='151.0186136' />
  <node id='-111050' visible='true' lat='-34.046928' lon='151.0186592' />
  <node id='-111052' visible='true' lat='-34.0469102' lon='151.0187128' />
  <node id='-111054' visible='true' lat='-34.0468658' lon='151.0187718' />
  <node id='-111056' visible='true' lat='-34.0467946' lon='151.0189059' />
  <node id='-111058' visible='true' lat='-34.0467213' lon='151.0189086' />
  <node id='-111060' visible='true' lat='-34.046628' lon='151.0189649' />
  <node id='-111062' visible='true' lat='-34.0465502' lon='151.0189408' />
  <node id='-111064' visible='true' lat='-34.0464791' lon='151.0189113' />
  <node id='-111066' visible='true' lat='-34.0464324' lon='151.018973' />
  <node id='-111068' visible='true' lat='-34.0463902' lon='151.0190642' />
  <node id='-111070' visible='true' lat='-34.0463613' lon='151.0191822' />
  <node id='-111072' visible='true' lat='-34.0462879' lon='151.0192412' />
  <node id='-111074' visible='true' lat='-34.0462346' lon='151.0192975' />
  <node id='-111076' visible='true' lat='-34.0461612' lon='151.0194209' />
  <node id='-111078' visible='true' lat='-34.0461057' lon='151.0194799' />
  <node id='-111080' visible='true' lat='-34.0460924' lon='151.019547' />
  <node id='-111082' visible='true' lat='-34.046019' lon='151.0196784' />
  <node id='-111084' visible='true' lat='-34.0459768' lon='151.0197294' />
  <node id='-111086' visible='true' lat='-34.0459523' lon='151.0198635' />
  <node id='-111088' visible='true' lat='-34.0459257' lon='151.0199305' />
  <node id='-111090' visible='true' lat='-34.0459123' lon='151.0199949' />
  <node id='-111092' visible='true' lat='-34.0459079' lon='151.0201424' />
  <node id='-111094' visible='true' lat='-34.0458812' lon='151.0202095' />
  <node id='-111096' visible='true' lat='-34.0458568' lon='151.020349' />
  <node id='-111098' visible='true' lat='-34.0457679' lon='151.0204214' />
  <node id='-111100' visible='true' lat='-34.045679' lon='151.0207057' />
  <node id='-111102' visible='true' lat='-34.045679' lon='151.0207835' />
  <node id='-111104' visible='true' lat='-34.0456345' lon='151.0209256' />
  <node id='-111106' visible='true' lat='-34.0456012' lon='151.0209846' />
  <node id='-111108' visible='true' lat='-34.0455967' lon='151.0210678' />
  <node id='-111110' visible='true' lat='-34.0455767' lon='151.0211268' />
  <node id='-111112' visible='true' lat='-34.0455475' lon='151.0212246' />
  <node id='-111114' visible='true' lat='-34.045423' lon='151.0212085' />
  <node id='-111116' visible='true' lat='-34.045303' lon='151.021112' />
  <node id='-111118' visible='true' lat='-34.0452319' lon='151.0211227' />
  <node id='-111120' visible='true' lat='-34.0452141' lon='151.0213051' />
  <node id='-111122' visible='true' lat='-34.0450808' lon='151.0214607' />
  <node id='-111124' visible='true' lat='-34.0450319' lon='151.0215894' />
  <node id='-111126' visible='true' lat='-34.0449163' lon='151.0217557' />
  <node id='-111128' visible='true' lat='-34.0447429' lon='151.0218898' />
  <node id='-111130' visible='true' lat='-34.0445696' lon='151.0219596' />
  <node id='-111132' visible='true' lat='-34.0443829' lon='151.021981' />
  <node id='-111134' visible='true' lat='-34.0442896' lon='151.0220561' />
  <node id='-111136' visible='true' lat='-34.0441162' lon='151.0222224' />
  <node id='-111138' visible='true' lat='-34.0439606' lon='151.022319' />
  <node id='-111140' visible='true' lat='-34.0437428' lon='151.0225657' />
  <node id='-111142' visible='true' lat='-34.0433961' lon='151.0228554' />
  <node id='-111144' visible='true' lat='-34.043125' lon='151.0230271' />
  <node id='-111146' visible='true' lat='-34.0428138' lon='151.0232309' />
  <node id='-111148' visible='true' lat='-34.0426093' lon='151.0233114' />
  <node id='-111150' visible='true' lat='-34.0423293' lon='151.0233221' />
  <node id='-111152' visible='true' lat='-34.0421159' lon='151.0231773' />
  <node id='-111154' visible='true' lat='-34.0418803' lon='151.0230968' />
  <node id='-111156' visible='true' lat='-34.0416714' lon='151.0230861' />
  <node id='-111158' visible='true' lat='-34.03157988115' lon='151.05730512077' />
  <node id='-111160' visible='true' lat='-34.03150971989' lon='151.05734419519' />
  <node id='-111162' visible='true' lat='-34.03148093577' lon='151.05725085076' />
  <node id='-111164' visible='true' lat='-34.03187311861' lon='151.05689701026' />
  <node id='-111166' visible='true' lat='-34.03180401142' lon='151.05654968216' />
  <node id='-111168' visible='true' lat='-34.03148738662' lon='151.05465674404' />
  <node id='-111170' visible='true' lat='-34.02981069471' lon='151.05499538893' />
  <node id='-111172' visible='true' lat='-34.02924219508' lon='151.05081008536' />
  <node id='-111174' visible='true' lat='-34.0289262' lon='151.0502181' />
  <node id='-111176' visible='true' lat='-34.0290284' lon='151.0501537' />
  <node id='-111178' visible='true' lat='-34.0291529' lon='151.0500088' />
  <node id='-111180' visible='true' lat='-34.0292685' lon='151.0498962' />
  <node id='-111182' visible='true' lat='-34.029353' lon='151.0497889' />
  <node id='-111184' visible='true' lat='-34.0294285' lon='151.0496226' />
  <node id='-111186' visible='true' lat='-34.0294952' lon='151.0493168' />
  <node id='-111188' visible='true' lat='-34.0295441' lon='151.0492632' />
  <node id='-111190' visible='true' lat='-34.0295486' lon='151.049172' />
  <node id='-111192' visible='true' lat='-34.0297353' lon='151.0488126' />
  <node id='-111194' visible='true' lat='-34.0302421' lon='151.0484371' />
  <node id='-111196' visible='true' lat='-34.0303488' lon='151.048024' />
  <node id='-111198' visible='true' lat='-34.0304422' lon='151.0479221' />
  <node id='-111200' visible='true' lat='-34.0305088' lon='151.0477451' />
  <node id='-111202' visible='true' lat='-34.0305222' lon='151.047686' />
  <node id='-111204' visible='true' lat='-34.0304288' lon='151.0476002' />
  <node id='-111206' visible='true' lat='-34.0304155' lon='151.047332' />
  <node id='-111208' visible='true' lat='-34.0303621' lon='151.0472301' />
  <node id='-111210' visible='true' lat='-34.0303755' lon='151.0469833' />
  <node id='-111212' visible='true' lat='-34.0304688' lon='151.0469082' />
  <node id='-111214' visible='true' lat='-34.0306511' lon='151.0467044' />
  <node id='-111216' visible='true' lat='-34.0307045' lon='151.0465005' />
  <node id='-111218' visible='true' lat='-34.0307889' lon='151.046404' />
  <node id='-111220' visible='true' lat='-34.0309801' lon='151.0463771' />
  <node id='-111222' visible='true' lat='-34.0309756' lon='151.0462216' />
  <node id='-111224' visible='true' lat='-34.0311446' lon='151.0458621' />
  <node id='-111226' visible='true' lat='-34.0312513' lon='151.0455939' />
  <node id='-111228' visible='true' lat='-34.0312468' lon='151.0454759' />
  <node id='-111230' visible='true' lat='-34.0312735' lon='151.045315' />
  <node id='-111232' visible='true' lat='-34.0313402' lon='151.0451916' />
  <node id='-111234' visible='true' lat='-34.0313758' lon='151.0450736' />
  <node id='-111236' visible='true' lat='-34.0315891' lon='151.0449341' />
  <node id='-111238' visible='true' lat='-34.0316203' lon='151.0448966' />
  <node id='-111240' visible='true' lat='-34.0316069' lon='151.0447517' />
  <node id='-111242' visible='true' lat='-34.0316025' lon='151.044682' />
  <node id='-111244' visible='true' lat='-34.0316336' lon='151.0445908' />
  <node id='-111246' visible='true' lat='-34.0316338' lon='151.0443765' />
  <node id='-111248' visible='true' lat='-34.0318559' lon='151.0443494' />
  <node id='-111250' visible='true' lat='-34.0320426' lon='151.0444459' />
  <node id='-111252' visible='true' lat='-34.0323538' lon='151.0445318' />
  <node id='-111254' visible='true' lat='-34.0325583' lon='151.0446444' />
  <node id='-111256' visible='true' lat='-34.0326739' lon='151.0448429' />
  <node id='-111258' visible='true' lat='-34.0327406' lon='151.0448483' />
  <node id='-111260' visible='true' lat='-34.0327895' lon='151.0449019' />
  <node id='-111262' visible='true' lat='-34.0330384' lon='151.0450682' />
  <node id='-111264' visible='true' lat='-34.0332474' lon='151.0451755' />
  <node id='-111266' visible='true' lat='-34.033354' lon='151.0452989' />
  <node id='-111268' visible='true' lat='-34.0334118' lon='151.0454705' />
  <node id='-111270' visible='true' lat='-34.0336786' lon='151.0456207' />
  <node id='-111272' visible='true' lat='-34.033723' lon='151.0456798' />
  <node id='-111274' visible='true' lat='-34.0338831' lon='151.045771' />
  <node id='-111276' visible='true' lat='-34.0339498' lon='151.045771' />
  <node id='-111278' visible='true' lat='-34.0340031' lon='151.0458085' />
  <node id='-111280' visible='true' lat='-34.0340653' lon='151.045948' />
  <node id='-111282' visible='true' lat='-34.0341142' lon='151.0462055' />
  <node id='-111284' visible='true' lat='-34.0341454' lon='151.0463289' />
  <node id='-111286' visible='true' lat='-34.0341676' lon='151.0465166' />
  <node id='-111288' visible='true' lat='-34.0341454' lon='151.0468116' />
  <node id='-111290' visible='true' lat='-34.0341587' lon='151.046876' />
  <node id='-111292' visible='true' lat='-34.0342165' lon='151.0470128' />
  <node id='-111294' visible='true' lat='-34.0342921' lon='151.0472033' />
  <node id='-111296' visible='true' lat='-34.0343454' lon='151.0472488' />
  <node id='-111298' visible='true' lat='-34.0344121' lon='151.0472408' />
  <node id='-111300' visible='true' lat='-34.0344988' lon='151.0471416' />
  <node id='-111302' visible='true' lat='-34.0345788' lon='151.0470423' />
  <node id='-111304' visible='true' lat='-34.0347611' lon='151.0470182' />
  <node id='-111306' visible='true' lat='-34.0348233' lon='151.0469833' />
  <node id='-111308' visible='true' lat='-34.0349033' lon='151.0469163' />
  <node id='-111310' visible='true' lat='-34.0350322' lon='151.0468331' />
  <node id='-111312' visible='true' lat='-34.0350722' lon='151.0467768' />
  <node id='-111314' visible='true' lat='-34.0351167' lon='151.0467151' />
  <node id='-111316' visible='true' lat='-34.0351145' lon='151.0466346' />
  <node id='-111318' visible='true' lat='-34.0351849' lon='151.0465215' />
  <node id='-111320' visible='true' lat='-34.0352446' lon='151.0464885' />
  <node id='-111322' visible='true' lat='-34.0353326' lon='151.0464673' />
  <node id='-111324' visible='true' lat='-34.0353757' lon='151.0464331' />
  <node id='-111326' visible='true' lat='-34.0354468' lon='151.0463815' />
  <node id='-111328' visible='true' lat='-34.0354555' lon='151.0463047' />
  <node id='-111330' visible='true' lat='-34.0354802' lon='151.0462242' />
  <node id='-111332' visible='true' lat='-34.035449' lon='151.0461414' />
  <node id='-111334' visible='true' lat='-34.0354361' lon='151.0460877' />
  <node id='-111336' visible='true' lat='-34.0354301' lon='151.0460097' />
  <node id='-111338' visible='true' lat='-34.0354301' lon='151.0459802' />
  <node id='-111340' visible='true' lat='-34.035419' lon='151.0459104' />
  <node id='-111342' visible='true' lat='-34.0354145' lon='151.0458729' />
  <node id='-111344' visible='true' lat='-34.0354501' lon='151.0458165' />
  <node id='-111346' visible='true' lat='-34.0354056' lon='151.0457817' />
  <node id='-111348' visible='true' lat='-34.0353834' lon='151.0457039' />
  <node id='-111350' visible='true' lat='-34.0353945' lon='151.0456395' />
  <node id='-111352' visible='true' lat='-34.0354345' lon='151.0455832' />
  <node id='-111354' visible='true' lat='-34.0354056' lon='151.0454437' />
  <node id='-111356' visible='true' lat='-34.0354012' lon='151.0453928' />
  <node id='-111358' visible='true' lat='-34.0354345' lon='151.0453069' />
  <node id='-111360' visible='true' lat='-34.0354056' lon='151.0451675' />
  <node id='-111362' visible='true' lat='-34.0354012' lon='151.044969' />
  <node id='-111364' visible='true' lat='-34.0353856' lon='151.0448751' />
  <node id='-111366' visible='true' lat='-34.0354012' lon='151.0447383' />
  <node id='-111368' visible='true' lat='-34.0353679' lon='151.044682' />
  <node id='-111370' visible='true' lat='-34.0353501' lon='151.0446069' />
  <node id='-111372' visible='true' lat='-34.0352812' lon='151.0444996' />
  <node id='-111374' visible='true' lat='-34.0353056' lon='151.0444272' />
  <node id='-111376' visible='true' lat='-34.035339' lon='151.0443118' />
  <node id='-111378' visible='true' lat='-34.0353212' lon='151.0441938' />
  <node id='-111380' visible='true' lat='-34.035319' lon='151.0440919' />
  <node id='-111382' visible='true' lat='-34.0352901' lon='151.0439631' />
  <node id='-111384' visible='true' lat='-34.0352323' lon='151.0438398' />
  <node id='-111386' visible='true' lat='-34.0352278' lon='151.0437781' />
  <node id='-111388' visible='true' lat='-34.0351989' lon='151.043711' />
  <node id='-111390' visible='true' lat='-34.0352634' lon='151.0436171' />
  <node id='-111392' visible='true' lat='-34.0353412' lon='151.0434294' />
  <node id='-111394' visible='true' lat='-34.0353856' lon='151.0433677' />
  <node id='-111396' visible='true' lat='-34.0353456' lon='151.0433167' />
  <node id='-111398' visible='true' lat='-34.035299' lon='151.0432792' />
  <node id='-111400' visible='true' lat='-34.0354257' lon='151.0431263' />
  <node id='-111402' visible='true' lat='-34.0353968' lon='151.0430378' />
  <node id='-111404' visible='true' lat='-34.0353135' lon='151.0429503' />
  <node id='-111406' visible='true' lat='-34.0352549' lon='151.0429625' />
  <node id='-111408' visible='true' lat='-34.035206' lon='151.0429706' />
  <node id='-111410' visible='true' lat='-34.0351288' lon='151.0429815' />
  <node id='-111412' visible='true' lat='-34.0350724' lon='151.0429572' />
  <node id='-111414' visible='true' lat='-34.0350211' lon='151.0428508' />
  <node id='-111416' visible='true' lat='-34.0349651' lon='151.0428467' />
  <node id='-111418' visible='true' lat='-34.0349069' lon='151.0428488' />
  <node id='-111420' visible='true' lat='-34.0348519' lon='151.0428548' />
  <node id='-111422' visible='true' lat='-34.0348173' lon='151.0427798' />
  <node id='-111424' visible='true' lat='-34.0347602' lon='151.0427584' />
  <node id='-111426' visible='true' lat='-34.0347063' lon='151.0427367' />
  <node id='-111428' visible='true' lat='-34.0346623' lon='151.0426878' />
  <node id='-111430' visible='true' lat='-34.0346246' lon='151.042624' />
  <node id='-111432' visible='true' lat='-34.034608' lon='151.0425567' />
  <node id='-111434' visible='true' lat='-34.0345649' lon='151.0425104' />
  <node id='-111436' visible='true' lat='-34.0345284' lon='151.0424572' />
  <node id='-111438' visible='true' lat='-34.0345' lon='151.0424013' />
  <node id='-111440' visible='true' lat='-34.0344626' lon='151.0423474' />
  <node id='-111442' visible='true' lat='-34.0344314' lon='151.0422893' />
  <node id='-111444' visible='true' lat='-34.0343877' lon='151.0422482' />
  <node id='-111446' visible='true' lat='-34.0343541' lon='151.0421813' />
  <node id='-111448' visible='true' lat='-34.0342933' lon='151.0421434' />
  <node id='-111450' visible='true' lat='-34.0342264' lon='151.0420963' />
  <node id='-111452' visible='true' lat='-34.0341818' lon='151.042057' />
  <node id='-111454' visible='true' lat='-34.0341342' lon='151.0420174' />
  <node id='-111456' visible='true' lat='-34.0340692' lon='151.0419842' />
  <node id='-111458' visible='true' lat='-34.034006' lon='151.0419446' />
  <node id='-111460' visible='true' lat='-34.0339416' lon='151.041914' />
  <node id='-111462' visible='true' lat='-34.0338788' lon='151.0418887' />
  <node id='-111464' visible='true' lat='-34.0338184' lon='151.0418592' />
  <node id='-111466' visible='true' lat='-34.0337586' lon='151.0418336' />
  <node id='-111468' visible='true' lat='-34.0336767' lon='151.0418066' />
  <node id='-111470' visible='true' lat='-34.0336102' lon='151.0417617' />
  <node id='-111472' visible='true' lat='-34.0335415' lon='151.0417376' />
  <node id='-111474' visible='true' lat='-34.0334856' lon='151.041736' />
  <node id='-111476' visible='true' lat='-34.033429' lon='151.041755' />
  <node id='-111478' visible='true' lat='-34.0333751' lon='151.0417807' />
  <node id='-111480' visible='true' lat='-34.0333217' lon='151.0418346' />
  <node id='-111482' visible='true' lat='-34.0332542' lon='151.0418935' />
  <node id='-111484' visible='true' lat='-34.0331979' lon='151.0419453' />
  <node id='-111486' visible='true' lat='-34.0331392' lon='151.0420086' />
  <node id='-111488' visible='true' lat='-34.0330864' lon='151.0420464' />
  <node id='-111490' visible='true' lat='-34.0330261' lon='151.0420807' />
  <node id='-111492' visible='true' lat='-34.0329731' lon='151.0421193' />
  <node id='-111494' visible='true' lat='-34.032919' lon='151.0421635' />
  <node id='-111496' visible='true' lat='-34.0328478' lon='151.0422013' />
  <node id='-111498' visible='true' lat='-34.0327854' lon='151.0422229' />
  <node id='-111500' visible='true' lat='-34.0327233' lon='151.0422449' />
  <node id='-111502' visible='true' lat='-34.0326607' lon='151.0422688' />
  <node id='-111504' visible='true' lat='-34.0325977' lon='151.0422979' />
  <node id='-111506' visible='true' lat='-34.0325188' lon='151.0423233' />
  <node id='-111508' visible='true' lat='-34.0324374' lon='151.0423529' />
  <node id='-111510' visible='true' lat='-34.0323395' lon='151.0423893' />
  <node id='-111512' visible='true' lat='-34.0322596' lon='151.0424112' />
  <node id='-111514' visible='true' lat='-34.0321901' lon='151.042423' />
  <node id='-111516' visible='true' lat='-34.0321306' lon='151.0424306' />
  <node id='-111518' visible='true' lat='-34.0320697' lon='151.0424543' />
  <node id='-111520' visible='true' lat='-34.0320197' lon='151.042479' />
  <node id='-111522' visible='true' lat='-34.0319692' lon='151.042507' />
  <node id='-111524' visible='true' lat='-34.0319167' lon='151.0425333' />
  <node id='-111526' visible='true' lat='-34.0318442' lon='151.0425478' />
  <node id='-111528' visible='true' lat='-34.0317761' lon='151.0425558' />
  <node id='-111530' visible='true' lat='-34.0317112' lon='151.0425576' />
  <node id='-111532' visible='true' lat='-34.031661' lon='151.0425163' />
  <node id='-111534' visible='true' lat='-34.031592' lon='151.042476' />
  <node id='-111536' visible='true' lat='-34.0315407' lon='151.0424505' />
  <node id='-111538' visible='true' lat='-34.0314687' lon='151.0424297' />
  <node id='-111540' visible='true' lat='-34.0314135' lon='151.0424253' />
  <node id='-111542' visible='true' lat='-34.0313506' lon='151.0424215' />
  <node id='-111544' visible='true' lat='-34.0312923' lon='151.0424252' />
  <node id='-111546' visible='true' lat='-34.0312295' lon='151.0424358' />
  <node id='-111548' visible='true' lat='-34.031164' lon='151.042439' />
  <node id='-111550' visible='true' lat='-34.0311086' lon='151.0424409' />
  <node id='-111552' visible='true' lat='-34.0310422' lon='151.0424435' />
  <node id='-111554' visible='true' lat='-34.0309711' lon='151.0424555' />
  <node id='-111556' visible='true' lat='-34.0309047' lon='151.0424795' />
  <node id='-111558' visible='true' lat='-34.0308391' lon='151.0425015' />
  <node id='-111560' visible='true' lat='-34.0307715' lon='151.0425284' />
  <node id='-111562' visible='true' lat='-34.0307186' lon='151.0425474' />
  <node id='-111564' visible='true' lat='-34.0306609' lon='151.0425665' />
  <node id='-111566' visible='true' lat='-34.0305878' lon='151.0425853' />
  <node id='-111568' visible='true' lat='-34.030522' lon='151.0426147' />
  <node id='-111570' visible='true' lat='-34.03040865193' lon='151.04259899058' />
  <node id='-111572' visible='true' lat='-34.03035648002' lon='151.04261852779' />
  <node id='-111574' visible='true' lat='-34.03022065301' lon='151.04260116138' />
  <node id='-111576' visible='true' lat='-34.0301396964' lon='151.0426576022' />
  <node id='-111578' visible='true' lat='-34.03008302674' lon='151.04271512842' />
  <node id='-111580' visible='true' lat='-34.02997778297' lon='151.04269776201' />
  <node id='-111582' visible='true' lat='-34.02998675169' lon='151.041760753' />
  <node id='-111584' visible='true' lat='-34.0301368822' lon='151.0413402257' />
  <node id='-111586' visible='true' lat='-34.03029971224' lon='151.0408735894' />
  <node id='-111588' visible='true' lat='-34.03030988911' lon='151.04068325091' />
  <node id='-111590' visible='true' lat='-34.03127159756' lon='151.04120514677' />
  <node id='-111592' visible='true' lat='-34.03211117538' lon='151.04107006784' />
  <node id='-111594' visible='true' lat='-34.03254877023' lon='151.04099638842' />
  <node id='-111596' visible='true' lat='-34.033973482' lon='151.0406464112' />
  <node id='-111598' visible='true' lat='-34.03497585416' lon='151.04054817198' />
  <node id='-111600' visible='true' lat='-34.03513358677' lon='151.04035169354' />
  <node id='-111602' visible='true' lat='-34.03568310454' lon='151.03914826308' />
  <node id='-111604' visible='true' lat='-34.03572889753' lon='151.03878600595' />
  <node id='-111606' visible='true' lat='-34.03598330256' lon='151.03809219145' />
  <node id='-111608' visible='true' lat='-34.0362991' lon='151.0371096' />
  <node id='-111610' visible='true' lat='-34.0363926' lon='151.0369046' />
  <node id='-111612' visible='true' lat='-34.0366316' lon='151.0363401' />
  <node id='-111614' visible='true' lat='-34.0370863' lon='151.0356723' />
  <node id='-111616' visible='true' lat='-34.0374929' lon='151.0352469' />
  <node id='-111618' visible='true' lat='-34.0378727' lon='151.034848' />
  <node id='-111620' visible='true' lat='-34.0384833' lon='151.034034' />
  <node id='-111622' visible='true' lat='-34.0388842' lon='151.0331276' />
  <node id='-111624' visible='true' lat='-34.0389063' lon='151.0323189' />
  <node id='-111626' visible='true' lat='-34.0390312' lon='151.031098' />
  <node id='-111628' visible='true' lat='-34.0391003' lon='151.0303717' />
  <node id='-111630' visible='true' lat='-34.0392723' lon='151.0298267' />
  <node id='-111632' visible='true' lat='-34.0395693' lon='151.0291084' />
  <node id='-111634' visible='true' lat='-34.0398906' lon='151.0285864' />
  <node id='-111636' visible='true' lat='-34.0401362' lon='151.0281388' />
  <node id='-111638' visible='true' lat='-34.040252' lon='151.028026' />
  <node id='-111640' visible='true' lat='-34.0407702' lon='151.0274134' />
  <node id='-111642' visible='true' lat='-34.0411338' lon='151.0270261' />
  <node id='-111644' visible='true' lat='-34.0412884' lon='151.0267445' />
  <node id='-111646' visible='true' lat='-34.0415518' lon='151.0263677' />
  <node id='-111648' visible='true' lat='-34.0417556' lon='151.0259243' />
  <node id='-111650' visible='true' lat='-34.0418597' lon='151.0255578' />
  <node id='-111652' visible='true' lat='-34.0419468' lon='151.0250888' />
  <node id='-111654' visible='true' lat='-34.0419701' lon='151.0248299' />
  <node id='-111656' visible='true' lat='-34.0419255' lon='151.0242251' />
  <node id='-111658' visible='true' lat='-34.0417828' lon='151.0235392' />
  <node id='-111660' visible='true' lat='-34.041605' lon='151.0232066' />
  <node id='-111662' visible='true' lat='-34.0415483' lon='151.0231276' />
  <way id='-111664' action='modify' visible='true'>
    <nd ref='-110726' />
    <nd ref='-110728' />
    <nd ref='-110730' />
    <nd ref='-110732' />
    <nd ref='-110734' />
    <nd ref='-110736' />
    <nd ref='-110738' />
    <nd ref='-110740' />
    <nd ref='-110742' />
    <nd ref='-110744' />
    <nd ref='-110746' />
    <nd ref='-110748' />
    <nd ref='-110750' />
    <nd ref='-110752' />
    <nd ref='-110754' />
    <nd ref='-110756' />
    <nd ref='-110758' />
    <nd ref='-110760' />
    <nd ref='-110762' />
    <nd ref='-110764' />
    <nd ref='-110766' />
    <nd ref='-110768' />
    <nd ref='-110770' />
    <nd ref='-110772' />
    <nd ref='-110774' />
    <nd ref='-110776' />
    <nd ref='-110778' />
    <nd ref='-110780' />
    <nd ref='-110782' />
    <nd ref='-110784' />
    <nd ref='-110786' />
    <nd ref='-110788' />
    <nd ref='-110790' />
    <nd ref='-110792' />
    <nd ref='-110794' />
    <nd ref='-110796' />
    <nd ref='-110798' />
    <nd ref='-110800' />
    <nd ref='-110802' />
    <nd ref='-110804' />
    <nd ref='-110806' />
    <nd ref='-110808' />
    <nd ref='-110810' />
    <nd ref='-110812' />
    <nd ref='-110814' />
    <nd ref='-110816' />
    <nd ref='-110818' />
    <nd ref='-110820' />
    <nd ref='-110822' />
    <nd ref='-110824' />
    <nd ref='-110826' />
    <nd ref='-110828' />
    <nd ref='-110830' />
    <nd ref='-110832' />
    <nd ref='-110834' />
    <nd ref='-110836' />
    <nd ref='-110838' />
    <nd ref='-110840' />
    <nd ref='-110842' />
    <nd ref='-110844' />
    <nd ref='-110846' />
    <nd ref='-110848' />
    <nd ref='-110850' />
    <nd ref='-110852' />
    <nd ref='-110854' />
    <nd ref='-110856' />
    <nd ref='-110858' />
    <nd ref='-110860' />
    <nd ref='-110862' />
    <nd ref='-110864' />
    <nd ref='-110866' />
    <nd ref='-110868' />
    <nd ref='-110870' />
    <nd ref='-110872' />
    <nd ref='-110874' />
    <nd ref='-110876' />
    <nd ref='-110878' />
    <nd ref='-110880' />
    <nd ref='-110882' />
    <nd ref='-110884' />
    <nd ref='-110886' />
    <nd ref='-110888' />
    <nd ref='-110890' />
    <nd ref='-110892' />
    <nd ref='-110894' />
    <nd ref='-110896' />
    <nd ref='-110898' />
    <nd ref='-110900' />
    <nd ref='-110902' />
    <nd ref='-110904' />
    <nd ref='-110906' />
    <nd ref='-110908' />
    <nd ref='-110910' />
    <nd ref='-110912' />
    <nd ref='-110914' />
    <nd ref='-110916' />
    <nd ref='-110918' />
    <nd ref='-110920' />
    <nd ref='-110922' />
    <nd ref='-110924' />
    <nd ref='-110926' />
    <nd ref='-110928' />
    <nd ref='-110930' />
    <nd ref='-110932' />
    <nd ref='-110934' />
    <nd ref='-110936' />
    <nd ref='-110938' />
    <nd ref='-110940' />
    <nd ref='-110942' />
    <nd ref='-110944' />
    <nd ref='-110946' />
    <nd ref='-110948' />
    <nd ref='-110950' />
    <nd ref='-110952' />
    <nd ref='-110954' />
    <nd ref='-110956' />
    <nd ref='-110958' />
    <nd ref='-110960' />
    <nd ref='-110962' />
    <nd ref='-110964' />
    <nd ref='-110966' />
    <nd ref='-110968' />
    <nd ref='-110970' />
    <nd ref='-110972' />
    <nd ref='-110974' />
    <nd ref='-110976' />
    <nd ref='-110978' />
    <nd ref='-110980' />
    <nd ref='-110982' />
    <nd ref='-110984' />
    <nd ref='-110986' />
    <nd ref='-110988' />
    <nd ref='-110990' />
    <nd ref='-110992' />
    <nd ref='-110994' />
    <nd ref='-110996' />
    <nd ref='-110998' />
    <nd ref='-111000' />
    <nd ref='-111002' />
    <nd ref='-111004' />
    <nd ref='-111006' />
    <nd ref='-111008' />
    <nd ref='-111010' />
    <nd ref='-111012' />
    <nd ref='-111014' />
    <nd ref='-111016' />
    <nd ref='-111018' />
    <nd ref='-111020' />
    <nd ref='-111022' />
    <nd ref='-111024' />
    <nd ref='-111026' />
    <nd ref='-111028' />
    <nd ref='-111030' />
    <nd ref='-111032' />
    <nd ref='-111034' />
    <nd ref='-111036' />
    <nd ref='-111038' />
    <nd ref='-111040' />
    <nd ref='-111042' />
    <nd ref='-111044' />
    <nd ref='-111046' />
    <nd ref='-111048' />
    <nd ref='-111050' />
    <nd ref='-111052' />
    <nd ref='-111054' />
    <nd ref='-111056' />
    <nd ref='-111058' />
    <nd ref='-111060' />
    <nd ref='-111062' />
    <nd ref='-111064' />
    <nd ref='-111066' />
    <nd ref='-111068' />
    <nd ref='-111070' />
    <nd ref='-111072' />
    <nd ref='-111074' />
    <nd ref='-111076' />
    <nd ref='-111078' />
    <nd ref='-111080' />
    <nd ref='-111082' />
    <nd ref='-111084' />
    <nd ref='-111086' />
    <nd ref='-111088' />
    <nd ref='-111090' />
    <nd ref='-111092' />
    <nd ref='-111094' />
    <nd ref='-111096' />
    <nd ref='-111098' />
    <nd ref='-111100' />
    <nd ref='-111102' />
    <nd ref='-111104' />
    <nd ref='-111106' />
    <nd ref='-111108' />
    <nd ref='-111110' />
    <nd ref='-111112' />
    <nd ref='-111114' />
    <nd ref='-111116' />
    <nd ref='-111118' />
    <nd ref='-111120' />
    <nd ref='-111122' />
    <nd ref='-111124' />
    <nd ref='-111126' />
    <nd ref='-111128' />
    <nd ref='-111130' />
    <nd ref='-111132' />
    <nd ref='-111134' />
    <nd ref='-111136' />
    <nd ref='-111138' />
    <nd ref='-111140' />
    <nd ref='-111142' />
    <nd ref='-111144' />
    <nd ref='-111146' />
    <nd ref='-111148' />
    <nd ref='-111150' />
    <nd ref='-111152' />
    <nd ref='-111154' />
    <nd ref='-111156' />
    <nd ref='-111662' />
    <nd ref='-111660' />
    <nd ref='-111658' />
    <nd ref='-111656' />
    <nd ref='-111654' />
    <nd ref='-111652' />
    <nd ref='-111650' />
    <nd ref='-111648' />
    <nd ref='-111646' />
    <nd ref='-111644' />
    <nd ref='-111642' />
    <nd ref='-111640' />
    <nd ref='-111638' />
    <nd ref='-111636' />
    <nd ref='-111634' />
    <nd ref='-111632' />
    <nd ref='-111630' />
    <nd ref='-111628' />
    <nd ref='-111626' />
    <nd ref='-111624' />
    <nd ref='-111622' />
    <nd ref='-111620' />
    <nd ref='-111618' />
    <nd ref='-111616' />
    <nd ref='-111614' />
    <nd ref='-111612' />
    <nd ref='-111610' />
    <nd ref='-111608' />
    <nd ref='-111606' />
    <nd ref='-111604' />
    <nd ref='-111602' />
    <nd ref='-111600' />
    <nd ref='-111598' />
    <nd ref='-111596' />
    <nd ref='-111594' />
    <nd ref='-111592' />
    <nd ref='-111590' />
    <nd ref='-111588' />
    <nd ref='-111586' />
    <nd ref='-111584' />
    <nd ref='-111582' />
    <nd ref='-111580' />
    <nd ref='-111578' />
    <nd ref='-111576' />
    <nd ref='-111574' />
    <nd ref='-111572' />
    <nd ref='-111570' />
    <nd ref='-111568' />
    <nd ref='-111566' />
    <nd ref='-111564' />
    <nd ref='-111562' />
    <nd ref='-111560' />
    <nd ref='-111558' />
    <nd ref='-111556' />
    <nd ref='-111554' />
    <nd ref='-111552' />
    <nd ref='-111550' />
    <nd ref='-111548' />
    <nd ref='-111546' />
    <nd ref='-111544' />
    <nd ref='-111542' />
    <nd ref='-111540' />
    <nd ref='-111538' />
    <nd ref='-111536' />
    <nd ref='-111534' />
    <nd ref='-111532' />
    <nd ref='-111530' />
    <nd ref='-111528' />
    <nd ref='-111526' />
    <nd ref='-111524' />
    <nd ref='-111522' />
    <nd ref='-111520' />
    <nd ref='-111518' />
    <nd ref='-111516' />
    <nd ref='-111514' />
    <nd ref='-111512' />
    <nd ref='-111510' />
    <nd ref='-111508' />
    <nd ref='-111506' />
    <nd ref='-111504' />
    <nd ref='-111502' />
    <nd ref='-111500' />
    <nd ref='-111498' />
    <nd ref='-111496' />
    <nd ref='-111494' />
    <nd ref='-111492' />
    <nd ref='-111490' />
    <nd ref='-111488' />
    <nd ref='-111486' />
    <nd ref='-111484' />
    <nd ref='-111482' />
    <nd ref='-111480' />
    <nd ref='-111478' />
    <nd ref='-111476' />
    <nd ref='-111474' />
    <nd ref='-111472' />
    <nd ref='-111470' />
    <nd ref='-111468' />
    <nd ref='-111466' />
    <nd ref='-111464' />
    <nd ref='-111462' />
    <nd ref='-111460' />
    <nd ref='-111458' />
    <nd ref='-111456' />
    <nd ref='-111454' />
    <nd ref='-111452' />
    <nd ref='-111450' />
    <nd ref='-111448' />
    <nd ref='-111446' />
    <nd ref='-111444' />
    <nd ref='-111442' />
    <nd ref='-111440' />
    <nd ref='-111438' />
    <nd ref='-111436' />
    <nd ref='-111434' />
    <nd ref='-111432' />
    <nd ref='-111430' />
    <nd ref='-111428' />
    <nd ref='-111426' />
    <nd ref='-111424' />
    <nd ref='-111422' />
    <nd ref='-111420' />
    <nd ref='-111418' />
    <nd ref='-111416' />
    <nd ref='-111414' />
    <nd ref='-111412' />
    <nd ref='-111410' />
    <nd ref='-111408' />
    <nd ref='-111406' />
    <nd ref='-111404' />
    <nd ref='-111402' />
    <nd ref='-111400' />
    <nd ref='-111398' />
    <nd ref='-111396' />
    <nd ref='-111394' />
    <nd ref='-111392' />
    <nd ref='-111390' />
    <nd ref='-111388' />
    <nd ref='-111386' />
    <nd ref='-111384' />
    <nd ref='-111382' />
    <nd ref='-111380' />
    <nd ref='-111378' />
    <nd ref='-111376' />
    <nd ref='-111374' />
    <nd ref='-111372' />
    <nd ref='-111370' />
    <nd ref='-111368' />
    <nd ref='-111366' />
    <nd ref='-111364' />
    <nd ref='-111362' />
    <nd ref='-111360' />
    <nd ref='-111358' />
    <nd ref='-111356' />
    <nd ref='-111354' />
    <nd ref='-111352' />
    <nd ref='-111350' />
    <nd ref='-111348' />
    <nd ref='-111346' />
    <nd ref='-111344' />
    <nd ref='-111342' />
    <nd ref='-111340' />
    <nd ref='-111338' />
    <nd ref='-111336' />
    <nd ref='-111334' />
    <nd ref='-111332' />
    <nd ref='-111330' />
    <nd ref='-111328' />
    <nd ref='-111326' />
    <nd ref='-111324' />
    <nd ref='-111322' />
    <nd ref='-111320' />
    <nd ref='-111318' />
    <nd ref='-111316' />
    <nd ref='-111314' />
    <nd ref='-111312' />
    <nd ref='-111310' />
    <nd ref='-111308' />
    <nd ref='-111306' />
    <nd ref='-111304' />
    <nd ref='-111302' />
    <nd ref='-111300' />
    <nd ref='-111298' />
    <nd ref='-111296' />
    <nd ref='-111294' />
    <nd ref='-111292' />
    <nd ref='-111290' />
    <nd ref='-111288' />
    <nd ref='-111286' />
    <nd ref='-111284' />
    <nd ref='-111282' />
    <nd ref='-111280' />
    <nd ref='-111278' />
    <nd ref='-111276' />
    <nd ref='-111274' />
    <nd ref='-111272' />
    <nd ref='-111270' />
    <nd ref='-111268' />
    <nd ref='-111266' />
    <nd ref='-111264' />
    <nd ref='-111262' />
    <nd ref='-111260' />
    <nd ref='-111258' />
    <nd ref='-111256' />
    <nd ref='-111254' />
    <nd ref='-111252' />
    <nd ref='-111250' />
    <nd ref='-111248' />
    <nd ref='-111246' />
    <nd ref='-111244' />
    <nd ref='-111242' />
    <nd ref='-111240' />
    <nd ref='-111238' />
    <nd ref='-111236' />
    <nd ref='-111234' />
    <nd ref='-111232' />
    <nd ref='-111230' />
    <nd ref='-111228' />
    <nd ref='-111226' />
    <nd ref='-111224' />
    <nd ref='-111222' />
    <nd ref='-111220' />
    <nd ref='-111218' />
    <nd ref='-111216' />
    <nd ref='-111214' />
    <nd ref='-111212' />
    <nd ref='-111210' />
    <nd ref='-111208' />
    <nd ref='-111206' />
    <nd ref='-111204' />
    <nd ref='-111202' />
    <nd ref='-111200' />
    <nd ref='-111198' />
    <nd ref='-111196' />
    <nd ref='-111194' />
    <nd ref='-111192' />
    <nd ref='-111190' />
    <nd ref='-111188' />
    <nd ref='-111186' />
    <nd ref='-111184' />
    <nd ref='-111182' />
    <nd ref='-111180' />
    <nd ref='-111178' />
    <nd ref='-111176' />
    <nd ref='-111174' />
    <nd ref='-111172' />
    <nd ref='-111170' />
    <nd ref='-111168' />
    <nd ref='-111166' />
    <nd ref='-111164' />
    <nd ref='-111162' />
    <nd ref='-111160' />
    <nd ref='-111158' />
    <tag k='name' v='Engadine to Sutherland via Forbes Creek' />
    <tag k='photo' v='136319147@N08/22870772069' />
    <tag k='role' v='primary' />
    <tag k='style' v='oneway' />
    <tag k='transport' v='train;carshuffle' />
  </way>
</osm>
