<?xml version='1.0' encoding='UTF-8'?>
<osm version='0.6' upload='false' generator='JOSM'>
  <node id='-111666' visible='true' lat='-34.0416714' lon='151.0230861' />
  <node id='-111668' visible='true' lat='-34.0418803' lon='151.0230968' />
  <node id='-111670' visible='true' lat='-34.0421159' lon='151.0231773' />
  <node id='-111672' visible='true' lat='-34.0423293' lon='151.0233221' />
  <node id='-111674' visible='true' lat='-34.0426093' lon='151.0233114' />
  <node id='-111676' visible='true' lat='-34.0428138' lon='151.0232309' />
  <node id='-111678' visible='true' lat='-34.043125' lon='151.0230271' />
  <node id='-111680' visible='true' lat='-34.0433961' lon='151.0228554' />
  <node id='-111682' visible='true' lat='-34.0437428' lon='151.0225657' />
  <node id='-111684' visible='true' lat='-34.0439606' lon='151.022319' />
  <node id='-111686' visible='true' lat='-34.0441162' lon='151.0222224' />
  <node id='-111688' visible='true' lat='-34.0442896' lon='151.0220561' />
  <node id='-111690' visible='true' lat='-34.0443829' lon='151.021981' />
  <node id='-111692' visible='true' lat='-34.0445696' lon='151.0219596' />
  <node id='-111694' visible='true' lat='-34.0447429' lon='151.0218898' />
  <node id='-111696' visible='true' lat='-34.0449163' lon='151.0217557' />
  <node id='-111698' visible='true' lat='-34.0450319' lon='151.0215894' />
  <node id='-111700' visible='true' lat='-34.0450808' lon='151.0214607' />
  <node id='-111702' visible='true' lat='-34.0452141' lon='151.0213051' />
  <node id='-111704' visible='true' lat='-34.0452319' lon='151.0211227' />
  <node id='-111706' visible='true' lat='-34.045303' lon='151.021112' />
  <node id='-111708' visible='true' lat='-34.045423' lon='151.0212085' />
  <node id='-111710' visible='true' lat='-34.0455475' lon='151.0212246' />
  <node id='-111712' visible='true' lat='-34.0455767' lon='151.0211268' />
  <node id='-111714' visible='true' lat='-34.0455967' lon='151.0210678' />
  <node id='-111716' visible='true' lat='-34.0456012' lon='151.0209846' />
  <node id='-111718' visible='true' lat='-34.0456345' lon='151.0209256' />
  <node id='-111720' visible='true' lat='-34.045679' lon='151.0207835' />
  <node id='-111722' visible='true' lat='-34.045679' lon='151.0207057' />
  <node id='-111724' visible='true' lat='-34.0457679' lon='151.0204214' />
  <node id='-111726' visible='true' lat='-34.0458568' lon='151.020349' />
  <node id='-111728' visible='true' lat='-34.0458812' lon='151.0202095' />
  <node id='-111730' visible='true' lat='-34.0459079' lon='151.0201424' />
  <node id='-111732' visible='true' lat='-34.0459123' lon='151.0199949' />
  <node id='-111734' visible='true' lat='-34.0459257' lon='151.0199305' />
  <node id='-111736' visible='true' lat='-34.0459523' lon='151.0198635' />
  <node id='-111738' visible='true' lat='-34.0459768' lon='151.0197294' />
  <node id='-111740' visible='true' lat='-34.046019' lon='151.0196784' />
  <node id='-111742' visible='true' lat='-34.0460924' lon='151.019547' />
  <node id='-111744' visible='true' lat='-34.0461057' lon='151.0194799' />
  <node id='-111746' visible='true' lat='-34.0461612' lon='151.0194209' />
  <node id='-111748' visible='true' lat='-34.0462346' lon='151.0192975' />
  <node id='-111750' visible='true' lat='-34.0462879' lon='151.0192412' />
  <node id='-111752' visible='true' lat='-34.0463613' lon='151.0191822' />
  <node id='-111754' visible='true' lat='-34.0463902' lon='151.0190642' />
  <node id='-111756' visible='true' lat='-34.0464324' lon='151.018973' />
  <node id='-111758' visible='true' lat='-34.0464791' lon='151.0189113' />
  <node id='-111760' visible='true' lat='-34.0465502' lon='151.0189408' />
  <node id='-111762' visible='true' lat='-34.046628' lon='151.0189649' />
  <node id='-111764' visible='true' lat='-34.0467213' lon='151.0189086' />
  <node id='-111766' visible='true' lat='-34.0467946' lon='151.0189059' />
  <node id='-111768' visible='true' lat='-34.0468658' lon='151.0187718' />
  <node id='-111770' visible='true' lat='-34.0469102' lon='151.0187128' />
  <node id='-111772' visible='true' lat='-34.046928' lon='151.0186592' />
  <node id='-111774' visible='true' lat='-34.046988' lon='151.0186136' />
  <node id='-111776' visible='true' lat='-34.0470369' lon='151.0185063' />
  <node id='-111778' visible='true' lat='-34.047128' lon='151.0184714' />
  <node id='-111780' visible='true' lat='-34.0472013' lon='151.0184768' />
  <node id='-111782' visible='true' lat='-34.0472747' lon='151.0184634' />
  <node id='-111784' visible='true' lat='-34.0473191' lon='151.0184044' />
  <node id='-111786' visible='true' lat='-34.047328' lon='151.0183024' />
  <node id='-111788' visible='true' lat='-34.0473658' lon='151.0181978' />
  <node id='-111790' visible='true' lat='-34.0474614' lon='151.0181201' />
  <node id='-111792' visible='true' lat='-34.0474791' lon='151.018053' />
  <node id='-111794' visible='true' lat='-34.0475258' lon='151.0179913' />
  <node id='-111796' visible='true' lat='-34.0475436' lon='151.0179296' />
  <node id='-111798' visible='true' lat='-34.0476058' lon='151.0179216' />
  <node id='-111800' visible='true' lat='-34.047648' lon='151.0178787' />
  <node id='-111802' visible='true' lat='-34.0476569' lon='151.0178116' />
  <node id='-111804' visible='true' lat='-34.0477125' lon='151.0176855' />
  <node id='-111806' visible='true' lat='-34.0477836' lon='151.0175782' />
  <node id='-111808' visible='true' lat='-34.047857' lon='151.0173798' />
  <node id='-111810' visible='true' lat='-34.0478614' lon='151.0172966' />
  <node id='-111812' visible='true' lat='-34.0478658' lon='151.0172322' />
  <node id='-111814' visible='true' lat='-34.0478525' lon='151.0171518' />
  <node id='-111816' visible='true' lat='-34.047897' lon='151.0170713' />
  <node id='-111818' visible='true' lat='-34.0479303' lon='151.0169694' />
  <node id='-111820' visible='true' lat='-34.0479703' lon='151.0169211' />
  <node id='-111822' visible='true' lat='-34.048097' lon='151.0168916' />
  <node id='-111824' visible='true' lat='-34.0482303' lon='151.0167629' />
  <node id='-111826' visible='true' lat='-34.0482903' lon='151.0167307' />
  <node id='-111828' visible='true' lat='-34.0483303' lon='151.0166878' />
  <node id='-111830' visible='true' lat='-34.0483837' lon='151.0166717' />
  <node id='-111832' visible='true' lat='-34.048437' lon='151.0166261' />
  <node id='-111834' visible='true' lat='-34.0484459' lon='151.0165483' />
  <node id='-111836' visible='true' lat='-34.0484903' lon='151.0164946' />
  <node id='-111838' visible='true' lat='-34.0485948' lon='151.0164598' />
  <node id='-111840' visible='true' lat='-34.0486526' lon='151.0164195' />
  <node id='-111842' visible='true' lat='-34.0487104' lon='151.0164142' />
  <node id='-111844' visible='true' lat='-34.0487681' lon='151.0163525' />
  <node id='-111846' visible='true' lat='-34.0488815' lon='151.0163417' />
  <node id='-111848' visible='true' lat='-34.0489259' lon='151.0162961' />
  <node id='-111850' visible='true' lat='-34.0489548' lon='151.0162345' />
  <node id='-111852' visible='true' lat='-34.0490482' lon='151.0161594' />
  <node id='-111854' visible='true' lat='-34.0491193' lon='151.0161486' />
  <node id='-111856' visible='true' lat='-34.0492015' lon='151.0161003' />
  <node id='-111858' visible='true' lat='-34.0493682' lon='151.0160789' />
  <node id='-111860' visible='true' lat='-34.0493971' lon='151.0160789' />
  <node id='-111862' visible='true' lat='-34.0494638' lon='151.0161112' />
  <node id='-111864' visible='true' lat='-34.049546' lon='151.0160762' />
  <node id='-111866' visible='true' lat='-34.0496704' lon='151.0159877' />
  <node id='-111868' visible='true' lat='-34.0497437' lon='151.0159689' />
  <node id='-111870' visible='true' lat='-34.0499438' lon='151.0157999' />
  <node id='-111872' visible='true' lat='-34.0500504' lon='151.0157785' />
  <node id='-111874' visible='true' lat='-34.0501327' lon='151.0157463' />
  <node id='-111876' visible='true' lat='-34.0501926' lon='151.0157757' />
  <node id='-111878' visible='true' lat='-34.0501548' lon='151.0156971' />
  <node id='-111880' visible='true' lat='-34.0501482' lon='151.0156417' />
  <node id='-111882' visible='true' lat='-34.050197' lon='151.0155817' />
  <node id='-111884' visible='true' lat='-34.0501571' lon='151.0155237' />
  <node id='-111886' visible='true' lat='-34.0500925' lon='151.0154557' />
  <node id='-111888' visible='true' lat='-34.049997' lon='151.0153725' />
  <node id='-111890' visible='true' lat='-34.049897' lon='151.015276' />
  <node id='-111892' visible='true' lat='-34.0497947' lon='151.0151713' />
  <node id='-111894' visible='true' lat='-34.0497125' lon='151.0150828' />
  <node id='-111896' visible='true' lat='-34.0496503' lon='151.0150077' />
  <node id='-111898' visible='true' lat='-34.0495658' lon='151.0148961' />
  <node id='-111900' visible='true' lat='-34.0494902' lon='151.0147513' />
  <node id='-111902' visible='true' lat='-34.0493482' lon='151.0145903' />
  <node id='-111904' visible='true' lat='-34.0494301' lon='151.0145551' />
  <node id='-111906' visible='true' lat='-34.0495567' lon='151.0145337' />
  <node id='-111908' visible='true' lat='-34.0497145' lon='151.0145149' />
  <node id='-111910' visible='true' lat='-34.0498415' lon='151.0145071' />
  <node id='-111912' visible='true' lat='-34.049999' lon='151.0145363' />
  <node id='-111914' visible='true' lat='-34.0500857' lon='151.0145954' />
  <node id='-111916' visible='true' lat='-34.0501857' lon='151.0146731' />
  <node id='-111918' visible='true' lat='-34.0503146' lon='151.0147482' />
  <node id='-111920' visible='true' lat='-34.0504216' lon='151.0146895' />
  <node id='-111922' visible='true' lat='-34.0504901' lon='151.0146249' />
  <node id='-111924' visible='true' lat='-34.0505816' lon='151.0144883' />
  <node id='-111926' visible='true' lat='-34.0506768' lon='151.0143459' />
  <node id='-111928' visible='true' lat='-34.050746' lon='151.0142389' />
  <node id='-111930' visible='true' lat='-34.0508413' lon='151.0140884' />
  <node id='-111932' visible='true' lat='-34.0508905' lon='151.0139492' />
  <node id='-111934' visible='true' lat='-34.0509413' lon='151.0138363' />
  <node id='-111936' visible='true' lat='-34.0511591' lon='151.0137826' />
  <node id='-111938' visible='true' lat='-34.0513531' lon='151.0136963' />
  <node id='-111940' visible='true' lat='-34.0514657' lon='151.0135305' />
  <node id='-111942' visible='true' lat='-34.0515724' lon='151.0133428' />
  <node id='-111944' visible='true' lat='-34.051648' lon='151.0131496' />
  <node id='-111946' visible='true' lat='-34.051784' lon='151.0130024' />
  <node id='-111948' visible='true' lat='-34.0519342' lon='151.0128042' />
  <node id='-111950' visible='true' lat='-34.0520213' lon='151.0126239' />
  <node id='-111952' visible='true' lat='-34.0520969' lon='151.0123986' />
  <node id='-111954' visible='true' lat='-34.0522035' lon='151.0121411' />
  <node id='-111956' visible='true' lat='-34.0522878' lon='151.0119113' />
  <node id='-111958' visible='true' lat='-34.0523324' lon='151.0118246' />
  <node id='-111960' visible='true' lat='-34.0524258' lon='151.0117066' />
  <node id='-111962' visible='true' lat='-34.0525941' lon='151.0115495' />
  <node id='-111964' visible='true' lat='-34.0526787' lon='151.0113788' />
  <node id='-111966' visible='true' lat='-34.0529069' lon='151.0109959' />
  <node id='-111968' visible='true' lat='-34.0530922' lon='151.0107126' />
  <node id='-111970' visible='true' lat='-34.0531033' lon='151.0106659' />
  <node id='-111972' visible='true' lat='-34.0531436' lon='151.010615' />
  <node id='-111974' visible='true' lat='-34.053188' lon='151.0105881' />
  <node id='-111976' visible='true' lat='-34.0533058' lon='151.0104674' />
  <node id='-111978' visible='true' lat='-34.0534124' lon='151.0103011' />
  <node id='-111980' visible='true' lat='-34.053528' lon='151.010108' />
  <node id='-111982' visible='true' lat='-34.0535772' lon='151.0100493' />
  <node id='-111984' visible='true' lat='-34.053688' lon='151.0098988' />
  <node id='-111986' visible='true' lat='-34.0538369' lon='151.009821' />
  <node id='-111988' visible='true' lat='-34.0539995' lon='151.0097703' />
  <node id='-111990' visible='true' lat='-34.0541347' lon='151.009695' />
  <node id='-111992' visible='true' lat='-34.0542347' lon='151.009644' />
  <node id='-111994' visible='true' lat='-34.0543747' lon='151.009585' />
  <node id='-111996' visible='true' lat='-34.0544369' lon='151.0095448' />
  <node id='-111998' visible='true' lat='-34.0545636' lon='151.0094562' />
  <node id='-112000' visible='true' lat='-34.054663' lon='151.0093987' />
  <node id='-112002' visible='true' lat='-34.0547258' lon='151.0093624' />
  <node id='-112004' visible='true' lat='-34.0548347' lon='151.0093275' />
  <node id='-112006' visible='true' lat='-34.0549636' lon='151.0092363' />
  <node id='-112008' visible='true' lat='-34.0550925' lon='151.0091344' />
  <node id='-112010' visible='true' lat='-34.0552258' lon='151.0090056' />
  <node id='-112012' visible='true' lat='-34.0552813' lon='151.008893' />
  <node id='-112014' visible='true' lat='-34.0553749' lon='151.0087833' />
  <node id='-112016' visible='true' lat='-34.0554193' lon='151.0087189' />
  <node id='-112018' visible='true' lat='-34.0554769' lon='151.0086355' />
  <node id='-112020' visible='true' lat='-34.0556127' lon='151.00844' />
  <node id='-112022' visible='true' lat='-34.0556793' lon='151.0082898' />
  <node id='-112024' visible='true' lat='-34.0557391' lon='151.008091' />
  <node id='-112026' visible='true' lat='-34.0557927' lon='151.0079491' />
  <node id='-112028' visible='true' lat='-34.0558393' lon='151.0078365' />
  <node id='-112030' visible='true' lat='-34.0559102' lon='151.0077423' />
  <node id='-112032' visible='true' lat='-34.0559727' lon='151.007705' />
  <node id='-112034' visible='true' lat='-34.0560836' lon='151.0076458' />
  <node id='-112036' visible='true' lat='-34.056208' lon='151.0075787' />
  <node id='-112038' visible='true' lat='-34.0563429' lon='151.0074917' />
  <node id='-112040' visible='true' lat='-34.0564058' lon='151.0074339' />
  <node id='-112042' visible='true' lat='-34.0565013' lon='151.0073507' />
  <node id='-112044' visible='true' lat='-34.0565858' lon='151.0072568' />
  <node id='-112046' visible='true' lat='-34.0567013' lon='151.0071656' />
  <node id='-112048' visible='true' lat='-34.0568038' lon='151.0070989' />
  <node id='-112050' visible='true' lat='-34.0568669' lon='151.0070088' />
  <node id='-112052' visible='true' lat='-34.05725336443' lon='151.00741657475' />
  <node id='-112054' visible='true' lat='-34.05971308307' lon='151.00654884337' />
  <node id='-112056' visible='true' lat='-34.0597668474' lon='151.00654873074' />
  <node id='-112058' visible='true' lat='-34.06010690296' lon='151.00785458139' />
  <node id='-112060' visible='true' lat='-34.06025314405' lon='151.00779077761' />
  <node id='-112062' visible='true' lat='-34.06033064938' lon='151.00785394013' />
  <node id='-112064' visible='true' lat='-34.06109312335' lon='151.0076584371' />
  <node id='-112066' visible='true' lat='-34.06241861921' lon='151.00765638588' />
  <node id='-112068' visible='true' lat='-34.06249966631' lon='151.00760108927' />
  <node id='-112070' visible='true' lat='-34.06261595114' lon='151.00759470889' />
  <node id='-112072' visible='true' lat='-34.06268290294' lon='151.00765213229' />
  <node id='-112074' visible='true' lat='-34.06349466148' lon='151.00766800007' />
  <node id='-112076' visible='true' lat='-34.06527941893' lon='151.00845916691' />
  <node id='-112078' visible='true' lat='-34.06523537305' lon='151.00864419786' />
  <node id='-112080' visible='true' lat='-34.06435358824' lon='151.01162000895' />
  <node id='-112082' visible='true' lat='-34.06476833492' lon='151.01181220195' />
  <node id='-112084' visible='true' lat='-34.06523522267' lon='151.01233113934' />
  <node id='-112086' visible='true' lat='-34.06567568046' lon='151.01275437106' />
  <node id='-112088' visible='true' lat='-34.06571620246' lon='151.01276075144' />
  <node id='-112090' visible='true' lat='-34.06712589576' lon='151.0148378228' />
  <node id='-112092' visible='true' lat='-34.06720165297' lon='151.01478677978' />
  <node id='-112094' visible='true' lat='-34.06737145226' lon='151.0150712005' />
  <node id='-112096' visible='true' lat='-34.067646768' lon='151.01482907752' />
  <node id='-112098' visible='true' lat='-34.00456117234' lon='151.06772912689' />
  <node id='-112100' visible='true' lat='-34.00727481863' lon='151.06817420492' />
  <node id='-112102' visible='true' lat='-34.00885838245' lon='151.06658517888' />
  <node id='-112104' visible='true' lat='-34.0085848599' lon='151.06476170637' />
  <node id='-112106' visible='true' lat='-34.00801235985' lon='151.06078684648' />
  <node id='-112108' visible='true' lat='-34.00808044409' lon='151.06054328199' />
  <node id='-112110' visible='true' lat='-34.00812505098' lon='151.06018926383' />
  <node id='-112112' visible='true' lat='-34.0083806' lon='151.0597636' />
  <node id='-112114' visible='true' lat='-34.0084807' lon='151.0597153' />
  <node id='-112116' visible='true' lat='-34.0088586' lon='151.0596214' />
  <node id='-112118' visible='true' lat='-34.0090032' lon='151.0595222' />
  <node id='-112120' visible='true' lat='-34.0091655' lon='151.0594498' />
  <node id='-112122' visible='true' lat='-34.0094167' lon='151.0593478' />
  <node id='-112124' visible='true' lat='-34.0100415' lon='151.0591118' />
  <node id='-112126' visible='true' lat='-34.0102194' lon='151.0591145' />
  <node id='-112128' visible='true' lat='-34.0107396' lon='151.0591708' />
  <node id='-112130' visible='true' lat='-34.0113199' lon='151.0591038' />
  <node id='-112132' visible='true' lat='-34.0115245' lon='151.0591011' />
  <node id='-112134' visible='true' lat='-34.0115828' lon='151.0589011' />
  <node id='-112136' visible='true' lat='-34.0116539' lon='151.0586865' />
  <node id='-112138' visible='true' lat='-34.0116406' lon='151.0586087' />
  <node id='-112140' visible='true' lat='-34.0115783' lon='151.0584907' />
  <node id='-112142' visible='true' lat='-34.0115249' lon='151.058488' />
  <node id='-112144' visible='true' lat='-34.011466' lon='151.0584894' />
  <node id='-112146' visible='true' lat='-34.0112904' lon='151.0584719' />
  <node id='-112148' visible='true' lat='-34.011197' lon='151.0583754' />
  <node id='-112150' visible='true' lat='-34.0109046' lon='151.0582855' />
  <node id='-112152' visible='true' lat='-34.0108024' lon='151.0582627' />
  <node id='-112154' visible='true' lat='-34.0104633' lon='151.0581353' />
  <node id='-112156' visible='true' lat='-34.0100564' lon='151.057847' />
  <node id='-112158' visible='true' lat='-34.0099352' lon='151.0577652' />
  <node id='-112160' visible='true' lat='-34.0096896' lon='151.0577169' />
  <node id='-112162' visible='true' lat='-34.0095951' lon='151.0576699' />
  <node id='-112164' visible='true' lat='-34.0095239' lon='151.0576552' />
  <node id='-112166' visible='true' lat='-34.0093038' lon='151.0576941' />
  <node id='-112168' visible='true' lat='-34.0092193' lon='151.0577598' />
  <node id='-112170' visible='true' lat='-34.009047' lon='151.0577544' />
  <node id='-112172' visible='true' lat='-34.0089903' lon='151.0577933' />
  <node id='-112174' visible='true' lat='-34.0083811' lon='151.0577209' />
  <node id='-112176' visible='true' lat='-34.008261' lon='151.0577558' />
  <node id='-112178' visible='true' lat='-34.0079431' lon='151.0575734' />
  <node id='-112180' visible='true' lat='-34.007903' lon='151.0575332' />
  <node id='-112182' visible='true' lat='-34.0077109' lon='151.0572507' />
  <node id='-112184' visible='true' lat='-34.007634' lon='151.0571711' />
  <node id='-112186' visible='true' lat='-34.0074583' lon='151.0569887' />
  <node id='-112188' visible='true' lat='-34.0074183' lon='151.0568867' />
  <node id='-112190' visible='true' lat='-34.007385' lon='151.0568063' />
  <node id='-112192' visible='true' lat='-34.0073472' lon='151.0565515' />
  <node id='-112194' visible='true' lat='-34.0073516' lon='151.0564817' />
  <node id='-112196' visible='true' lat='-34.007316' lon='151.0561465' />
  <node id='-112198' visible='true' lat='-34.0073027' lon='151.055846' />
  <node id='-112200' visible='true' lat='-34.0073672' lon='151.0557683' />
  <node id='-112202' visible='true' lat='-34.0074739' lon='151.0556878' />
  <node id='-112204' visible='true' lat='-34.0075584' lon='151.0555108' />
  <node id='-112206' visible='true' lat='-34.0076073' lon='151.0554571' />
  <node id='-112208' visible='true' lat='-34.0078541' lon='151.0552774' />
  <node id='-112210' visible='true' lat='-34.0079088' lon='151.0553276' />
  <node id='-112212' visible='true' lat='-34.0079608' lon='151.0553069' />
  <node id='-112214' visible='true' lat='-34.008132' lon='151.0551487' />
  <node id='-112216' visible='true' lat='-34.0082321' lon='151.0550897' />
  <node id='-112218' visible='true' lat='-34.0083033' lon='151.0548295' />
  <node id='-112220' visible='true' lat='-34.0082588' lon='151.054682' />
  <node id='-112222' visible='true' lat='-34.0082721' lon='151.0546122' />
  <node id='-112224' visible='true' lat='-34.00842129094' lon='151.05471155774' />
  <node id='-112226' visible='true' lat='-34.00858670751' lon='151.0547545374' />
  <node id='-112228' visible='true' lat='-34.00896843683' lon='151.05456419891' />
  <node id='-112230' visible='true' lat='-34.00933235052' lon='151.05448437955' />
  <node id='-112232' visible='true' lat='-34.00932980568' lon='151.05443832991' />
  <node id='-112234' visible='true' lat='-34.00942142007' lon='151.05438614032' />
  <node id='-112236' visible='true' lat='-34.00964536594' lon='151.05470234782' />
  <node id='-112238' visible='true' lat='-34.01110099974' lon='151.05418659191' />
  <node id='-112240' visible='true' lat='-34.01254108055' lon='151.05541537547' />
  <node id='-112242' visible='true' lat='-34.01270842548' lon='151.05473157328' />
  <node id='-112244' visible='true' lat='-34.01286742797' lon='151.05445286777' />
  <node id='-112246' visible='true' lat='-34.01295394907' lon='151.05435155858' />
  <node id='-112248' visible='true' lat='-34.01306464505' lon='151.05435002359' />
  <node id='-112250' visible='true' lat='-34.01310663315' lon='151.05422568958' />
  <node id='-112252' visible='true' lat='-34.01317406853' lon='151.05414126525' />
  <node id='-112254' visible='true' lat='-34.01345398841' lon='151.05396320666' />
  <node id='-112256' visible='true' lat='-34.0136406' lon='151.0539731' />
  <node id='-112258' visible='true' lat='-34.013714' lon='151.0540321' />
  <node id='-112260' visible='true' lat='-34.0137985' lon='151.0540563' />
  <node id='-112262' visible='true' lat='-34.0140808' lon='151.0540723' />
  <node id='-112264' visible='true' lat='-34.0141898' lon='151.0540616' />
  <node id='-112266' visible='true' lat='-34.0143988' lon='151.0540777' />
  <node id='-112268' visible='true' lat='-34.0144566' lon='151.054134' />
  <node id='-112270' visible='true' lat='-34.0148301' lon='151.054185' />
  <node id='-112272' visible='true' lat='-34.0149257' lon='151.0542118' />
  <node id='-112274' visible='true' lat='-34.0150079' lon='151.0542521' />
  <node id='-112276' visible='true' lat='-34.0153637' lon='151.0543701' />
  <node id='-112278' visible='true' lat='-34.0154615' lon='151.0543433' />
  <node id='-112280' visible='true' lat='-34.0157861' lon='151.0542199' />
  <node id='-112282' visible='true' lat='-34.0158394' lon='151.0541957' />
  <node id='-112284' visible='true' lat='-34.0159484' lon='151.0541635' />
  <node id='-112286' visible='true' lat='-34.0162218' lon='151.0540616' />
  <node id='-112288' visible='true' lat='-34.0163108' lon='151.0540187' />
  <node id='-112290' visible='true' lat='-34.0165331' lon='151.0537263' />
  <node id='-112292' visible='true' lat='-34.0168088' lon='151.0533803' />
  <node id='-112294' visible='true' lat='-34.0169755' lon='151.0529673' />
  <node id='-112296' visible='true' lat='-34.0170355' lon='151.0528949' />
  <node id='-112298' visible='true' lat='-34.0170177' lon='151.0525569' />
  <node id='-112300' visible='true' lat='-34.0171178' lon='151.0521916' />
  <node id='-112302' visible='true' lat='-34.0171622' lon='151.052109' />
  <node id='-112304' visible='true' lat='-34.0174424' lon='151.0520124' />
  <node id='-112306' visible='true' lat='-34.0175469' lon='151.0520097' />
  <node id='-112308' visible='true' lat='-34.0179959' lon='151.0520392' />
  <node id='-112310' visible='true' lat='-34.0181782' lon='151.0520258' />
  <node id='-112312' visible='true' lat='-34.0184539' lon='151.0519775' />
  <node id='-112314' visible='true' lat='-34.0185273' lon='151.0519507' />
  <node id='-112316' visible='true' lat='-34.0187985' lon='151.0518381' />
  <node id='-112318' visible='true' lat='-34.0190453' lon='151.0518434' />
  <node id='-112320' visible='true' lat='-34.0191142' lon='151.0518005' />
  <node id='-112322' visible='true' lat='-34.0193156' lon='151.0516068' />
  <node id='-112324' visible='true' lat='-34.0194218' lon='151.0516366' />
  <node id='-112326' visible='true' lat='-34.0194695' lon='151.0516683' />
  <node id='-112328' visible='true' lat='-34.0197929' lon='151.0515817' />
  <node id='-112330' visible='true' lat='-34.01997580315' lon='151.05131957877' />
  <node id='-112332' visible='true' lat='-34.020465' lon='151.05086' />
  <node id='-112334' visible='true' lat='-34.0205617' lon='151.0509123' />
  <node id='-112336' visible='true' lat='-34.021033' lon='151.051548' />
  <node id='-112338' visible='true' lat='-34.0216665' lon='151.0522803' />
  <node id='-112340' visible='true' lat='-34.0217738' lon='151.0523912' />
  <node id='-112342' visible='true' lat='-34.0221089' lon='151.0527993' />
  <node id='-112344' visible='true' lat='-34.0231138' lon='151.0542772' />
  <node id='-112346' visible='true' lat='-34.0232184098' lon='151.05439645868' />
  <node id='-112348' visible='true' lat='-34.0235054' lon='151.05392' />
  <node id='-112350' visible='true' lat='-34.0235944' lon='151.0538154' />
  <node id='-112352' visible='true' lat='-34.0237633' lon='151.0535337' />
  <node id='-112354' visible='true' lat='-34.02393' lon='151.053295' />
  <node id='-112356' visible='true' lat='-34.0247081' lon='151.0523428' />
  <node id='-112358' visible='true' lat='-34.0253032' lon='151.0515726' />
  <node id='-112360' visible='true' lat='-34.0253091' lon='151.0514875' />
  <node id='-112362' visible='true' lat='-34.0256773' lon='151.0510795' />
  <node id='-112364' visible='true' lat='-34.0259463' lon='151.0507415' />
  <node id='-112366' visible='true' lat='-34.0269945' lon='151.0493939' />
  <node id='-112368' visible='true' lat='-34.0272385' lon='151.049042' />
  <node id='-112370' visible='true' lat='-34.027408' lon='151.0493731' />
  <node id='-112372' visible='true' lat='-34.0275222' lon='151.0492789' />
  <node id='-112374' visible='true' lat='-34.0278378' lon='151.0491448' />
  <node id='-112376' visible='true' lat='-34.0280157' lon='151.0491931' />
  <node id='-112378' visible='true' lat='-34.0280997' lon='151.0492283' />
  <node id='-112380' visible='true' lat='-34.0282824' lon='151.0491234' />
  <node id='-112382' visible='true' lat='-34.0283135' lon='151.0490805' />
  <node id='-112384' visible='true' lat='-34.0284598' lon='151.0493259' />
  <node id='-112386' visible='true' lat='-34.028502' lon='151.0494171' />
  <node id='-112388' visible='true' lat='-34.028522' lon='151.0495244' />
  <node id='-112390' visible='true' lat='-34.0287421' lon='151.0498382' />
  <node id='-112392' visible='true' lat='-34.0287572' lon='151.0499016' />
  <node id='-112394' visible='true' lat='-34.0290284' lon='151.0501537' />
  <node id='-112396' visible='true' lat='-34.0291529' lon='151.0500088' />
  <node id='-112398' visible='true' lat='-34.0292685' lon='151.0498962' />
  <node id='-112400' visible='true' lat='-34.029353' lon='151.0497889' />
  <node id='-112402' visible='true' lat='-34.0294285' lon='151.0496226' />
  <node id='-112404' visible='true' lat='-34.0295486' lon='151.049172' />
  <node id='-112406' visible='true' lat='-34.0297353' lon='151.0488126' />
  <node id='-112408' visible='true' lat='-34.0303488' lon='151.048024' />
  <node id='-112410' visible='true' lat='-34.0305222' lon='151.047686' />
  <node id='-112412' visible='true' lat='-34.0303621' lon='151.0472301' />
  <node id='-112414' visible='true' lat='-34.0303755' lon='151.0469833' />
  <node id='-112416' visible='true' lat='-34.0304688' lon='151.0469082' />
  <node id='-112418' visible='true' lat='-34.0307889' lon='151.046404' />
  <node id='-112420' visible='true' lat='-34.0312513' lon='151.0455939' />
  <node id='-112422' visible='true' lat='-34.0312735' lon='151.045315' />
  <node id='-112424' visible='true' lat='-34.0315891' lon='151.0449341' />
  <node id='-112426' visible='true' lat='-34.0316203' lon='151.0448966' />
  <node id='-112428' visible='true' lat='-34.0316025' lon='151.044682' />
  <node id='-112430' visible='true' lat='-34.0323538' lon='151.0445318' />
  <node id='-112432' visible='true' lat='-34.0326739' lon='151.0448429' />
  <node id='-112434' visible='true' lat='-34.0327895' lon='151.0449019' />
  <node id='-112436' visible='true' lat='-34.0332474' lon='151.0451755' />
  <node id='-112438' visible='true' lat='-34.033354' lon='151.0452989' />
  <node id='-112440' visible='true' lat='-34.0336786' lon='151.0456207' />
  <node id='-112442' visible='true' lat='-34.0338831' lon='151.045771' />
  <node id='-112444' visible='true' lat='-34.0340031' lon='151.0458085' />
  <node id='-112446' visible='true' lat='-34.0341454' lon='151.0463289' />
  <node id='-112448' visible='true' lat='-34.0341676' lon='151.0465166' />
  <node id='-112450' visible='true' lat='-34.0342165' lon='151.0470128' />
  <node id='-112452' visible='true' lat='-34.0344121' lon='151.0472408' />
  <node id='-112454' visible='true' lat='-34.0344988' lon='151.0471416' />
  <node id='-112456' visible='true' lat='-34.0352446' lon='151.0464885' />
  <node id='-112458' visible='true' lat='-34.0354468' lon='151.0463815' />
  <node id='-112460' visible='true' lat='-34.035449' lon='151.0461414' />
  <node id='-112462' visible='true' lat='-34.0354301' lon='151.0459802' />
  <node id='-112464' visible='true' lat='-34.035419' lon='151.0459104' />
  <node id='-112466' visible='true' lat='-34.0354145' lon='151.0458729' />
  <node id='-112468' visible='true' lat='-34.0354056' lon='151.0457817' />
  <node id='-112470' visible='true' lat='-34.0353834' lon='151.0457039' />
  <node id='-112472' visible='true' lat='-34.0353945' lon='151.0456395' />
  <node id='-112474' visible='true' lat='-34.0354345' lon='151.0455832' />
  <node id='-112476' visible='true' lat='-34.0354056' lon='151.0454437' />
  <node id='-112478' visible='true' lat='-34.0354056' lon='151.0451675' />
  <node id='-112480' visible='true' lat='-34.0353856' lon='151.0448751' />
  <node id='-112482' visible='true' lat='-34.0353679' lon='151.044682' />
  <node id='-112484' visible='true' lat='-34.0352812' lon='151.0444996' />
  <node id='-112486' visible='true' lat='-34.0353056' lon='151.0444272' />
  <node id='-112488' visible='true' lat='-34.035319' lon='151.0440919' />
  <node id='-112490' visible='true' lat='-34.0351989' lon='151.043711' />
  <node id='-112492' visible='true' lat='-34.0352634' lon='151.0436171' />
  <node id='-112494' visible='true' lat='-34.0353412' lon='151.0434294' />
  <node id='-112496' visible='true' lat='-34.0354257' lon='151.0431263' />
  <node id='-112498' visible='true' lat='-34.0352549' lon='151.0429625' />
  <node id='-112500' visible='true' lat='-34.0351288' lon='151.0429815' />
  <node id='-112502' visible='true' lat='-34.0350724' lon='151.0429572' />
  <node id='-112504' visible='true' lat='-34.0349069' lon='151.0428488' />
  <node id='-112506' visible='true' lat='-34.0348519' lon='151.0428548' />
  <node id='-112508' visible='true' lat='-34.0348173' lon='151.0427798' />
  <node id='-112510' visible='true' lat='-34.0347602' lon='151.0427584' />
  <node id='-112512' visible='true' lat='-34.0346623' lon='151.0426878' />
  <node id='-112514' visible='true' lat='-34.034608' lon='151.0425567' />
  <node id='-112516' visible='true' lat='-34.0345649' lon='151.0425104' />
  <node id='-112518' visible='true' lat='-34.0345284' lon='151.0424572' />
  <node id='-112520' visible='true' lat='-34.0344626' lon='151.0423474' />
  <node id='-112522' visible='true' lat='-34.0344314' lon='151.0422893' />
  <node id='-112524' visible='true' lat='-34.0343877' lon='151.0422482' />
  <node id='-112526' visible='true' lat='-34.0340692' lon='151.0419842' />
  <node id='-112528' visible='true' lat='-34.034006' lon='151.0419446' />
  <node id='-112530' visible='true' lat='-34.0339416' lon='151.041914' />
  <node id='-112532' visible='true' lat='-34.0338788' lon='151.0418887' />
  <node id='-112534' visible='true' lat='-34.0337586' lon='151.0418336' />
  <node id='-112536' visible='true' lat='-34.0336102' lon='151.0417617' />
  <node id='-112538' visible='true' lat='-34.0333751' lon='151.0417807' />
  <node id='-112540' visible='true' lat='-34.0331392' lon='151.0420086' />
  <node id='-112542' visible='true' lat='-34.0330864' lon='151.0420464' />
  <node id='-112544' visible='true' lat='-34.0329731' lon='151.0421193' />
  <node id='-112546' visible='true' lat='-34.032919' lon='151.0421635' />
  <node id='-112548' visible='true' lat='-34.0327854' lon='151.0422229' />
  <node id='-112550' visible='true' lat='-34.0326607' lon='151.0422688' />
  <node id='-112552' visible='true' lat='-34.0324374' lon='151.0423529' />
  <node id='-112554' visible='true' lat='-34.0323395' lon='151.0423893' />
  <node id='-112556' visible='true' lat='-34.0322596' lon='151.0424112' />
  <node id='-112558' visible='true' lat='-34.0321306' lon='151.0424306' />
  <node id='-112560' visible='true' lat='-34.0320697' lon='151.0424543' />
  <node id='-112562' visible='true' lat='-34.0320197' lon='151.042479' />
  <node id='-112564' visible='true' lat='-34.0319692' lon='151.042507' />
  <node id='-112566' visible='true' lat='-34.0318442' lon='151.0425478' />
  <node id='-112568' visible='true' lat='-34.031592' lon='151.042476' />
  <node id='-112570' visible='true' lat='-34.0315407' lon='151.0424505' />
  <node id='-112572' visible='true' lat='-34.0314687' lon='151.0424297' />
  <node id='-112574' visible='true' lat='-34.0314135' lon='151.0424253' />
  <node id='-112576' visible='true' lat='-34.0312295' lon='151.0424358' />
  <node id='-112578' visible='true' lat='-34.0311086' lon='151.0424409' />
  <node id='-112580' visible='true' lat='-34.0310422' lon='151.0424435' />
  <node id='-112582' visible='true' lat='-34.0309711' lon='151.0424555' />
  <node id='-112584' visible='true' lat='-34.0308391' lon='151.0425015' />
  <node id='-112586' visible='true' lat='-34.0307186' lon='151.0425474' />
  <node id='-112588' visible='true' lat='-34.0305878' lon='151.0425853' />
  <node id='-112590' visible='true' lat='-34.030522' lon='151.0426147' />
  <node id='-112592' visible='true' lat='-34.02997778297' lon='151.04269776201' />
  <node id='-112594' visible='true' lat='-34.03029971224' lon='151.0408735894' />
  <node id='-112596' visible='true' lat='-34.03030988911' lon='151.04068325091' />
  <node id='-112598' visible='true' lat='-34.0389063' lon='151.0323189' />
  <node id='-112600' visible='true' lat='-34.0391003' lon='151.0303717' />
  <node id='-112602' visible='true' lat='-34.0395693' lon='151.0291084' />
  <node id='-112604' visible='true' lat='-34.040252' lon='151.028026' />
  <node id='-112606' visible='true' lat='-34.0412884' lon='151.0267445' />
  <node id='-112608' visible='true' lat='-34.0415518' lon='151.0263677' />
  <node id='-112610' visible='true' lat='-34.0419701' lon='151.0248299' />
  <node id='-112612' visible='true' lat='-34.0417828' lon='151.0235392' />
  <node id='-112614' visible='true' lat='-34.0206075' lon='151.0577699' />
  <node id='-112616' visible='true' lat='-34.0267955' lon='151.049674' />
  <node id='-112618' visible='true' lat='-34.0080009' lon='151.0576539' />
  <node id='-112620' visible='true' lat='-34.017887' lon='151.0520178' />
  <node id='-112622' visible='true' lat='-34.0353968' lon='151.0430378' />
  <node id='-112624' visible='true' lat='-34.008659' lon='151.0578416' />
  <node id='-112626' visible='true' lat='-34.0352901' lon='151.0439631' />
  <node id='-112628' visible='true' lat='-34.0165042' lon='151.0537934' />
  <node id='-112630' visible='true' lat='-34.0374929' lon='151.0352469' />
  <node id='-112632' visible='true' lat='-34.0286709' lon='151.0497283' />
  <node id='-112634' visible='true' lat='-34.0113504' lon='151.0585014' />
  <node id='-112636' visible='true' lat='-34.0196709' lon='151.0515804' />
  <node id='-112638' visible='true' lat='-34.0139897' lon='151.0540804' />
  <node id='-112640' visible='true' lat='-34.0370863' lon='151.0356723' />
  <node id='-112642' visible='true' lat='-34.024488' lon='151.052611' />
  <node id='-112644' visible='true' lat='-34.00935016444' lon='151.05440456018' />
  <node id='-112646' visible='true' lat='-34.0170778' lon='151.0523316' />
  <node id='-112648' visible='true' lat='-34.0093572' lon='151.0577182' />
  <node id='-112650' visible='true' lat='-34.0161284' lon='151.0540911' />
  <node id='-112652' visible='true' lat='-34.0073094' lon='151.0562242' />
  <node id='-112654' visible='true' lat='-34.0289262' lon='151.0502181' />
  <node id='-112656' visible='true' lat='-34.0192722' lon='151.0516928' />
  <node id='-112658' visible='true' lat='-34.0354501' lon='151.0458165' />
  <node id='-112660' visible='true' lat='-34.0116117' lon='151.0589708' />
  <node id='-112662' visible='true' lat='-34.0341587' lon='151.046876' />
  <node id='-112664' visible='true' lat='-34.012915778' lon='151.05438072335' />
  <node id='-112666' visible='true' lat='-34.0311446' lon='151.0458621' />
  <node id='-112668' visible='true' lat='-34.0350322' lon='151.0468331' />
  <node id='-112670' visible='true' lat='-34.0083033' lon='151.0548939' />
  <node id='-112672' visible='true' lat='-34.02189' lon='151.052519' />
  <node id='-112674' visible='true' lat='-34.0105367' lon='151.0581729' />
  <node id='-112676' visible='true' lat='-34.035339' lon='151.0443118' />
  <node id='-112678' visible='true' lat='-34.0307045' lon='151.0465005' />
  <node id='-112680' visible='true' lat='-34.0152236' lon='151.0543272' />
  <node id='-112682' visible='true' lat='-34.0283042' lon='151.0493034' />
  <node id='-112684' visible='true' lat='-34.007365' lon='151.0565971' />
  <node id='-112686' visible='true' lat='-34.0187385' lon='151.0517978' />
  <node id='-112688' visible='true' lat='-34.0415483' lon='151.0231276' />
  <node id='-112690' visible='true' lat='-34.0106485' lon='151.0591628' />
  <node id='-112692' visible='true' lat='-34.0325977' lon='151.0422979' />
  <node id='-112694' visible='true' lat='-34.0081109646' lon='151.0602685639' />
  <node id='-112696' visible='true' lat='-34.0398906' lon='151.0285864' />
  <node id='-112698' visible='true' lat='-34.008092' lon='151.0552023' />
  <node id='-112700' visible='true' lat='-34.0328478' lon='151.0422013' />
  <node id='-112702' visible='true' lat='-34.01330766677' lon='151.05403842106' />
  <node id='-112704' visible='true' lat='-34.0209696' lon='151.0514032' />
  <node id='-112706' visible='true' lat='-34.0112392' lon='151.0584277' />
  <node id='-112708' visible='true' lat='-34.00852640283' lon='151.06370084771' />
  <node id='-112710' visible='true' lat='-34.0273469' lon='151.0493986' />
  <node id='-112712' visible='true' lat='-34.0078052' lon='151.0573722' />
  <node id='-112714' visible='true' lat='-34.0183761' lon='151.0520473' />
  <node id='-112716' visible='true' lat='-34.0098458' lon='151.0591976' />
  <node id='-112718' visible='true' lat='-34.0167287' lon='151.0534635' />
  <node id='-112720' visible='true' lat='-34.0317112' lon='151.0425576' />
  <node id='-112722' visible='true' lat='-34.0312923' lon='151.0424252' />
  <node id='-112724' visible='true' lat='-34.0075517' lon='151.0555886' />
  <node id='-112726' visible='true' lat='-34.0204005' lon='151.0508279' />
  <node id='-112728' visible='true' lat='-34.014341' lon='151.054016' />
  <node id='-112730' visible='true' lat='-34.0325583' lon='151.0446444' />
  <node id='-112732' visible='true' lat='-34.02998675169' lon='151.041760753' />
  <node id='-112734' visible='true' lat='-34.0252172' lon='151.0516401' />
  <node id='-112736' visible='true' lat='-34.0418597' lon='151.0255578' />
  <node id='-112738' visible='true' lat='-34.00953848276' lon='151.05441377011' />
  <node id='-112740' visible='true' lat='-34.0173579' lon='151.0520795' />
  <node id='-112742' visible='true' lat='-34.03513358677' lon='151.04035169354' />
  <node id='-112744' visible='true' lat='-34.0352323' lon='151.0438398' />
  <node id='-112746' visible='true' lat='-34.009107' lon='151.0577813' />
  <node id='-112748' visible='true' lat='-34.0353501' lon='151.0446069' />
  <node id='-112750' visible='true' lat='-34.0164441' lon='151.0538953' />
  <node id='-112752' visible='true' lat='-34.0318559' lon='151.0443494' />
  <node id='-112754' visible='true' lat='-34.0306609' lon='151.0425665' />
  <node id='-112756' visible='true' lat='-34.0072916' lon='151.0559211' />
  <node id='-112758' visible='true' lat='-34.0327406' lon='151.0448483' />
  <node id='-112760' visible='true' lat='-34.0282869' lon='151.0492092' />
  <node id='-112762' visible='true' lat='-34.0353757' lon='151.0464331' />
  <node id='-112764' visible='true' lat='-34.0341454' lon='151.0468116' />
  <node id='-112766' visible='true' lat='-34.0116161' lon='151.0587401' />
  <node id='-112768' visible='true' lat='-34.01300611616' lon='151.05433774369' />
  <node id='-112770' visible='true' lat='-34.0135472' lon='151.0539087' />
  <node id='-112772' visible='true' lat='-34.0362991' lon='151.0371096' />
  <node id='-112774' visible='true' lat='-34.0236628' lon='151.0536901' />
  <node id='-112776' visible='true' lat='-34.0388842' lon='151.0331276' />
  <node id='-112778' visible='true' lat='-34.0302421' lon='151.0484371' />
  <node id='-112780' visible='true' lat='-34.0082966' lon='151.0547356' />
  <node id='-112782' visible='true' lat='-34.0229104' lon='151.0540143' />
  <node id='-112784' visible='true' lat='-34.0313506' lon='151.0424215' />
  <node id='-112786' visible='true' lat='-34.0101531' lon='151.0579221' />
  <node id='-112788' visible='true' lat='-34.0353212' lon='151.0441938' />
  <node id='-112790' visible='true' lat='-34.0156994' lon='151.0542655' />
  <node id='-112792' visible='true' lat='-34.0309801' lon='151.0463771' />
  <node id='-112794' visible='true' lat='-34.0354555' lon='151.0463047' />
  <node id='-112796' visible='true' lat='-34.0072938' lon='151.0562806' />
  <node id='-112798' visible='true' lat='-34.0189719' lon='151.0518998' />
  <node id='-112800' visible='true' lat='-34.0112177' lon='151.0591199' />
  <node id='-112802' visible='true' lat='-34.0082761' lon='151.059777' />
  <node id='-112804' visible='true' lat='-34.0351145' lon='151.0466346' />
  <node id='-112806' visible='true' lat='-34.0401362' lon='151.0281388' />
  <node id='-112808' visible='true' lat='-34.0082655' lon='151.0549663' />
  <node id='-112810' visible='true' lat='-34.03497585416' lon='151.04054817198' />
  <node id='-112812' visible='true' lat='-34.00833671455' lon='151.05463557972' />
  <node id='-112814' visible='true' lat='-34.0213653' lon='151.051949' />
  <node id='-112816' visible='true' lat='-34.0407702' lon='151.0274134' />
  <node id='-112818' visible='true' lat='-34.0109613' lon='151.0583056' />
  <node id='-112820' visible='true' lat='-34.035206' lon='151.0429706' />
  <node id='-112822' visible='true' lat='-34.0277445' lon='151.0491609' />
  <node id='-112824' visible='true' lat='-34.0330384' lon='151.0450682' />
  <node id='-112826' visible='true' lat='-34.0075339' lon='151.057096' />
  <node id='-112828' visible='true' lat='-34.0187096' lon='151.0518998' />
  <node id='-112830' visible='true' lat='-34.0419255' lon='151.0242251' />
  <node id='-112832' visible='true' lat='-34.0105484' lon='151.0591467' />
  <node id='-112834' visible='true' lat='-34.0354012' lon='151.0447383' />
  <node id='-112836' visible='true' lat='-34.0169221' lon='151.053029' />
  <node id='-112838' visible='true' lat='-34.031164' lon='151.042439' />
  <node id='-112840' visible='true' lat='-34.0080774' lon='151.0611197' />
  <node id='-112842' visible='true' lat='-34.03572889753' lon='151.03878600595' />
  <node id='-112844' visible='true' lat='-34.0345788' lon='151.0470423' />
  <node id='-112846' visible='true' lat='-34.0350722' lon='151.0467768' />
  <node id='-112848' visible='true' lat='-34.0309047' lon='151.0424795' />
  <node id='-112850' visible='true' lat='-34.0076963' lon='151.0553632' />
  <node id='-112852' visible='true' lat='-34.0330261' lon='151.0420807' />
  <node id='-112854' visible='true' lat='-34.0208173' lon='151.0511752' />
  <node id='-112856' visible='true' lat='-34.0146144' lon='151.0542252' />
  <node id='-112858' visible='true' lat='-34.0353856' lon='151.0433677' />
  <node id='-112860' visible='true' lat='-34.0255062' lon='151.051286' />
  <node id='-112862' visible='true' lat='-34.0084255' lon='151.0577531' />
  <node id='-112864' visible='true' lat='-34.01035282744' lon='151.05464708826' />
  <node id='-112866' visible='true' lat='-34.0177558' lon='151.0519775' />
  <node id='-112868' visible='true' lat='-34.008828' lon='151.0578443' />
  <node id='-112870' visible='true' lat='-34.0167109' lon='151.053544' />
  <node id='-112872' visible='true' lat='-34.0341818' lon='151.042057' />
  <node id='-112874' visible='true' lat='-34.0351849' lon='151.0465215' />
  <node id='-112876' visible='true' lat='-34.0284109' lon='151.0492616' />
  <node id='-112878' visible='true' lat='-34.0116217' lon='151.0585296' />
  <node id='-112880' visible='true' lat='-34.01307991345' lon='151.05429015906' />
  <node id='-112882' visible='true' lat='-34.0195677' lon='151.0516292' />
  <node id='-112884' visible='true' lat='-34.0139052' lon='151.0540723' />
  <node id='-112886' visible='true' lat='-34.0332542' lon='151.0418935' />
  <node id='-112888' visible='true' lat='-34.0242714' lon='151.0528574' />
  <node id='-112890' visible='true' lat='-34.0354012' lon='151.0453928' />
  <node id='-112892' visible='true' lat='-34.0234425' lon='151.0539973' />
  <node id='-112894' visible='true' lat='-34.0317761' lon='151.0425558' />
  <node id='-112896' visible='true' lat='-34.03598330256' lon='151.03809219145' />
  <node id='-112898' visible='true' lat='-34.0097952' lon='151.0577491' />
  <node id='-112900' visible='true' lat='-34.0160484' lon='151.0541367' />
  <node id='-112902' visible='true' lat='-34.0325188' lon='151.0423233' />
  <node id='-112904' visible='true' lat='-34.0072627' lon='151.0560258' />
  <node id='-112906' visible='true' lat='-34.0192387' lon='151.051763' />
  <node id='-112908' visible='true' lat='-34.0417556' lon='151.0259243' />
  <node id='-112910' visible='true' lat='-34.0116606' lon='151.0590298' />
  <node id='-112912' visible='true' lat='-34.0044033829' lon='151.06810059395' />
  <node id='-112914' visible='true' lat='-34.0363926' lon='151.0369046' />
  <node id='-112916' visible='true' lat='-34.0354802' lon='151.0462242' />
  <node id='-112918' visible='true' lat='-34.0087608' lon='151.0596348' />
  <node id='-112920' visible='true' lat='-34.0316069' lon='151.0447517' />
  <node id='-112922' visible='true' lat='-34.0349033' lon='151.0469163' />
  <node id='-112924' visible='true' lat='-34.0083477' lon='151.0547437' />
  <node id='-112926' visible='true' lat='-34.00842892556' lon='151.05476681731' />
  <node id='-112928' visible='true' lat='-34.0218222' lon='151.0524425' />
  <node id='-112930' visible='true' lat='-34.0305088' lon='151.0477451' />
  <node id='-112932' visible='true' lat='-34.0106534' lon='151.0582185' />
  <node id='-112934' visible='true' lat='-34.0147812' lon='151.0542145' />
  <node id='-112936' visible='true' lat='-34.03008302674' lon='151.04271512842' />
  <node id='-112938' visible='true' lat='-34.0282424' lon='151.0493004' />
  <node id='-112940' visible='true' lat='-34.0074005' lon='151.0566775' />
  <node id='-112942' visible='true' lat='-34.0188985' lon='151.0519105' />
  <node id='-112944' visible='true' lat='-34.03040865193' lon='151.04259899058' />
  <node id='-112946' visible='true' lat='-34.0110754' lon='151.059144' />
  <node id='-112948' visible='true' lat='-34.0353456' lon='151.0433167' />
  <node id='-112950' visible='true' lat='-34.00807105317' lon='151.06033653538' />
  <node id='-112952' visible='true' lat='-34.0342264' lon='151.0420963' />
  <node id='-112954' visible='true' lat='-34.0295441' lon='151.0492632' />
  <node id='-112956' visible='true' lat='-34.0080275' lon='151.0552104' />
  <node id='-112958' visible='true' lat='-34.03035648002' lon='151.04261852779' />
  <node id='-112960' visible='true' lat='-34.0212453' lon='151.0518189' />
  <node id='-112962' visible='true' lat='-34.0110858' lon='151.05837' />
  <node id='-112964' visible='true' lat='-34.0304155' lon='151.047332' />
  <node id='-112966' visible='true' lat='-34.0341342' lon='151.0420174' />
  <node id='-112968' visible='true' lat='-34.0265887' lon='151.0499369' />
  <node id='-112970' visible='true' lat='-34.0341142' lon='151.0462055' />
  <node id='-112972' visible='true' lat='-34.008072' lon='151.057686' />
  <node id='-112974' visible='true' lat='-34.01203747822' lon='151.05449358947' />
  <node id='-112976' visible='true' lat='-34.0183205' lon='151.0520661' />
  <node id='-112978' visible='true' lat='-34.0334856' lon='151.041736' />
  <node id='-112980' visible='true' lat='-34.0096835' lon='151.0592647' />
  <node id='-112982' visible='true' lat='-34.0169177' lon='151.0531094' />
  <node id='-112984' visible='true' lat='-34.0351167' lon='151.0467151' />
  <node id='-112986' visible='true' lat='-34.0285642' lon='151.0496129' />
  <node id='-112988' visible='true' lat='-34.0352278' lon='151.0437781' />
  <node id='-112990' visible='true' lat='-34.0301368822' lon='151.0413402257' />
  <node id='-112992' visible='true' lat='-34.0114104' lon='151.0584786' />
  <node id='-112994' visible='true' lat='-34.01315625542' lon='151.05421647965' />
  <node id='-112996' visible='true' lat='-34.0202998' lon='151.0509635' />
  <node id='-112998' visible='true' lat='-34.0354301' lon='151.0460097' />
  <node id='-113000' visible='true' lat='-34.0347611' lon='151.0470182' />
  <node id='-113002' visible='true' lat='-34.0142631' lon='151.0540697' />
  <node id='-113004' visible='true' lat='-34.0301396964' lon='151.0426576022' />
  <node id='-113006' visible='true' lat='-34.03022065301' lon='151.04260116138' />
  <node id='-113008' visible='true' lat='-34.0250238' lon='151.0519217' />
  <node id='-113010' visible='true' lat='-34.0353135' lon='151.0429503' />
  <node id='-113012' visible='true' lat='-34.0170444' lon='151.0524228' />
  <node id='-113014' visible='true' lat='-34.0316338' lon='151.0443765' />
  <node id='-113016' visible='true' lat='-34.0094283' lon='151.057686' />
  <node id='-113018' visible='true' lat='-34.0163863' lon='151.053957' />
  <node id='-113020' visible='true' lat='-34.0354012' lon='151.044969' />
  <node id='-113022' visible='true' lat='-34.0074117' lon='151.0556824' />
  <node id='-113024' visible='true' lat='-34.0313758' lon='151.0450736' />
  <node id='-113026' visible='true' lat='-34.0283091' lon='151.0492575' />
  <node id='-113028' visible='true' lat='-34.011625' lon='151.0588045' />
  <node id='-113030' visible='true' lat='-34.00588557696' lon='151.06833918577' />
  <node id='-113032' visible='true' lat='-34.033723' lon='151.0456798' />
  <node id='-113034' visible='true' lat='-34.03254877023' lon='151.04099638842' />
  <node id='-113036' visible='true' lat='-34.033973482' lon='151.0406464112' />
  <node id='-113038' visible='true' lat='-34.024059' lon='151.053126' />
  <node id='-113040' visible='true' lat='-34.0319167' lon='151.0425333' />
  <node id='-113042' visible='true' lat='-34.0116117' lon='151.0591128' />
  <node id='-113044' visible='true' lat='-34.00886409766' lon='151.05465015823' />
  <node id='-113046' visible='true' lat='-34.0227136' lon='151.0537032' />
  <node id='-113048' visible='true' lat='-34.0102743' lon='151.0580468' />
  <node id='-113050' visible='true' lat='-34.0334118' lon='151.0454705' />
  <node id='-113052' visible='true' lat='-34.0333217' lon='151.0418346' />
  <node id='-113054' visible='true' lat='-34.015088' lon='151.0543003' />
  <node id='-113056' visible='true' lat='-34.0073116' lon='151.0563503' />
  <node id='-113058' visible='true' lat='-34.0191742' lon='151.0517683' />
  <node id='-113060' visible='true' lat='-34.0366316' lon='151.0363401' />
  <node id='-113062' visible='true' lat='-34.0294952' lon='151.0493168' />
  <node id='-113064' visible='true' lat='-34.0119102399' lon='151.05515056426' />
  <node id='-113066' visible='true' lat='-34.0327233' lon='151.0422449' />
  <node id='-113068' visible='true' lat='-34.00826121922' lon='151.05990888145' />
  <node id='-113070' visible='true' lat='-34.0082721' lon='151.055028' />
  <node id='-113072' visible='true' lat='-34.0419468' lon='151.0250888' />
  <node id='-113074' visible='true' lat='-34.0217955' lon='151.0523969' />
  <node id='-113076' visible='true' lat='-34.0107401' lon='151.0582453' />
  <node id='-113078' visible='true' lat='-34.0384833' lon='151.034034' />
  <node id='-113080' visible='true' lat='-34.0272741' lon='151.0489652' />
  <node id='-113082' visible='true' lat='-34.0078563' lon='151.0574473' />
  <node id='-113084' visible='true' lat='-34.0186496' lon='151.0519346' />
  <node id='-113086' visible='true' lat='-34.0104106' lon='151.0591306' />
  <node id='-113088' visible='true' lat='-34.0346246' lon='151.042624' />
  <node id='-113090' visible='true' lat='-34.0170244' lon='151.0527715' />
  <node id='-113092' visible='true' lat='-34.0353326' lon='151.0464673' />
  <node id='-113094' visible='true' lat='-34.00813678963' lon='151.06051496054' />
  <node id='-113096' visible='true' lat='-34.035299' lon='151.0432792' />
  <node id='-113098' visible='true' lat='-34.007525' lon='151.0556476' />
  <node id='-113100' visible='true' lat='-34.0343541' lon='151.0421813' />
  <node id='-113102' visible='true' lat='-34.01326313405' lon='151.05410596053' />
  <node id='-113104' visible='true' lat='-34.0206684' lon='151.0510009' />
  <node id='-113106' visible='true' lat='-34.0312468' lon='151.0454759' />
  <node id='-113108' visible='true' lat='-34.0145277' lon='151.054193' />
  <node id='-113110' visible='true' lat='-34.0320426' lon='151.0444459' />
  <node id='-113112' visible='true' lat='-34.00918572055' lon='151.06364936559' />
  <node id='-113114' visible='true' lat='-34.0253721' lon='151.0514358' />
  <node id='-113116' visible='true' lat='-34.03568310454' lon='151.03914826308' />
  <node id='-113118' visible='true' lat='-34.0304288' lon='151.0476002' />
  <node id='-113120' visible='true' lat='-34.0085501' lon='151.0577504' />
  <node id='-113122' visible='true' lat='-34.0172734' lon='151.0520795' />
  <node id='-113124' visible='true' lat='-34.033429' lon='151.041755' />
  <node id='-113126' visible='true' lat='-34.0091682' lon='151.0577826' />
  <node id='-113128' visible='true' lat='-34.0166176' lon='151.0536459' />
  <node id='-113130' visible='true' lat='-34.0304422' lon='151.0479221' />
  <node id='-113132' visible='true' lat='-34.0335415' lon='151.0417376' />
  <node id='-113134' visible='true' lat='-34.01341836229' lon='151.05400311634' />
  <node id='-113136' visible='true' lat='-34.0348233' lon='151.0469833' />
  <node id='-113138' visible='true' lat='-34.0283664' lon='151.049165' />
  <node id='-113140' visible='true' lat='-34.0411338' lon='151.0270261' />
  <node id='-113142' visible='true' lat='-34.0331979' lon='151.0419453' />
  <node id='-113144' visible='true' lat='-34.0116317' lon='151.0585618' />
  <node id='-113146' visible='true' lat='-34.00812418835' lon='151.06749691513' />
  <node id='-113148' visible='true' lat='-34.0134828' lon='151.0539168' />
  <node id='-113150' visible='true' lat='-34.03211117538' lon='151.04107006784' />
  <node id='-113152' visible='true' lat='-34.0306511' lon='151.0467044' />
  <node id='-113154' visible='true' lat='-34.0249119' lon='151.0520581' />
  <node id='-113156' visible='true' lat='-34.0378727' lon='151.034848' />
  <node id='-113158' visible='true' lat='-34.00925346028' lon='151.05452428923' />
  <node id='-113160' visible='true' lat='-34.0233912' lon='151.0541315' />
  <node id='-113162' visible='true' lat='-34.0098563' lon='151.0577625' />
  <node id='-113164' visible='true' lat='-34.031661' lon='151.0425163' />
  <node id='-113166' visible='true' lat='-34.0338184' lon='151.0418592' />
  <node id='-113168' visible='true' lat='-34.0155815' lon='151.0543137' />
  <node id='-113170' visible='true' lat='-34.0350211' lon='151.0428508' />
  <node id='-113172' visible='true' lat='-34.0313402' lon='151.0451916' />
  <node id='-113174' visible='true' lat='-34.0072894' lon='151.0560848' />
  <node id='-113176' visible='true' lat='-34.0309756' lon='151.0462216' />
  <node id='-113178' visible='true' lat='-34.019369' lon='151.0516178' />
  <node id='-113180' visible='true' lat='-34.0392723' lon='151.0298267' />
  <node id='-113182' visible='true' lat='-34.0115783' lon='151.0588501' />
  <node id='-113184' visible='true' lat='-34.03127159756' lon='151.04120514677' />
  <node id='-113186' visible='true' lat='-34.0127156231' lon='151.05484662571' />
  <node id='-113188' visible='true' lat='-34.0086319' lon='151.0596429' />
  <node id='-113190' visible='true' lat='-34.0349651' lon='151.0428467' />
  <node id='-113192' visible='true' lat='-34.0336767' lon='151.0418066' />
  <node id='-113194' visible='true' lat='-34.0083566' lon='151.0548241' />
  <node id='-113196' visible='true' lat='-34.0224402' lon='151.053262' />
  <node id='-113198' visible='true' lat='-34.0390312' lon='151.031098' />
  <node id='-113200' visible='true' lat='-34.0103655' lon='151.0580615' />
  <node id='-113202' visible='true' lat='-34.0342921' lon='151.0472033' />
  <node id='-113204' visible='true' lat='-34.0147145' lon='151.0542199' />
  <node id='-113206' visible='true' lat='-34.0340653' lon='151.045948' />
  <node id='-113208' visible='true' lat='-34.0275933' lon='151.0492307' />
  <node id='-113210' visible='true' lat='-34.0316336' lon='151.0445908' />
  <node id='-113212' visible='true' lat='-34.0075918' lon='151.0571201' />
  <node id='-113214' visible='true' lat='-34.0188341' lon='151.0518917' />
  <node id='-113216' visible='true' lat='-34.0339498' lon='151.045771' />
  <node id='-113218' visible='true' lat='-34.0108975' lon='151.0591708' />
  <node id='-113220' visible='true' lat='-34.0354361' lon='151.0460877' />
  <node id='-113222' visible='true' lat='-34.0345' lon='151.0424013' />
  <node id='-113224' visible='true' lat='-34.00815557147' lon='151.06011562805' />
  <node id='-113226' visible='true' lat='-34.0343454' lon='151.0472488' />
  <node id='-113228' visible='true' lat='-34.0321901' lon='151.042423' />
  <node id='-113230' visible='true' lat='-34.0076251' lon='151.0554008' />
  <node id='-113232' visible='true' lat='-34.0307715' lon='151.0425284' />
  <node id='-113234' visible='true' lat='-34.01336874018' lon='151.0540077213' />
  <node id='-113236' visible='true' lat='-34.0211052' lon='151.051666' />
  <node id='-113238' visible='true' lat='-34.0347063' lon='151.0427367' />
  <node id='-113240' visible='true' lat='-34.0111359' lon='151.0583459' />
  <node id='-113242' visible='true' lat='-34.0342933' lon='151.0421434' />
  <node id='-113244' visible='true' lat='-34.0263575' lon='151.0502427' />
  <node id='-113246' visible='true' lat='-34.0081521' lon='151.0577477' />
  <node id='-113248' visible='true' lat='-34.0176469' lon='151.052007' />
  <node id='-113250' visible='true' lat='-34.0354345' lon='151.0453069' />
  <node id='-113252' visible='true' lat='-34.0088925' lon='151.0578282' />
  <node id='-113254' visible='true' lat='-34.041605' lon='151.0232066' />
  <node id='-113256' visible='true' lat='-34.0168755' lon='151.0532462' />
  <way id='-113258' action='modify' visible='true'>
    <nd ref='-112096' />
    <nd ref='-112094' />
    <nd ref='-112092' />
    <nd ref='-112090' />
    <nd ref='-112088' />
    <nd ref='-112086' />
    <nd ref='-112084' />
    <nd ref='-112082' />
    <nd ref='-112080' />
    <nd ref='-112078' />
    <nd ref='-112076' />
    <nd ref='-112074' />
    <nd ref='-112072' />
    <nd ref='-112070' />
    <nd ref='-112068' />
    <nd ref='-112066' />
    <nd ref='-112064' />
    <nd ref='-112062' />
    <nd ref='-112060' />
    <nd ref='-112058' />
    <nd ref='-112056' />
    <nd ref='-112054' />
    <nd ref='-112052' />
    <nd ref='-112050' />
    <nd ref='-112048' />
    <nd ref='-112046' />
    <nd ref='-112044' />
    <nd ref='-112042' />
    <nd ref='-112040' />
    <nd ref='-112038' />
    <nd ref='-112036' />
    <nd ref='-112034' />
    <nd ref='-112032' />
    <nd ref='-112030' />
    <nd ref='-112028' />
    <nd ref='-112026' />
    <nd ref='-112024' />
    <nd ref='-112022' />
    <nd ref='-112020' />
    <nd ref='-112018' />
    <nd ref='-112016' />
    <nd ref='-112014' />
    <nd ref='-112012' />
    <nd ref='-112010' />
    <nd ref='-112008' />
    <nd ref='-112006' />
    <nd ref='-112004' />
    <nd ref='-112002' />
    <nd ref='-112000' />
    <nd ref='-111998' />
    <nd ref='-111996' />
    <nd ref='-111994' />
    <nd ref='-111992' />
    <nd ref='-111990' />
    <nd ref='-111988' />
    <nd ref='-111986' />
    <nd ref='-111984' />
    <nd ref='-111982' />
    <nd ref='-111980' />
    <nd ref='-111978' />
    <nd ref='-111976' />
    <nd ref='-111974' />
    <nd ref='-111972' />
    <nd ref='-111970' />
    <nd ref='-111968' />
    <nd ref='-111966' />
    <nd ref='-111964' />
    <nd ref='-111962' />
    <nd ref='-111960' />
    <nd ref='-111958' />
    <nd ref='-111956' />
    <nd ref='-111954' />
    <nd ref='-111952' />
    <nd ref='-111950' />
    <nd ref='-111948' />
    <nd ref='-111946' />
    <nd ref='-111944' />
    <nd ref='-111942' />
    <nd ref='-111940' />
    <nd ref='-111938' />
    <nd ref='-111936' />
    <nd ref='-111934' />
    <nd ref='-111932' />
    <nd ref='-111930' />
    <nd ref='-111928' />
    <nd ref='-111926' />
    <nd ref='-111924' />
    <nd ref='-111922' />
    <nd ref='-111920' />
    <nd ref='-111918' />
    <nd ref='-111916' />
    <nd ref='-111914' />
    <nd ref='-111912' />
    <nd ref='-111910' />
    <nd ref='-111908' />
    <nd ref='-111906' />
    <nd ref='-111904' />
    <nd ref='-111902' />
    <nd ref='-111900' />
    <nd ref='-111898' />
    <nd ref='-111896' />
    <nd ref='-111894' />
    <nd ref='-111892' />
    <nd ref='-111890' />
    <nd ref='-111888' />
    <nd ref='-111886' />
    <nd ref='-111884' />
    <nd ref='-111882' />
    <nd ref='-111880' />
    <nd ref='-111878' />
    <nd ref='-111876' />
    <nd ref='-111874' />
    <nd ref='-111872' />
    <nd ref='-111870' />
    <nd ref='-111868' />
    <nd ref='-111866' />
    <nd ref='-111864' />
    <nd ref='-111862' />
    <nd ref='-111860' />
    <nd ref='-111858' />
    <nd ref='-111856' />
    <nd ref='-111854' />
    <nd ref='-111852' />
    <nd ref='-111850' />
    <nd ref='-111848' />
    <nd ref='-111846' />
    <nd ref='-111844' />
    <nd ref='-111842' />
    <nd ref='-111840' />
    <nd ref='-111838' />
    <nd ref='-111836' />
    <nd ref='-111834' />
    <nd ref='-111832' />
    <nd ref='-111830' />
    <nd ref='-111828' />
    <nd ref='-111826' />
    <nd ref='-111824' />
    <nd ref='-111822' />
    <nd ref='-111820' />
    <nd ref='-111818' />
    <nd ref='-111816' />
    <nd ref='-111814' />
    <nd ref='-111812' />
    <nd ref='-111810' />
    <nd ref='-111808' />
    <nd ref='-111806' />
    <nd ref='-111804' />
    <nd ref='-111802' />
    <nd ref='-111800' />
    <nd ref='-111798' />
    <nd ref='-111796' />
    <nd ref='-111794' />
    <nd ref='-111792' />
    <nd ref='-111790' />
    <nd ref='-111788' />
    <nd ref='-111786' />
    <nd ref='-111784' />
    <nd ref='-111782' />
    <nd ref='-111780' />
    <nd ref='-111778' />
    <nd ref='-111776' />
    <nd ref='-111774' />
    <nd ref='-111772' />
    <nd ref='-111770' />
    <nd ref='-111768' />
    <nd ref='-111766' />
    <nd ref='-111764' />
    <nd ref='-111762' />
    <nd ref='-111760' />
    <nd ref='-111758' />
    <nd ref='-111756' />
    <nd ref='-111754' />
    <nd ref='-111752' />
    <nd ref='-111750' />
    <nd ref='-111748' />
    <nd ref='-111746' />
    <nd ref='-111744' />
    <nd ref='-111742' />
    <nd ref='-111740' />
    <nd ref='-111738' />
    <nd ref='-111736' />
    <nd ref='-111734' />
    <nd ref='-111732' />
    <nd ref='-111730' />
    <nd ref='-111728' />
    <nd ref='-111726' />
    <nd ref='-111724' />
    <nd ref='-111722' />
    <nd ref='-111720' />
    <nd ref='-111718' />
    <nd ref='-111716' />
    <nd ref='-111714' />
    <nd ref='-111712' />
    <nd ref='-111710' />
    <nd ref='-111708' />
    <nd ref='-111706' />
    <nd ref='-111704' />
    <nd ref='-111702' />
    <nd ref='-111700' />
    <nd ref='-111698' />
    <nd ref='-111696' />
    <nd ref='-111694' />
    <nd ref='-111692' />
    <nd ref='-111690' />
    <nd ref='-111688' />
    <nd ref='-111686' />
    <nd ref='-111684' />
    <nd ref='-111682' />
    <nd ref='-111680' />
    <nd ref='-111678' />
    <nd ref='-111676' />
    <nd ref='-111674' />
    <nd ref='-111672' />
    <nd ref='-111670' />
    <nd ref='-111668' />
    <nd ref='-111666' />
    <nd ref='-112688' />
    <nd ref='-113254' />
    <nd ref='-112612' />
    <nd ref='-112830' />
    <nd ref='-112610' />
    <nd ref='-113072' />
    <nd ref='-112736' />
    <nd ref='-112908' />
    <nd ref='-112608' />
    <nd ref='-112606' />
    <nd ref='-113140' />
    <nd ref='-112816' />
    <nd ref='-112604' />
    <nd ref='-112806' />
    <nd ref='-112696' />
    <nd ref='-112602' />
    <nd ref='-113180' />
    <nd ref='-112600' />
    <nd ref='-113198' />
    <nd ref='-112598' />
    <nd ref='-112776' />
    <nd ref='-113078' />
    <nd ref='-113156' />
    <nd ref='-112630' />
    <nd ref='-112640' />
    <nd ref='-113060' />
    <nd ref='-112914' />
    <nd ref='-112772' />
    <nd ref='-112896' />
    <nd ref='-112842' />
    <nd ref='-113116' />
    <nd ref='-112742' />
    <nd ref='-112810' />
    <nd ref='-113036' />
    <nd ref='-113034' />
    <nd ref='-113150' />
    <nd ref='-113184' />
    <nd ref='-112596' />
    <nd ref='-112594' />
    <nd ref='-112990' />
    <nd ref='-112732' />
    <nd ref='-112592' />
    <nd ref='-112936' />
    <nd ref='-113004' />
    <nd ref='-113006' />
    <nd ref='-112958' />
    <nd ref='-112944' />
    <nd ref='-112590' />
    <nd ref='-112588' />
    <nd ref='-112754' />
    <nd ref='-112586' />
    <nd ref='-113232' />
    <nd ref='-112584' />
    <nd ref='-112848' />
    <nd ref='-112582' />
    <nd ref='-112580' />
    <nd ref='-112578' />
    <nd ref='-112838' />
    <nd ref='-112576' />
    <nd ref='-112722' />
    <nd ref='-112784' />
    <nd ref='-112574' />
    <nd ref='-112572' />
    <nd ref='-112570' />
    <nd ref='-112568' />
    <nd ref='-113164' />
    <nd ref='-112720' />
    <nd ref='-112894' />
    <nd ref='-112566' />
    <nd ref='-113040' />
    <nd ref='-112564' />
    <nd ref='-112562' />
    <nd ref='-112560' />
    <nd ref='-112558' />
    <nd ref='-113228' />
    <nd ref='-112556' />
    <nd ref='-112554' />
    <nd ref='-112552' />
    <nd ref='-112902' />
    <nd ref='-112692' />
    <nd ref='-112550' />
    <nd ref='-113066' />
    <nd ref='-112548' />
    <nd ref='-112700' />
    <nd ref='-112546' />
    <nd ref='-112544' />
    <nd ref='-112852' />
    <nd ref='-112542' />
    <nd ref='-112540' />
    <nd ref='-113142' />
    <nd ref='-112886' />
    <nd ref='-113052' />
    <nd ref='-112538' />
    <nd ref='-113124' />
    <nd ref='-112978' />
    <nd ref='-113132' />
    <nd ref='-112536' />
    <nd ref='-113192' />
    <nd ref='-112534' />
    <nd ref='-113166' />
    <nd ref='-112532' />
    <nd ref='-112530' />
    <nd ref='-112528' />
    <nd ref='-112526' />
    <nd ref='-112966' />
    <nd ref='-112872' />
    <nd ref='-112952' />
    <nd ref='-113242' />
    <nd ref='-113100' />
    <nd ref='-112524' />
    <nd ref='-112522' />
    <nd ref='-112520' />
    <nd ref='-113222' />
    <nd ref='-112518' />
    <nd ref='-112516' />
    <nd ref='-112514' />
    <nd ref='-113088' />
    <nd ref='-112512' />
    <nd ref='-113238' />
    <nd ref='-112510' />
    <nd ref='-112508' />
    <nd ref='-112506' />
    <nd ref='-112504' />
    <nd ref='-113190' />
    <nd ref='-113170' />
    <nd ref='-112502' />
    <nd ref='-112500' />
    <nd ref='-112820' />
    <nd ref='-112498' />
    <nd ref='-113010' />
    <nd ref='-112622' />
    <nd ref='-112496' />
    <nd ref='-113096' />
    <nd ref='-112948' />
    <nd ref='-112858' />
    <nd ref='-112494' />
    <nd ref='-112492' />
    <nd ref='-112490' />
    <nd ref='-112988' />
    <nd ref='-112744' />
    <nd ref='-112626' />
    <nd ref='-112488' />
    <nd ref='-112788' />
    <nd ref='-112676' />
    <nd ref='-112486' />
    <nd ref='-112484' />
    <nd ref='-112748' />
    <nd ref='-112482' />
    <nd ref='-112834' />
    <nd ref='-112480' />
    <nd ref='-113020' />
    <nd ref='-112478' />
    <nd ref='-113250' />
    <nd ref='-112890' />
    <nd ref='-112476' />
    <nd ref='-112474' />
    <nd ref='-112472' />
    <nd ref='-112470' />
    <nd ref='-112468' />
    <nd ref='-112658' />
    <nd ref='-112466' />
    <nd ref='-112464' />
    <nd ref='-112462' />
    <nd ref='-112998' />
    <nd ref='-113220' />
    <nd ref='-112460' />
    <nd ref='-112916' />
    <nd ref='-112794' />
    <nd ref='-112458' />
    <nd ref='-112762' />
    <nd ref='-113092' />
    <nd ref='-112456' />
    <nd ref='-112874' />
    <nd ref='-112804' />
    <nd ref='-112984' />
    <nd ref='-112846' />
    <nd ref='-112668' />
    <nd ref='-112922' />
    <nd ref='-113136' />
    <nd ref='-113000' />
    <nd ref='-112844' />
    <nd ref='-112454' />
    <nd ref='-112452' />
    <nd ref='-113226' />
    <nd ref='-113202' />
    <nd ref='-112450' />
    <nd ref='-112662' />
    <nd ref='-112764' />
    <nd ref='-112448' />
    <nd ref='-112446' />
    <nd ref='-112970' />
    <nd ref='-113206' />
    <nd ref='-112444' />
    <nd ref='-113216' />
    <nd ref='-112442' />
    <nd ref='-113032' />
    <nd ref='-112440' />
    <nd ref='-113050' />
    <nd ref='-112438' />
    <nd ref='-112436' />
    <nd ref='-112824' />
    <nd ref='-112434' />
    <nd ref='-112758' />
    <nd ref='-112432' />
    <nd ref='-112730' />
    <nd ref='-112430' />
    <nd ref='-113110' />
    <nd ref='-112752' />
    <nd ref='-113014' />
    <nd ref='-113210' />
    <nd ref='-112428' />
    <nd ref='-112920' />
    <nd ref='-112426' />
    <nd ref='-112424' />
    <nd ref='-113024' />
    <nd ref='-113172' />
    <nd ref='-112422' />
    <nd ref='-113106' />
    <nd ref='-112420' />
    <nd ref='-112666' />
    <nd ref='-113176' />
    <nd ref='-112792' />
    <nd ref='-112418' />
    <nd ref='-112678' />
    <nd ref='-113152' />
    <nd ref='-112416' />
    <nd ref='-112414' />
    <nd ref='-112412' />
    <nd ref='-112964' />
    <nd ref='-113118' />
    <nd ref='-112410' />
    <nd ref='-112930' />
    <nd ref='-113130' />
    <nd ref='-112408' />
    <nd ref='-112778' />
    <nd ref='-112406' />
    <nd ref='-112404' />
    <nd ref='-112954' />
    <nd ref='-113062' />
    <nd ref='-112402' />
    <nd ref='-112400' />
    <nd ref='-112398' />
    <nd ref='-112396' />
    <nd ref='-112394' />
    <nd ref='-112654' />
    <nd ref='-112392' />
    <nd ref='-112390' />
    <nd ref='-112632' />
    <nd ref='-112986' />
    <nd ref='-112388' />
    <nd ref='-112386' />
    <nd ref='-112384' />
    <nd ref='-112876' />
    <nd ref='-113138' />
    <nd ref='-112382' />
    <nd ref='-112380' />
    <nd ref='-112760' />
    <nd ref='-113026' />
    <nd ref='-112682' />
    <nd ref='-112938' />
    <nd ref='-112378' />
    <nd ref='-112376' />
    <nd ref='-112374' />
    <nd ref='-112822' />
    <nd ref='-113208' />
    <nd ref='-112372' />
    <nd ref='-112370' />
    <nd ref='-112710' />
    <nd ref='-113080' />
    <nd ref='-112368' />
    <nd ref='-112366' />
    <nd ref='-112616' />
    <nd ref='-112968' />
    <nd ref='-113244' />
    <nd ref='-112364' />
    <nd ref='-112362' />
    <nd ref='-112860' />
    <nd ref='-113114' />
    <nd ref='-112360' />
    <nd ref='-112358' />
    <nd ref='-112734' />
    <nd ref='-113008' />
    <nd ref='-113154' />
    <nd ref='-112356' />
    <nd ref='-112642' />
    <nd ref='-112888' />
    <nd ref='-113038' />
    <nd ref='-112354' />
    <nd ref='-112352' />
    <nd ref='-112774' />
    <nd ref='-112350' />
    <nd ref='-112348' />
    <nd ref='-112892' />
    <nd ref='-113160' />
    <nd ref='-112346' />
    <nd ref='-112344' />
    <nd ref='-112782' />
    <nd ref='-113046' />
    <nd ref='-113196' />
    <nd ref='-112342' />
    <nd ref='-112672' />
    <nd ref='-112928' />
    <nd ref='-113074' />
    <nd ref='-112340' />
    <nd ref='-112338' />
    <nd ref='-112814' />
    <nd ref='-112960' />
    <nd ref='-113236' />
    <nd ref='-112336' />
    <nd ref='-112704' />
    <nd ref='-112854' />
    <nd ref='-113104' />
    <nd ref='-112334' />
    <nd ref='-112332' />
    <nd ref='-112726' />
    <nd ref='-112996' />
    <nd ref='-112330' />
    <nd ref='-112328' />
    <nd ref='-112636' />
    <nd ref='-112882' />
    <nd ref='-112326' />
    <nd ref='-112324' />
    <nd ref='-113178' />
    <nd ref='-112322' />
    <nd ref='-112656' />
    <nd ref='-112906' />
    <nd ref='-113058' />
    <nd ref='-112320' />
    <nd ref='-112318' />
    <nd ref='-112798' />
    <nd ref='-112942' />
    <nd ref='-113214' />
    <nd ref='-112316' />
    <nd ref='-112686' />
    <nd ref='-112828' />
    <nd ref='-113084' />
    <nd ref='-112314' />
    <nd ref='-112312' />
    <nd ref='-112714' />
    <nd ref='-112976' />
    <nd ref='-112310' />
    <nd ref='-112308' />
    <nd ref='-112620' />
    <nd ref='-112866' />
    <nd ref='-113248' />
    <nd ref='-112306' />
    <nd ref='-112304' />
    <nd ref='-112740' />
    <nd ref='-113122' />
    <nd ref='-112302' />
    <nd ref='-112300' />
    <nd ref='-112646' />
    <nd ref='-113012' />
    <nd ref='-112298' />
    <nd ref='-113090' />
    <nd ref='-112296' />
    <nd ref='-112294' />
    <nd ref='-112836' />
    <nd ref='-112982' />
    <nd ref='-113256' />
    <nd ref='-112292' />
    <nd ref='-112718' />
    <nd ref='-112870' />
    <nd ref='-113128' />
    <nd ref='-112290' />
    <nd ref='-112628' />
    <nd ref='-112750' />
    <nd ref='-113018' />
    <nd ref='-112288' />
    <nd ref='-112286' />
    <nd ref='-112650' />
    <nd ref='-112900' />
    <nd ref='-112284' />
    <nd ref='-112282' />
    <nd ref='-112280' />
    <nd ref='-112790' />
    <nd ref='-113168' />
    <nd ref='-112278' />
    <nd ref='-112276' />
    <nd ref='-112680' />
    <nd ref='-113054' />
    <nd ref='-112274' />
    <nd ref='-112272' />
    <nd ref='-112270' />
    <nd ref='-112934' />
    <nd ref='-113204' />
    <nd ref='-112856' />
    <nd ref='-113108' />
    <nd ref='-112268' />
    <nd ref='-112266' />
    <nd ref='-112728' />
    <nd ref='-113002' />
    <nd ref='-112264' />
    <nd ref='-112262' />
    <nd ref='-112638' />
    <nd ref='-112884' />
    <nd ref='-112260' />
    <nd ref='-112258' />
    <nd ref='-112256' />
    <nd ref='-112770' />
    <nd ref='-113148' />
    <nd ref='-112254' />
    <nd ref='-113134' />
    <nd ref='-113234' />
    <nd ref='-112702' />
    <nd ref='-113102' />
    <nd ref='-112252' />
    <nd ref='-112994' />
    <nd ref='-112250' />
    <nd ref='-112880' />
    <nd ref='-112248' />
    <nd ref='-112768' />
    <nd ref='-112246' />
    <nd ref='-112664' />
    <nd ref='-112244' />
    <nd ref='-112242' />
    <nd ref='-113186' />
    <nd ref='-112240' />
    <nd ref='-113064' />
    <nd ref='-112974' />
    <nd ref='-112238' />
    <nd ref='-112864' />
    <nd ref='-112236' />
    <nd ref='-112738' />
    <nd ref='-112234' />
    <nd ref='-112644' />
    <nd ref='-112232' />
    <nd ref='-112230' />
    <nd ref='-113158' />
    <nd ref='-112228' />
    <nd ref='-113044' />
    <nd ref='-112226' />
    <nd ref='-112926' />
    <nd ref='-112224' />
    <nd ref='-112812' />
    <nd ref='-112222' />
    <nd ref='-112220' />
    <nd ref='-112780' />
    <nd ref='-112924' />
    <nd ref='-113194' />
    <nd ref='-112218' />
    <nd ref='-112670' />
    <nd ref='-112808' />
    <nd ref='-113070' />
    <nd ref='-112216' />
    <nd ref='-112214' />
    <nd ref='-112698' />
    <nd ref='-112956' />
    <nd ref='-112212' />
    <nd ref='-112210' />
    <nd ref='-112208' />
    <nd ref='-112850' />
    <nd ref='-113230' />
    <nd ref='-112206' />
    <nd ref='-112204' />
    <nd ref='-112724' />
    <nd ref='-113098' />
    <nd ref='-112202' />
    <nd ref='-113022' />
    <nd ref='-112200' />
    <nd ref='-112198' />
    <nd ref='-112756' />
    <nd ref='-112904' />
    <nd ref='-113174' />
    <nd ref='-112196' />
    <nd ref='-112652' />
    <nd ref='-112796' />
    <nd ref='-113056' />
    <nd ref='-112194' />
    <nd ref='-112192' />
    <nd ref='-112684' />
    <nd ref='-112940' />
    <nd ref='-112190' />
    <nd ref='-112188' />
    <nd ref='-112186' />
    <nd ref='-112826' />
    <nd ref='-113212' />
    <nd ref='-112184' />
    <nd ref='-112182' />
    <nd ref='-112712' />
    <nd ref='-113082' />
    <nd ref='-112180' />
    <nd ref='-112178' />
    <nd ref='-112618' />
    <nd ref='-112972' />
    <nd ref='-113246' />
    <nd ref='-112176' />
    <nd ref='-112174' />
    <nd ref='-112862' />
    <nd ref='-113120' />
    <nd ref='-112624' />
    <nd ref='-112868' />
    <nd ref='-113252' />
    <nd ref='-112172' />
    <nd ref='-112170' />
    <nd ref='-112746' />
    <nd ref='-113126' />
    <nd ref='-112168' />
    <nd ref='-112166' />
    <nd ref='-112648' />
    <nd ref='-113016' />
    <nd ref='-112164' />
    <nd ref='-112162' />
    <nd ref='-112160' />
    <nd ref='-112898' />
    <nd ref='-113162' />
    <nd ref='-112158' />
    <nd ref='-112156' />
    <nd ref='-112786' />
    <nd ref='-113048' />
    <nd ref='-113200' />
    <nd ref='-112154' />
    <nd ref='-112674' />
    <nd ref='-112932' />
    <nd ref='-113076' />
    <nd ref='-112152' />
    <nd ref='-112150' />
    <nd ref='-112818' />
    <nd ref='-112962' />
    <nd ref='-113240' />
    <nd ref='-112148' />
    <nd ref='-112706' />
    <nd ref='-112146' />
    <nd ref='-112634' />
    <nd ref='-112992' />
    <nd ref='-112144' />
    <nd ref='-112142' />
    <nd ref='-112140' />
    <nd ref='-112878' />
    <nd ref='-113144' />
    <nd ref='-112138' />
    <nd ref='-112136' />
    <nd ref='-112766' />
    <nd ref='-113028' />
    <nd ref='-113182' />
    <nd ref='-112134' />
    <nd ref='-112660' />
    <nd ref='-112910' />
    <nd ref='-113042' />
    <nd ref='-112132' />
    <nd ref='-112130' />
    <nd ref='-112800' />
    <nd ref='-112946' />
    <nd ref='-113218' />
    <nd ref='-112128' />
    <nd ref='-112690' />
    <nd ref='-112832' />
    <nd ref='-113086' />
    <nd ref='-112126' />
    <nd ref='-112124' />
    <nd ref='-112716' />
    <nd ref='-112980' />
    <nd ref='-112122' />
    <nd ref='-112120' />
    <nd ref='-112118' />
    <nd ref='-112116' />
    <nd ref='-112918' />
    <nd ref='-113188' />
    <nd ref='-112114' />
    <nd ref='-112112' />
    <nd ref='-112802' />
    <nd ref='-113068' />
    <nd ref='-113224' />
    <nd ref='-112110' />
    <nd ref='-112694' />
    <nd ref='-112950' />
    <nd ref='-113094' />
    <nd ref='-112108' />
    <nd ref='-112106' />
    <nd ref='-112840' />
    <nd ref='-112708' />
    <nd ref='-113112' />
    <nd ref='-112104' />
    <nd ref='-112102' />
    <nd ref='-113146' />
    <nd ref='-112100' />
    <nd ref='-113030' />
    <nd ref='-112098' />
    <nd ref='-112912' />
    <tag k='name' v='Engadine to Como via Forbes Creek' />
    <tag k='photo' v='136319147@N08/22942960660' />
    <tag k='role' v='primary' />
    <tag k='style' v='oneway' />
    <tag k='transport' v='train;carshuffle' />
  </way>
</osm>
