<?xml version='1.0' encoding='UTF-8'?>
<osm version='0.6' upload='false' generator='JOSM'>
  <node id='-113364' action='modify' visible='true' lat='-33.85736225173' lon='150.21441561332' />
  <node id='-113366' action='modify' visible='true' lat='-33.82911920068' lon='150.22923176666' />
  <node id='-113368' action='modify' visible='true' lat='-33.83015718731' lon='150.22921488102' />
  <node id='-113370' action='modify' visible='true' lat='-33.83062006918' lon='150.2293246377' />
  <node id='-113372' action='modify' visible='true' lat='-33.83155283866' lon='150.22931619488' />
  <node id='-113374' action='modify' visible='true' lat='-33.85539434198' lon='150.21367292497' />
  <node id='-113376' action='modify' visible='true' lat='-33.8537048435' lon='150.21306264949' />
  <node id='-113378' action='modify' visible='true' lat='-33.85206961572' lon='150.21399213566' />
  <node id='-113380' action='modify' visible='true' lat='-33.85103999997' lon='150.21463892492' />
  <node id='-113382' action='modify' visible='true' lat='-33.85021309753' lon='150.21526204613' />
  <node id='-113384' action='modify' visible='true' lat='-33.85014739671' lon='150.21637227991' />
  <node id='-113386' action='modify' visible='true' lat='-33.84936848134' lon='150.21676977363' />
  <node id='-113388' action='modify' visible='true' lat='-33.8473966016' lon='150.21762204275' />
  <node id='-113390' action='modify' visible='true' lat='-33.84606525302' lon='150.21858457435' />
  <node id='-113392' action='modify' visible='true' lat='-33.8451763909' lon='150.21931527413' />
  <node id='-113394' action='modify' visible='true' lat='-33.84454091239' lon='150.21888714356' />
  <node id='-113396' action='modify' visible='true' lat='-33.8437598062' lon='150.21893279855' />
  <node id='-113398' action='modify' visible='true' lat='-33.8416746977' lon='150.21972655668' />
  <node id='-113400' action='modify' visible='true' lat='-33.84172079242' lon='150.22011551314' />
  <node id='-113402' action='modify' visible='true' lat='-33.84085024927' lon='150.2214431974' />
  <node id='-113404' action='modify' visible='true' lat='-33.84048852131' lon='150.22199490206' />
  <node id='-113406' action='modify' visible='true' lat='-33.83997529933' lon='150.22288901681' />
  <node id='-113408' action='modify' visible='true' lat='-33.83725622061' lon='150.22455799786' />
  <node id='-113410' action='modify' visible='true' lat='-33.8354819408' lon='150.22561303172' />
  <node id='-113412' action='modify' visible='true' lat='-33.834363083' lon='150.22670999424' />
  <node id='-113414' action='modify' visible='true' lat='-33.83301928615' lon='150.22884105636' />
  <node id='-113416' visible='true' lat='-33.8307821' lon='150.2460597' />
  <node id='-113418' visible='true' lat='-33.8314238' lon='150.2450297' />
  <node id='-113420' visible='true' lat='-33.8310673' lon='150.2441714' />
  <node id='-113422' visible='true' lat='-33.8313169' lon='150.2431843' />
  <node id='-113424' visible='true' lat='-33.8315308' lon='150.2426264' />
  <node id='-113426' visible='true' lat='-33.8313525' lon='150.2412102' />
  <node id='-113428' visible='true' lat='-33.8312812' lon='150.2406952' />
  <node id='-113430' visible='true' lat='-33.8314595' lon='150.2399657' />
  <node id='-113432' visible='true' lat='-33.8314595' lon='150.2393219' />
  <node id='-113434' visible='true' lat='-33.8319586' lon='150.2385924' />
  <node id='-113436' visible='true' lat='-33.8326359' lon='150.2378628' />
  <node id='-113438' visible='true' lat='-33.8327785' lon='150.2368758' />
  <node id='-113440' visible='true' lat='-33.8325289' lon='150.2355883' />
  <node id='-113442' visible='true' lat='-33.8322794' lon='150.2348158' />
  <node id='-113444' visible='true' lat='-33.8325646' lon='150.2337' />
  <node id='-113446' visible='true' lat='-33.832422' lon='150.2323697' />
  <node id='-113448' visible='true' lat='-33.8324933' lon='150.2309105' />
  <node id='-113450' visible='true' lat='-33.83275895587' lon='150.22959134923' />
  <node id='-113452' visible='true' lat='-33.8330425' lon='150.2288579' />
  <node id='-113454' visible='true' lat='-33.8343826' lon='150.2267327' />
  <node id='-113456' visible='true' lat='-33.8354966' lon='150.2256405' />
  <node id='-113458' visible='true' lat='-33.8372683' lon='150.224587' />
  <node id='-113460' visible='true' lat='-33.8399936' lon='150.2229142' />
  <node id='-113462' visible='true' lat='-33.8405102' lon='150.2220142' />
  <node id='-113464' visible='true' lat='-33.8408714' lon='150.2214633' />
  <node id='-113466' visible='true' lat='-33.8417491' lon='150.2201247' />
  <node id='-113468' visible='true' lat='-33.8417046' lon='150.2197492' />
  <node id='-113470' visible='true' lat='-33.8437646' lon='150.218965' />
  <node id='-113472' visible='true' lat='-33.8445345' lon='150.21892' />
  <node id='-113474' visible='true' lat='-33.8451778' lon='150.2193534' />
  <node id='-113476' visible='true' lat='-33.8460798' lon='150.2186119' />
  <node id='-113478' visible='true' lat='-33.8474082' lon='150.2176515' />
  <node id='-113480' visible='true' lat='-33.8493783' lon='150.2168' />
  <node id='-113482' visible='true' lat='-33.8501731' lon='150.2163944' />
  <node id='-113484' visible='true' lat='-33.850239' lon='150.2152808' />
  <node id='-113486' visible='true' lat='-33.8510534' lon='150.2146671' />
  <node id='-113488' visible='true' lat='-33.8520816' lon='150.2140212' />
  <node id='-113490' visible='true' lat='-33.853707' lon='150.2130973' />
  <node id='-113492' visible='true' lat='-33.8553866' lon='150.213704' />
  <node id='-113494' action='modify' visible='true' lat='-33.85736097727' lon='150.21442222768' />
  <node id='-113496' visible='true' lat='-33.7893666' lon='150.2300027' />
  <node id='-113498' visible='true' lat='-33.7892596' lon='150.2299598' />
  <node id='-113500' visible='true' lat='-33.789067' lon='150.2299941' />
  <node id='-113502' visible='true' lat='-33.7889243' lon='150.2299512' />
  <node id='-113504' visible='true' lat='-33.788853' lon='150.2298053' />
  <node id='-113506' visible='true' lat='-33.788853' lon='150.2296508' />
  <node id='-113508' visible='true' lat='-33.7889172' lon='150.2292817' />
  <node id='-113510' visible='true' lat='-33.7891383' lon='150.2287753' />
  <node id='-113512' visible='true' lat='-33.7892168' lon='150.2285522' />
  <node id='-113514' visible='true' lat='-33.7892596' lon='150.228329' />
  <node id='-113516' visible='true' lat='-33.789231' lon='150.2282432' />
  <node id='-113518' action='modify' visible='true' lat='-33.789362' lon='150.2281624' />
  <node id='-113520' visible='true' lat='-33.7894645' lon='150.2282145' />
  <node id='-113522' visible='true' lat='-33.7895804' lon='150.2282467' />
  <node id='-113524' visible='true' lat='-33.7897855' lon='150.2281609' />
  <node id='-113526' visible='true' lat='-33.790053' lon='150.2280858' />
  <node id='-113528' visible='true' lat='-33.7902313' lon='150.2280965' />
  <node id='-113530' visible='true' lat='-33.7905434' lon='150.2282896' />
  <node id='-113532' visible='true' lat='-33.7908102' lon='150.2283731' />
  <node id='-113534' visible='true' lat='-33.7911586' lon='150.2281072' />
  <node id='-113536' visible='true' lat='-33.7912478' lon='150.2277854' />
  <node id='-113538' visible='true' lat='-33.7914796' lon='150.2273347' />
  <node id='-113540' visible='true' lat='-33.7915331' lon='150.2271202' />
  <node id='-113542' visible='true' lat='-33.7917471' lon='150.2270987' />
  <node id='-113544' visible='true' lat='-33.7919611' lon='150.2266696' />
  <node id='-113546' visible='true' lat='-33.7922286' lon='150.2264121' />
  <node id='-113548' visible='true' lat='-33.7923802' lon='150.2262619' />
  <node id='-113550' visible='true' lat='-33.7924247' lon='150.22594' />
  <node id='-113552' visible='true' lat='-33.7922286' lon='150.225822' />
  <node id='-113554' visible='true' lat='-33.7921305' lon='150.2257254' />
  <node id='-113556' visible='true' lat='-33.7923356' lon='150.2255645' />
  <node id='-113558' visible='true' lat='-33.7924515' lon='150.2253285' />
  <node id='-113560' visible='true' lat='-33.7925139' lon='150.2250817' />
  <node id='-113562' visible='true' lat='-33.7930221' lon='150.2252855' />
  <node id='-113564' visible='true' lat='-33.7934768' lon='150.2253714' />
  <node id='-113566' visible='true' lat='-33.7937443' lon='150.2253177' />
  <node id='-113568' visible='true' lat='-33.7939672' lon='150.225307' />
  <node id='-113570' visible='true' lat='-33.794101' lon='150.2251461' />
  <node id='-113572' visible='true' lat='-33.794208' lon='150.2246096' />
  <node id='-113574' visible='true' lat='-33.794627' lon='150.2244272' />
  <node id='-113576' visible='true' lat='-33.7950372' lon='150.224041' />
  <node id='-113578' visible='true' lat='-33.795474' lon='150.223762' />
  <node id='-113580' visible='true' lat='-33.7957861' lon='150.2231934' />
  <node id='-113582' visible='true' lat='-33.7959555' lon='150.2226784' />
  <node id='-113584' visible='true' lat='-33.7962408' lon='150.2221313' />
  <node id='-113586' visible='true' lat='-33.7966064' lon='150.2220562' />
  <node id='-113588' visible='true' lat='-33.7969006' lon='150.2222386' />
  <node id='-113590' visible='true' lat='-33.7974266' lon='150.2222386' />
  <node id='-113592' visible='true' lat='-33.7975871' lon='150.2224209' />
  <node id='-113594' visible='true' lat='-33.7978724' lon='150.2224853' />
  <node id='-113596' visible='true' lat='-33.7980864' lon='150.2221956' />
  <node id='-113598' visible='true' lat='-33.7988442' lon='150.2218523' />
  <node id='-113600' visible='true' lat='-33.7990493' lon='150.2214983' />
  <node id='-113602' visible='true' lat='-33.7996555' lon='150.2215519' />
  <node id='-113604' visible='true' lat='-33.8001815' lon='150.2217772' />
  <node id='-113606' visible='true' lat='-33.8010374' lon='150.2215734' />
  <node id='-113608' visible='true' lat='-33.8016526' lon='150.2216056' />
  <node id='-113610' visible='true' lat='-33.8020449' lon='150.2212086' />
  <node id='-113612' visible='true' lat='-33.8023836' lon='150.2206829' />
  <node id='-113614' visible='true' lat='-33.8026778' lon='150.2205541' />
  <node id='-113616' visible='true' lat='-33.8030612' lon='150.220007' />
  <node id='-113618' visible='true' lat='-33.803712' lon='150.2198246' />
  <node id='-113620' visible='true' lat='-33.8047194' lon='150.2196422' />
  <node id='-113622' visible='true' lat='-33.8055307' lon='150.2193954' />
  <node id='-113624' visible='true' lat='-33.8058962' lon='150.2191486' />
  <node id='-113626' visible='true' lat='-33.8062082' lon='150.2192345' />
  <node id='-113628' visible='true' lat='-33.8065113' lon='150.2191057' />
  <node id='-113630' visible='true' lat='-33.8067163' lon='150.2190521' />
  <node id='-113632' visible='true' lat='-33.8067609' lon='150.218698' />
  <node id='-113634' visible='true' lat='-33.8068322' lon='150.2183547' />
  <node id='-113636' visible='true' lat='-33.806852' lon='150.2181808' />
  <node id='-113638' visible='true' lat='-33.8070599' lon='150.2183973' />
  <node id='-113640' visible='true' lat='-33.807363' lon='150.2190625' />
  <node id='-113642' visible='true' lat='-33.8077552' lon='150.2194058' />
  <node id='-113644' visible='true' lat='-33.8083793' lon='150.2197277' />
  <node id='-113646' visible='true' lat='-33.8090389' lon='150.220071' />
  <node id='-113648' visible='true' lat='-33.8096986' lon='150.2202427' />
  <node id='-113650' visible='true' lat='-33.8103405' lon='150.2203929' />
  <node id='-113652' visible='true' lat='-33.8108932' lon='150.2205646' />
  <node id='-113654' visible='true' lat='-33.8111071' lon='150.220822' />
  <node id='-113656' visible='true' lat='-33.8113745' lon='150.2211654' />
  <node id='-113658' visible='true' lat='-33.8121233' lon='150.2216589' />
  <node id='-113660' visible='true' lat='-33.8128899' lon='150.2222168' />
  <node id='-113662' visible='true' lat='-33.8137992' lon='150.2225601' />
  <node id='-113664' visible='true' lat='-33.8142984' lon='150.2228176' />
  <node id='-113666' visible='true' lat='-33.8143162' lon='150.2231824' />
  <node id='-113668' visible='true' lat='-33.8144232' lon='150.2235472' />
  <node id='-113670' visible='true' lat='-33.8148332' lon='150.2239763' />
  <node id='-113672' visible='true' lat='-33.8155998' lon='150.2245128' />
  <node id='-113674' visible='true' lat='-33.8164912' lon='150.2250063' />
  <node id='-113676' visible='true' lat='-33.8173291' lon='150.2253067' />
  <node id='-113678' visible='true' lat='-33.8179887' lon='150.2251565' />
  <node id='-113680' visible='true' lat='-33.8184344' lon='150.2252423' />
  <node id='-113682' visible='true' lat='-33.8191653' lon='150.2257359' />
  <node id='-113684' visible='true' lat='-33.8201814' lon='150.2257788' />
  <node id='-113686' visible='true' lat='-33.8212867' lon='150.2255427' />
  <node id='-113688' visible='true' lat='-33.8217858' lon='150.2257788' />
  <node id='-113690' visible='true' lat='-33.8226593' lon='150.2265512' />
  <node id='-113692' visible='true' lat='-33.8238537' lon='150.226916' />
  <node id='-113694' visible='true' lat='-33.8248519' lon='150.2271735' />
  <node id='-113696' visible='true' lat='-33.8256897' lon='150.2276885' />
  <node id='-113698' visible='true' lat='-33.8266345' lon='150.2279889' />
  <node id='-113700' visible='true' lat='-33.827597' lon='150.2284395' />
  <node id='-113702' visible='true' lat='-33.8285596' lon='150.2288687' />
  <node id='-113704' visible='true' lat='-33.8287646' lon='150.2291584' />
  <node id='-113706' visible='true' lat='-33.8286844' lon='150.2300274' />
  <node id='-113708' visible='true' lat='-33.8288804' lon='150.2313256' />
  <node id='-113710' visible='true' lat='-33.8287735' lon='150.2324306' />
  <node id='-113712' visible='true' lat='-33.8287646' lon='150.2334606' />
  <node id='-113714' visible='true' lat='-33.8285329' lon='150.2343082' />
  <node id='-113716' visible='true' lat='-33.8283724' lon='150.2351665' />
  <node id='-113718' visible='true' lat='-33.8283368' lon='150.235939' />
  <node id='-113720' visible='true' lat='-33.8283903' lon='150.2371191' />
  <node id='-113722' visible='true' lat='-33.8284081' lon='150.2393507' />
  <node id='-113724' visible='true' lat='-33.8287378' lon='150.2406275' />
  <node id='-113726' visible='true' lat='-33.8287468' lon='150.2417325' />
  <node id='-113728' visible='true' lat='-33.8293528' lon='150.2433633' />
  <node id='-113730' visible='true' lat='-33.8299143' lon='150.2442753' />
  <node id='-113732' visible='true' lat='-33.8304312' lon='150.2449619' />
  <node id='-113734' visible='true' lat='-33.8307821' lon='150.2460597' />
  <node id='-113736' visible='true' lat='-33.8303544' lon='150.2467892' />
  <node id='-113738' visible='true' lat='-33.8298196' lon='150.2481196' />
  <node id='-113740' visible='true' lat='-33.8293918' lon='150.2485487' />
  <node id='-113742' visible='true' lat='-33.8287858' lon='150.2488921' />
  <node id='-113744' visible='true' lat='-33.8284293' lon='150.2498791' />
  <node id='-113746' visible='true' lat='-33.828251' lon='150.251467' />
  <node id='-113748' visible='true' lat='-33.8283009' lon='150.2524579' />
  <node id='-113750' visible='true' lat='-33.7913506' lon='150.2428215' />
  <node id='-113752' visible='true' lat='-33.7914748' lon='150.2420236' />
  <node id='-113754' visible='true' lat='-33.7916583' lon='150.2413141' />
  <node id='-113756' visible='true' lat='-33.791792' lon='150.2406543' />
  <node id='-113758' visible='true' lat='-33.7919614' lon='150.2403163' />
  <node id='-113760' visible='true' lat='-33.7919703' lon='150.2394849' />
  <node id='-113762' visible='true' lat='-33.7918455' lon='150.2391469' />
  <node id='-113764' visible='true' lat='-33.7916651' lon='150.2387757' />
  <node id='-113766' visible='true' lat='-33.7916633' lon='150.2382424' />
  <node id='-113768' visible='true' lat='-33.7914145' lon='150.2369384' />
  <node id='-113770' visible='true' lat='-33.791043' lon='150.2369153' />
  <node id='-113772' visible='true' lat='-33.7907978' lon='150.2366364' />
  <node id='-113774' visible='true' lat='-33.7904912' lon='150.2360417' />
  <node id='-113776' visible='true' lat='-33.790245' lon='150.235542' />
  <node id='-113778' visible='true' lat='-33.7899285' lon='150.2350646' />
  <node id='-113780' visible='true' lat='-33.7897724' lon='150.2347105' />
  <node id='-113782' visible='true' lat='-33.7897457' lon='150.2344477' />
  <node id='-113784' visible='true' lat='-33.7896908' lon='150.2341141' />
  <node id='-113786' visible='true' lat='-33.7899329' lon='150.2335143' />
  <node id='-113788' visible='true' lat='-33.7902272' lon='150.2331334' />
  <node id='-113790' visible='true' lat='-33.7904991' lon='150.2327096' />
  <node id='-113792' visible='true' lat='-33.7905036' lon='150.2325594' />
  <node id='-113794' visible='true' lat='-33.7904858' lon='150.2323234' />
  <node id='-113796' visible='true' lat='-33.7905997' lon='150.2317861' />
  <node id='-113798' action='modify' visible='true' lat='-33.7904936' lon='150.2314447' />
  <node id='-113800' visible='true' lat='-33.7902225' lon='150.2311443' />
  <node id='-113802' action='modify' visible='true' lat='-33.78981851656' lon='150.23061242799' />
  <node id='-113804' visible='true' lat='-33.7897945' lon='150.2305864' />
  <node id='-113806' visible='true' lat='-33.7917752' lon='150.2373123' />
  <node id='-113808' visible='true' lat='-33.7918446' lon='150.2370333' />
  <node id='-113810' visible='true' lat='-33.7920943' lon='150.2368188' />
  <node id='-113812' visible='true' lat='-33.7923083' lon='150.2363038' />
  <node id='-113814' visible='true' lat='-33.7925579' lon='150.2359175' />
  <node id='-113816' visible='true' lat='-33.7928789' lon='150.2354455' />
  <node id='-113818' visible='true' lat='-33.7931999' lon='150.2351451' />
  <node id='-113820' visible='true' lat='-33.7935565' lon='150.2351451' />
  <node id='-113822' visible='true' lat='-33.7939845' lon='150.2347159' />
  <node id='-113824' visible='true' lat='-33.7941628' lon='150.2343726' />
  <node id='-113826' visible='true' lat='-33.7943768' lon='150.2339434' />
  <node id='-113828' visible='true' lat='-33.7946265' lon='150.2334285' />
  <node id='-113830' visible='true' lat='-33.7948761' lon='150.233128' />
  <node id='-113832' visible='true' lat='-33.7950544' lon='150.2325272' />
  <node id='-113834' visible='true' lat='-33.7952328' lon='150.2319264' />
  <node id='-113836' visible='true' lat='-33.7955181' lon='150.2314543' />
  <node id='-113838' visible='true' lat='-33.795839' lon='150.2310252' />
  <node id='-113840' visible='true' lat='-33.7961957' lon='150.2306819' />
  <node id='-113842' visible='true' lat='-33.796267' lon='150.2302956' />
  <node id='-113844' visible='true' lat='-33.7965523' lon='150.2299094' />
  <node id='-113846' visible='true' lat='-33.7968376' lon='150.2295232' />
  <node id='-113848' visible='true' lat='-33.7971586' lon='150.2291798' />
  <node id='-113850' visible='true' lat='-33.7975152' lon='150.2290511' />
  <node id='-113852' visible='true' lat='-33.7978005' lon='150.2289223' />
  <node id='-113854' visible='true' lat='-33.7982285' lon='150.2287507' />
  <node id='-113856' visible='true' lat='-33.7985851' lon='150.2284074' />
  <node id='-113858' visible='true' lat='-33.7988345' lon='150.2279065' />
  <node id='-113860' visible='true' lat='-33.7911211' lon='150.2432977' />
  <node id='-113862' visible='true' lat='-33.7919748' lon='150.2442109' />
  <node id='-113864' visible='true' lat='-33.7924028' lon='150.2448117' />
  <node id='-113866' visible='true' lat='-33.7929734' lon='150.2452409' />
  <node id='-113868' visible='true' lat='-33.7934117' lon='150.2458671' />
  <node id='-113870' visible='true' lat='-33.7935441' lon='150.2460563' />
  <node id='-113872' visible='true' lat='-33.7939364' lon='150.2463567' />
  <node id='-113874' visible='true' lat='-33.7945427' lon='150.2467' />
  <node id='-113876' visible='true' lat='-33.795042' lon='150.2467429' />
  <node id='-113878' visible='true' lat='-33.7953986' lon='150.2470433' />
  <node id='-113880' visible='true' lat='-33.7956839' lon='150.2475583' />
  <node id='-113882' visible='true' lat='-33.7960762' lon='150.2479445' />
  <node id='-113884' visible='true' lat='-33.7964863' lon='150.2480465' />
  <node id='-113886' visible='true' lat='-33.7970302' lon='150.2480733' />
  <node id='-113888' visible='true' lat='-33.7974626' lon='150.247966' />
  <node id='-113890' visible='true' lat='-33.7975785' lon='150.2480572' />
  <node id='-113892' visible='true' lat='-33.7975925' lon='150.2481222' />
  <node id='-113894' visible='true' lat='-33.7976097' lon='150.248202' />
  <node id='-113896' visible='true' lat='-33.7973779' lon='150.2487385' />
  <node id='-113898' visible='true' lat='-33.7973423' lon='150.249232' />
  <node id='-113900' visible='true' lat='-33.7971104' lon='150.2497899' />
  <node id='-113902' action='modify' visible='true' lat='-33.7967003' lon='150.2502405' />
  <node id='-113904' visible='true' lat='-33.7966647' lon='150.2504229' />
  <node id='-113906' visible='true' lat='-33.7969856' lon='150.2505409' />
  <node id='-113908' visible='true' lat='-33.7976276' lon='150.2505624' />
  <node id='-113910' visible='true' lat='-33.798216' lon='150.2505624' />
  <node id='-113912' visible='true' lat='-33.7985191' lon='150.2504336' />
  <node id='-113914' visible='true' lat='-33.7986306' lon='150.2503103' />
  <node id='-113916' visible='true' lat='-33.7988624' lon='150.2503263' />
  <node id='-113918' visible='true' lat='-33.7991611' lon='150.2504766' />
  <node id='-113920' visible='true' lat='-33.799268' lon='150.2506268' />
  <node id='-113922' visible='true' lat='-33.799375' lon='150.2510774' />
  <node id='-113924' visible='true' lat='-33.7995177' lon='150.2512061' />
  <node id='-113926' visible='true' lat='-33.7999278' lon='150.2511847' />
  <node id='-113928' visible='true' lat='-33.8003557' lon='150.2512061' />
  <node id='-113930' visible='true' lat='-33.8007658' lon='150.2514207' />
  <node id='-113932' visible='true' lat='-33.8009798' lon='150.2514207' />
  <node id='-113934' visible='true' lat='-33.8012651' lon='150.2512705' />
  <node id='-113936' visible='true' lat='-33.8014612' lon='150.2510559' />
  <node id='-113938' visible='true' lat='-33.8017465' lon='150.2510344' />
  <node id='-113940' visible='true' lat='-33.8023171' lon='150.2513778' />
  <node id='-113942' visible='true' lat='-33.8026024' lon='150.2513134' />
  <node id='-113944' visible='true' lat='-33.8032265' lon='150.2508628' />
  <node id='-113946' visible='true' lat='-33.8036187' lon='150.2505409' />
  <node id='-113948' visible='true' lat='-33.8037435' lon='150.2503693' />
  <node id='-113950' visible='true' lat='-33.8050095' lon='150.249747' />
  <node id='-113952' visible='true' lat='-33.8061862' lon='150.2491676' />
  <node id='-113954' visible='true' lat='-33.8067925' lon='150.2489745' />
  <node id='-113956' visible='true' lat='-33.8073273' lon='150.2489316' />
  <node id='-113958' visible='true' lat='-33.8077938' lon='150.248994' />
  <node id='-113960' visible='true' lat='-33.8079692' lon='150.2490174' />
  <node id='-113962' visible='true' lat='-33.8086824' lon='150.248996' />
  <node id='-113964' visible='true' lat='-33.8095382' lon='150.2488029' />
  <node id='-113966' visible='true' lat='-33.8103226' lon='150.2486741' />
  <node id='-113968' visible='true' lat='-33.8109466' lon='150.2487814' />
  <node id='-113970' visible='true' lat='-33.8115885' lon='150.2489316' />
  <node id='-113972' visible='true' lat='-33.812159' lon='150.2492105' />
  <node id='-113974' visible='true' lat='-33.812783' lon='150.2497041' />
  <node id='-113976' visible='true' lat='-33.8135496' lon='150.2500045' />
  <node id='-113978' visible='true' lat='-33.8136744' lon='150.2501118' />
  <node id='-113980' visible='true' lat='-33.8136209' lon='150.2502834' />
  <node id='-113982' visible='true' lat='-33.8133178' lon='150.2504336' />
  <node id='-113984' visible='true' lat='-33.8128543' lon='150.2505838' />
  <node id='-113986' visible='true' lat='-33.8126582' lon='150.2506268' />
  <node id='-113988' visible='true' lat='-33.8127117' lon='150.2508628' />
  <node id='-113990' visible='true' lat='-33.8129613' lon='150.2511847' />
  <node id='-113992' visible='true' lat='-33.8133535' lon='150.2512705' />
  <node id='-113994' visible='true' lat='-33.8137814' lon='150.2513134' />
  <node id='-113996' visible='true' lat='-33.8142627' lon='150.2514207' />
  <node id='-113998' action='modify' visible='true' lat='-33.8143083' lon='150.251408' />
  <node id='-114000' visible='true' lat='-33.8144511' lon='150.2513684' />
  <node id='-114002' visible='true' lat='-33.8144945' lon='150.2513563' />
  <node id='-114004' visible='true' lat='-33.8150115' lon='150.2513563' />
  <node id='-114006' visible='true' lat='-33.8154215' lon='150.251249' />
  <node id='-114008' visible='true' lat='-33.8157201' lon='150.2510881' />
  <node id='-114010' visible='true' lat='-33.8160455' lon='150.2510988' />
  <node id='-114012' visible='true' lat='-33.8163307' lon='150.251249' />
  <node id='-114014' visible='true' lat='-33.81765' lon='150.2517426' />
  <node id='-114016' visible='true' lat='-33.8182204' lon='150.2523648' />
  <node id='-114018' visible='true' lat='-33.818577' lon='150.2528584' />
  <node id='-114020' visible='true' lat='-33.8189335' lon='150.2531588' />
  <node id='-114022' visible='true' lat='-33.819094' lon='150.2535879' />
  <node id='-114024' visible='true' lat='-33.819094' lon='150.2541244' />
  <node id='-114026' visible='true' lat='-33.8189514' lon='150.2547466' />
  <node id='-114028' visible='true' lat='-33.8186661' lon='150.2550899' />
  <node id='-114030' visible='true' lat='-33.8185592' lon='150.2554976' />
  <node id='-114032' visible='true' lat='-33.8185592' lon='150.2559912' />
  <node id='-114034' visible='true' lat='-33.8187374' lon='150.2562272' />
  <node id='-114036' visible='true' lat='-33.8193079' lon='150.2562057' />
  <node id='-114038' visible='true' lat='-33.8196823' lon='150.2560985' />
  <node id='-114040' visible='true' lat='-33.8205023' lon='150.2559912' />
  <node id='-114042' visible='true' lat='-33.8212065' lon='150.2556854' />
  <node id='-114044' visible='true' lat='-33.8216432' lon='150.2553904' />
  <node id='-114046' visible='true' lat='-33.8219463' lon='150.2549612' />
  <node id='-114048' visible='true' lat='-33.8223384' lon='150.2546608' />
  <node id='-114050' visible='true' lat='-33.8226771' lon='150.2546608' />
  <node id='-114052' visible='true' lat='-33.8230337' lon='150.2547037' />
  <node id='-114054' visible='true' lat='-33.8234615' lon='150.2545964' />
  <node id='-114056' visible='true' lat='-33.8240497' lon='150.2543175' />
  <node id='-114058' visible='true' lat='-33.824531' lon='150.2541673' />
  <node id='-114060' visible='true' lat='-33.825048' lon='150.2539098' />
  <node id='-114062' visible='true' lat='-33.8256541' lon='150.2535879' />
  <node id='-114064' visible='true' lat='-33.8261888' lon='150.2532446' />
  <node id='-114066' visible='true' lat='-33.826474' lon='150.2530515' />
  <node id='-114068' visible='true' lat='-33.8268127' lon='150.2528798' />
  <node id='-114070' visible='true' lat='-33.8273475' lon='150.2526223' />
  <node id='-114072' visible='true' lat='-33.8277931' lon='150.2524507' />
  <node id='-114074' action='modify' visible='true' lat='-33.78838052959' lon='150.24829813826'>
    <tag k='note' v='This track up Carlon Head was used historically, but the bolts, chains and handholds are unsafe.' />
    <tag k='role' v='warn' />
    <tag k='warn' v='hazard' />
  </node>
  <way id='-114076' action='modify' visible='true'>
    <nd ref='-113704' />
    <nd ref='-113366' />
    <nd ref='-113368' />
    <nd ref='-113370' />
    <nd ref='-113372' />
    <nd ref='-113414' />
    <nd ref='-113412' />
    <nd ref='-113410' />
    <nd ref='-113408' />
    <nd ref='-113406' />
    <nd ref='-113404' />
    <nd ref='-113402' />
    <nd ref='-113400' />
    <nd ref='-113398' />
    <nd ref='-113396' />
    <nd ref='-113394' />
    <nd ref='-113392' />
    <nd ref='-113390' />
    <nd ref='-113388' />
    <nd ref='-113386' />
    <nd ref='-113384' />
    <nd ref='-113382' />
    <nd ref='-113380' />
    <nd ref='-113378' />
    <nd ref='-113376' />
    <nd ref='-113374' />
    <nd ref='-113364' />
    <nd ref='-113494' />
    <nd ref='-113492' />
    <nd ref='-113490' />
    <nd ref='-113488' />
    <nd ref='-113486' />
    <nd ref='-113484' />
    <nd ref='-113482' />
    <nd ref='-113480' />
    <nd ref='-113478' />
    <nd ref='-113476' />
    <nd ref='-113474' />
    <nd ref='-113472' />
    <nd ref='-113470' />
    <nd ref='-113468' />
    <nd ref='-113466' />
    <nd ref='-113464' />
    <nd ref='-113462' />
    <nd ref='-113460' />
    <nd ref='-113458' />
    <nd ref='-113456' />
    <nd ref='-113454' />
    <nd ref='-113452' />
    <nd ref='-113450' />
    <nd ref='-113448' />
    <nd ref='-113446' />
    <nd ref='-113444' />
    <nd ref='-113442' />
    <nd ref='-113440' />
    <nd ref='-113438' />
    <nd ref='-113436' />
    <nd ref='-113434' />
    <nd ref='-113432' />
    <nd ref='-113430' />
    <nd ref='-113428' />
    <nd ref='-113426' />
    <nd ref='-113424' />
    <nd ref='-113422' />
    <nd ref='-113420' />
    <nd ref='-113418' />
    <nd ref='-113416' />
    <tag k='name' v='Splendour Rock via Wombat Parade' />
    <tag k='role' v='sidetrack' />
    <tag k='style' v='return' />
  </way>
  <way id='-114078' action='modify' visible='true'>
    <nd ref='-113806' />
    <nd ref='-113808' />
    <nd ref='-113810' />
    <nd ref='-113812' />
    <nd ref='-113814' />
    <nd ref='-113816' />
    <nd ref='-113818' />
    <nd ref='-113820' />
    <nd ref='-113822' />
    <nd ref='-113824' />
    <nd ref='-113826' />
    <nd ref='-113828' />
    <nd ref='-113830' />
    <nd ref='-113832' />
    <nd ref='-113834' />
    <nd ref='-113836' />
    <nd ref='-113838' />
    <nd ref='-113840' />
    <nd ref='-113842' />
    <nd ref='-113844' />
    <nd ref='-113846' />
    <nd ref='-113848' />
    <nd ref='-113850' />
    <nd ref='-113852' />
    <nd ref='-113854' />
    <nd ref='-113856' />
    <nd ref='-113858' />
    <tag k='name' v='Bellbird Lookout Track' />
    <tag k='role' v='sidetrack' />
    <tag k='style' v='return' />
  </way>
  <way id='-114080' action='modify' visible='true'>
    <nd ref='-113804' />
    <nd ref='-113496' />
    <nd ref='-113498' />
    <nd ref='-113500' />
    <nd ref='-113502' />
    <nd ref='-113504' />
    <nd ref='-113506' />
    <nd ref='-113508' />
    <nd ref='-113510' />
    <nd ref='-113512' />
    <nd ref='-113514' />
    <nd ref='-113516' />
    <nd ref='-113518' />
    <nd ref='-113520' />
    <nd ref='-113522' />
    <nd ref='-113524' />
    <nd ref='-113526' />
    <nd ref='-113528' />
    <nd ref='-113530' />
    <nd ref='-113532' />
    <nd ref='-113534' />
    <nd ref='-113536' />
    <nd ref='-113538' />
    <nd ref='-113540' />
    <nd ref='-113542' />
    <nd ref='-113544' />
    <nd ref='-113546' />
    <nd ref='-113548' />
    <nd ref='-113550' />
    <nd ref='-113552' />
    <nd ref='-113554' />
    <nd ref='-113556' />
    <nd ref='-113558' />
    <nd ref='-113560' />
    <nd ref='-113562' />
    <nd ref='-113564' />
    <nd ref='-113566' />
    <nd ref='-113568' />
    <nd ref='-113570' />
    <nd ref='-113572' />
    <nd ref='-113574' />
    <nd ref='-113576' />
    <nd ref='-113578' />
    <nd ref='-113580' />
    <nd ref='-113582' />
    <nd ref='-113584' />
    <nd ref='-113586' />
    <nd ref='-113588' />
    <nd ref='-113590' />
    <nd ref='-113592' />
    <nd ref='-113594' />
    <nd ref='-113596' />
    <nd ref='-113598' />
    <nd ref='-113600' />
    <nd ref='-113602' />
    <nd ref='-113604' />
    <nd ref='-113606' />
    <nd ref='-113608' />
    <nd ref='-113610' />
    <nd ref='-113612' />
    <nd ref='-113614' />
    <nd ref='-113616' />
    <nd ref='-113618' />
    <nd ref='-113620' />
    <nd ref='-113622' />
    <nd ref='-113624' />
    <nd ref='-113626' />
    <nd ref='-113628' />
    <nd ref='-113630' />
    <nd ref='-113632' />
    <nd ref='-113634' />
    <nd ref='-113636' />
    <nd ref='-113638' />
    <nd ref='-113640' />
    <nd ref='-113642' />
    <nd ref='-113644' />
    <nd ref='-113646' />
    <nd ref='-113648' />
    <nd ref='-113650' />
    <nd ref='-113652' />
    <nd ref='-113654' />
    <nd ref='-113656' />
    <nd ref='-113658' />
    <nd ref='-113660' />
    <nd ref='-113662' />
    <nd ref='-113664' />
    <nd ref='-113666' />
    <nd ref='-113668' />
    <nd ref='-113670' />
    <nd ref='-113672' />
    <nd ref='-113674' />
    <nd ref='-113676' />
    <nd ref='-113678' />
    <nd ref='-113680' />
    <nd ref='-113682' />
    <nd ref='-113684' />
    <nd ref='-113686' />
    <nd ref='-113688' />
    <nd ref='-113690' />
    <nd ref='-113692' />
    <nd ref='-113694' />
    <nd ref='-113696' />
    <nd ref='-113698' />
    <nd ref='-113700' />
    <nd ref='-113702' />
    <nd ref='-113704' />
    <nd ref='-113706' />
    <nd ref='-113708' />
    <nd ref='-113710' />
    <nd ref='-113712' />
    <nd ref='-113714' />
    <nd ref='-113716' />
    <nd ref='-113718' />
    <nd ref='-113720' />
    <nd ref='-113722' />
    <nd ref='-113724' />
    <nd ref='-113726' />
    <nd ref='-113728' />
    <nd ref='-113730' />
    <nd ref='-113732' />
    <nd ref='-113734' />
    <nd ref='-113736' />
    <nd ref='-113738' />
    <nd ref='-113740' />
    <nd ref='-113742' />
    <nd ref='-113744' />
    <nd ref='-113746' />
    <nd ref='-113748' />
    <nd ref='-114072' />
    <nd ref='-114070' />
    <nd ref='-114068' />
    <nd ref='-114066' />
    <nd ref='-114064' />
    <nd ref='-114062' />
    <nd ref='-114060' />
    <nd ref='-114058' />
    <nd ref='-114056' />
    <nd ref='-114054' />
    <nd ref='-114052' />
    <nd ref='-114050' />
    <nd ref='-114048' />
    <nd ref='-114046' />
    <nd ref='-114044' />
    <nd ref='-114042' />
    <nd ref='-114040' />
    <nd ref='-114038' />
    <nd ref='-114036' />
    <nd ref='-114034' />
    <nd ref='-114032' />
    <nd ref='-114030' />
    <nd ref='-114028' />
    <nd ref='-114026' />
    <nd ref='-114024' />
    <nd ref='-114022' />
    <nd ref='-114020' />
    <nd ref='-114018' />
    <nd ref='-114016' />
    <nd ref='-114014' />
    <nd ref='-114012' />
    <nd ref='-114010' />
    <nd ref='-114008' />
    <nd ref='-114006' />
    <nd ref='-114004' />
    <nd ref='-114002' />
    <nd ref='-114000' />
    <nd ref='-113998' />
    <nd ref='-113996' />
    <nd ref='-113994' />
    <nd ref='-113992' />
    <nd ref='-113990' />
    <nd ref='-113988' />
    <nd ref='-113986' />
    <nd ref='-113984' />
    <nd ref='-113982' />
    <nd ref='-113980' />
    <nd ref='-113978' />
    <nd ref='-113976' />
    <nd ref='-113974' />
    <nd ref='-113972' />
    <nd ref='-113970' />
    <nd ref='-113968' />
    <nd ref='-113966' />
    <nd ref='-113964' />
    <nd ref='-113962' />
    <nd ref='-113960' />
    <nd ref='-113958' />
    <nd ref='-113956' />
    <nd ref='-113954' />
    <nd ref='-113952' />
    <nd ref='-113950' />
    <nd ref='-113948' />
    <nd ref='-113946' />
    <nd ref='-113944' />
    <nd ref='-113942' />
    <nd ref='-113940' />
    <nd ref='-113938' />
    <nd ref='-113936' />
    <nd ref='-113934' />
    <nd ref='-113932' />
    <nd ref='-113930' />
    <nd ref='-113928' />
    <nd ref='-113926' />
    <nd ref='-113924' />
    <nd ref='-113922' />
    <nd ref='-113920' />
    <nd ref='-113918' />
    <nd ref='-113916' />
    <nd ref='-113914' />
    <nd ref='-113912' />
    <nd ref='-113910' />
    <nd ref='-113908' />
    <nd ref='-113906' />
    <nd ref='-113904' />
    <nd ref='-113902' />
    <nd ref='-113900' />
    <nd ref='-113898' />
    <nd ref='-113896' />
    <nd ref='-113894' />
    <nd ref='-113892' />
    <nd ref='-113890' />
    <nd ref='-113888' />
    <nd ref='-113886' />
    <nd ref='-113884' />
    <nd ref='-113882' />
    <nd ref='-113880' />
    <nd ref='-113878' />
    <nd ref='-113876' />
    <nd ref='-113874' />
    <nd ref='-113872' />
    <nd ref='-113870' />
    <nd ref='-113868' />
    <nd ref='-113866' />
    <nd ref='-113864' />
    <nd ref='-113862' />
    <nd ref='-113860' />
    <nd ref='-113750' />
    <nd ref='-113752' />
    <nd ref='-113754' />
    <nd ref='-113756' />
    <nd ref='-113758' />
    <nd ref='-113760' />
    <nd ref='-113762' />
    <nd ref='-113764' />
    <nd ref='-113766' />
    <nd ref='-113806' />
    <nd ref='-113768' />
    <nd ref='-113770' />
    <nd ref='-113772' />
    <nd ref='-113774' />
    <nd ref='-113776' />
    <nd ref='-113778' />
    <nd ref='-113780' />
    <nd ref='-113782' />
    <nd ref='-113784' />
    <nd ref='-113786' />
    <nd ref='-113788' />
    <nd ref='-113790' />
    <nd ref='-113792' />
    <nd ref='-113794' />
    <nd ref='-113796' />
    <nd ref='-113798' />
    <nd ref='-113800' />
    <nd ref='-113802' />
    <tag k='name' v='Wild Dog Mountains from Dunphys Camping Area' />
    <tag k='park' v='Blue Mountains National Park' />
    <tag k='photo' v='136319147@N08/23239366065' />
    <tag k='role' v='primary' />
    <tag k='style' v='loop' />
    <tag k='transport' v='car' />
  </way>
</osm>
