<?xml version='1.0' encoding='UTF-8'?>
<osm version='0.6' upload='false' generator='JOSM'>
  <node id='-14454' visible='true' lat='-34.2040894' lon='151.0202007' />
  <node id='-14456' visible='true' lat='-34.2039819' lon='151.0200892' />
  <node id='-14458' visible='true' lat='-34.2039772' lon='151.0196362' />
  <node id='-14460' visible='true' lat='-34.2037733' lon='151.0192978' />
  <node id='-14462' visible='true' lat='-34.2035156' lon='151.018617' />
  <node id='-14464' visible='true' lat='-34.2035124' lon='151.0182025' />
  <node id='-14466' visible='true' lat='-34.2038112' lon='151.0177151' />
  <node id='-14468' visible='true' lat='-34.2043533' lon='151.0176585' />
  <node id='-14470' visible='true' lat='-34.2050408' lon='151.016204' />
  <node id='-14472' visible='true' lat='-34.2052337' lon='151.0155662' />
  <node id='-14474' visible='true' lat='-34.2056833' lon='151.0153727' />
  <node id='-14476' visible='true' lat='-34.2063022' lon='151.0152435' />
  <node id='-14478' visible='true' lat='-34.2071136' lon='151.0148185' />
  <node id='-14480' visible='true' lat='-34.2078058' lon='151.0145324' />
  <node id='-14482' visible='true' lat='-34.2083979' lon='151.0143344' />
  <node id='-14484' visible='true' lat='-34.2087594' lon='151.0135467' />
  <node id='-14486' visible='true' lat='-34.2094641' lon='151.0125836' />
  <node id='-14488' visible='true' lat='-34.2093809' lon='151.0124332' />
  <node id='-14490' visible='true' lat='-34.2110924' lon='151.0055073' />
  <node id='-14492' visible='true' lat='-34.1974059' lon='151.0183714' />
  <node id='-14494' visible='true' lat='-34.1819971' lon='151.0451859' />
  <node id='-14496' visible='true' lat='-34.1955114' lon='151.0325355' />
  <node id='-14498' visible='true' lat='-34.1853129' lon='151.0451738' />
  <node id='-14500' visible='true' lat='-34.1839978' lon='151.0478828' />
  <node id='-14502' visible='true' lat='-34.1977255' lon='151.0202249' />
  <node id='-14504' visible='true' lat='-34.1943423' lon='151.0341577' />
  <node id='-14506' visible='true' lat='-34.198422' lon='151.0220985' />
  <node id='-14508' visible='true' lat='-34.1936939' lon='151.0360717' />
  <node id='-14510' visible='true' lat='-34.1900338' lon='151.0419026' />
  <node id='-14512' visible='true' lat='-34.1988678' lon='151.0233214' />
  <node id='-14514' visible='true' lat='-34.1930858' lon='151.0377804' />
  <node id='-14516' visible='true' lat='-34.18626720128' lon='151.04413676038' />
  <node id='-14518' visible='true' lat='-34.1847215' lon='151.0467284' />
  <node id='-14520' visible='true' lat='-34.2002243' lon='151.0237441' />
  <node id='-14522' visible='true' lat='-34.1896259' lon='151.04008' />
  <node id='-14524' visible='true' lat='-34.1846275' lon='151.0456333' />
  <node id='-14526' visible='true' lat='-34.1978967' lon='151.0291881' />
  <node id='-14528' visible='true' lat='-34.1880923' lon='151.041213' />
  <node id='-14530' visible='true' lat='-34.1803443' lon='151.041053' />
  <node id='-14532' visible='true' lat='-34.1965265' lon='151.0308532' />
  <node id='-14534' visible='true' lat='-34.1869558' lon='151.0418195' />
  <node id='-14536' visible='true' lat='-34.1796143' lon='151.0434268' />
  <node id='-14538' visible='true' lat='-34.1814293' lon='151.0447217' />
  <node id='-14540' visible='true' lat='-34.1974849' lon='151.0195236' />
  <node id='-14542' visible='true' lat='-34.1956063' lon='151.0324579' />
  <node id='-14544' visible='true' lat='-34.1859978' lon='151.0438909' />
  <node id='-14546' visible='true' lat='-34.1979393' lon='151.0207338' />
  <node id='-14548' visible='true' lat='-34.1837547' lon='151.0477533' />
  <node id='-14550' visible='true' lat='-34.1946097' lon='151.0338487' />
  <node id='-14552' visible='true' lat='-34.1986634' lon='151.0228109' />
  <node id='-14554' visible='true' lat='-34.1937861' lon='151.0358627' />
  <node id='-14556' visible='true' lat='-34.1855159' lon='151.0452412' />
  <node id='-14558' visible='true' lat='-34.1850372' lon='151.0478348' />
  <node id='-14560' visible='true' lat='-34.1994602' lon='151.0235844' />
  <node id='-14562' visible='true' lat='-34.1932901' lon='151.0376469' />
  <node id='-14564' visible='true' lat='-34.1848389' lon='151.0469031' />
  <node id='-14566' visible='true' lat='-34.1999044' lon='151.0245686' />
  <node id='-14568' visible='true' lat='-34.1897182' lon='151.0399599' />
  <node id='-14570' visible='true' lat='-34.1846215' lon='151.04617' />
  <node id='-14572' visible='true' lat='-34.1994301' lon='151.025815' />
  <node id='-14574' visible='true' lat='-34.1884828' lon='151.0409984' />
  <node id='-14576' visible='true' lat='-34.1802805' lon='151.0419213' />
  <node id='-14578' visible='true' lat='-34.1848873' lon='151.0448899' />
  <node id='-14580' visible='true' lat='-34.1960651' lon='151.0317888' />
  <node id='-14582' visible='true' lat='-34.1871688' lon='151.041562' />
  <node id='-14584' visible='true' lat='-34.1789837' lon='151.0436305' />
  <node id='-14586' visible='true' lat='-34.1827838' lon='151.0465731' />
  <node id='-14588' visible='true' lat='-34.1973992' lon='151.0191414' />
  <node id='-14590' visible='true' lat='-34.194986' lon='151.0334796' />
  <node id='-14592' visible='true' lat='-34.1861606' lon='151.0433473' />
  <node id='-14594' visible='true' lat='-34.197918' lon='151.0205278' />
  <node id='-14596' visible='true' lat='-34.1842239' lon='151.0478425' />
  <node id='-14598' visible='true' lat='-34.194269' lon='151.0345697' />
  <node id='-14600' visible='true' lat='-34.1986177' lon='151.0226598' />
  <node id='-14602' visible='true' lat='-34.1934598' lon='151.0369949' />
  <node id='-14604' visible='true' lat='-34.1854239' lon='151.0452419' />
  <node id='-14606' visible='true' lat='-34.199126' lon='151.0235611' />
  <node id='-14608' visible='true' lat='-34.1925666' lon='151.0376453' />
  <node id='-14610' visible='true' lat='-34.2000619' lon='151.0242872' />
  <node id='-14612' visible='true' lat='-34.1911239' lon='151.0383634' />
  <node id='-14614' visible='true' lat='-34.1847769' lon='151.0452737' />
  <node id='-14616' visible='true' lat='-34.1994506' lon='151.0255585' />
  <node id='-14618' visible='true' lat='-34.1878722' lon='151.0413246' />
  <node id='-14620' visible='true' lat='-34.180211' lon='151.0416202' />
  <node id='-14622' visible='true' lat='-34.1961716' lon='151.0314369' />
  <node id='-14624' visible='true' lat='-34.1865349' lon='151.0424209' />
  <node id='-14626' visible='true' lat='-34.1791275' lon='151.0436185' />
  <node id='-14628' visible='true' lat='-34.1823581' lon='151.045635' />
  <node id='-14630' visible='true' lat='-34.1953623' lon='151.0330333' />
  <node id='-14632' visible='true' lat='-34.18595479982' lon='151.04525695319' />
  <node id='-14634' visible='true' lat='-34.1841022' lon='151.0478032' />
  <node id='-14636' visible='true' lat='-34.1980316' lon='151.0209827' />
  <node id='-14638' visible='true' lat='-34.1942722' lon='151.0343381' />
  <node id='-14640' visible='true' lat='-34.1935519' lon='151.0364408' />
  <node id='-14642' visible='true' lat='-34.18603595743' lon='151.04413093653' />
  <node id='-14644' visible='true' lat='-34.2001181' lon='151.0235773' />
  <node id='-14646' visible='true' lat='-34.1928733' lon='151.0377745' />
  <node id='-14648' visible='true' lat='-34.1997567' lon='151.0250097' />
  <node id='-14650' visible='true' lat='-34.1914079' lon='151.0381402' />
  <node id='-14652' visible='true' lat='-34.1846538' lon='151.0454307' />
  <node id='-14654' visible='true' lat='-34.1992786' lon='151.0267753' />
  <node id='-14656' visible='true' lat='-34.1879985' lon='151.0412605' />
  <node id='-14658' visible='true' lat='-34.1985782' lon='151.028141' />
  <node id='-14660' visible='true' lat='-34.1867504' lon='151.0421056' />
  <node id='-14662' visible='true' lat='-34.1791713' lon='151.0441464' />
  <node id='-14664' visible='true' lat='-34.1946097' lon='151.0336942' />
  <node id='-14666' visible='true' lat='-34.1858274' lon='151.0441484' />
  <node id='-14668' visible='true' lat='-34.1846517' lon='151.0478565' />
  <node id='-14670' visible='true' lat='-34.1980245' lon='151.0208539' />
  <node id='-14672' visible='true' lat='-34.1941483' lon='151.0348958' />
  <node id='-14674' visible='true' lat='-34.1934245' lon='151.0374514' />
  <node id='-14676' visible='true' lat='-34.1997967' lon='151.0235029' />
  <node id='-14678' visible='true' lat='-34.1921178' lon='151.0377883' />
  <node id='-14680' visible='true' lat='-34.18638924639' lon='151.04426876753' />
  <node id='-14682' visible='true' lat='-34.1998333' lon='151.0248124' />
  <node id='-14684' visible='true' lat='-34.1909819' lon='151.0386295' />
  <node id='-14686' visible='true' lat='-34.1993896' lon='151.0262177' />
  <node id='-14688' visible='true' lat='-34.19035' lon='151.0394878' />
  <node id='-14690' visible='true' lat='-34.1986939' lon='151.0280486' />
  <node id='-14692' visible='true' lat='-34.1862742' lon='151.043064' />
  <node id='-14694' visible='true' lat='-34.1788954' lon='151.0439345' />
  <node id='-14696' visible='true' lat='-34.1947304' lon='151.033617' />
  <node id='-14698' visible='true' lat='-34.184415' lon='151.0478189' />
  <node id='-14700' visible='true' lat='-34.1941838' lon='151.0346469' />
  <node id='-14702' visible='true' lat='-34.1850446' lon='151.044889' />
  <node id='-14704' visible='true' lat='-34.1934898' lon='151.0372416' />
  <node id='-14706' visible='true' lat='-34.19806' lon='151.0214548' />
  <node id='-14708' visible='true' lat='-34.1924089' lon='151.0376939' />
  <node id='-14710' visible='true' lat='-34.1995711' lon='151.0253611' />
  <node id='-14712' visible='true' lat='-34.1910742' lon='151.0384664' />
  <node id='-14714' visible='true' lat='-34.1990822' lon='151.0276088' />
  <node id='-14716' visible='true' lat='-34.1904281' lon='151.0392475' />
  <node id='-14718' visible='true' lat='-34.1983084' lon='151.0286474' />
  <node id='-14720' visible='true' lat='-34.186473' lon='151.042858' />
  <node id='-14722' visible='true' lat='-34.2105403' lon='151.0060953' />
  <node id='-14724' visible='true' lat='-34.2106075' lon='151.0060225' />
  <node id='-14726' visible='true' lat='-34.2106344' lon='151.0059928' />
  <node id='-14728' visible='true' lat='-34.2106794' lon='151.0059488' />
  <node id='-14730' visible='true' lat='-34.2107263' lon='151.0058865' />
  <node id='-14732' visible='true' lat='-34.2107413' lon='151.005904' />
  <node id='-14734' visible='true' lat='-34.2108722' lon='151.0056835' />
  <node id='-14736' visible='true' lat='-34.2109737' lon='151.0055891' />
  <node id='-14738' visible='true' lat='-34.2112574' lon='151.0052674' />
  <node id='-14740' visible='true' lat='-34.2115051' lon='151.0053873' />
  <node id='-14742' visible='true' lat='-34.2118322' lon='151.0055045' />
  <node id='-14744' visible='true' lat='-34.2115197' lon='151.0061124' />
  <node id='-14746' visible='true' lat='-34.2112466' lon='151.0067818' />
  <node id='-14748' visible='true' lat='-34.2106833' lon='151.0073599' />
  <node id='-14750' visible='true' lat='-34.2103773' lon='151.0075756' />
  <node id='-14752' visible='true' lat='-34.2102793' lon='151.0076856' />
  <node id='-14754' visible='true' lat='-34.2103056' lon='151.0079647' />
  <node id='-14756' visible='true' lat='-34.2104087' lon='151.0081783' />
  <node id='-14758' visible='true' lat='-34.2106046' lon='151.0083983' />
  <node id='-14760' visible='true' lat='-34.2112343' lon='151.0089376' />
  <node id='-14762' visible='true' lat='-34.2118526' lon='151.0094024' />
  <node id='-14764' visible='true' lat='-34.2115718' lon='151.009906' />
  <node id='-14766' visible='true' lat='-34.2113389' lon='151.0104759' />
  <node id='-14768' visible='true' lat='-34.211365' lon='151.0108772' />
  <node id='-14770' visible='true' lat='-34.2112514' lon='151.0110146' />
  <node id='-14772' visible='true' lat='-34.2112176' lon='151.0111798' />
  <node id='-14774' visible='true' lat='-34.2110163' lon='151.0112687' />
  <node id='-14776' visible='true' lat='-34.2108418' lon='151.0114571' />
  <node id='-14778' visible='true' lat='-34.210698' lon='151.0115569' />
  <node id='-14780' visible='true' lat='-34.2105063' lon='151.0116586' />
  <node id='-14782' visible='true' lat='-34.2103686' lon='151.0117576' />
  <node id='-14784' visible='true' lat='-34.2102404' lon='151.0118545' />
  <node id='-14786' visible='true' lat='-34.2101291' lon='151.0119487' />
  <node id='-14788' visible='true' lat='-34.2099572' lon='151.0119741' />
  <node id='-14790' visible='true' lat='-34.2097816' lon='151.0120519' />
  <node id='-14792' visible='true' lat='-34.2095676' lon='151.0121371' />
  <node id='-14794' visible='true' lat='-34.2094588' lon='151.0122239' />
  <node id='-14796' visible='true' lat='-34.2093759' lon='151.0123121' />
  <node id='-14798' visible='true' lat='-34.2093809' lon='151.0124332' />
  <node id='-14800' visible='true' lat='-34.2093166' lon='151.0124886' />
  <node id='-14802' visible='true' lat='-34.2091954' lon='151.0125469' />
  <node id='-14804' visible='true' lat='-34.2091545' lon='151.0126336' />
  <node id='-14806' visible='true' lat='-34.2090581' lon='151.0126875' />
  <node id='-14808' visible='true' lat='-34.2090408' lon='151.0127592' />
  <node id='-14810' visible='true' lat='-34.2089752' lon='151.0127862' />
  <node id='-14812' visible='true' lat='-34.2089443' lon='151.0128714' />
  <node id='-14814' visible='true' lat='-34.2087897' lon='151.0129402' />
  <node id='-14816' visible='true' lat='-34.2086939' lon='151.0129002' />
  <node id='-14818' visible='true' lat='-34.2085488' lon='151.0128657' />
  <node id='-14820' visible='true' lat='-34.2083756' lon='151.0128255' />
  <node id='-14822' visible='true' lat='-34.208094' lon='151.0128043' />
  <node id='-14824' visible='true' lat='-34.2080223' lon='151.0129249' />
  <node id='-14826' visible='true' lat='-34.2079576' lon='151.0131533' />
  <node id='-14828' visible='true' lat='-34.2078262' lon='151.0131346' />
  <node id='-14830' visible='true' lat='-34.2075208' lon='151.0131875' />
  <node id='-14832' visible='true' lat='-34.2073303' lon='151.0132722' />
  <node id='-14834' visible='true' lat='-34.2069113' lon='151.0134298' />
  <node id='-14836' visible='true' lat='-34.2066639' lon='151.0135552' />
  <node id='-14838' visible='true' lat='-34.2063453' lon='151.0137326' />
  <node id='-14840' visible='true' lat='-34.2061047' lon='151.013686' />
  <node id='-14842' visible='true' lat='-34.2056575' lon='151.0135059' />
  <node id='-14844' visible='true' lat='-34.2053859' lon='151.013473' />
  <node id='-14846' visible='true' lat='-34.2050795' lon='151.0134652' />
  <node id='-14848' visible='true' lat='-34.2047678' lon='151.0135726' />
  <node id='-14850' visible='true' lat='-34.2042658' lon='151.0136304' />
  <node id='-14852' visible='true' lat='-34.2039251' lon='151.0135784' />
  <node id='-14854' visible='true' lat='-34.2033334' lon='151.0135403' />
  <node id='-14856' visible='true' lat='-34.2032129' lon='151.013589' />
  <node id='-14858' visible='true' lat='-34.2031461' lon='151.0137476' />
  <node id='-14860' visible='true' lat='-34.2026003' lon='151.0141004' />
  <node id='-14862' visible='true' lat='-34.2023023' lon='151.0143107' />
  <node id='-14864' visible='true' lat='-34.2020225' lon='151.0143805' />
  <node id='-14866' visible='true' lat='-34.2016944' lon='151.0146611' />
  <node id='-14868' visible='true' lat='-34.200899' lon='151.0149173' />
  <node id='-14870' visible='true' lat='-34.2003769' lon='151.0150584' />
  <node id='-14872' visible='true' lat='-34.2001692' lon='151.015066' />
  <node id='-14874' visible='true' lat='-34.1999961' lon='151.0152069' />
  <node id='-14876' visible='true' lat='-34.1994771' lon='151.0156636' />
  <node id='-14878' visible='true' lat='-34.1987254' lon='151.0163237' />
  <node id='-14880' visible='true' lat='-34.198221' lon='151.0170561' />
  <node id='-14882' visible='true' lat='-34.1979277' lon='151.0176984' />
  <node id='-14884' visible='true' lat='-34.1975054' lon='151.0181997' />
  <node id='-14886' visible='true' lat='-34.18645308308' lon='151.04457392225' />
  <node id='-14888' visible='true' lat='-34.18738403204' lon='151.04349966747' />
  <node id='-14890' visible='true' lat='-34.18811185771' lon='151.04261980164' />
  <node id='-14892' visible='true' lat='-34.1885061' lon='151.0421892' />
  <node id='-14894' visible='true' lat='-34.1887096' lon='151.0421429' />
  <node id='-14896' visible='true' lat='-34.1889396' lon='151.0421348' />
  <node id='-14898' visible='true' lat='-34.1892634' lon='151.0420538' />
  <node id='-14900' visible='true' lat='-34.1894532' lon='151.0419809' />
  <node id='-14902' visible='true' lat='-34.1896006' lon='151.0419215' />
  <node id='-14904' action='modify' visible='true' lat='-34.1898328' lon='151.0419107'>
    <tag k='note' v='This section may be especially hazardous at high tide/rough seas.' />
    <tag k='role' v='warn' />
    <tag k='warn' v='hazard' />
  </node>
  <node id='-14906' visible='true' lat='-34.1904001' lon='151.0418486' />
  <node id='-14908' visible='true' lat='-34.1906167' lon='151.0417811' />
  <node id='-14910' visible='true' lat='-34.1908578' lon='151.0416299' />
  <node id='-14912' visible='true' lat='-34.1909628' lon='151.0413897' />
  <node id='-14914' visible='true' lat='-34.1910477' lon='151.0411278' />
  <node id='-14916' visible='true' lat='-34.191099' lon='151.040982' />
  <node id='-14918' visible='true' lat='-34.1911325' lon='151.0407714' />
  <node id='-14920' visible='true' lat='-34.1911035' lon='151.0405474' />
  <node id='-14922' visible='true' lat='-34.1911861' lon='151.0402828' />
  <node id='-14924' visible='true' lat='-34.1913022' lon='151.0399669' />
  <node id='-14926' visible='true' lat='-34.1913759' lon='151.0396511' />
  <node id='-14928' visible='true' lat='-34.1915288' lon='151.0393203' />
  <node id='-14930' visible='true' lat='-34.1919428' lon='151.0390824' />
  <node id='-14932' visible='true' lat='-34.1924246' lon='151.0389675' />
  <node id='-14934' visible='true' lat='-34.1928996' lon='151.0389511' />
  <node id='-14936' visible='true' lat='-34.1931643' lon='151.0390578' />
  <node id='-14938' visible='true' lat='-34.193809' lon='151.0388691' />
  <node id='-14940' visible='true' lat='-34.1942704' lon='151.0387706' />
  <node id='-14942' visible='true' lat='-34.1945523' lon='151.0385681' />
  <node id='-14944' action='modify' visible='true' lat='-34.18016596099' lon='151.04021034801' />
  <node id='-14946' visible='true' lat='-34.1803327' lon='151.0407309' />
  <node id='-14948' visible='true' lat='-34.1802632' lon='151.0413051' />
  <node id='-14950' visible='true' lat='-34.18024' lon='151.0423134' />
  <node id='-14952' visible='true' lat='-34.1800141' lon='151.0430346' />
  <node id='-14954' visible='true' lat='-34.1793366' lon='151.0436468' />
  <node id='-14956' visible='true' lat='-34.179333' lon='151.0442403' />
  <node id='-14958' visible='true' lat='-34.1798771' lon='151.0444254' />
  <node id='-14960' visible='true' lat='-34.1802222' lon='151.0444028' />
  <node id='-14962' visible='true' lat='-34.1806817' lon='151.044695' />
  <node id='-14964' visible='true' lat='-34.1833334' lon='151.0475604' />
  <node id='-14966' visible='true' lat='-34.1834904' lon='151.0477328' />
  <node id='-14968' visible='true' lat='-34.1851671' lon='151.0476331' />
  <node id='-14970' visible='true' lat='-34.1851299' lon='151.0473884' />
  <node id='-14972' visible='true' lat='-34.1849234' lon='151.0471177' />
  <node id='-14974' visible='true' lat='-34.1846488' lon='151.0465259' />
  <node id='-14976' visible='true' lat='-34.184643' lon='151.0464163' />
  <node id='-14978' visible='true' lat='-34.1846307' lon='151.0463681' />
  <node id='-14980' visible='true' lat='-34.1846619' lon='151.046335' />
  <node id='-14982' visible='true' lat='-34.1847622' lon='151.0451396' />
  <node id='-14984' visible='true' lat='-34.1847908' lon='151.0450153' />
  <node id='-14986' visible='true' lat='-34.1850328' lon='151.0447931' />
  <node id='-14988' visible='true' lat='-34.1851614' lon='151.0450347' />
  <node id='-14990' visible='true' lat='-34.1852475' lon='151.0451134' />
  <node id='-14992' visible='true' lat='-34.1853377' lon='151.0452287' />
  <node id='-14994' visible='true' lat='-34.1873108' lon='151.0415105' />
  <node id='-14996' visible='true' lat='-34.1876019' lon='151.0414504' />
  <node id='-14998' visible='true' lat='-34.188994' lon='151.0407066' />
  <node id='-15000' visible='true' lat='-34.1892354' lon='151.0406551' />
  <node id='-15002' visible='true' lat='-34.1893135' lon='151.0404577' />
  <node id='-15004' visible='true' lat='-34.189349' lon='151.0403633' />
  <node id='-15006' visible='true' lat='-34.1897963' lon='151.0399513' />
  <node id='-15008' visible='true' lat='-34.1899524' lon='151.039874' />
  <node id='-15010' visible='true' lat='-34.1900731' lon='151.039668' />
  <node id='-15012' visible='true' lat='-34.1902861' lon='151.0396423' />
  <node id='-15014' visible='true' lat='-34.1906624' lon='151.0391187' />
  <node id='-15016' visible='true' lat='-34.1907334' lon='151.0389041' />
  <node id='-15018' visible='true' lat='-34.1908186' lon='151.0388784' />
  <node id='-15020' visible='true' lat='-34.1908541' lon='151.038784' />
  <node id='-15022' visible='true' lat='-34.1916351' lon='151.0379171' />
  <node id='-15024' visible='true' lat='-34.1918197' lon='151.0378055' />
  <node id='-15026' visible='true' lat='-34.1939211' lon='151.0355567' />
  <node id='-15028' visible='true' lat='-34.193977' lon='151.0354067' />
  <node id='-15030' visible='true' lat='-34.1939779' lon='151.0352392' />
  <node id='-15032' visible='true' lat='-34.194109' lon='151.0350594' />
  <node id='-15034' visible='true' lat='-34.1957314' lon='151.0323896' />
  <node id='-15036' visible='true' lat='-34.1960296' lon='151.0320205' />
  <node id='-15038' visible='true' lat='-34.1963136' lon='151.0309219' />
  <node id='-15040' visible='true' lat='-34.1965762' lon='151.0306901' />
  <node id='-15042' visible='true' lat='-34.1966969' lon='151.0306558' />
  <node id='-15044' visible='true' lat='-34.1970661' lon='151.0303554' />
  <node id='-15046' visible='true' lat='-34.1972775' lon='151.0300845' />
  <node id='-15048' visible='true' lat='-34.197776' lon='151.0294456' />
  <node id='-15050' visible='true' lat='-34.1980387' lon='151.0291194' />
  <node id='-15052' visible='true' lat='-34.198138' lon='151.0290164' />
  <node id='-15054' visible='true' lat='-34.1985711' lon='151.0282354' />
  <node id='-15056' visible='true' lat='-34.1987557' lon='151.027935' />
  <node id='-15058' visible='true' lat='-34.1989402' lon='151.0277633' />
  <node id='-15060' visible='true' lat='-34.1991531' lon='151.0274317' />
  <node id='-15062' visible='true' lat='-34.1997219' lon='151.0251878' />
  <node id='-15064' visible='true' lat='-34.2002232' lon='151.0239995' />
  <node id='-15066' visible='true' lat='-34.1988432' lon='151.0235182' />
  <node id='-15068' visible='true' lat='-34.1988337' lon='151.0231027' />
  <node id='-15070' visible='true' lat='-34.1987693' lon='151.0229711' />
  <node id='-15072' visible='true' lat='-34.1985569' lon='151.022459' />
  <node id='-15074' visible='true' lat='-34.1983368' lon='151.0217723' />
  <node id='-15076' visible='true' lat='-34.1982374' lon='151.0215063' />
  <node id='-15078' visible='true' lat='-34.1980955' lon='151.021326' />
  <node id='-15080' visible='true' lat='-34.1978482' lon='151.0204434' />
  <node id='-15082' visible='true' lat='-34.1976691' lon='151.0198681' />
  <node id='-15084' visible='true' lat='-34.1975985' lon='151.019618' />
  <node id='-15086' visible='true' lat='-34.1974778' lon='151.0187253' />
  <node id='-15088' action='modify' visible='true' lat='-34.1769244' lon='150.9948305' />
  <node id='-15090' visible='true' lat='-34.1769951' lon='150.9944308' />
  <node id='-15092' visible='true' lat='-34.1770073' lon='150.9942601' />
  <node id='-15094' visible='true' lat='-34.1771252' lon='150.9942725' />
  <node id='-15096' action='modify' visible='true' lat='-34.17715225164' lon='150.99409945693' />
  <node id='-15098' visible='true' lat='-34.1772075' lon='150.9943623' />
  <node id='-15100' visible='true' lat='-34.1771762' lon='150.9946809' />
  <node id='-15102' visible='true' lat='-34.1770865' lon='150.995096' />
  <node id='-15104' visible='true' lat='-34.1769068' lon='150.9953996' />
  <node id='-15106' visible='true' lat='-34.1770344' lon='150.995178' />
  <node id='-15108' visible='true' lat='-34.1765889' lon='150.9961689' />
  <node id='-15110' visible='true' lat='-34.1765846' lon='150.9960971' />
  <node id='-15112' visible='true' lat='-34.1766597' lon='150.9959775' />
  <node id='-15114' visible='true' lat='-34.1767428' lon='150.9959058' />
  <node id='-15116' visible='true' lat='-34.1768378' lon='150.995748' />
  <node id='-15118' visible='true' lat='-34.1768853' lon='150.9955854' />
  <node id='-15120' visible='true' lat='-34.1767004' lon='150.9984574' />
  <node id='-15122' visible='true' lat='-34.1761331' lon='150.9980172' />
  <node id='-15124' visible='true' lat='-34.1759819' lon='150.9978554' />
  <node id='-15126' visible='true' lat='-34.1759683' lon='150.9977544' />
  <node id='-15128' visible='true' lat='-34.1760531' lon='150.9973011' />
  <node id='-15130' visible='true' lat='-34.1762849' lon='150.9965841' />
  <node id='-15132' visible='true' lat='-34.1767928' lon='150.9984863' />
  <node id='-15134' visible='true' lat='-34.1768502' lon='150.9985619' />
  <node id='-15136' visible='true' lat='-34.1769436' lon='150.9986272' />
  <node id='-15138' visible='true' lat='-34.1769952' lon='150.9988143' />
  <node id='-15140' visible='true' lat='-34.1770271' lon='150.9989836' />
  <node id='-15142' visible='true' lat='-34.1769829' lon='150.999141' />
  <node id='-15144' visible='true' lat='-34.1769104' lon='150.9993708' />
  <node id='-15146' visible='true' lat='-34.1768543' lon='150.9995078' />
  <node id='-15148' visible='true' lat='-34.176703' lon='150.9999521' />
  <node id='-15150' visible='true' lat='-34.1765949' lon='151.0002428' />
  <node id='-15152' visible='true' lat='-34.1765435' lon='151.0005107' />
  <node id='-15154' visible='true' lat='-34.1764489' lon='151.0008112' />
  <node id='-15156' visible='true' lat='-34.1763841' lon='151.0011575' />
  <node id='-15158' visible='true' lat='-34.1763111' lon='151.0013764' />
  <node id='-15160' visible='true' lat='-34.1762652' lon='151.001641' />
  <node id='-15162' visible='true' lat='-34.1763057' lon='151.0020689' />
  <node id='-15164' visible='true' lat='-34.1763949' lon='151.00234' />
  <node id='-15166' visible='true' lat='-34.1764976' lon='151.0026667' />
  <node id='-15168' visible='true' lat='-34.1766705' lon='151.0028986' />
  <node id='-15170' visible='true' lat='-34.1767759' lon='151.0030489' />
  <node id='-15172' visible='true' lat='-34.1769257' lon='151.0031683' />
  <node id='-15174' visible='true' lat='-34.1771618' lon='151.0033348' />
  <node id='-15176' visible='true' lat='-34.1772798' lon='151.003414' />
  <node id='-15178' visible='true' lat='-34.1773651' lon='151.0035012' />
  <node id='-15180' visible='true' lat='-34.177345' lon='151.0036593' />
  <node id='-15182' visible='true' lat='-34.1772759' lon='151.0040024' />
  <node id='-15184' visible='true' lat='-34.1772012' lon='151.004217' />
  <node id='-15186' visible='true' lat='-34.1767293' lon='151.0045816' />
  <node id='-15188' visible='true' lat='-34.1764413' lon='151.0048431' />
  <node id='-15190' visible='true' lat='-34.1762064' lon='151.0051617' />
  <node id='-15192' visible='true' lat='-34.1760108' lon='151.0053868' />
  <node id='-15194' visible='true' lat='-34.1758066' lon='151.0056732' />
  <node id='-15196' visible='true' lat='-34.1756033' lon='151.0060379' />
  <node id='-15198' action='modify' visible='true' lat='-34.1752635' lon='151.0067166' />
  <node id='-15200' visible='true' lat='-34.175174' lon='151.0069013' />
  <node id='-15202' visible='true' lat='-34.1749812' lon='151.0071702' />
  <node id='-15204' visible='true' lat='-34.1747638' lon='151.0073769' />
  <node id='-15206' visible='true' lat='-34.1747165' lon='151.0074761' />
  <node id='-15208' visible='true' lat='-34.1746065' lon='151.0076167' />
  <node id='-15210' visible='true' lat='-34.1744822' lon='151.0079076' />
  <node id='-15212' visible='true' lat='-34.1744318' lon='151.0081309' />
  <node id='-15214' visible='true' lat='-34.1744666' lon='151.0083426' />
  <node id='-15216' visible='true' lat='-34.1745542' lon='151.0087384' />
  <node id='-15218' visible='true' lat='-34.1746681' lon='151.0090545' />
  <node id='-15220' visible='true' lat='-34.1746933' lon='151.0094198' />
  <node id='-15222' visible='true' lat='-34.1746334' lon='151.0098273' />
  <node id='-15224' visible='true' lat='-34.1746257' lon='151.0099318' />
  <node id='-15226' visible='true' lat='-34.1746497' lon='151.0103363' />
  <node id='-15228' visible='true' lat='-34.1747361' lon='151.0107713' />
  <node id='-15230' visible='true' lat='-34.1747837' lon='151.0111424' />
  <node id='-15232' visible='true' lat='-34.1748183' lon='151.0115283' />
  <node id='-15234' visible='true' lat='-34.1749411' lon='151.0119271' />
  <node id='-15236' visible='true' lat='-34.1750095' lon='151.0122002' />
  <node id='-15238' visible='true' lat='-34.1749943' lon='151.0123298' />
  <node id='-15240' visible='true' lat='-34.1749703' lon='151.0123779' />
  <node id='-15242' visible='true' lat='-34.174753' lon='151.0124193' />
  <node id='-15244' visible='true' lat='-34.1744486' lon='151.0125449' />
  <node id='-15246' visible='true' lat='-34.1742729' lon='151.0127602' />
  <node id='-15248' visible='true' lat='-34.1742023' lon='151.0129947' />
  <node id='-15250' visible='true' lat='-34.1742592' lon='151.0131808' />
  <node id='-15252' visible='true' lat='-34.1743968' lon='151.0133619' />
  <node id='-15254' visible='true' lat='-34.1745607' lon='151.0135917' />
  <node id='-15256' visible='true' lat='-34.1748095' lon='151.0137318' />
  <node id='-15258' visible='true' lat='-34.1751444' lon='151.0140515' />
  <node id='-15260' visible='true' lat='-34.1754193' lon='151.0144921' />
  <node id='-15262' visible='true' lat='-34.1755987' lon='151.0148001' />
  <node id='-15264' visible='true' lat='-34.1757544' lon='151.0149637' />
  <node id='-15266' visible='true' lat='-34.1761096' lon='151.015319' />
  <node id='-15268' visible='true' lat='-34.1761489' lon='151.0154787' />
  <node id='-15270' visible='true' lat='-34.1761464' lon='151.015673' />
  <node id='-15272' visible='true' lat='-34.1760947' lon='151.0162909' />
  <node id='-15274' visible='true' lat='-34.1760046' lon='151.0166906' />
  <node id='-15276' visible='true' lat='-34.1760296' lon='151.0170476' />
  <node id='-15278' visible='true' lat='-34.1761214' lon='151.0174915' />
  <node id='-15280' visible='true' lat='-34.1761739' lon='151.0177452' />
  <node id='-15282' visible='true' lat='-34.1762526' lon='151.0179513' />
  <node id='-15284' visible='true' lat='-34.1762854' lon='151.0182762' />
  <node id='-15286' visible='true' lat='-34.1762333' lon='151.0187804' />
  <node id='-15288' visible='true' lat='-34.1761542' lon='151.0190214' />
  <node id='-15290' visible='true' lat='-34.1759607' lon='151.0191915' />
  <node id='-15292' visible='true' lat='-34.1758657' lon='151.019275' />
  <node id='-15294' visible='true' lat='-34.17535' lon='151.0195492' />
  <node id='-15296' visible='true' lat='-34.1751496' lon='151.0198423' />
  <node id='-15298' visible='true' lat='-34.1749145' lon='151.0201354' />
  <node id='-15300' visible='true' lat='-34.1748023' lon='151.0203855' />
  <node id='-15302' visible='true' lat='-34.1747944' lon='151.0205816' />
  <node id='-15304' visible='true' lat='-34.1748911' lon='151.0208634' />
  <node id='-15306' visible='true' lat='-34.1750066' lon='151.0210664' />
  <node id='-15308' visible='true' lat='-34.1750831' lon='151.0212182' />
  <node id='-15310' visible='true' lat='-34.1752034' lon='151.021325' />
  <node id='-15312' visible='true' lat='-34.1753618' lon='151.0213969' />
  <node id='-15314' visible='true' lat='-34.1755805' lon='151.0214075' />
  <node id='-15316' visible='true' lat='-34.1757065' lon='151.0213684' />
  <node id='-15318' visible='true' lat='-34.175934' lon='151.0212181' />
  <node id='-15320' visible='true' lat='-34.1762136' lon='151.0208024' />
  <node id='-15322' visible='true' lat='-34.1763679' lon='151.0206382' />
  <node id='-15324' visible='true' lat='-34.1765798' lon='151.0205212' />
  <node id='-15326' visible='true' lat='-34.1771267' lon='151.0202201' />
  <node id='-15328' visible='true' lat='-34.1774105' lon='151.019935' />
  <node id='-15330' visible='true' lat='-34.1776135' lon='151.019603' />
  <node id='-15332' visible='true' lat='-34.1777333' lon='151.0194179' />
  <node id='-15334' visible='true' lat='-34.1778809' lon='151.019262' />
  <node id='-15336' visible='true' lat='-34.1779748' lon='151.0192434' />
  <node id='-15338' visible='true' lat='-34.1780684' lon='151.0192064' />
  <node id='-15340' visible='true' lat='-34.1781602' lon='151.0192075' />
  <node id='-15342' visible='true' lat='-34.1783186' lon='151.0191144' />
  <node id='-15344' visible='true' lat='-34.1784568' lon='151.0191113' />
  <node id='-15346' visible='true' lat='-34.1785382' lon='151.0191313' />
  <node id='-15348' visible='true' lat='-34.1785758' lon='151.0192688' />
  <node id='-15350' visible='true' lat='-34.1787127' lon='151.0196288' />
  <node id='-15352' visible='true' lat='-34.1790242' lon='151.0199566' />
  <node id='-15354' visible='true' lat='-34.1793146' lon='151.0200349' />
  <node id='-15356' visible='true' lat='-34.179455' lon='151.0200884' />
  <node id='-15358' visible='true' lat='-34.1795565' lon='151.0200334' />
  <node id='-15360' visible='true' lat='-34.1796659' lon='151.0200159' />
  <node id='-15362' visible='true' lat='-34.1796673' lon='151.0201735' />
  <node id='-15364' visible='true' lat='-34.1795835' lon='151.0203576' />
  <node id='-15366' visible='true' lat='-34.1796091' lon='151.0206036' />
  <node id='-15368' visible='true' lat='-34.1795478' lon='151.0207727' />
  <node id='-15370' visible='true' lat='-34.1795163' lon='151.0208933' />
  <node id='-15372' visible='true' lat='-34.1793414' lon='151.0211704' />
  <node id='-15374' visible='true' lat='-34.1792485' lon='151.0211993' />
  <node id='-15376' visible='true' lat='-34.1790556' lon='151.0213218' />
  <node id='-15378' visible='true' lat='-34.1789127' lon='151.021422' />
  <node id='-15380' visible='true' lat='-34.1786922' lon='151.0214538' />
  <node id='-15382' visible='true' lat='-34.1785585' lon='151.0216341' />
  <node id='-15384' visible='true' lat='-34.1783686' lon='151.021826' />
  <node id='-15386' visible='true' lat='-34.1781108' lon='151.021995' />
  <node id='-15388' visible='true' lat='-34.1779821' lon='151.0220982' />
  <node id='-15390' visible='true' lat='-34.1779041' lon='151.0222313' />
  <node id='-15392' visible='true' lat='-34.1779685' lon='151.0223374' />
  <node id='-15394' visible='true' lat='-34.1779763' lon='151.0224196' />
  <node id='-15396' visible='true' lat='-34.1779586' lon='151.0225049' />
  <node id='-15398' visible='true' lat='-34.1778732' lon='151.0225857' />
  <node id='-15400' visible='true' lat='-34.1778126' lon='151.0227278' />
  <node id='-15402' visible='true' lat='-34.177692' lon='151.0228357' />
  <node id='-15404' visible='true' lat='-34.177575' lon='151.022979' />
  <node id='-15406' visible='true' lat='-34.1775429' lon='151.0230613' />
  <node id='-15408' visible='true' lat='-34.1774625' lon='151.023136' />
  <node id='-15410' visible='true' lat='-34.1774835' lon='151.0231719' />
  <node id='-15412' visible='true' lat='-34.1776691' lon='151.0230926' />
  <node id='-15414' visible='true' lat='-34.1777693' lon='151.0230044' />
  <node id='-15416' visible='true' lat='-34.1778547' lon='151.0230687' />
  <node id='-15418' action='modify' visible='true' lat='-34.1778988' lon='151.0231117'>
    <tag k='note' v='Under normal conditions you can cross without getting wet feet, may be dangerous after heavy rain.' />
    <tag k='role' v='warn' />
    <tag k='warn' v='rivercrossing' />
  </node>
  <node id='-15420' visible='true' lat='-34.1780328' lon='151.0231256' />
  <node id='-15422' visible='true' lat='-34.1780876' lon='151.0231682' />
  <node id='-15424' visible='true' lat='-34.1782276' lon='151.0233078' />
  <node id='-15426' visible='true' lat='-34.1784026' lon='151.0234812' />
  <node id='-15428' visible='true' lat='-34.1785635' lon='151.0237477' />
  <node id='-15430' visible='true' lat='-34.1786169' lon='151.0238741' />
  <node id='-15432' visible='true' lat='-34.1785924' lon='151.0240602' />
  <node id='-15434' visible='true' lat='-34.1785701' lon='151.024277' />
  <node id='-15436' visible='true' lat='-34.1786592' lon='151.0243398' />
  <node id='-15438' visible='true' lat='-34.178795' lon='151.0243662' />
  <node id='-15440' visible='true' lat='-34.1789401' lon='151.0244954' />
  <node id='-15442' visible='true' lat='-34.1789203' lon='151.0246644' />
  <node id='-15444' visible='true' lat='-34.1790063' lon='151.0247846' />
  <node id='-15446' visible='true' lat='-34.1791251' lon='151.0249102' />
  <node id='-15448' visible='true' lat='-34.1791004' lon='151.0251914' />
  <node id='-15450' visible='true' lat='-34.1792464' lon='151.0257746' />
  <node id='-15452' visible='true' lat='-34.179375' lon='151.0260588' />
  <node id='-15454' visible='true' lat='-34.1796601' lon='151.0264371' />
  <node id='-15456' visible='true' lat='-34.1798128' lon='151.0265191' />
  <node id='-15458' visible='true' lat='-34.1798297' lon='151.0266934' />
  <node id='-15460' visible='true' lat='-34.17994' lon='151.0268779' />
  <node id='-15462' visible='true' lat='-34.1801849' lon='151.0270347' />
  <node id='-15464' visible='true' lat='-34.1803319' lon='151.0272864' />
  <node id='-15466' visible='true' lat='-34.1803407' lon='151.0275613' />
  <node id='-15468' visible='true' lat='-34.1804474' lon='151.0277707' />
  <node id='-15470' visible='true' lat='-34.1806092' lon='151.0279336' />
  <node id='-15472' visible='true' lat='-34.1806428' lon='151.0280517' />
  <node id='-15474' visible='true' lat='-34.1807203' lon='151.0281176' />
  <node id='-15476' visible='true' lat='-34.1808865' lon='151.0280901' />
  <node id='-15478' visible='true' lat='-34.1809635' lon='151.028272' />
  <node id='-15480' visible='true' lat='-34.180918' lon='151.0283989' />
  <node id='-15482' visible='true' lat='-34.180946' lon='151.0285152' />
  <node id='-15484' visible='true' lat='-34.1810108' lon='151.0285892' />
  <node id='-15486' visible='true' lat='-34.1810143' lon='151.0287267' />
  <node id='-15488' visible='true' lat='-34.181093' lon='151.0288895' />
  <node id='-15490' visible='true' lat='-34.1811843' lon='151.0289601' />
  <node id='-15492' visible='true' lat='-34.1813117' lon='151.0290101' />
  <node id='-15494' visible='true' lat='-34.1813916' lon='151.0291177' />
  <node id='-15496' visible='true' lat='-34.1815024' lon='151.0291454' />
  <node id='-15498' visible='true' lat='-34.1815007' lon='151.0292977' />
  <node id='-15500' visible='true' lat='-34.1814149' lon='151.0294553' />
  <node id='-15502' visible='true' lat='-34.1813855' lon='151.0295787' />
  <node id='-15504' visible='true' lat='-34.1814336' lon='151.029621' />
  <node id='-15506' visible='true' lat='-34.1814388' lon='151.0297183' />
  <node id='-15508' visible='true' lat='-34.1815112' lon='151.0298455' />
  <node id='-15510' visible='true' lat='-34.1815794' lon='151.0301331' />
  <node id='-15512' visible='true' lat='-34.1814027' lon='151.0306344' />
  <node id='-15514' visible='true' lat='-34.1812592' lon='151.0309579' />
  <node id='-15516' visible='true' lat='-34.181247' lon='151.0311864' />
  <node id='-15518' visible='true' lat='-34.1810912' lon='151.0313069' />
  <node id='-15520' visible='true' lat='-34.1810108' lon='151.0312815' />
  <node id='-15522' visible='true' lat='-34.1809005' lon='151.0314' />
  <node id='-15524' visible='true' lat='-34.1807938' lon='151.0320746' />
  <node id='-15526' visible='true' lat='-34.1805486' lon='151.0329202' />
  <node id='-15528' visible='true' lat='-34.1803308' lon='151.0331071' />
  <node id='-15530' visible='true' lat='-34.1803543' lon='151.0332432' />
  <node id='-15532' visible='true' lat='-34.1802716' lon='151.0334805' />
  <node id='-15534' visible='true' lat='-34.1802786' lon='151.0337151' />
  <node id='-15536' visible='true' lat='-34.1800955' lon='151.0338527' />
  <node id='-15538' visible='true' lat='-34.1799609' lon='151.0341465' />
  <node id='-15540' visible='true' lat='-34.179977' lon='151.0347522' />
  <node id='-15542' visible='true' lat='-34.1798483' lon='151.0354012' />
  <node id='-15544' visible='true' lat='-34.1796263' lon='151.0358798' />
  <node id='-15546' visible='true' lat='-34.1794791' lon='151.0361879' />
  <node id='-15548' visible='true' lat='-34.1793195' lon='151.0365453' />
  <node id='-15550' visible='true' lat='-34.1793566' lon='151.036822' />
  <node id='-15552' visible='true' lat='-34.179458' lon='151.0371136' />
  <node id='-15554' visible='true' lat='-34.179411' lon='151.037317' />
  <node id='-15556' visible='true' lat='-34.1794626' lon='151.0374454' />
  <node id='-15558' visible='true' lat='-34.1794778' lon='151.0376176' />
  <node id='-15560' visible='true' lat='-34.1794432' lon='151.0377522' />
  <node id='-15562' visible='true' lat='-34.1794667' lon='151.0378434' />
  <node id='-15564' visible='true' lat='-34.1795966' lon='151.037975' />
  <node id='-15566' visible='true' lat='-34.1795879' lon='151.0381993' />
  <node id='-15568' visible='true' lat='-34.1796352' lon='151.038563' />
  <node id='-15570' visible='true' lat='-34.1796646' lon='151.0388902' />
  <node id='-15572' visible='true' lat='-34.1797277' lon='151.0389785' />
  <node id='-15574' action='modify' visible='true' lat='-34.17981273969' lon='151.0393160571' />
  <node id='-15576' action='modify' visible='true' lat='-34.17996673398' lon='151.03956996798' />
  <way id='-15578' visible='true'>
    <nd ref='-14488' />
    <nd ref='-14486' />
    <nd ref='-14484' />
    <nd ref='-14482' />
    <nd ref='-14480' />
    <nd ref='-14478' />
    <nd ref='-14476' />
    <nd ref='-14474' />
    <nd ref='-14472' />
    <nd ref='-14470' />
    <nd ref='-14468' />
    <nd ref='-14466' />
    <nd ref='-14464' />
    <nd ref='-14462' />
    <nd ref='-14460' />
    <nd ref='-14458' />
    <nd ref='-14456' />
    <nd ref='-14454' />
    <tag k='name' v='Werrong Beach' />
    <tag k='role' v='sidetrack' />
    <tag k='style' v='return' />
  </way>
  <way id='-15580' action='modify' visible='true'>
    <nd ref='-14722' />
    <nd ref='-14724' />
    <nd ref='-14726' />
    <nd ref='-14728' />
    <nd ref='-14730' />
    <nd ref='-14732' />
    <nd ref='-14734' />
    <nd ref='-14736' />
    <nd ref='-14490' />
    <nd ref='-14738' />
    <nd ref='-14740' />
    <nd ref='-14742' />
    <nd ref='-14744' />
    <nd ref='-14746' />
    <nd ref='-14748' />
    <nd ref='-14750' />
    <nd ref='-14752' />
    <nd ref='-14754' />
    <nd ref='-14756' />
    <nd ref='-14758' />
    <nd ref='-14760' />
    <nd ref='-14762' />
    <nd ref='-14764' />
    <nd ref='-14766' />
    <nd ref='-14768' />
    <nd ref='-14770' />
    <nd ref='-14772' />
    <nd ref='-14774' />
    <nd ref='-14776' />
    <nd ref='-14778' />
    <nd ref='-14780' />
    <nd ref='-14782' />
    <nd ref='-14784' />
    <nd ref='-14786' />
    <nd ref='-14788' />
    <nd ref='-14790' />
    <nd ref='-14792' />
    <nd ref='-14794' />
    <nd ref='-14796' />
    <nd ref='-14798' />
    <nd ref='-14800' />
    <nd ref='-14802' />
    <nd ref='-14804' />
    <nd ref='-14806' />
    <nd ref='-14808' />
    <nd ref='-14810' />
    <nd ref='-14812' />
    <nd ref='-14814' />
    <nd ref='-14816' />
    <nd ref='-14818' />
    <nd ref='-14820' />
    <nd ref='-14822' />
    <nd ref='-14824' />
    <nd ref='-14826' />
    <nd ref='-14828' />
    <nd ref='-14830' />
    <nd ref='-14832' />
    <nd ref='-14834' />
    <nd ref='-14836' />
    <nd ref='-14838' />
    <nd ref='-14840' />
    <nd ref='-14842' />
    <nd ref='-14844' />
    <nd ref='-14846' />
    <nd ref='-14848' />
    <nd ref='-14850' />
    <nd ref='-14852' />
    <nd ref='-14854' />
    <nd ref='-14856' />
    <nd ref='-14858' />
    <nd ref='-14860' />
    <nd ref='-14862' />
    <nd ref='-14864' />
    <nd ref='-14866' />
    <nd ref='-14868' />
    <nd ref='-14870' />
    <nd ref='-14872' />
    <nd ref='-14874' />
    <nd ref='-14876' />
    <nd ref='-14878' />
    <nd ref='-14880' />
    <nd ref='-14882' />
    <nd ref='-14884' />
    <nd ref='-14492' />
    <nd ref='-15086' />
    <nd ref='-14588' />
    <nd ref='-14540' />
    <nd ref='-15084' />
    <nd ref='-15082' />
    <nd ref='-14502' />
    <nd ref='-15080' />
    <nd ref='-14594' />
    <nd ref='-14546' />
    <nd ref='-14670' />
    <nd ref='-14636' />
    <nd ref='-15078' />
    <nd ref='-14706' />
    <nd ref='-15076' />
    <nd ref='-15074' />
    <nd ref='-14506' />
    <nd ref='-15072' />
    <nd ref='-14600' />
    <nd ref='-14552' />
    <nd ref='-15070' />
    <nd ref='-15068' />
    <nd ref='-14512' />
    <nd ref='-15066' />
    <nd ref='-14606' />
    <nd ref='-14560' />
    <nd ref='-14676' />
    <nd ref='-14644' />
    <nd ref='-14520' />
    <nd ref='-15064' />
    <nd ref='-14610' />
    <nd ref='-14566' />
    <nd ref='-14682' />
    <nd ref='-14648' />
    <nd ref='-15062' />
    <nd ref='-14710' />
    <nd ref='-14616' />
    <nd ref='-14572' />
    <nd ref='-14686' />
    <nd ref='-14654' />
    <nd ref='-15060' />
    <nd ref='-14714' />
    <nd ref='-15058' />
    <nd ref='-15056' />
    <nd ref='-14690' />
    <nd ref='-14658' />
    <nd ref='-15054' />
    <nd ref='-14718' />
    <nd ref='-15052' />
    <nd ref='-15050' />
    <nd ref='-14526' />
    <nd ref='-15048' />
    <nd ref='-15046' />
    <nd ref='-15044' />
    <nd ref='-15042' />
    <nd ref='-15040' />
    <nd ref='-14532' />
    <nd ref='-15038' />
    <nd ref='-14622' />
    <nd ref='-14580' />
    <nd ref='-15036' />
    <nd ref='-15034' />
    <nd ref='-14542' />
    <nd ref='-14496' />
    <nd ref='-14630' />
    <nd ref='-14590' />
    <nd ref='-14696' />
    <nd ref='-14664' />
    <nd ref='-14550' />
    <nd ref='-14504' />
    <nd ref='-14638' />
    <nd ref='-14598' />
    <nd ref='-14700' />
    <nd ref='-14672' />
    <nd ref='-15032' />
    <nd ref='-15030' />
    <nd ref='-15028' />
    <nd ref='-15026' />
    <nd ref='-14554' />
    <nd ref='-14508' />
    <nd ref='-14640' />
    <nd ref='-14602' />
    <nd ref='-14704' />
    <nd ref='-14674' />
    <nd ref='-14562' />
    <nd ref='-14514' />
    <nd ref='-14646' />
    <nd ref='-14608' />
    <nd ref='-14708' />
    <nd ref='-14678' />
    <nd ref='-15024' />
    <nd ref='-15022' />
    <nd ref='-14650' />
    <nd ref='-14612' />
    <nd ref='-14712' />
    <nd ref='-14684' />
    <nd ref='-15020' />
    <nd ref='-15018' />
    <nd ref='-15016' />
    <nd ref='-15014' />
    <nd ref='-14716' />
    <nd ref='-14688' />
    <nd ref='-15012' />
    <nd ref='-15010' />
    <nd ref='-15008' />
    <nd ref='-15006' />
    <nd ref='-14568' />
    <nd ref='-14522' />
    <nd ref='-15004' />
    <nd ref='-15002' />
    <nd ref='-15000' />
    <nd ref='-14998' />
    <nd ref='-14574' />
    <nd ref='-14528' />
    <nd ref='-14656' />
    <nd ref='-14618' />
    <nd ref='-14996' />
    <nd ref='-14994' />
    <nd ref='-14582' />
    <nd ref='-14534' />
    <nd ref='-14660' />
    <nd ref='-14624' />
    <nd ref='-14720' />
    <nd ref='-14692' />
    <nd ref='-14592' />
    <nd ref='-14544' />
    <nd ref='-14666' />
    <nd ref='-14642' />
    <nd ref='-14516' />
    <nd ref='-14680' />
    <nd ref='-14886' />
    <nd ref='-14632' />
    <nd ref='-14556' />
    <nd ref='-14604' />
    <nd ref='-14992' />
    <nd ref='-14498' />
    <nd ref='-14990' />
    <nd ref='-14988' />
    <nd ref='-14702' />
    <nd ref='-14986' />
    <nd ref='-14578' />
    <nd ref='-14984' />
    <nd ref='-14982' />
    <nd ref='-14614' />
    <nd ref='-14652' />
    <nd ref='-14524' />
    <nd ref='-14570' />
    <nd ref='-14980' />
    <nd ref='-14978' />
    <nd ref='-14976' />
    <nd ref='-14974' />
    <nd ref='-14518' />
    <nd ref='-14564' />
    <nd ref='-14972' />
    <nd ref='-14970' />
    <nd ref='-14968' />
    <nd ref='-14558' />
    <nd ref='-14668' />
    <nd ref='-14698' />
    <nd ref='-14596' />
    <nd ref='-14634' />
    <nd ref='-14500' />
    <nd ref='-14548' />
    <nd ref='-14966' />
    <nd ref='-14964' />
    <nd ref='-14586' />
    <nd ref='-14628' />
    <nd ref='-14494' />
    <nd ref='-14538' />
    <nd ref='-14962' />
    <nd ref='-14960' />
    <nd ref='-14958' />
    <nd ref='-14956' />
    <nd ref='-14662' />
    <nd ref='-14694' />
    <nd ref='-14584' />
    <nd ref='-14626' />
    <nd ref='-14954' />
    <nd ref='-14536' />
    <nd ref='-14952' />
    <nd ref='-14950' />
    <nd ref='-14576' />
    <nd ref='-14620' />
    <nd ref='-14948' />
    <nd ref='-14530' />
    <nd ref='-14946' />
    <nd ref='-14944' />
    <nd ref='-15576' />
    <nd ref='-15574' />
    <nd ref='-15572' />
    <nd ref='-15570' />
    <nd ref='-15568' />
    <nd ref='-15566' />
    <nd ref='-15564' />
    <nd ref='-15562' />
    <nd ref='-15560' />
    <nd ref='-15558' />
    <nd ref='-15556' />
    <nd ref='-15554' />
    <nd ref='-15552' />
    <nd ref='-15550' />
    <nd ref='-15548' />
    <nd ref='-15546' />
    <nd ref='-15544' />
    <nd ref='-15542' />
    <nd ref='-15540' />
    <nd ref='-15538' />
    <nd ref='-15536' />
    <nd ref='-15534' />
    <nd ref='-15532' />
    <nd ref='-15530' />
    <nd ref='-15528' />
    <nd ref='-15526' />
    <nd ref='-15524' />
    <nd ref='-15522' />
    <nd ref='-15520' />
    <nd ref='-15518' />
    <nd ref='-15516' />
    <nd ref='-15514' />
    <nd ref='-15512' />
    <nd ref='-15510' />
    <nd ref='-15508' />
    <nd ref='-15506' />
    <nd ref='-15504' />
    <nd ref='-15502' />
    <nd ref='-15500' />
    <nd ref='-15498' />
    <nd ref='-15496' />
    <nd ref='-15494' />
    <nd ref='-15492' />
    <nd ref='-15490' />
    <nd ref='-15488' />
    <nd ref='-15486' />
    <nd ref='-15484' />
    <nd ref='-15482' />
    <nd ref='-15480' />
    <nd ref='-15478' />
    <nd ref='-15476' />
    <nd ref='-15474' />
    <nd ref='-15472' />
    <nd ref='-15470' />
    <nd ref='-15468' />
    <nd ref='-15466' />
    <nd ref='-15464' />
    <nd ref='-15462' />
    <nd ref='-15460' />
    <nd ref='-15458' />
    <nd ref='-15456' />
    <nd ref='-15454' />
    <nd ref='-15452' />
    <nd ref='-15450' />
    <nd ref='-15448' />
    <nd ref='-15446' />
    <nd ref='-15444' />
    <nd ref='-15442' />
    <nd ref='-15440' />
    <nd ref='-15438' />
    <nd ref='-15436' />
    <nd ref='-15434' />
    <nd ref='-15432' />
    <nd ref='-15430' />
    <nd ref='-15428' />
    <nd ref='-15426' />
    <nd ref='-15424' />
    <nd ref='-15422' />
    <nd ref='-15420' />
    <nd ref='-15418' />
    <nd ref='-15416' />
    <nd ref='-15414' />
    <nd ref='-15412' />
    <nd ref='-15410' />
    <nd ref='-15408' />
    <nd ref='-15406' />
    <nd ref='-15404' />
    <nd ref='-15402' />
    <nd ref='-15400' />
    <nd ref='-15398' />
    <nd ref='-15396' />
    <nd ref='-15394' />
    <nd ref='-15392' />
    <nd ref='-15390' />
    <nd ref='-15388' />
    <nd ref='-15386' />
    <nd ref='-15384' />
    <nd ref='-15382' />
    <nd ref='-15380' />
    <nd ref='-15378' />
    <nd ref='-15376' />
    <nd ref='-15374' />
    <nd ref='-15372' />
    <nd ref='-15370' />
    <nd ref='-15368' />
    <nd ref='-15366' />
    <nd ref='-15364' />
    <nd ref='-15362' />
    <nd ref='-15360' />
    <nd ref='-15358' />
    <nd ref='-15356' />
    <nd ref='-15354' />
    <nd ref='-15352' />
    <nd ref='-15350' />
    <nd ref='-15348' />
    <nd ref='-15346' />
    <nd ref='-15344' />
    <nd ref='-15342' />
    <nd ref='-15340' />
    <nd ref='-15338' />
    <nd ref='-15336' />
    <nd ref='-15334' />
    <nd ref='-15332' />
    <nd ref='-15330' />
    <nd ref='-15328' />
    <nd ref='-15326' />
    <nd ref='-15324' />
    <nd ref='-15322' />
    <nd ref='-15320' />
    <nd ref='-15318' />
    <nd ref='-15316' />
    <nd ref='-15314' />
    <nd ref='-15312' />
    <nd ref='-15310' />
    <nd ref='-15308' />
    <nd ref='-15306' />
    <nd ref='-15304' />
    <nd ref='-15302' />
    <nd ref='-15300' />
    <nd ref='-15298' />
    <nd ref='-15296' />
    <nd ref='-15294' />
    <nd ref='-15292' />
    <nd ref='-15290' />
    <nd ref='-15288' />
    <nd ref='-15286' />
    <nd ref='-15284' />
    <nd ref='-15282' />
    <nd ref='-15280' />
    <nd ref='-15278' />
    <nd ref='-15276' />
    <nd ref='-15274' />
    <nd ref='-15272' />
    <nd ref='-15270' />
    <nd ref='-15268' />
    <nd ref='-15266' />
    <nd ref='-15264' />
    <nd ref='-15262' />
    <nd ref='-15260' />
    <nd ref='-15258' />
    <nd ref='-15256' />
    <nd ref='-15254' />
    <nd ref='-15252' />
    <nd ref='-15250' />
    <nd ref='-15248' />
    <nd ref='-15246' />
    <nd ref='-15244' />
    <nd ref='-15242' />
    <nd ref='-15240' />
    <nd ref='-15238' />
    <nd ref='-15236' />
    <nd ref='-15234' />
    <nd ref='-15232' />
    <nd ref='-15230' />
    <nd ref='-15228' />
    <nd ref='-15226' />
    <nd ref='-15224' />
    <nd ref='-15222' />
    <nd ref='-15220' />
    <nd ref='-15218' />
    <nd ref='-15216' />
    <nd ref='-15214' />
    <nd ref='-15212' />
    <nd ref='-15210' />
    <nd ref='-15208' />
    <nd ref='-15206' />
    <nd ref='-15204' />
    <nd ref='-15202' />
    <nd ref='-15200' />
    <nd ref='-15198' />
    <nd ref='-15196' />
    <nd ref='-15194' />
    <nd ref='-15192' />
    <nd ref='-15190' />
    <nd ref='-15188' />
    <nd ref='-15186' />
    <nd ref='-15184' />
    <nd ref='-15182' />
    <nd ref='-15180' />
    <nd ref='-15178' />
    <nd ref='-15176' />
    <nd ref='-15174' />
    <nd ref='-15172' />
    <nd ref='-15170' />
    <nd ref='-15168' />
    <nd ref='-15166' />
    <nd ref='-15164' />
    <nd ref='-15162' />
    <nd ref='-15160' />
    <nd ref='-15158' />
    <nd ref='-15156' />
    <nd ref='-15154' />
    <nd ref='-15152' />
    <nd ref='-15150' />
    <nd ref='-15148' />
    <nd ref='-15146' />
    <nd ref='-15144' />
    <nd ref='-15142' />
    <nd ref='-15140' />
    <nd ref='-15138' />
    <nd ref='-15136' />
    <nd ref='-15134' />
    <nd ref='-15132' />
    <nd ref='-15120' />
    <nd ref='-15122' />
    <nd ref='-15124' />
    <nd ref='-15126' />
    <nd ref='-15128' />
    <nd ref='-15130' />
    <nd ref='-15108' />
    <nd ref='-15110' />
    <nd ref='-15112' />
    <nd ref='-15114' />
    <nd ref='-15116' />
    <nd ref='-15118' />
    <nd ref='-15104' />
    <nd ref='-15106' />
    <nd ref='-15102' />
    <nd ref='-15100' />
    <nd ref='-15098' />
    <nd ref='-15096' />
    <nd ref='-15094' />
    <nd ref='-15092' />
    <nd ref='-15090' />
    <nd ref='-15088' />
    <tag k='name' v='Otford to Helensburgh via Burning Palms' />
    <tag k='park' v='Royal National Park' />
    <tag k='photo' v='136319147@N08/22598250254' />
    <tag k='role' v='primary' />
    <tag k='style' v='oneway' />
    <tag k='transport' v='train;carshuffle' />
  </way>
  <way id='-15582' visible='true'>
    <nd ref='-14886' />
    <nd ref='-14888' />
    <nd ref='-14890' />
    <nd ref='-14892' />
    <nd ref='-14894' />
    <nd ref='-14896' />
    <nd ref='-14898' />
    <nd ref='-14900' />
    <nd ref='-14902' />
    <nd ref='-14904' />
    <nd ref='-14510' />
    <nd ref='-14906' />
    <nd ref='-14908' />
    <nd ref='-14910' />
    <nd ref='-14912' />
    <nd ref='-14914' />
    <nd ref='-14916' />
    <nd ref='-14918' />
    <nd ref='-14920' />
    <nd ref='-14922' />
    <nd ref='-14924' />
    <nd ref='-14926' />
    <nd ref='-14928' />
    <nd ref='-14930' />
    <nd ref='-14932' />
    <nd ref='-14934' />
    <nd ref='-14936' />
    <nd ref='-14938' />
    <nd ref='-14940' />
    <nd ref='-14942' />
    <tag k='name' v='Figure Eight Pool' />
    <tag k='role' v='sidetrack' />
    <tag k='style' v='return' />
  </way>
</osm>
