<?xml version='1.0' encoding='UTF-8'?>
<osm version='0.6' upload='false' generator='JOSM'>
  <node id='-11002' action='modify' visible='true' lat='-34.67838087581' lon='150.3078925997' />
  <node id='-11004' action='modify' visible='true' lat='-34.67814559232' lon='150.30770186125' />
  <node id='-11006' action='modify' visible='true' lat='-34.67798350775' lon='150.3073394582' />
  <node id='-11008' action='modify' visible='true' lat='-34.67766456621' lon='150.30731402641' />
  <node id='-11010' action='modify' visible='true' lat='-34.67736130918' lon='150.30702156079' />
  <node id='-11012' action='modify' visible='true' lat='-34.67717308013' lon='150.30664008389' />
  <node id='-11014' action='modify' visible='true' lat='-34.67707373684' lon='150.30630947058' />
  <node id='-11016' action='modify' visible='true' lat='-34.65616663623' lon='150.29957934473' />
  <node id='-11018' visible='true' lat='-34.6611911' lon='150.2985566' />
  <node id='-11020' visible='true' lat='-34.6575706' lon='150.2993097' />
  <node id='-11022' visible='true' lat='-34.6570901' lon='150.2994006' />
  <node id='-11024' visible='true' lat='-34.6568064' lon='150.299452' />
  <node id='-11026' visible='true' lat='-34.6670234' lon='150.2971451' />
  <node id='-11028' visible='true' lat='-34.6657432' lon='150.2974849' />
  <node id='-11030' visible='true' lat='-34.6647152' lon='150.297711' />
  <node id='-11032' visible='true' lat='-34.6632385' lon='150.2981573' />
  <node id='-11034' visible='true' lat='-34.6619486' lon='150.2984115' />
  <node id='-11036' visible='true' lat='-34.6682163' lon='150.2969497' />
  <node id='-11038' visible='true' lat='-34.6684504' lon='150.2970784' />
  <node id='-11040' visible='true' lat='-34.6685652' lon='150.2973801' />
  <node id='-11042' visible='true' lat='-34.6687171' lon='150.2977243' />
  <node id='-11044' visible='true' lat='-34.6690482' lon='150.2980191' />
  <node id='-11046' visible='true' lat='-34.6696324' lon='150.2983492' />
  <node id='-11048' visible='true' lat='-34.6700706' lon='150.2985969' />
  <node id='-11050' visible='true' lat='-34.6705458' lon='150.2988869' />
  <node id='-11052' visible='true' lat='-34.6710941' lon='150.2992183' />
  <node id='-11054' visible='true' lat='-34.6718585' lon='150.2995426' />
  <node id='-11056' visible='true' lat='-34.6725869' lon='150.2998681' />
  <node id='-11058' visible='true' lat='-34.6770224' lon='150.3059996' />
  <node id='-11060' visible='true' lat='-34.6767831' lon='150.3057397' />
  <node id='-11062' visible='true' lat='-34.6765878' lon='150.3055444' />
  <node id='-11064' visible='true' lat='-34.6764342' lon='150.3050709' />
  <node id='-11066' visible='true' lat='-34.6763495' lon='150.3046246' />
  <node id='-11068' visible='true' lat='-34.6761971' lon='150.3040796' />
  <node id='-11070' visible='true' lat='-34.6761236' lon='150.3035517' />
  <node id='-11072' visible='true' lat='-34.6759613' lon='150.3029938' />
  <node id='-11074' visible='true' lat='-34.6759119' lon='150.3024788' />
  <node id='-11076' visible='true' lat='-34.675693' lon='150.301878' />
  <node id='-11078' visible='true' lat='-34.6753401' lon='150.3017235' />
  <node id='-11080' visible='true' lat='-34.6749731' lon='150.3016205' />
  <node id='-11082' visible='true' lat='-34.6745284' lon='150.3014059' />
  <node id='-11084' visible='true' lat='-34.6741464' lon='150.3010522' />
  <node id='-11086' visible='true' lat='-34.6738534' lon='150.3008569' />
  <node id='-11088' visible='true' lat='-34.6736092' lon='150.3006616' />
  <node id='-11090' visible='true' lat='-34.6734139' lon='150.3004175' />
  <node id='-11092' visible='true' lat='-34.6730233' lon='150.3000757' />
  <node id='-11094' action='modify' visible='true' lat='-34.6824761' lon='150.3055687' />
  <node id='-11096' action='modify' visible='true' lat='-34.68473553234' lon='150.30879357469' />
  <node id='-11098' action='modify' visible='true' lat='-34.68439080624' lon='150.30889201023' />
  <node id='-11100' action='modify' visible='true' lat='-34.68417766751' lon='150.30889201023' />
  <node id='-11102' action='modify' visible='true' lat='-34.68412296952' lon='150.30872780422' />
  <node id='-11104' action='modify' visible='true' lat='-34.6840246926' lon='150.30838363368' />
  <node id='-11106' action='modify' visible='true' lat='-34.68397787627' lon='150.30810321446' />
  <node id='-11108' action='modify' visible='true' lat='-34.68370015932' lon='150.3079643086' />
  <node id='-11110' action='modify' visible='true' lat='-34.68349525389' lon='150.3079643086' />
  <node id='-11112' action='modify' visible='true' lat='-34.68338914256' lon='150.30769919325' />
  <node id='-11114' action='modify' visible='true' lat='-34.68338914256' lon='150.30742137915' />
  <node id='-11116' action='modify' visible='true' lat='-34.68320455333' lon='150.3073669381' />
  <node id='-11118' action='modify' visible='true' lat='-34.68299359031' lon='150.30709592146' />
  <node id='-11120' action='modify' visible='true' lat='-34.68283585534' lon='150.30671084472' />
  <node id='-11122' action='modify' visible='true' lat='-34.68273722526' lon='150.30616248957' />
  <node id='-11124' action='modify' visible='true' lat='-34.68246494794' lon='150.30558272163' />
  <node id='-11126' action='modify' visible='true' lat='-34.67708066697' lon='150.30564039131' />
  <node id='-11128' action='modify' visible='true' lat='-34.67722855388' lon='150.30537064641' />
  <node id='-11130' action='modify' visible='true' lat='-34.67745038376' lon='150.30525375695' />
  <node id='-11132' action='modify' visible='true' lat='-34.67815284112' lon='150.30555946784' />
  <node id='-11134' action='modify' visible='true' lat='-34.67835988005' lon='150.30551451036' />
  <node id='-11136' action='modify' visible='true' lat='-34.6781898124' lon='150.30517283348' />
  <node id='-11138' action='modify' visible='true' lat='-34.67796059023' lon='150.30497502056' />
  <node id='-11140' action='modify' visible='true' lat='-34.67776833888' lon='150.30466930967' />
  <node id='-11142' action='modify' visible='true' lat='-34.67771657883' lon='150.30428267531' />
  <node id='-11144' action='modify' visible='true' lat='-34.67771657883' lon='150.30312552873' />
  <node id='-11146' action='modify' visible='true' lat='-34.67801983456' lon='150.3024897339' />
  <node id='-11148' action='modify' visible='true' lat='-34.67901325071' lon='150.30298565387' />
  <node id='-11150' action='modify' visible='true' lat='-34.65554480602' lon='150.31062925771' />
  <node id='-11152' action='modify' visible='true' lat='-34.65490872396' lon='150.3060795604' />
  <node id='-11154' action='modify' visible='true' lat='-34.6546424556' lon='150.30476680188' />
  <node id='-11156' action='modify' visible='true' lat='-34.6553968804' lon='150.30295051956' />
  <node id='-11158' action='modify' visible='true' lat='-34.65570752391' lon='150.30164675254' />
  <node id='-11160' action='modify' visible='true' lat='-34.65613650589' lon='150.2995876998' />
  <node id='-11162' visible='true' lat='-34.6454102' lon='150.3421875' />
  <node id='-11164' visible='true' lat='-34.6456055' lon='150.3417969' />
  <node id='-11166' visible='true' lat='-34.6461426' lon='150.3415527' />
  <node id='-11168' visible='true' lat='-34.646875' lon='150.3415039' />
  <node id='-11170' visible='true' lat='-34.6473633' lon='150.3415039' />
  <node id='-11172' visible='true' lat='-34.6476563' lon='150.3419434' />
  <node id='-11174' visible='true' lat='-34.6480469' lon='150.342627' />
  <node id='-11176' visible='true' lat='-34.6486816' lon='150.3433105' />
  <node id='-11178' visible='true' lat='-34.6491211' lon='150.3437988' />
  <node id='-11180' visible='true' lat='-34.6495117' lon='150.3442383' />
  <node id='-11182' visible='true' lat='-34.6499023' lon='150.3442383' />
  <node id='-11184' visible='true' lat='-34.6500977' lon='150.3439941' />
  <node id='-11186' visible='true' lat='-34.650293' lon='150.343457' />
  <node id='-11188' visible='true' lat='-34.6503906' lon='150.3429199' />
  <node id='-11190' visible='true' lat='-34.6506836' lon='150.3422852' />
  <node id='-11192' visible='true' lat='-34.6508789' lon='150.3418945' />
  <node id='-11194' visible='true' lat='-34.6512695' lon='150.3416504' />
  <node id='-11196' visible='true' lat='-34.6516602' lon='150.3414551' />
  <node id='-11198' visible='true' lat='-34.652002' lon='150.3414551' />
  <node id='-11200' visible='true' lat='-34.6522461' lon='150.3416992' />
  <node id='-11202' visible='true' lat='-34.6523926' lon='150.3420898' />
  <node id='-11204' visible='true' lat='-34.6524414' lon='150.3429199' />
  <node id='-11206' visible='true' lat='-34.6524414' lon='150.3437988' />
  <node id='-11208' visible='true' lat='-34.6524414' lon='150.3444336' />
  <node id='-11210' visible='true' lat='-34.6526856' lon='150.3448242' />
  <node id='-11212' visible='true' lat='-34.6530273' lon='150.3450195' />
  <node id='-11214' visible='true' lat='-34.6536621' lon='150.3450195' />
  <node id='-11216' visible='true' lat='-34.6542481' lon='150.3445801' />
  <node id='-11218' visible='true' lat='-34.6548828' lon='150.344043' />
  <node id='-11220' visible='true' lat='-34.6553711' lon='150.3437012' />
  <node id='-11222' visible='true' lat='-34.655957' lon='150.3432129' />
  <node id='-11224' visible='true' lat='-34.656543' lon='150.3423828' />
  <node id='-11226' visible='true' lat='-34.6568359' lon='150.3419434' />
  <node id='-11228' visible='true' lat='-34.6571777' lon='150.3416016' />
  <node id='-11230' visible='true' lat='-34.6578613' lon='150.3410156' />
  <node id='-11232' visible='true' lat='-34.6584961' lon='150.3407227' />
  <node id='-11234' visible='true' lat='-34.6590332' lon='150.3405273' />
  <node id='-11236' visible='true' lat='-34.6594727' lon='150.3402832' />
  <node id='-11238' visible='true' lat='-34.6595215' lon='150.3398926' />
  <node id='-11240' visible='true' lat='-34.6594727' lon='150.3395508' />
  <node id='-11242' visible='true' lat='-34.6592773' lon='150.3391602' />
  <node id='-11244' visible='true' lat='-34.6589844' lon='150.3388184' />
  <node id='-11246' visible='true' lat='-34.6588867' lon='150.338623' />
  <node id='-11248' visible='true' lat='-34.6589844' lon='150.3384766' />
  <node id='-11250' visible='true' lat='-34.6591797' lon='150.3381348' />
  <node id='-11252' visible='true' lat='-34.6593262' lon='150.3374512' />
  <node id='-11254' visible='true' lat='-34.6594727' lon='150.3369141' />
  <node id='-11256' visible='true' lat='-34.6595215' lon='150.3363281' />
  <node id='-11258' visible='true' lat='-34.6597168' lon='150.3357422' />
  <node id='-11260' visible='true' lat='-34.6599121' lon='150.3355469' />
  <node id='-11262' visible='true' lat='-34.6601563' lon='150.3352539' />
  <node id='-11264' visible='true' lat='-34.6605469' lon='150.3349609' />
  <node id='-11266' visible='true' lat='-34.6608398' lon='150.3348145' />
  <node id='-11268' visible='true' lat='-34.6609375' lon='150.3345703' />
  <node id='-11270' visible='true' lat='-34.6610352' lon='150.3342773' />
  <node id='-11272' visible='true' lat='-34.6610352' lon='150.3340332' />
  <node id='-11274' visible='true' lat='-34.6611328' lon='150.3338867' />
  <node id='-11276' visible='true' lat='-34.6614258' lon='150.3337891' />
  <node id='-11278' visible='true' lat='-34.6616211' lon='150.3335937' />
  <node id='-11280' visible='true' lat='-34.6617188' lon='150.3333008' />
  <node id='-11282' visible='true' lat='-34.6618652' lon='150.3332031' />
  <node id='-11284' visible='true' lat='-34.6620606' lon='150.3332031' />
  <node id='-11286' visible='true' lat='-34.6624023' lon='150.3331055' />
  <node id='-11288' visible='true' lat='-34.6625' lon='150.3328613' />
  <node id='-11290' visible='true' lat='-34.6625488' lon='150.3324707' />
  <node id='-11292' visible='true' lat='-34.6623047' lon='150.3320801' />
  <node id='-11294' visible='true' lat='-34.6621582' lon='150.3315918' />
  <node id='-11296' visible='true' lat='-34.6618652' lon='150.3313965' />
  <node id='-11298' visible='true' lat='-34.6618652' lon='150.330957' />
  <node id='-11300' visible='true' lat='-34.6620117' lon='150.3307617' />
  <node id='-11302' visible='true' lat='-34.6620606' lon='150.3305176' />
  <node id='-11304' visible='true' lat='-34.6620606' lon='150.3301758' />
  <node id='-11306' visible='true' lat='-34.6617676' lon='150.3293457' />
  <node id='-11308' visible='true' lat='-34.6614258' lon='150.3280273' />
  <node id='-11310' visible='true' lat='-34.6610352' lon='150.3270996' />
  <node id='-11312' visible='true' lat='-34.6606934' lon='150.326416' />
  <node id='-11314' visible='true' lat='-34.6605957' lon='150.3257812' />
  <node id='-11316' visible='true' lat='-34.6604492' lon='150.3250977' />
  <node id='-11318' visible='true' lat='-34.6604492' lon='150.3241211' />
  <node id='-11320' visible='true' lat='-34.6604492' lon='150.3233398' />
  <node id='-11322' visible='true' lat='-34.6603516' lon='150.3228516' />
  <node id='-11324' visible='true' lat='-34.6604004' lon='150.3225098' />
  <node id='-11326' visible='true' lat='-34.6601563' lon='150.3221191' />
  <node id='-11328' visible='true' lat='-34.6598633' lon='150.3217773' />
  <node id='-11330' visible='true' lat='-34.6592773' lon='150.321582' />
  <node id='-11332' visible='true' lat='-34.6584961' lon='150.3212891' />
  <node id='-11334' visible='true' lat='-34.6575684' lon='150.3208496' />
  <node id='-11336' visible='true' lat='-34.6567383' lon='150.3205078' />
  <node id='-11338' visible='true' lat='-34.6563477' lon='150.3202637' />
  <node id='-11340' visible='true' lat='-34.6561523' lon='150.319873' />
  <node id='-11342' visible='true' lat='-34.6561035' lon='150.3194336' />
  <node id='-11344' visible='true' lat='-34.6562988' lon='150.3189941' />
  <node id='-11346' action='modify' visible='true' lat='-34.6565181086' lon='150.3184854828' />
  <node id='-11370' visible='true' lat='-34.6692752' lon='150.3213608' />
  <node id='-11372' visible='true' lat='-34.6690826' lon='150.3209137' />
  <node id='-11374' visible='true' lat='-34.6687668' lon='150.3205298' />
  <node id='-11376' visible='true' lat='-34.6683389' lon='150.3201965' />
  <node id='-11378' visible='true' lat='-34.6676197' lon='150.3197485' />
  <node id='-11380' visible='true' lat='-34.6669181' lon='150.3191608' />
  <node id='-11382' visible='true' lat='-34.6661651' lon='150.3188336' />
  <node id='-11384' visible='true' lat='-34.6657901' lon='150.3185478' />
  <node id='-11386' visible='true' lat='-34.665015' lon='150.3180712' />
  <node id='-11388' visible='true' lat='-34.6646855' lon='150.3176653' />
  <node id='-11390' visible='true' lat='-34.6642578' lon='150.3173858' />
  <node id='-11392' visible='true' lat='-34.6641297' lon='150.3172577' />
  <node id='-11394' visible='true' lat='-34.6695864' lon='150.3223988' />
  <node id='-11396' visible='true' lat='-34.6696289' lon='150.3225586' />
  <node id='-11398' visible='true' lat='-34.6819255' lon='150.3062382' />
  <node id='-11400' visible='true' lat='-34.6809939' lon='150.3062983' />
  <node id='-11402' visible='true' lat='-34.6806893' lon='150.3065698' />
  <node id='-11404' visible='true' lat='-34.6800128' lon='150.3066845' />
  <node id='-11406' visible='true' lat='-34.6796151' lon='150.3068139' />
  <node id='-11408' visible='true' lat='-34.6792245' lon='150.3067163' />
  <node id='-11410' visible='true' lat='-34.6788339' lon='150.3066186' />
  <node id='-11412' visible='true' lat='-34.6785409' lon='150.3066675' />
  <node id='-11414' visible='true' lat='-34.6782967' lon='150.306936' />
  <node id='-11416' visible='true' lat='-34.6782164' lon='150.3074085' />
  <node id='-11418' visible='true' lat='-34.6783611' lon='150.3083325' />
  <node id='-11420' visible='true' lat='-34.6778812' lon='150.3087616' />
  <node id='-11422' visible='true' lat='-34.6774294' lon='150.3093024' />
  <node id='-11424' visible='true' lat='-34.6769495' lon='150.3098774' />
  <node id='-11426' visible='true' lat='-34.6763142' lon='150.3106928' />
  <node id='-11428' visible='true' lat='-34.6761024' lon='150.3114481' />
  <node id='-11430' visible='true' lat='-34.6755236' lon='150.3119974' />
  <node id='-11432' visible='true' lat='-34.6751707' lon='150.3122807' />
  <node id='-11434' visible='true' lat='-34.6747811' lon='150.3122827' />
  <node id='-11436' visible='true' lat='-34.6741464' lon='150.312478' />
  <node id='-11438' visible='true' lat='-34.6736581' lon='150.3126245' />
  <node id='-11440' visible='true' lat='-34.673121' lon='150.312771' />
  <node id='-11442' visible='true' lat='-34.6726327' lon='150.3128198' />
  <node id='-11444' visible='true' lat='-34.6722909' lon='150.3129663' />
  <node id='-11446' visible='true' lat='-34.6719003' lon='150.3130639' />
  <node id='-11448' visible='true' lat='-34.6715495' lon='150.3133707' />
  <node id='-11450' visible='true' lat='-34.6713731' lon='150.3138428' />
  <node id='-11452' action='modify' visible='true' lat='-34.6850229' lon='150.3086694' />
  <node id='-11454' visible='true' lat='-34.68473' lon='150.3087671' />
  <node id='-11456' visible='true' lat='-34.6843882' lon='150.3088647' />
  <node id='-11458' visible='true' lat='-34.6841928' lon='150.3088647' />
  <node id='-11460' visible='true' lat='-34.684144' lon='150.3087182' />
  <node id='-11462' visible='true' lat='-34.6840464' lon='150.3083764' />
  <node id='-11464' visible='true' lat='-34.6839975' lon='150.3080835' />
  <node id='-11466' visible='true' lat='-34.6837046' lon='150.307937' />
  <node id='-11468' visible='true' lat='-34.6835093' lon='150.307937' />
  <node id='-11470' visible='true' lat='-34.6834116' lon='150.3076929' />
  <node id='-11472' visible='true' lat='-34.6834116' lon='150.3073999' />
  <node id='-11474' visible='true' lat='-34.6832163' lon='150.3073423' />
  <node id='-11476' visible='true' lat='-34.6830122' lon='150.3070801' />
  <node id='-11478' visible='true' lat='-34.6828572' lon='150.3067017' />
  <node id='-11480' visible='true' lat='-34.6827584' lon='150.3061524' />
  <node id='-11482' visible='true' lat='-34.6819255' lon='150.30544' />
  <node id='-11484' visible='true' lat='-34.6815868' lon='150.3051567' />
  <node id='-11486' visible='true' lat='-34.6810678' lon='150.3048608' />
  <node id='-11488' visible='true' lat='-34.6807261' lon='150.3043725' />
  <node id='-11490' visible='true' lat='-34.6801401' lon='150.3040796' />
  <node id='-11492' visible='true' lat='-34.6797007' lon='150.3037866' />
  <node id='-11494' visible='true' lat='-34.6794077' lon='150.303396' />
  <node id='-11496' visible='true' lat='-34.6793589' lon='150.3029565' />
  <node id='-11498' visible='true' lat='-34.6712186' lon='150.3140547' />
  <node id='-11500' visible='true' lat='-34.67067077085' lon='150.31431833135' />
  <node id='-11502' visible='true' lat='-34.67014893862' lon='150.31439414772' />
  <node id='-11504' visible='true' lat='-34.66999131581' lon='150.31462998784' />
  <node id='-11506' visible='true' lat='-34.6698180761' lon='150.31454695834' />
  <node id='-11508' visible='true' lat='-34.6695313' lon='150.3145508' />
  <node id='-11510' visible='true' lat='-34.66911567028' lon='150.31454277235' />
  <node id='-11512' visible='true' lat='-34.66877828116' lon='150.31460458214' />
  <node id='-11514' visible='true' lat='-34.66879853187' lon='150.31501445886' />
  <node id='-11516' visible='true' lat='-34.66872794005' lon='150.31557672024' />
  <node id='-11518' visible='true' lat='-34.6686315125' lon='150.31587912695' />
  <node id='-11520' visible='true' lat='-34.66850410094' lon='150.31622609074' />
  <node id='-11522' visible='true' lat='-34.66840650042' lon='150.3166059619' />
  <node id='-11524' visible='true' lat='-34.66819786332' lon='150.31728035582' />
  <node id='-11526' visible='true' lat='-34.66823315946' lon='150.31748154048' />
  <node id='-11528' visible='true' lat='-34.66841910014' lon='150.3181983295' />
  <node id='-11530' visible='true' lat='-34.66858856547' lon='150.31917953572' />
  <node id='-11532' visible='true' lat='-34.66855561673' lon='150.31952517738' />
  <node id='-11534' visible='true' lat='-34.66865034902' lon='150.31976301045' />
  <node id='-11536' visible='true' lat='-34.66894776498' lon='150.32014990675' />
  <node id='-11538' visible='true' lat='-34.66921834007' lon='150.32052070979' />
  <node id='-11540' visible='true' lat='-34.66952276505' lon='150.32110238584' />
  <node id='-11542' visible='true' lat='-34.66974272415' lon='150.32170281839' />
  <node id='-11544' visible='true' lat='-34.66974816637' lon='150.32204029444' />
  <node id='-11546' visible='true' lat='-34.66973440597' lon='150.32239087302' />
  <node id='-11548' visible='true' lat='-34.6566537' lon='150.3173619' />
  <node id='-11550' visible='true' lat='-34.6569293' lon='150.3174619' />
  <node id='-11552' visible='true' lat='-34.6572944' lon='150.3178302' />
  <node id='-11554' action='modify' visible='true' lat='-34.6588195806' lon='150.31831288525' />
  <node id='-11556' visible='true' lat='-34.66048409524' lon='150.3175963835' />
  <node id='-11558' visible='true' lat='-34.6605445' lon='150.3175587' />
  <node id='-11560' action='modify' visible='true' lat='-34.66098264265' lon='150.31719470615' />
  <node id='-11562' action='modify' visible='true' lat='-34.66132513361' lon='150.31677494722' />
  <node id='-11564' action='modify' visible='true' lat='-34.6619743494' lon='150.31687490489' />
  <node id='-11566' action='modify' visible='true' lat='-34.66259851232' lon='150.31682295582' />
  <node id='-11568' visible='true' lat='-34.6640804' lon='150.3171516' />
  <node id='-11570' action='modify' visible='true' lat='-34.66973138206' lon='150.32248588504' />
  <node id='-11572' action='modify' visible='true' lat='-34.66979246244' lon='150.322696155' />
  <node id='-11574' action='modify' visible='true' lat='-34.6702259338' lon='150.3231132385' />
  <node id='-11576' action='modify' visible='true' lat='-34.67020938913' lon='150.32313469617' />
  <node id='-11578' action='modify' visible='true' lat='-34.6697748147' lon='150.322696155' />
  <node id='-11580' action='modify' visible='true' lat='-34.66971635655' lon='150.3226974961' />
  <node id='-11582' action='modify' visible='true' lat='-34.66965900134' lon='150.32281148999' />
  <node id='-11584' action='modify' visible='true' lat='-34.66964466253' lon='150.32305020659' />
  <node id='-11586' action='modify' visible='true' lat='-34.66963032371' lon='150.32304215996' />
  <node id='-11588' action='modify' visible='true' lat='-34.66964576551' lon='150.32280880778' />
  <node id='-11590' action='modify' visible='true' lat='-34.65954180322' lon='150.31821284263' />
  <node id='-11592' action='modify' visible='true' lat='-34.66017719785' lon='150.31759057014' />
  <node id='-11594' action='modify' visible='true' lat='-34.66366957511' lon='150.31695220439' />
  <node id='-11596' action='modify' visible='true' lat='-34.65657766702' lon='150.3173719701' />
  <node id='-11598' action='modify' visible='true' lat='-34.65644418463' lon='150.31720164983' />
  <node id='-11600' action='modify' visible='true' lat='-34.6564077803' lon='150.31722981303' />
  <node id='-11602' action='modify' visible='true' lat='-34.6563790981' lon='150.31723249523' />
  <node id='-11604' action='modify' visible='true' lat='-34.65648279526' lon='150.31798083155' />
  <node id='-11606' action='modify' visible='true' lat='-34.65656773859' lon='150.31848374574' />
  <node id='-11608' action='modify' visible='true' lat='-34.65662951549' lon='150.31868893473' />
  <node id='-11610' action='modify' visible='true' lat='-34.65670232393' lon='150.31896654336' />
  <node id='-11612' action='modify' visible='true' lat='-34.6568633848' lon='150.31913954584' />
  <node id='-11614' action='modify' visible='true' lat='-34.65691412994' lon='150.31927097409' />
  <node id='-11616' action='modify' visible='true' lat='-34.65694501827' lon='150.31950969069' />
  <node id='-11618' action='modify' visible='true' lat='-34.65692847096' lon='150.31959015696' />
  <node id='-11620' action='modify' visible='true' lat='-34.65682587751' lon='150.31968135207' />
  <node id='-11622' action='modify' visible='true' lat='-34.65682229225' lon='150.31967431127' />
  <node id='-11624' action='modify' visible='true' lat='-34.65692460991' lon='150.31958781003' />
  <node id='-11626' action='modify' visible='true' lat='-34.65694032987' lon='150.31951069652' />
  <node id='-11628' action='modify' visible='true' lat='-34.65691137206' lon='150.31927197991' />
  <node id='-11630' action='modify' visible='true' lat='-34.65686062691' lon='150.31914256333' />
  <node id='-11632' action='modify' visible='true' lat='-34.65669708394' lon='150.31896821974' />
  <node id='-11634' action='modify' visible='true' lat='-34.65662482707' lon='150.31868994056' />
  <node id='-11636' action='modify' visible='true' lat='-34.65656249858' lon='150.31848307519' />
  <node id='-11638' action='modify' visible='true' lat='-34.65646817838' lon='150.31798116683' />
  <node id='-11640' action='modify' visible='true' lat='-34.66966341328' lon='150.32265273674' />
  <node id='-13946' action='modify' visible='true' lat='-34.6642303' lon='150.3181248' />
  <node id='-13947' action='modify' visible='true' lat='-34.6643701' lon='150.3187108' />
  <node id='-13948' action='modify' visible='true' lat='-34.6644043' lon='150.3192413' />
  <node id='-13949' action='modify' visible='true' lat='-34.6643555' lon='150.3199249' />
  <node id='-13950' action='modify' visible='true' lat='-34.6643022' lon='150.3203137' />
  <node id='-13951' action='modify' visible='true' lat='-34.6640426' lon='150.3203643' />
  <node id='-13952' action='modify' visible='true' lat='-34.6634134' lon='150.3198718' />
  <node id='-13953' action='modify' visible='true' lat='-34.6628192' lon='150.3201248' />
  <node id='-13954' action='modify' visible='true' lat='-34.6623249' lon='150.3200219' />
  <node id='-13955' action='modify' visible='true' lat='-34.6617304' lon='150.3201831' />
  <node id='-13956' action='modify' visible='true' lat='-34.6620222' lon='150.3205379' />
  <node id='-13957' action='modify' visible='true' lat='-34.6626827' lon='150.3206949' />
  <node id='-13958' action='modify' visible='true' lat='-34.6628798' lon='150.3207563' />
  <node id='-13959' action='modify' visible='true' lat='-34.6630969' lon='150.3211066' />
  <way id='-11642' action='modify' visible='true'>
    <nd ref='-11636' />
    <nd ref='-11346' />
    <nd ref='-11344' />
    <nd ref='-11342' />
    <nd ref='-11340' />
    <nd ref='-11338' />
    <nd ref='-11336' />
    <nd ref='-11334' />
    <nd ref='-11332' />
    <nd ref='-11330' />
    <nd ref='-11328' />
    <nd ref='-11326' />
    <nd ref='-11324' />
    <nd ref='-11322' />
    <nd ref='-11320' />
    <nd ref='-11318' />
    <nd ref='-11316' />
    <nd ref='-11314' />
    <nd ref='-11312' />
    <nd ref='-11310' />
    <nd ref='-11308' />
    <nd ref='-11306' />
    <nd ref='-11304' />
    <nd ref='-11302' />
    <nd ref='-11300' />
    <nd ref='-11298' />
    <nd ref='-11296' />
    <nd ref='-11294' />
    <nd ref='-11292' />
    <nd ref='-11290' />
    <nd ref='-11288' />
    <nd ref='-11286' />
    <nd ref='-11284' />
    <nd ref='-11282' />
    <nd ref='-11280' />
    <nd ref='-11278' />
    <nd ref='-11276' />
    <nd ref='-11274' />
    <nd ref='-11272' />
    <nd ref='-11270' />
    <nd ref='-11268' />
    <nd ref='-11266' />
    <nd ref='-11264' />
    <nd ref='-11262' />
    <nd ref='-11260' />
    <nd ref='-11258' />
    <nd ref='-11256' />
    <nd ref='-11254' />
    <nd ref='-11252' />
    <nd ref='-11250' />
    <nd ref='-11248' />
    <nd ref='-11246' />
    <nd ref='-11244' />
    <nd ref='-11242' />
    <nd ref='-11240' />
    <nd ref='-11238' />
    <nd ref='-11236' />
    <nd ref='-11234' />
    <nd ref='-11232' />
    <nd ref='-11230' />
    <nd ref='-11228' />
    <nd ref='-11226' />
    <nd ref='-11224' />
    <nd ref='-11222' />
    <nd ref='-11220' />
    <nd ref='-11218' />
    <nd ref='-11216' />
    <nd ref='-11214' />
    <nd ref='-11212' />
    <nd ref='-11210' />
    <nd ref='-11208' />
    <nd ref='-11206' />
    <nd ref='-11204' />
    <nd ref='-11202' />
    <nd ref='-11200' />
    <nd ref='-11198' />
    <nd ref='-11196' />
    <nd ref='-11194' />
    <nd ref='-11192' />
    <nd ref='-11190' />
    <nd ref='-11188' />
    <nd ref='-11186' />
    <nd ref='-11184' />
    <nd ref='-11182' />
    <nd ref='-11180' />
    <nd ref='-11178' />
    <nd ref='-11176' />
    <nd ref='-11174' />
    <nd ref='-11172' />
    <nd ref='-11170' />
    <nd ref='-11168' />
    <nd ref='-11166' />
    <nd ref='-11164' />
    <nd ref='-11162' />
    <tag k='name' v='Clifftop Walk to Balks Point' />
    <tag k='role' v='sidetrack' />
    <tag k='style' v='return' />
  </way>
  <way id='-11646' action='modify' visible='true'>
    <nd ref='-11058' />
    <nd ref='-11126' />
    <nd ref='-11128' />
    <nd ref='-11130' />
    <nd ref='-11132' />
    <nd ref='-11134' />
    <nd ref='-11136' />
    <nd ref='-11138' />
    <nd ref='-11140' />
    <nd ref='-11142' />
    <nd ref='-11144' />
    <nd ref='-11146' />
    <nd ref='-11148' />
    <nd ref='-11496' />
    <nd ref='-11494' />
    <nd ref='-11492' />
    <nd ref='-11490' />
    <nd ref='-11488' />
    <nd ref='-11486' />
    <nd ref='-11484' />
    <nd ref='-11482' />
    <nd ref='-11094' />
    <nd ref='-11480' />
    <nd ref='-11478' />
    <nd ref='-11476' />
    <nd ref='-11474' />
    <nd ref='-11472' />
    <nd ref='-11470' />
    <nd ref='-11468' />
    <nd ref='-11466' />
    <nd ref='-11464' />
    <nd ref='-11462' />
    <nd ref='-11460' />
    <nd ref='-11458' />
    <nd ref='-11456' />
    <nd ref='-11454' />
    <nd ref='-11452' />
    <nd ref='-11096' />
    <nd ref='-11098' />
    <nd ref='-11100' />
    <nd ref='-11102' />
    <nd ref='-11104' />
    <nd ref='-11106' />
    <nd ref='-11108' />
    <nd ref='-11110' />
    <nd ref='-11112' />
    <nd ref='-11114' />
    <nd ref='-11116' />
    <nd ref='-11118' />
    <nd ref='-11120' />
    <nd ref='-11122' />
    <nd ref='-11124' />
    <nd ref='-11398' />
    <nd ref='-11400' />
    <nd ref='-11402' />
    <nd ref='-11404' />
    <nd ref='-11406' />
    <nd ref='-11408' />
    <nd ref='-11410' />
    <nd ref='-11412' />
    <nd ref='-11414' />
    <nd ref='-11416' />
    <nd ref='-11002' />
    <tag k='name' v='Bundanoon Creek' />
    <tag k='role' v='sidetrack' />
    <tag k='style' v='oneway' />
  </way>
  <way id='-11648' action='modify' visible='true'>
    <nd ref='-11016' />
    <nd ref='-11024' />
    <nd ref='-11022' />
    <nd ref='-11020' />
    <nd ref='-11018' />
    <nd ref='-11034' />
    <nd ref='-11032' />
    <nd ref='-11030' />
    <nd ref='-11028' />
    <nd ref='-11026' />
    <nd ref='-11036' />
    <nd ref='-11038' />
    <nd ref='-11040' />
    <nd ref='-11042' />
    <nd ref='-11044' />
    <nd ref='-11046' />
    <nd ref='-11048' />
    <nd ref='-11050' />
    <nd ref='-11052' />
    <nd ref='-11054' />
    <nd ref='-11056' />
    <nd ref='-11092' />
    <nd ref='-11090' />
    <nd ref='-11088' />
    <nd ref='-11086' />
    <nd ref='-11084' />
    <nd ref='-11082' />
    <nd ref='-11080' />
    <nd ref='-11078' />
    <nd ref='-11076' />
    <nd ref='-11074' />
    <nd ref='-11072' />
    <nd ref='-11070' />
    <nd ref='-11068' />
    <nd ref='-11066' />
    <nd ref='-11064' />
    <nd ref='-11062' />
    <nd ref='-11060' />
    <nd ref='-11058' />
    <nd ref='-11014' />
    <nd ref='-11012' />
    <nd ref='-11010' />
    <nd ref='-11008' />
    <nd ref='-11006' />
    <nd ref='-11004' />
    <nd ref='-11002' />
    <nd ref='-11418' />
    <nd ref='-11420' />
    <nd ref='-11422' />
    <nd ref='-11424' />
    <nd ref='-11426' />
    <nd ref='-11428' />
    <nd ref='-11430' />
    <nd ref='-11432' />
    <nd ref='-11434' />
    <nd ref='-11436' />
    <nd ref='-11438' />
    <nd ref='-11440' />
    <nd ref='-11442' />
    <nd ref='-11444' />
    <nd ref='-11446' />
    <nd ref='-11448' />
    <nd ref='-11450' />
    <nd ref='-11498' />
    <nd ref='-11500' />
    <nd ref='-11502' />
    <nd ref='-11504' />
    <nd ref='-11506' />
    <nd ref='-11508' />
    <nd ref='-11510' />
    <nd ref='-11512' />
    <nd ref='-11514' />
    <nd ref='-11516' />
    <nd ref='-11518' />
    <nd ref='-11520' />
    <nd ref='-11522' />
    <nd ref='-11524' />
    <nd ref='-11526' />
    <nd ref='-11528' />
    <nd ref='-11530' />
    <nd ref='-11532' />
    <nd ref='-11534' />
    <nd ref='-11536' />
    <nd ref='-11538' />
    <nd ref='-11540' />
    <nd ref='-11542' />
    <nd ref='-11544' />
    <nd ref='-11546' />
    <nd ref='-11570' />
    <nd ref='-11572' />
    <nd ref='-11574' />
    <nd ref='-11576' />
    <nd ref='-11578' />
    <nd ref='-11580' />
    <nd ref='-11582' />
    <nd ref='-11584' />
    <nd ref='-11586' />
    <nd ref='-11588' />
    <nd ref='-11640' />
    <nd ref='-11396' />
    <nd ref='-11394' />
    <nd ref='-11370' />
    <nd ref='-11372' />
    <nd ref='-11374' />
    <nd ref='-11376' />
    <nd ref='-11378' />
    <nd ref='-11380' />
    <nd ref='-11382' />
    <nd ref='-11384' />
    <nd ref='-11386' />
    <nd ref='-11388' />
    <nd ref='-11390' />
    <nd ref='-11392' />
    <nd ref='-11568' />
    <nd ref='-11594' />
    <nd ref='-11566' />
    <nd ref='-11564' />
    <nd ref='-11562' />
    <nd ref='-11560' />
    <nd ref='-11558' />
    <nd ref='-11556' />
    <nd ref='-11592' />
    <nd ref='-11590' />
    <nd ref='-11554' />
    <nd ref='-11552' />
    <nd ref='-11550' />
    <nd ref='-11548' />
    <nd ref='-11596' />
    <nd ref='-11598' />
    <nd ref='-11600' />
    <nd ref='-11604' />
    <nd ref='-11606' />
    <nd ref='-11608' />
    <nd ref='-11610' />
    <nd ref='-11612' />
    <nd ref='-11614' />
    <nd ref='-11616' />
    <nd ref='-11618' />
    <nd ref='-11620' />
    <nd ref='-11622' />
    <nd ref='-11624' />
    <nd ref='-11626' />
    <nd ref='-11628' />
    <nd ref='-11630' />
    <nd ref='-11632' />
    <nd ref='-11634' />
    <nd ref='-11636' />
    <nd ref='-11638' />
    <nd ref='-11602' />
    <nd ref='-11150' />
    <nd ref='-11152' />
    <nd ref='-11154' />
    <nd ref='-11156' />
    <nd ref='-11158' />
    <nd ref='-11160' />
    <tag k='name' v='Bundanoon Grand Canyon Clifftop Walk via Glow Worm Glen' />
    <tag k='park' v='Morton National Park' />
    <tag k='photo' v='136319147@N08/25454533764' />
    <tag k='role' v='primary' />
    <tag k='style' v='loop' />
    <tag k='transport' v='car;train' />
  </way>
  <way id='-13944' action='modify' visible='true'>
    <nd ref='-11390' />
    <nd ref='-13946' />
    <nd ref='-13947' />
    <nd ref='-13948' />
    <nd ref='-13949' />
    <nd ref='-13950' />
    <nd ref='-13951' />
    <nd ref='-13952' />
    <nd ref='-13953' />
    <nd ref='-13954' />
    <nd ref='-13955' />
    <nd ref='-13956' />
    <nd ref='-13957' />
    <nd ref='-13958' />
    <nd ref='-13959' />
    <tag k='name' v='Dimmocks Creek Track' />
    <tag k='role' v='sidetrack' />
    <tag k='style' v='return' />
  </way>
</osm>
