<?xml version='1.0' encoding='UTF-8'?>
<osm version='0.6' upload='false' generator='JOSM'>
  <node id='-57811' action='modify' lat='-34.23420260916' lon='150.97705187371' />
  <node id='-57813' lat='-34.2374872' lon='150.9834919' />
  <node id='-57815' action='modify' lat='-34.2376583' lon='150.9836747' />
  <node id='-57817' lat='-34.237703' lon='150.9836631' />
  <node id='-57819' lat='-34.2377589' lon='150.983725' />
  <node id='-57821' lat='-34.2374036' lon='150.9834241' />
  <node id='-57823' lat='-34.237275' lon='150.9833073' />
  <node id='-57825' lat='-34.2372097' lon='150.9832882' />
  <node id='-57827' lat='-34.2371484' lon='150.9833859' />
  <node id='-57829' lat='-34.2370502' lon='150.9834279' />
  <node id='-57831' lat='-34.236921' lon='150.9834191' />
  <node id='-57833' lat='-34.2368339' lon='150.9834903' />
  <node id='-57835' lat='-34.2366321' lon='150.9835742' />
  <node id='-57837' action='modify' lat='-34.2365372' lon='150.9836901' />
  <node id='-57839' lat='-34.2364368' lon='150.9836333' />
  <node id='-57841' lat='-34.2362876' lon='150.9836173' />
  <node id='-57843' lat='-34.236158' lon='150.983614' />
  <node id='-57845' lat='-34.2360476' lon='150.9836018' />
  <node id='-57847' lat='-34.2359472' lon='150.9836327' />
  <node id='-57849' lat='-34.2358879' lon='150.9836902' />
  <node id='-57851' lat='-34.2357983' lon='150.9837264' />
  <node id='-57853' lat='-34.235646' lon='150.9836827' />
  <node id='-57855' lat='-34.2355853' lon='150.9837077' />
  <node id='-57857' lat='-34.235387' lon='150.9836314' />
  <node id='-57859' lat='-34.2352741' lon='150.9836023' />
  <node id='-57861' lat='-34.2351772' lon='150.9836398' />
  <node id='-57863' lat='-34.2350365' lon='150.9836406' />
  <node id='-57865' lat='-34.2349126' lon='150.9836539' />
  <node id='-57867' lat='-34.2347732' lon='150.983714' />
  <node id='-57869' lat='-34.2346667' lon='150.9837702' />
  <node id='-57871' lat='-34.2346209' lon='150.9837624' />
  <node id='-57873' lat='-34.2345738' lon='150.9837866' />
  <node id='-57875' lat='-34.2345015' lon='150.9837671' />
  <node id='-57877' lat='-34.234429' lon='150.9837728' />
  <node id='-57879' lat='-34.2342882' lon='150.9836564' />
  <node id='-57881' lat='-34.2342076' lon='150.9835011' />
  <node id='-57883' lat='-34.2341017' lon='150.9832583' />
  <node id='-57885' lat='-34.233994' lon='150.9829735' />
  <node id='-57887' lat='-34.2339402' lon='150.9827273' />
  <node id='-57889' lat='-34.2339694' lon='150.9824281' />
  <node id='-57891' lat='-34.2340607' lon='150.9821322' />
  <node id='-57893' lat='-34.2340835' lon='150.9819511' />
  <node id='-57895' lat='-34.2340515' lon='150.9817535' />
  <node id='-57897' lat='-34.234047' lon='150.9815371' />
  <node id='-57899' lat='-34.2340612' lon='150.9813685' />
  <node id='-57901' lat='-34.234085' lon='150.981106' />
  <node id='-57903' lat='-34.2340925' lon='150.9808509' />
  <node id='-57905' lat='-34.2341875' lon='150.9805922' />
  <node id='-57907' lat='-34.2342766' lon='150.9804233' />
  <node id='-57909' lat='-34.2342217' lon='150.9801682' />
  <node id='-57911' lat='-34.2342707' lon='150.9798736' />
  <node id='-57913' lat='-34.2342038' lon='150.9793832' />
  <node id='-57915' lat='-34.2342543' lon='150.9791748' />
  <node id='-57917' lat='-34.2343732' lon='150.9788999' />
  <node id='-57919' lat='-34.2343672' lon='150.9786736' />
  <node id='-57921' lat='-34.234342' lon='150.9784292' />
  <node id='-57923' lat='-34.2343078' lon='150.9781885' />
  <node id='-57925' lat='-34.2343776' lon='150.9779927' />
  <node id='-57927' lat='-34.2343405' lon='150.9778526' />
  <node id='-57929' lat='-34.2343449' lon='150.9777071' />
  <node id='-57931' lat='-34.2342751' lon='150.977461' />
  <node id='-57933' lat='-34.2342009' lon='150.97724' />
  <node id='-57935' action='modify' lat='-34.2263038' lon='150.9809774' />
  <node id='-57937' lat='-34.2218702' lon='150.9784044' />
  <node id='-57939' lat='-34.2220701' lon='150.9783531' />
  <node id='-57941' lat='-34.2221334' lon='150.9783283' />
  <node id='-57943' lat='-34.2222803' lon='150.9783971' />
  <node id='-57945' lat='-34.2224605' lon='150.9783608' />
  <node id='-57947' lat='-34.2226521' lon='150.978248' />
  <node id='-57949' lat='-34.2227754' lon='150.9782595' />
  <node id='-57951' lat='-34.2229398' lon='150.9781715' />
  <node id='-57953' lat='-34.2230694' lon='150.9784009' />
  <node id='-57955' lat='-34.2233444' lon='150.9783283' />
  <node id='-57957' lat='-34.2236004' lon='150.9781448' />
  <node id='-57959' lat='-34.2237648' lon='150.9782021' />
  <node id='-57961' lat='-34.2240303' lon='150.9781448' />
  <node id='-57963' lat='-34.2240998' lon='150.9784009' />
  <node id='-57965' lat='-34.2244127' lon='150.9788061' />
  <node id='-57967' lat='-34.2248458' lon='150.9792304' />
  <node id='-57969' lat='-34.2251429' lon='150.9794598' />
  <node id='-57971' lat='-34.2255001' lon='150.9795745' />
  <node id='-57973' lat='-34.2258193' lon='150.9796051' />
  <node id='-57975' lat='-34.2260374' lon='150.9795745' />
  <node id='-57977' lat='-34.2262014' lon='150.9793732' />
  <node id='-57979' lat='-34.2266003' lon='150.9791287' />
  <node id='-57981' lat='-34.2269073' lon='150.9787826' />
  <node id='-57983' lat='-34.2271676' lon='150.9787512' />
  <node id='-57985' action='modify' lat='-34.2263038' lon='150.9809774' />
  <node id='-57987' lat='-34.2265073' lon='150.9808902' />
  <node id='-57989' lat='-34.226531' lon='150.9807234' />
  <node id='-57991' lat='-34.2266671' lon='150.9803015' />
  <node id='-57993' lat='-34.2269139' lon='150.9801064' />
  <node id='-57995' lat='-34.2271152' lon='150.9800465' />
  <node id='-57997' lat='-34.2270781' lon='150.9797761' />
  <node id='-57999' lat='-34.2271781' lon='150.9791841' />
  <node id='-58001' lat='-34.2272992' lon='150.9783438' />
  <node id='-58003' lat='-34.2273939' lon='150.9780319' />
  <node id='-58005' lat='-34.2276202' lon='150.9779173' />
  <node id='-58007' lat='-34.2276465' lon='150.9775671' />
  <node id='-58009' lat='-34.2281202' lon='150.9770006' />
  <node id='-58011' lat='-34.228036' lon='150.9768733' />
  <node id='-58013' lat='-34.2280413' lon='150.9763449' />
  <node id='-58015' lat='-34.228136' lon='150.9759757' />
  <node id='-58017' lat='-34.2278728' lon='150.9754028' />
  <node id='-58019' lat='-34.2280571' lon='150.9751163' />
  <node id='-58021' lat='-34.22829' lon='150.9749178' />
  <node id='-58023' lat='-34.2281571' lon='150.9745243' />
  <node id='-58025' lat='-34.2281413' lon='150.9741806' />
  <node id='-58027' lat='-34.228215' lon='150.9739259' />
  <node id='-58029' lat='-34.2281676' lon='150.9738495' />
  <node id='-58031' lat='-34.2282676' lon='150.973544' />
  <node id='-58033' lat='-34.228415' lon='150.9734294' />
  <node id='-58035' lat='-34.2283255' lon='150.9733657' />
  <node id='-58037' lat='-34.2283268' lon='150.973286' />
  <node id='-58039' lat='-34.2284044' lon='150.9730729' />
  <node id='-58041' lat='-34.2281307' lon='150.972691' />
  <node id='-58043' lat='-34.2280729' lon='150.9725064' />
  <node id='-58045' lat='-34.2281939' lon='150.9721626' />
  <node id='-58047' lat='-34.2283623' lon='150.9719971' />
  <node id='-58049' lat='-34.2283712' lon='150.9718205' />
  <node id='-58051' lat='-34.2285834' lon='150.9717934' />
  <node id='-58053' lat='-34.2286465' lon='150.9715642' />
  <node id='-58055' lat='-34.2289761' lon='150.9711783' />
  <node id='-58057' action='modify' lat='-34.2291835' lon='150.9716282'>
    <tag k='note' v='This crossing can usually be jumped or walked through.' />
    <tag k='role' v='warn' />
    <tag k='warn' v='rivercrossing' />
  </node>
  <node id='-58059' lat='-34.2296388' lon='150.971882' />
  <node id='-58061' lat='-34.2299638' lon='150.9716986' />
  <node id='-58063' lat='-34.2301269' lon='150.9718829' />
  <node id='-58065' lat='-34.2303781' lon='150.9722836' />
  <node id='-58067' lat='-34.2306213' lon='150.9722716' />
  <node id='-58069' lat='-34.230836' lon='150.9723345' />
  <node id='-58071' lat='-34.2310939' lon='150.9724682' />
  <node id='-58073' lat='-34.2313097' lon='150.9726719' />
  <node id='-58075' lat='-34.2314571' lon='150.9730093' />
  <node id='-58077' lat='-34.2316097' lon='150.9730156' />
  <node id='-58079' lat='-34.2318097' lon='150.9731111' />
  <node id='-58081' lat='-34.2319806' lon='150.9731085' />
  <node id='-58083' lat='-34.2322024' lon='150.9733809' />
  <node id='-58085' lat='-34.2324886' lon='150.9737604' />
  <node id='-58087' lat='-34.2325939' lon='150.973996' />
  <node id='-58089' lat='-34.2326096' lon='150.9741615' />
  <node id='-58091' lat='-34.2327468' lon='150.9744093' />
  <node id='-58093' lat='-34.2329747' lon='150.9744101' />
  <node id='-58095' lat='-34.2330396' lon='150.9745062' />
  <node id='-58097' lat='-34.2331139' lon='150.9746305' />
  <node id='-58099' lat='-34.2331229' lon='150.9749514' />
  <node id='-58101' lat='-34.2331202' lon='150.9752309' />
  <node id='-58103' lat='-34.2334201' lon='150.9753328' />
  <node id='-58105' lat='-34.233578' lon='150.975581' />
  <node id='-58107' lat='-34.2337833' lon='150.9757529' />
  <node id='-58109' lat='-34.233878' lon='150.9760075' />
  <node id='-58111' lat='-34.233978' lon='150.976294' />
  <node id='-58113' lat='-34.2340991' lon='150.9765423' />
  <node id='-58115' action='modify' lat='-34.2342411' lon='150.9770166' />
  <node id='-58117' lat='-34.2345171' lon='150.9769393' />
  <node id='-58119' lat='-34.2345249' lon='150.9767769' />
  <node id='-58121' lat='-34.234587' lon='150.9766957' />
  <node id='-58123' lat='-34.2345904' lon='150.976573' />
  <node id='-58125' lat='-34.2346964' lon='150.9764087' />
  <node id='-58127' lat='-34.2346997' lon='150.9761784' />
  <node id='-58129' lat='-34.2347434' lon='150.9760085' />
  <node id='-58131' lat='-34.2347184' lon='150.9759443' />
  <node id='-58133' lat='-34.2347777' lon='150.9758442' />
  <node id='-58135' lat='-34.2347528' lon='150.9756044' />
  <node id='-58137' lat='-34.2348658' lon='150.9755727' />
  <node id='-58139' lat='-34.2348486' lon='150.9752517' />
  <node id='-58141' lat='-34.2349345' lon='150.9749704' />
  <node id='-58143' lat='-34.2350625' lon='150.9747891' />
  <node id='-58145' lat='-34.2352888' lon='150.9744587' />
  <node id='-58147' lat='-34.2354246' lon='150.974134' />
  <node id='-58149' lat='-34.2355963' lon='150.9740056' />
  <node id='-58151' lat='-34.2357321' lon='150.9739678' />
  <node id='-58153' lat='-34.2358382' lon='150.973915' />
  <node id='-58155' lat='-34.2359737' lon='150.9737177' />
  <node id='-58157' lat='-34.2360664' lon='150.9736216' />
  <node id='-58159' lat='-34.2361635' lon='150.9736163' />
  <node id='-58161' lat='-34.2362253' lon='150.9737257' />
  <node id='-58163' lat='-34.2360995' lon='150.9738352' />
  <node id='-58165' lat='-34.2359824' lon='150.9740026' />
  <node id='-58167' lat='-34.2358856' lon='150.974265' />
  <node id='-58169' lat='-34.2358122' lon='150.9745766' />
  <node id='-58171' lat='-34.2357529' lon='150.9749259' />
  <node id='-58173' lat='-34.2356983' lon='150.9752449' />
  <node id='-58175' lat='-34.2356249' lon='150.9755357' />
  <node id='-58177' lat='-34.2356593' lon='150.9758812' />
  <node id='-58179' lat='-34.2357482' lon='150.9759775' />
  <node id='-58181' lat='-34.2359668' lon='150.9761738' />
  <node id='-58183' lat='-34.2360838' lon='150.9764854' />
  <node id='-58185' lat='-34.2361556' lon='150.9768007' />
  <node id='-58187' action='modify' lat='-34.2361041' lon='150.9770578' />
  <node id='-58189' lat='-34.2362815' lon='150.9770899' />
  <node id='-58191' lat='-34.2363702' lon='150.9770685' />
  <node id='-58193' lat='-34.2364767' lon='150.9770363' />
  <node id='-58195' lat='-34.2366097' lon='150.977047' />
  <node id='-58197' lat='-34.2368847' lon='150.977047' />
  <node id='-58199' lat='-34.2370641' lon='150.9769727' />
  <node id='-58201' lat='-34.2372586' lon='150.9768484' />
  <node id='-58203' lat='-34.2374661' lon='150.9767922' />
  <node id='-58205' lat='-34.2377805' lon='150.976811' />
  <node id='-58207' lat='-34.238087' lon='150.9768244' />
  <node id='-58209' lat='-34.2382595' lon='150.9767681' />
  <node id='-58211' lat='-34.2383127' lon='150.9766608' />
  <node id='-58213' lat='-34.2383659' lon='150.9763926' />
  <node id='-58215' lat='-34.2383482' lon='150.9761458' />
  <node id='-58217' lat='-34.2383263' lon='150.9760089' />
  <node id='-58219' lat='-34.2382594' lon='150.975762' />
  <node id='-58221' lat='-34.23816' lon='150.9755608' />
  <node id='-58223' lat='-34.2382638' lon='150.9753172' />
  <node id='-58225' lat='-34.238412' lon='150.9751129' />
  <node id='-58227' lat='-34.2384901' lon='150.9749549' />
  <node id='-58229' lat='-34.2385956' lon='150.9747044' />
  <node id='-58231' lat='-34.2388271' lon='150.9744721' />
  <node id='-58233' lat='-34.2390045' lon='150.9742683' />
  <node id='-58235' lat='-34.2392351' lon='150.9739786' />
  <node id='-58237' lat='-34.2393948' lon='150.9736674' />
  <node id='-58239' lat='-34.2394538' lon='150.9735047' />
  <node id='-58241' lat='-34.2394125' lon='150.9731847' />
  <node id='-58243' lat='-34.2393948' lon='150.9729915' />
  <node id='-58245' lat='-34.2394214' lon='150.9727019' />
  <node id='-58247' lat='-34.2395074' lon='150.972341' />
  <node id='-58249' lat='-34.2396243' lon='150.9718495' />
  <node id='-58251' lat='-34.2397934' lon='150.9714934' />
  <node id='-58253' lat='-34.2399447' lon='150.9711354' />
  <node id='-58255' lat='-34.2400383' lon='150.9709665' />
  <node id='-58257' lat='-34.2401575' lon='150.9705668' />
  <node id='-58259' lat='-34.2402462' lon='150.9701484' />
  <node id='-58261' lat='-34.2402995' lon='150.969848' />
  <node id='-58263' lat='-34.240264' lon='150.9696441' />
  <node id='-58265' lat='-34.24026' lon='150.9694644' />
  <node id='-58267' lat='-34.2403407' lon='150.9693007' />
  <node id='-58269' lat='-34.2404368' lon='150.9692858' />
  <node id='-58271' lat='-34.2405666' lon='150.9690365' />
  <node id='-58273' lat='-34.2406542' lon='150.9687751' />
  <node id='-58275' lat='-34.2406897' lon='150.9685927' />
  <node id='-58277' lat='-34.2406763' lon='150.9685122' />
  <node id='-58279' lat='-34.2406142' lon='150.9684423' />
  <node id='-58281' lat='-34.2405666' lon='150.9683591' />
  <node id='-58283' lat='-34.2405801' lon='150.9682037' />
  <node id='-58285' lat='-34.2406565' lon='150.9680641' />
  <node id='-58287' lat='-34.2407496' lon='150.9679125' />
  <node id='-58289' lat='-34.2408151' lon='150.9677706' />
  <node id='-58291' lat='-34.2407419' lon='150.9676927' />
  <node id='-58293' lat='-34.2407074' lon='150.9675949' />
  <node id='-58295' lat='-34.2407341' lon='150.9674769' />
  <node id='-58297' lat='-34.2407252' lon='150.9673482' />
  <node id='-58299' lat='-34.2406365' lon='150.9671229' />
  <node id='-58301' lat='-34.2406237' lon='150.9670085' />
  <node id='-58303' lat='-34.2406918' lon='150.9668142' />
  <node id='-58305' lat='-34.2406365' lon='150.9666079' />
  <node id='-58307' lat='-34.2405833' lon='150.9664469' />
  <node id='-58309' lat='-34.2405832' lon='150.9663287' />
  <node id='-58311' lat='-34.240672' lon='150.9662538' />
  <node id='-58313' lat='-34.2408316' lon='150.9662431' />
  <node id='-58315' lat='-34.2409471' lon='150.9661977' />
  <node id='-58317' lat='-34.241089' lon='150.9661116' />
  <node id='-58319' lat='-34.2411659' lon='150.9660406' />
  <node id='-58321' lat='-34.2411943' lon='150.9658716' />
  <node id='-58323' lat='-34.2412662' lon='150.9656637' />
  <node id='-58325' lat='-34.2413815' lon='150.9655243' />
  <node id='-58327' lat='-34.2414968' lon='150.9652882' />
  <node id='-58329' lat='-34.241602' lon='150.9652762' />
  <node id='-58331' lat='-34.2416729' lon='150.9651705' />
  <node id='-58333' lat='-34.2417274' lon='150.9650093' />
  <node id='-58335' lat='-34.2418182' lon='150.9649354' />
  <node id='-58337' lat='-34.2419935' lon='150.9649878' />
  <node id='-58339' lat='-34.2421013' lon='150.9649875' />
  <node id='-58341' lat='-34.2421521' lon='150.9649248' />
  <node id='-58343' lat='-34.2422635' lon='150.9649146' />
  <node id='-58345' lat='-34.2422823' lon='150.965127' />
  <node id='-58347' lat='-34.2423111' lon='150.9651411' />
  <node id='-58349' lat='-34.2424903' lon='150.9650066' />
  <node id='-58351' lat='-34.2426667' lon='150.9648084' />
  <node id='-58353' lat='-34.2429508' lon='150.9646158' />
  <node id='-58355' lat='-34.2431755' lon='150.9645818' />
  <node id='-58357' lat='-34.2433628' lon='150.9644987' />
  <node id='-58359' lat='-34.2436375' lon='150.9644761' />
  <node id='-58361' lat='-34.2440042' lon='150.9642993' />
  <node id='-58363' lat='-34.2440837' lon='150.9640109' />
  <node id='-58365' lat='-34.244194' lon='150.9637973' />
  <node id='-58367' lat='-34.2441102' lon='150.963581' />
  <node id='-58369' lat='-34.2441764' lon='150.963298' />
  <node id='-58371' lat='-34.244364' lon='150.9630577' />
  <node id='-58373' lat='-34.2444412' lon='150.9627827' />
  <node id='-58375' lat='-34.2444457' lon='150.9625397' />
  <node id='-58377' lat='-34.2445869' lon='150.9622353' />
  <node id='-58379' lat='-34.2447017' lon='150.9619683' />
  <node id='-58381' lat='-34.2446686' lon='150.9616479' />
  <node id='-58383' lat='-34.2447282' lon='150.9612874' />
  <node id='-58385' lat='-34.2447944' lon='150.9610445' />
  <node id='-58387' lat='-34.2448849' lon='150.9608442' />
  <node id='-58389' lat='-34.245046' lon='150.9606546' />
  <node id='-58391' lat='-34.2452226' lon='150.9604971' />
  <node id='-58393' lat='-34.2454603' lon='150.9604827' />
  <node id='-58395' action='modify' lat='-34.2455534' lon='150.9604957' />
  <node id='-58397' lat='-34.2456304' lon='150.9605035' />
  <node id='-58399' lat='-34.2457147' lon='150.960815' />
  <node id='-58401' lat='-34.2458005' lon='150.9609981' />
  <node id='-58403' lat='-34.2459722' lon='150.9610699' />
  <node id='-58405' lat='-34.2462297' lon='150.9612039' />
  <node id='-58407' lat='-34.2463327' lon='150.9612832' />
  <node id='-58409' lat='-34.2465122' lon='150.9613285' />
  <node id='-58411' lat='-34.2468633' lon='150.9614003' />
  <node id='-58413' lat='-34.24701' lon='150.9613569' />
  <node id='-58415' lat='-34.2471474' lon='150.9613134' />
  <node id='-58417' lat='-34.2473659' lon='150.9613116' />
  <node id='-58419' lat='-34.2476921' lon='150.9613361' />
  <node id='-58421' lat='-34.2482336' lon='150.9613965' />
  <node id='-58423' lat='-34.2484115' lon='150.9615249' />
  <node id='-58425' lat='-34.2485395' lon='150.9615098' />
  <node id='-58427' lat='-34.2486722' lon='150.9615457' />
  <node id='-58429' lat='-34.2488532' lon='150.961659' />
  <node id='-58431' lat='-34.2488813' lon='150.9618666' />
  <node id='-58433' lat='-34.2489228' lon='150.9619626' />
  <node id='-58435' lat='-34.2490561' lon='150.9623424' />
  <node id='-58437' lat='-34.2489203' lon='150.9626369' />
  <node id='-58439' lat='-34.2488984' lon='150.9628956' />
  <node id='-58441' lat='-34.2488766' lon='150.9631108' />
  <node id='-58443' lat='-34.2489488' lon='150.9631567' />
  <node id='-58445' lat='-34.248983' lon='150.9632888' />
  <node id='-58447' lat='-34.2492544' lon='150.9634157' />
  <node id='-58449' lat='-34.2493681' lon='150.9634811' />
  <node id='-58451' lat='-34.2496539' lon='150.9635825' />
  <node id='-58453' lat='-34.2498691' lon='150.9636333' />
  <node id='-58455' lat='-34.2499717' lon='150.9637027' />
  <node id='-58457' lat='-34.2502035' lon='150.9638242' />
  <node id='-58459' lat='-34.2503889' lon='150.9638322' />
  <node id='-58461' lat='-34.2505489' lon='150.9638268' />
  <node id='-58463' lat='-34.2506592' lon='150.9639256' />
  <node id='-58465' lat='-34.250785' lon='150.9639684' />
  <node id='-58467' lat='-34.250827' lon='150.9640124' />
  <node id='-58469' lat='-34.2509528' lon='150.9640631' />
  <node id='-58471' lat='-34.2511271' lon='150.9640284' />
  <node id='-58473' lat='-34.2512629' lon='150.9639911' />
  <node id='-58475' lat='-34.2512927' lon='150.9639537' />
  <node id='-58477' lat='-34.2513445' lon='150.9639176' />
  <node id='-58479' lat='-34.2513842' lon='150.9638829' />
  <node id='-58481' lat='-34.2515376' lon='150.9638629' />
  <node id='-58483' lat='-34.2516502' lon='150.9638682' />
  <node id='-58485' lat='-34.2517605' lon='150.9638402' />
  <node id='-58487' lat='-34.2518389' lon='150.9638629' />
  <node id='-58489' lat='-34.25216' lon='150.9640792' />
  <node id='-58491' lat='-34.252267' lon='150.964202' />
  <node id='-58493' lat='-34.2524006' lon='150.9642087' />
  <node id='-58495' lat='-34.2524358' lon='150.9643223' />
  <node id='-58497' lat='-34.2526628' lon='150.9645212' />
  <node id='-58499' lat='-34.25274' lon='150.9646574' />
  <node id='-58501' lat='-34.2530115' lon='150.9647896' />
  <node id='-58503' lat='-34.2531307' lon='150.9648617' />
  <node id='-58505' lat='-34.253177' lon='150.9648323' />
  <node id='-58507' lat='-34.2532609' lon='150.964851' />
  <node id='-58509' lat='-34.2533348' lon='150.9647829' />
  <node id='-58511' lat='-34.2533834' lon='150.9646774' />
  <node id='-58513' lat='-34.2534429' lon='150.9647001' />
  <node id='-58515' lat='-34.2535423' lon='150.9646494' />
  <node id='-58517' lat='-34.2537348' lon='150.9647907' />
  <node id='-58519' lat='-34.2539886' lon='150.9647319' />
  <node id='-58521' lat='-34.2540857' lon='150.9647853' />
  <node id='-58523' lat='-34.254174' lon='150.9649295' />
  <node id='-58525' lat='-34.2544675' lon='150.9648948' />
  <node id='-58527' lat='-34.2546617' lon='150.9651324' />
  <node id='-58529' lat='-34.2548907' lon='150.9653815' />
  <node id='-58531' lat='-34.2550044' lon='150.9655604' />
  <node id='-58533' lat='-34.2551831' lon='150.9656859' />
  <node id='-58535' lat='-34.2552626' lon='150.9656845' />
  <node id='-58537' lat='-34.2554204' lon='150.9657366' />
  <node id='-58539' lat='-34.2554932' lon='150.9656939' />
  <node id='-58541' lat='-34.2556653' lon='150.9657179' />
  <node id='-58543' lat='-34.2559125' lon='150.9656285' />
  <node id='-58545' lat='-34.2560416' lon='150.9656271' />
  <node id='-58547' lat='-34.2561001' lon='150.965555' />
  <node id='-58549' lat='-34.256249' lon='150.9654789' />
  <node id='-58551' lat='-34.2562987' lon='150.9653761' />
  <node id='-58553' lat='-34.2563627' lon='150.9651786' />
  <node id='-58555' lat='-34.2563848' lon='150.9649863' />
  <node id='-58557' lat='-34.2565377' lon='150.9649003' />
  <node id='-58559' lat='-34.2565719' lon='150.9647842' />
  <node id='-58561' lat='-34.2565278' lon='150.9646947' />
  <node id='-58563' lat='-34.2565531' lon='150.9646734' />
  <node id='-58565' lat='-34.2565631' lon='150.9645025' />
  <node id='-58567' lat='-34.2566017' lon='150.9643997' />
  <node id='-58569' lat='-34.2566326' lon='150.9642408' />
  <node id='-58571' lat='-34.2567716' lon='150.9640966' />
  <node id='-58573' lat='-34.2568135' lon='150.9638884' />
  <node id='-58575' lat='-34.2568621' lon='150.9638283' />
  <node id='-58577' lat='-34.2568908' lon='150.9637148' />
  <node id='-58579' lat='-34.2569603' lon='150.9636147' />
  <node id='-58581' lat='-34.2570618' lon='150.9635159' />
  <node id='-58583' lat='-34.2572218' lon='150.9633677' />
  <node id='-58585' lat='-34.2572836' lon='150.9633397' />
  <node id='-58587' lat='-34.2574072' lon='150.9632569' />
  <node id='-58589' lat='-34.2574602' lon='150.9631621' />
  <node id='-58591' lat='-34.2577746' lon='150.9630446' />
  <node id='-58593' lat='-34.2579126' lon='150.9629552' />
  <node id='-58595' lat='-34.2580726' lon='150.9629125' />
  <node id='-58597' lat='-34.2581939' lon='150.9628497' />
  <node id='-58599' lat='-34.2582359' lon='150.9626561' />
  <node id='-58601' lat='-34.2582954' lon='150.9624812' />
  <node id='-58603' lat='-34.2584301' lon='150.9623464' />
  <node id='-58605' lat='-34.2585426' lon='150.962301' />
  <node id='-58607' lat='-34.2587225' lon='150.9622676' />
  <node id='-58609' lat='-34.2589145' lon='150.9621568' />
  <node id='-58611' lat='-34.2590756' lon='150.9620393' />
  <node id='-58613' lat='-34.2592256' lon='150.9619939' />
  <node id='-58615' lat='-34.2593834' lon='150.961811' />
  <node id='-58617' lat='-34.2594684' lon='150.9617603' />
  <node id='-58619' lat='-34.2597222' lon='150.9617083' />
  <node id='-58621' lat='-34.2598093' lon='150.9616789' />
  <node id='-58623' lat='-34.2599484' lon='150.9617123' />
  <node id='-58625' lat='-34.260073' lon='150.9616295' />
  <node id='-58627' lat='-34.2602507' lon='150.9615694' />
  <node id='-58629' lat='-34.260329' lon='150.9614893' />
  <node id='-58631' lat='-34.260425' lon='150.9613291' />
  <node id='-58633' lat='-34.260489' lon='150.9613505' />
  <node id='-58635' lat='-34.2606258' lon='150.9613291' />
  <node id='-58637' lat='-34.2608542' lon='150.9613291' />
  <node id='-58639' lat='-34.2610021' lon='150.9613251' />
  <node id='-58641' lat='-34.2611356' lon='150.961253' />
  <node id='-58643' lat='-34.2612018' lon='150.9611956' />
  <node id='-58645' lat='-34.2613397' lon='150.9610287' />
  <node id='-58647' lat='-34.2615405' lon='150.9609006' />
  <node id='-58649' lat='-34.261652' lon='150.9608124' />
  <node id='-58651' lat='-34.2618172' lon='150.9607322' />
  <node id='-58653' lat='-34.261847' lon='150.9606875' />
  <node id='-58655' lat='-34.2618669' lon='150.9605533' />
  <node id='-58657' lat='-34.2619265' lon='150.9605046' />
  <node id='-58659' lat='-34.2619783' lon='150.9604158' />
  <node id='-58661' lat='-34.2620412' lon='150.9603374' />
  <node id='-58663' lat='-34.2621098' lon='150.9602873' />
  <node id='-58665' lat='-34.2621395' lon='150.9602387' />
  <node id='-58667' lat='-34.2622187' lon='150.9601797' />
  <node id='-58669' lat='-34.2622865' lon='150.9601894' />
  <node id='-58671' action='modify' lat='-34.2623403' lon='150.9601965' />
  <node id='-58673' lat='-34.2623285' lon='150.9601164' />
  <node id='-58675' lat='-34.2624808' lon='150.9599202' />
  <node id='-58677' lat='-34.2625359' lon='150.9597706' />
  <node id='-58679' lat='-34.2625933' lon='150.9597172' />
  <node id='-58681' lat='-34.2626507' lon='150.9595731' />
  <node id='-58683' lat='-34.2626882' lon='150.9593541' />
  <node id='-58685' lat='-34.2627401' lon='150.9592834' />
  <node id='-58687' lat='-34.2628063' lon='150.9592033' />
  <node id='-58689' lat='-34.2629199' lon='150.9591232' />
  <node id='-58691' lat='-34.2630909' lon='150.9589723' />
  <node id='-58693' lat='-34.2631604' lon='150.9588495' />
  <node id='-58695' lat='-34.263252' lon='150.9586078' />
  <node id='-58697' lat='-34.263371' lon='150.9584801' />
  <node id='-58699' lat='-34.2632668' lon='150.958135' />
  <node id='-58701' lat='-34.2634301' lon='150.9578894' />
  <node id='-58703' lat='-34.2635735' lon='150.9576971' />
  <node id='-58705' lat='-34.2635117' lon='150.9575102' />
  <node id='-58707' lat='-34.2632933' lon='150.9572379' />
  <node id='-58709' lat='-34.2631543' lon='150.9570537' />
  <node id='-58711' lat='-34.2630241' lon='150.9566879' />
  <node id='-58713' lat='-34.2630351' lon='150.9565624' />
  <node id='-58715' lat='-34.2634169' lon='150.9563861' />
  <node id='-58717' lat='-34.2635404' lon='150.9561565' />
  <node id='-58719' lat='-34.2636883' lon='150.955716' />
  <node id='-58721' lat='-34.2638472' lon='150.9554676' />
  <node id='-58723' lat='-34.264134' lon='150.9551099' />
  <node id='-58725' lat='-34.2641715' lon='150.9547948' />
  <node id='-58727' lat='-34.2642069' lon='150.9545518' />
  <node id='-58729' lat='-34.2644387' lon='150.9543073' />
  <node id='-58731' action='modify' lat='-34.2645461' lon='150.9540469' />
  <node id='-58733' lat='-34.2645999' lon='150.9539568' />
  <node id='-58735' lat='-34.2663963' lon='150.9505399' />
  <node id='-58737' lat='-34.2663963' lon='150.9508228' />
  <node id='-58739' lat='-34.2664228' lon='150.9510652' />
  <node id='-58741' lat='-34.2663306' lon='150.9514192' />
  <node id='-58743' lat='-34.2662546' lon='150.9517494' />
  <node id='-58745' lat='-34.2661464' lon='150.9520434' />
  <node id='-58747' lat='-34.2659679' lon='150.9522455' />
  <node id='-58749' lat='-34.2657371' lon='150.95255' />
  <node id='-58751' lat='-34.2655621' lon='150.9528454' />
  <node id='-58753' lat='-34.2652396' lon='150.9529847' />
  <node id='-58755' lat='-34.2649172' lon='150.9531296' />
  <node id='-58757' lat='-34.2647905' lon='150.9534361' />
  <node id='-58759' lat='-34.2647164' lon='150.953644' />
  <node id='-58761' action='modify' lat='-34.2646317' lon='150.9537681' />
  <node id='-58763' lat='-34.2645786' lon='150.9538307' />
  <node id='-58765' lat='-34.2661326' lon='150.9491269' />
  <node id='-58767' lat='-34.266128' lon='150.9495199' />
  <node id='-58769' lat='-34.2661591' lon='150.9499072' />
  <node id='-58771' lat='-34.2662823' lon='150.9502793' />
  <node id='-58773' lat='-34.2673718' lon='150.9475213' />
  <node id='-58775' lat='-34.2674293' lon='150.9477292' />
  <node id='-58777' lat='-34.2672945' lon='150.9480079' />
  <node id='-58779' lat='-34.2671368' lon='150.9481947' />
  <node id='-58781' lat='-34.2669537' lon='150.9484009' />
  <node id='-58783' lat='-34.2667682' lon='150.9484984' />
  <node id='-58785' lat='-34.2666347' lon='150.9486099' />
  <node id='-58787' lat='-34.2663341' lon='150.948812' />
  <node id='-58789' lat='-34.2661544' lon='150.9489778' />
  <node id='-58791' lat='-34.2704693' lon='150.9460006' />
  <node id='-58793' lat='-34.2698264' lon='150.9462776' />
  <node id='-58795' lat='-34.2695345' lon='150.9464592' />
  <node id='-58797' lat='-34.2694151' lon='150.9465817' />
  <node id='-58799' lat='-34.2693125' lon='150.9466257' />
  <node id='-58801' lat='-34.2690842' lon='150.9466382' />
  <node id='-58803' lat='-34.2688467' lon='150.9467513' />
  <node id='-58805' lat='-34.2683094' lon='150.9470072' />
  <node id='-58807' lat='-34.2678955' lon='150.9472695' />
  <node id='-58809' lat='-34.2799688' lon='150.938447' />
  <node id='-58811' lat='-34.2799894' lon='150.9386903' />
  <node id='-58813' lat='-34.2798657' lon='150.9387494' />
  <node id='-58815' lat='-34.2796068' lon='150.9387297' />
  <node id='-58817' lat='-34.279387' lon='150.9388046' />
  <node id='-58819' lat='-34.2791743' lon='150.938972' />
  <node id='-58821' lat='-34.2789348' lon='150.9390055' />
  <node id='-58823' lat='-34.2788127' lon='150.9392089' />
  <node id='-58825' lat='-34.278693' lon='150.9393148' />
  <node id='-58827' lat='-34.2785894' lon='150.9393928' />
  <node id='-58829' lat='-34.2784097' lon='150.9393705' />
  <node id='-58831' lat='-34.2782531' lon='150.9393232' />
  <node id='-58833' lat='-34.2780505' lon='150.9394987' />
  <node id='-58835' lat='-34.2778547' lon='150.939496' />
  <node id='-58837' lat='-34.2777626' lon='150.9396102' />
  <node id='-58839' lat='-34.2776221' lon='150.9396158' />
  <node id='-58841' lat='-34.2774886' lon='150.9396743' />
  <node id='-58843' lat='-34.2770142' lon='150.939482' />
  <node id='-58845' lat='-34.2767977' lon='150.9395573' />
  <node id='-58847' lat='-34.276648' lon='150.9396966' />
  <node id='-58849' lat='-34.2762565' lon='150.9399084' />
  <node id='-58851' lat='-34.2759548' lon='150.9403432' />
  <node id='-58853' lat='-34.2757545' lon='150.9407111' />
  <node id='-58855' lat='-34.2754482' lon='150.9409173' />
  <node id='-58857' lat='-34.2752801' lon='150.9411876' />
  <node id='-58859' lat='-34.2752317' lon='150.9414496' />
  <node id='-58861' lat='-34.275333' lon='150.9417729' />
  <node id='-58863' lat='-34.2752939' lon='150.9420237' />
  <node id='-58865' lat='-34.2751695' lon='150.9424027' />
  <node id='-58867' lat='-34.274701' lon='150.9425066' />
  <node id='-58869' lat='-34.2745697' lon='150.9425818' />
  <node id='-58871' lat='-34.2740815' lon='150.9425372' />
  <node id='-58873' lat='-34.2737545' lon='150.9426487' />
  <node id='-58875' lat='-34.2733584' lon='150.9430082' />
  <node id='-58877' lat='-34.2731142' lon='150.9432925' />
  <node id='-58879' lat='-34.2728932' lon='150.9433566' />
  <node id='-58881' lat='-34.2725385' lon='150.9435768' />
  <node id='-58883' lat='-34.2721792' lon='150.9439112' />
  <node id='-58885' lat='-34.2719581' lon='150.9444073' />
  <node id='-58887' lat='-34.271813' lon='150.9447947' />
  <node id='-58889' lat='-34.2715228' lon='150.9450065' />
  <node id='-58891' lat='-34.2712649' lon='150.9452768' />
  <node id='-58893' lat='-34.2710046' lon='150.9454942' />
  <node id='-58895' lat='-34.2709079' lon='150.9457868' />
  <node id='-58897' lat='-34.2706788' lon='150.946045' />
  <node id='-58899' lat='-34.2705762' lon='150.9461218' />
  <node id='-58901' lat='-34.2799819' lon='150.9377219' />
  <node id='-58903' lat='-34.2799942' lon='150.9380943' />
  <node id='-58905' lat='-34.2799987' lon='150.9382301' />
  <node id='-58907' lat='-34.2942461' lon='150.9272296' />
  <node id='-58909' lat='-34.2939014' lon='150.9274256' />
  <node id='-58911' lat='-34.2937418' lon='150.9275084' />
  <node id='-58913' lat='-34.2935302' lon='150.9273389' />
  <node id='-58915' lat='-34.2934781' lon='150.9271024' />
  <node id='-58917' lat='-34.2930971' lon='150.9269723' />
  <node id='-58919' lat='-34.2927812' lon='150.926996' />
  <node id='-58921' lat='-34.2924871' lon='150.9274194' />
  <node id='-58923' lat='-34.2923585' lon='150.9277584' />
  <node id='-58925' lat='-34.292168' lon='150.9280126' />
  <node id='-58927' lat='-34.292124' lon='150.9282668' />
  <node id='-58929' lat='-34.2922054' lon='150.9285644' />
  <node id='-58931' lat='-34.2921761' lon='150.9287555' />
  <node id='-58933' lat='-34.2919449' lon='150.9291438' />
  <node id='-58935' lat='-34.2917137' lon='150.9294433' />
  <node id='-58937' lat='-34.2914581' lon='150.9298453' />
  <node id='-58939' lat='-34.2913474' lon='150.9301823' />
  <node id='-58941' lat='-34.291196' lon='150.9304208' />
  <node id='-58943' lat='-34.2911602' lon='150.9305863' />
  <node id='-58945' lat='-34.2906589' lon='150.931022' />
  <node id='-58947' lat='-34.2904171' lon='150.9312366' />
  <node id='-58949' lat='-34.2902997' lon='150.9311893' />
  <node id='-58951' lat='-34.2898622' lon='150.9314011' />
  <node id='-58953' lat='-34.2897079' lon='150.9314122' />
  <node id='-58955' lat='-34.2896181' lon='150.931468' />
  <node id='-58957' lat='-34.2895422' lon='150.9314178' />
  <node id='-58959' lat='-34.289305' lon='150.9316798' />
  <node id='-58961' lat='-34.2891553' lon='150.931769' />
  <node id='-58963' lat='-34.2890609' lon='150.9319808' />
  <node id='-58965' lat='-34.2889205' lon='150.9320672' />
  <node id='-58967' lat='-34.2885382' lon='150.9321675' />
  <node id='-58969' lat='-34.2883287' lon='150.9322288' />
  <node id='-58971' lat='-34.2882389' lon='150.9320449' />
  <node id='-58973' lat='-34.2880524' lon='150.9319139' />
  <node id='-58975' lat='-34.2878555' lon='150.9319808' />
  <node id='-58977' lat='-34.287669' lon='150.9321954' />
  <node id='-58979' lat='-34.2875274' lon='150.9323236' />
  <node id='-58981' lat='-34.2873594' lon='150.93266' />
  <node id='-58983' lat='-34.287219' lon='150.9327478' />
  <node id='-58985' lat='-34.287029' lon='150.9332606' />
  <node id='-58987' lat='-34.2869183' lon='150.9333493' />
  <node id='-58989' lat='-34.2866675' lon='150.9332902' />
  <node id='-58991' lat='-34.2864461' lon='150.9332646' />
  <node id='-58993' lat='-34.2863337' lon='150.933369' />
  <node id='-58995' lat='-34.2861758' lon='150.9334715' />
  <node id='-58997' lat='-34.285969' lon='150.9334715' />
  <node id='-58999' lat='-34.2856792' lon='150.9336568' />
  <node id='-59001' lat='-34.285531' lon='150.9338656' />
  <node id='-59003' lat='-34.2855098' lon='150.9340253' />
  <node id='-59005' lat='-34.2853257' lon='150.9343494' />
  <node id='-59007' lat='-34.285171' lon='150.9344519' />
  <node id='-59009' lat='-34.2849968' lon='150.9344854' />
  <node id='-59011' lat='-34.2848503' lon='150.934582' />
  <node id='-59013' lat='-34.2847216' lon='150.9346549' />
  <node id='-59015' lat='-34.2846028' lon='150.9346844' />
  <node id='-59017' lat='-34.2844986' lon='150.9347416' />
  <node id='-59019' lat='-34.2844074' lon='150.9346588' />
  <node id='-59021' lat='-34.2838896' lon='150.9347396' />
  <node id='-59023' lat='-34.2836144' lon='150.9349268' />
  <node id='-59025' lat='-34.2834451' lon='150.9350805' />
  <node id='-59027' lat='-34.2832953' lon='150.9350983' />
  <node id='-59029' lat='-34.283095' lon='150.9353466' />
  <node id='-59031' lat='-34.2826553' lon='150.9356974' />
  <node id='-59033' lat='-34.2824469' lon='150.9356225' />
  <node id='-59035' lat='-34.2823199' lon='150.9356225' />
  <node id='-59037' lat='-34.2820281' lon='150.935823' />
  <node id='-59039' lat='-34.2817643' lon='150.9357658' />
  <node id='-59041' lat='-34.2815413' lon='150.9359097' />
  <node id='-59043' lat='-34.2814094' lon='150.9361698' />
  <node id='-59045' lat='-34.2812482' lon='150.9363019' />
  <node id='-59047' lat='-34.281214' lon='150.9364516' />
  <node id='-59049' lat='-34.2810479' lon='150.936627' />
  <node id='-59051' lat='-34.2809599' lon='150.9368753' />
  <node id='-59053' lat='-34.2808264' lon='150.9369778' />
  <node id='-59055' lat='-34.2808166' lon='150.9372576' />
  <node id='-59057' lat='-34.2806668' lon='150.937504' />
  <node id='-59059' lat='-34.2803477' lon='150.9375808' />
  <node id='-59061' lat='-34.2801507' lon='150.9377148' />
  <node id='-59063' lat='-34.2963699' lon='150.9250484' />
  <node id='-59065' lat='-34.2962183' lon='150.925229' />
  <node id='-59067' lat='-34.2961017' lon='150.9254094' />
  <node id='-59069' lat='-34.2959535' lon='150.9258193' />
  <node id='-59071' lat='-34.2957842' lon='150.9260854' />
  <node id='-59073' lat='-34.2956312' lon='150.926176' />
  <node id='-59075' lat='-34.2955595' lon='150.9264894' />
  <node id='-59077' lat='-34.2955058' lon='150.9267199' />
  <node id='-59079' lat='-34.2952592' lon='150.926795' />
  <node id='-59081' lat='-34.2950517' lon='150.9268488' />
  <node id='-59083' lat='-34.294935' lon='150.9268049' />
  <node id='-59085' lat='-34.2946809' lon='150.9270261' />
  <node id='-59087' lat='-34.2944703' lon='150.9271741' />
  <node id='-59089' lat='-34.2943466' lon='150.9272379' />
  <node id='-59091' lat='-34.2964886' lon='150.9251968' />
  <node id='-59093' lat='-34.296598' lon='150.9252219' />
  <node id='-59095' action='modify' lat='-34.296822' lon='150.9253434' />
  <node id='-59097' action='modify' lat='-34.2971298' lon='150.9243198' />
  <node id='-59099' lat='-34.2970456' lon='150.9244588' />
  <node id='-59101' lat='-34.2970235' lon='150.9246561' />
  <node id='-59103' lat='-34.2969036' lon='150.9249023' />
  <node id='-59105' lat='-34.2968533' lon='150.925111' />
  <node id='-59107' lat='-34.297638' lon='150.924358' />
  <node id='-59109' lat='-34.2975895' lon='150.9243784' />
  <node id='-59111' lat='-34.2975612' lon='150.9243458' />
  <node id='-59113' lat='-34.2974816' lon='150.9243347' />
  <node id='-59115' lat='-34.2974154' lon='150.9243576' />
  <node id='-59117' lat='-34.2973832' lon='150.9243347' />
  <node id='-59119' lat='-34.297342' lon='150.9243411' />
  <node id='-59121' lat='-34.297306' lon='150.9242922' />
  <node id='-59123' lat='-34.2972729' lon='150.9243054' />
  <node id='-59125' lat='-34.2972351' lon='150.9242934' />
  <node id='-59127' lat='-34.2971894' lon='150.9243004' />
  <node id='-59129' lat='-34.2971599' lon='150.924335' />
  <node id='-59131' action='modify' lat='-34.2982164' lon='150.9234695'>
    <tag k='note' v='This section has vertical ladders.' />
    <tag k='role' v='warn' />
    <tag k='warn' v='information' />
  </node>
  <node id='-59133' lat='-34.2981198' lon='150.9236152' />
  <node id='-59135' lat='-34.2980422' lon='150.9237879' />
  <node id='-59137' action='modify' lat='-34.2980178' lon='150.9239037' />
  <node id='-59139' lat='-34.2978647' lon='150.9240594' />
  <node id='-59141' lat='-34.2977586' lon='150.9242039' />
  <node id='-59143' lat='-34.2976868' lon='150.9243007' />
  <node id='-59145' lat='-34.3004312' lon='150.9247523' />
  <node id='-59147' lat='-34.3003568' lon='150.9247888' />
  <node id='-59149' lat='-34.300274' lon='150.9247079' />
  <node id='-59151' lat='-34.3001514' lon='150.9247117' />
  <node id='-59153' lat='-34.3000515' lon='150.9248359' />
  <node id='-59155' lat='-34.2999248' lon='150.924939' />
  <node id='-59157' lat='-34.2997835' lon='150.9251042' />
  <node id='-59159' lat='-34.2997296' lon='150.9251378' />
  <node id='-59161' lat='-34.2996869' lon='150.9251371' />
  <node id='-59163' lat='-34.2996765' lon='150.9250864' />
  <node id='-59165' lat='-34.2996462' lon='150.9250612' />
  <node id='-59167' lat='-34.2995873' lon='150.9250764' />
  <node id='-59169' lat='-34.2995483' lon='150.9251304' />
  <node id='-59171' lat='-34.2995094' lon='150.9251321' />
  <node id='-59173' lat='-34.2994873' lon='150.9250827' />
  <node id='-59175' lat='-34.2994244' lon='150.925013' />
  <node id='-59177' lat='-34.299325' lon='150.9249369' />
  <node id='-59179' lat='-34.2992829' lon='150.9249827' />
  <node id='-59181' lat='-34.29922' lon='150.924984' />
  <node id='-59183' lat='-34.2991282' lon='150.9249241' />
  <node id='-59185' lat='-34.2990614' lon='150.9248429' />
  <node id='-59187' lat='-34.2990171' lon='150.9247811' />
  <node id='-59189' lat='-34.2990198' lon='150.9246969' />
  <node id='-59191' lat='-34.2990229' lon='150.9245643' />
  <node id='-59193' lat='-34.2989687' lon='150.9245287' />
  <node id='-59195' lat='-34.2989261' lon='150.9244526' />
  <node id='-59197' lat='-34.2989398' lon='150.9243415' />
  <node id='-59199' lat='-34.2988862' lon='150.9242612' />
  <node id='-59201' lat='-34.2988009' lon='150.924195' />
  <node id='-59203' lat='-34.2987225' lon='150.9241463' />
  <node id='-59205' lat='-34.2986915' lon='150.9240763' />
  <node id='-59207' lat='-34.2986139' lon='150.9240683' />
  <node id='-59209' lat='-34.2985567' lon='150.9240667' />
  <node id='-59211' lat='-34.2985012' lon='150.9240989' />
  <node id='-59213' lat='-34.2984716' lon='150.9240117' />
  <node id='-59215' lat='-34.2984106' lon='150.9239483' />
  <node id='-59217' lat='-34.29837' lon='150.9238721' />
  <node id='-59219' lat='-34.2983112' lon='150.9238473' />
  <node id='-59221' lat='-34.2982914' lon='150.9238052' />
  <node id='-59223' lat='-34.298313' lon='150.9237365' />
  <node id='-59225' lat='-34.2983937' lon='150.9236136' />
  <node id='-59227' lat='-34.2983327' lon='150.9236457' />
  <node id='-59229' lat='-34.2983299' lon='150.923592' />
  <node id='-59231' lat='-34.2983579' lon='150.9235393' />
  <node id='-59233' lat='-34.2983388' lon='150.9234762' />
  <node id='-59235' lat='-34.3018885' lon='150.9256642' />
  <node id='-59237' lat='-34.3018221' lon='150.925448' />
  <node id='-59239' lat='-34.3017569' lon='150.9253219' />
  <node id='-59241' lat='-34.3016456' lon='150.9252054' />
  <node id='-59243' action='modify' lat='-34.301473' lon='150.92513' />
  <node id='-59245' lat='-34.3013296' lon='150.925024' />
  <node id='-59247' lat='-34.3011953' lon='150.9249862' />
  <node id='-59249' lat='-34.3010172' lon='150.9248563' />
  <node id='-59251' lat='-34.3008923' lon='150.924823' />
  <node id='-59253' lat='-34.3007065' lon='150.924858' />
  <node id='-59255' lat='-34.300667' lon='150.9248276' />
  <node id='-59257' lat='-34.3006554' lon='150.9247448' />
  <node id='-59259' lat='-34.3006725' lon='150.9246522' />
  <node id='-59261' lat='-34.3006576' lon='150.9245979' />
  <node id='-59263' lat='-34.3006255' lon='150.9245922' />
  <node id='-59265' lat='-34.3005698' lon='150.9246179' />
  <node id='-59267' lat='-34.3020419' lon='150.9258785' />
  <node id='-59269' lat='-34.3019348' lon='150.9258057' />
  <node id='-59271' lat='-34.3025511' lon='150.9267493' />
  <node id='-59273' action='modify' lat='-34.3024234' lon='150.926479' />
  <node id='-59275' lat='-34.302362' lon='150.9264886' />
  <node id='-59277' lat='-34.3022989' lon='150.926519' />
  <node id='-59279' lat='-34.3022522' lon='150.9264972' />
  <node id='-59281' lat='-34.3022135' lon='150.9264149' />
  <node id='-59283' lat='-34.3021657' lon='150.9262398' />
  <node id='-59285' lat='-34.3021419' lon='150.9260128' />
  <node id='-59287' lat='-34.3021469' lon='150.9259269' />
  <node id='-59289' lat='-34.3020935' lon='150.9258825' />
  <node id='-59291' lat='-34.3054708' lon='150.928322' />
  <node id='-59293' lat='-34.3053639' lon='150.9282289' />
  <node id='-59295' lat='-34.3052182' lon='150.9280402' />
  <node id='-59297' lat='-34.305202' lon='150.9279427' />
  <node id='-59299' lat='-34.3052921' lon='150.9277377' />
  <node id='-59301' lat='-34.3055225' lon='150.9274401' />
  <node id='-59303' lat='-34.305518' lon='150.9272978' />
  <node id='-59305' lat='-34.3054505' lon='150.927214' />
  <node id='-59307' lat='-34.3053761' lon='150.9271711' />
  <node id='-59309' lat='-34.3052925' lon='150.9270315' />
  <node id='-59311' lat='-34.3053516' lon='150.9268613' />
  <node id='-59313' lat='-34.3056339' lon='150.9265858' />
  <node id='-59315' lat='-34.3056708' lon='150.926397' />
  <node id='-59317' lat='-34.3056539' lon='150.926124' />
  <node id='-59319' lat='-34.305573' lon='150.9259021' />
  <node id='-59321' lat='-34.3054149' lon='150.9258426' />
  <node id='-59323' lat='-34.3050671' lon='150.9257568' />
  <node id='-59325' lat='-34.3047173' lon='150.9256302' />
  <node id='-59327' lat='-34.3045205' lon='150.9256303' />
  <node id='-59329' lat='-34.3043815' lon='150.9257207' />
  <node id='-59331' lat='-34.3042479' lon='150.9260078' />
  <node id='-59333' lat='-34.3040905' lon='150.926155' />
  <node id='-59335' lat='-34.3038748' lon='150.9262071' />
  <node id='-59337' lat='-34.3036493' lon='150.9262576' />
  <node id='-59339' lat='-34.3034092' lon='150.9264287' />
  <node id='-59341' lat='-34.3032016' lon='150.9266467' />
  <node id='-59343' lat='-34.3030816' lon='150.9268265' />
  <node id='-59345' lat='-34.3030476' lon='150.9269732' />
  <node id='-59347' lat='-34.3030696' lon='150.927099' />
  <node id='-59349' lat='-34.303046' lon='150.9273888' />
  <node id='-59351' lat='-34.3029533' lon='150.9275677' />
  <node id='-59353' lat='-34.3027805' lon='150.9276659' />
  <node id='-59355' lat='-34.3025849' lon='150.9276837' />
  <node id='-59357' lat='-34.3023939' lon='150.9276136' />
  <node id='-59359' lat='-34.3024506' lon='150.9272091' />
  <node id='-59361' action='modify' lat='-34.30661139739' lon='150.92848797171' />
  <node id='-59363' lat='-34.306422' lon='150.9284022' />
  <node id='-59365' lat='-34.3062684' lon='150.9282254' />
  <node id='-59367' lat='-34.3061794' lon='150.927948' />
  <node id='-59369' lat='-34.3060791' lon='150.9278517' />
  <node id='-59371' lat='-34.3059387' lon='150.9278819' />
  <node id='-59373' lat='-34.3057971' lon='150.9280104' />
  <node id='-59375' lat='-34.3056382' lon='150.9281527' />
  <node id='-59379' action='modify' lat='-34.30644347391' lon='150.92875251634' />
  <node id='-59381' action='modify' lat='-34.30657020768' lon='150.92890740187' />
  <node id='-59383' action='modify' lat='-34.30641209218' lon='150.92922447887' />
  <node id='-59385' action='modify' lat='-34.22118813294' lon='150.97853065179' />
  <node id='-59387' action='modify' lat='-34.22093524915' lon='150.97986143055' />
  <node id='-59389' action='modify' lat='-34.2208224764' lon='150.98050615566' />
  <node id='-59391' action='modify' lat='-34.22098650944' lon='150.98066940337' />
  <node id='-59393' action='modify' lat='-34.22106169114' lon='150.98066113766' />
  <way id='-59395' action='modify'>
    <nd ref='-57819' />
    <nd ref='-57817' />
    <nd ref='-57815' />
    <nd ref='-57813' />
    <nd ref='-57821' />
    <nd ref='-57823' />
    <nd ref='-57825' />
    <nd ref='-57827' />
    <nd ref='-57829' />
    <nd ref='-57831' />
    <nd ref='-57833' />
    <nd ref='-57835' />
    <nd ref='-57837' />
    <nd ref='-57839' />
    <nd ref='-57841' />
    <nd ref='-57843' />
    <nd ref='-57845' />
    <nd ref='-57847' />
    <nd ref='-57849' />
    <nd ref='-57851' />
    <nd ref='-57853' />
    <nd ref='-57855' />
    <nd ref='-57857' />
    <nd ref='-57859' />
    <nd ref='-57861' />
    <nd ref='-57863' />
    <nd ref='-57865' />
    <nd ref='-57867' />
    <nd ref='-57869' />
    <nd ref='-57871' />
    <nd ref='-57873' />
    <nd ref='-57875' />
    <nd ref='-57877' />
    <nd ref='-57879' />
    <nd ref='-57881' />
    <nd ref='-57883' />
    <nd ref='-57885' />
    <nd ref='-57887' />
    <nd ref='-57889' />
    <nd ref='-57891' />
    <nd ref='-57893' />
    <nd ref='-57895' />
    <nd ref='-57897' />
    <nd ref='-57899' />
    <nd ref='-57901' />
    <nd ref='-57903' />
    <nd ref='-57905' />
    <nd ref='-57907' />
    <nd ref='-57909' />
    <nd ref='-57911' />
    <nd ref='-57913' />
    <nd ref='-57915' />
    <nd ref='-57917' />
    <nd ref='-57919' />
    <nd ref='-57921' />
    <nd ref='-57923' />
    <nd ref='-57925' />
    <nd ref='-57927' />
    <nd ref='-57929' />
    <nd ref='-57931' />
    <nd ref='-57933' />
    <nd ref='-57811' />
    <nd ref='-58115' />
    <tag k='name' v='Wodi Wodi Track from Coalcliff' />
    <tag k='role' v='altroute' />
    <tag k='style' v='oneway' />
  </way>
  <way id='-59397' action='modify'>
    <nd ref='-57983' />
    <nd ref='-57981' />
    <nd ref='-57979' />
    <nd ref='-57977' />
    <nd ref='-57975' />
    <nd ref='-57973' />
    <nd ref='-57971' />
    <nd ref='-57969' />
    <nd ref='-57967' />
    <nd ref='-57965' />
    <nd ref='-57963' />
    <nd ref='-57961' />
    <nd ref='-57959' />
    <nd ref='-57957' />
    <nd ref='-57955' />
    <nd ref='-57953' />
    <nd ref='-57951' />
    <nd ref='-57949' />
    <nd ref='-57947' />
    <nd ref='-57945' />
    <nd ref='-57943' />
    <nd ref='-57941' />
    <nd ref='-57939' />
    <nd ref='-57937' />
    <nd ref='-59385' />
    <nd ref='-59387' />
    <nd ref='-59389' />
    <nd ref='-59391' />
    <nd ref='-59393' />
    <tag k='name' v='Stanwell Tops Lookout' />
    <tag k='role' v='sidetrack' />
    <tag k='style' v='return' />
  </way>
  <way id='-59399' action='modify'>
    <nd ref='-57985' />
    <nd ref='-57987' />
    <nd ref='-57989' />
    <nd ref='-57991' />
    <nd ref='-57993' />
    <nd ref='-57995' />
    <nd ref='-57997' />
    <nd ref='-57999' />
    <nd ref='-57983' />
    <nd ref='-58001' />
    <nd ref='-58003' />
    <nd ref='-58005' />
    <nd ref='-58007' />
    <nd ref='-58009' />
    <nd ref='-58011' />
    <nd ref='-58013' />
    <nd ref='-58015' />
    <nd ref='-58017' />
    <nd ref='-58019' />
    <nd ref='-58021' />
    <nd ref='-58023' />
    <nd ref='-58025' />
    <nd ref='-58027' />
    <nd ref='-58029' />
    <nd ref='-58031' />
    <nd ref='-58033' />
    <nd ref='-58035' />
    <nd ref='-58037' />
    <nd ref='-58039' />
    <nd ref='-58041' />
    <nd ref='-58043' />
    <nd ref='-58045' />
    <nd ref='-58047' />
    <nd ref='-58049' />
    <nd ref='-58051' />
    <nd ref='-58053' />
    <nd ref='-58055' />
    <nd ref='-58057' />
    <nd ref='-58059' />
    <nd ref='-58061' />
    <nd ref='-58063' />
    <nd ref='-58065' />
    <nd ref='-58067' />
    <nd ref='-58069' />
    <nd ref='-58071' />
    <nd ref='-58073' />
    <nd ref='-58075' />
    <nd ref='-58077' />
    <nd ref='-58079' />
    <nd ref='-58081' />
    <nd ref='-58083' />
    <nd ref='-58085' />
    <nd ref='-58087' />
    <nd ref='-58089' />
    <nd ref='-58091' />
    <nd ref='-58093' />
    <nd ref='-58095' />
    <nd ref='-58097' />
    <nd ref='-58099' />
    <nd ref='-58101' />
    <nd ref='-58103' />
    <nd ref='-58105' />
    <nd ref='-58107' />
    <nd ref='-58109' />
    <nd ref='-58111' />
    <nd ref='-58113' />
    <nd ref='-58115' />
    <nd ref='-58117' />
    <nd ref='-58119' />
    <nd ref='-58121' />
    <nd ref='-58123' />
    <nd ref='-58125' />
    <nd ref='-58127' />
    <nd ref='-58129' />
    <nd ref='-58131' />
    <nd ref='-58133' />
    <nd ref='-58135' />
    <nd ref='-58137' />
    <nd ref='-58139' />
    <nd ref='-58141' />
    <nd ref='-58143' />
    <nd ref='-58145' />
    <nd ref='-58147' />
    <nd ref='-58149' />
    <nd ref='-58151' />
    <nd ref='-58153' />
    <nd ref='-58155' />
    <nd ref='-58157' />
    <nd ref='-58159' />
    <nd ref='-58161' />
    <nd ref='-58163' />
    <nd ref='-58165' />
    <nd ref='-58167' />
    <nd ref='-58169' />
    <nd ref='-58171' />
    <nd ref='-58173' />
    <nd ref='-58175' />
    <nd ref='-58177' />
    <nd ref='-58179' />
    <nd ref='-58181' />
    <nd ref='-58183' />
    <nd ref='-58185' />
    <nd ref='-58187' />
    <nd ref='-58189' />
    <nd ref='-58191' />
    <nd ref='-58193' />
    <nd ref='-58195' />
    <nd ref='-58197' />
    <nd ref='-58199' />
    <nd ref='-58201' />
    <nd ref='-58203' />
    <nd ref='-58205' />
    <nd ref='-58207' />
    <nd ref='-58209' />
    <nd ref='-58211' />
    <nd ref='-58213' />
    <nd ref='-58215' />
    <nd ref='-58217' />
    <nd ref='-58219' />
    <nd ref='-58221' />
    <nd ref='-58223' />
    <nd ref='-58225' />
    <nd ref='-58227' />
    <nd ref='-58229' />
    <nd ref='-58231' />
    <nd ref='-58233' />
    <nd ref='-58235' />
    <nd ref='-58237' />
    <nd ref='-58239' />
    <nd ref='-58241' />
    <nd ref='-58243' />
    <nd ref='-58245' />
    <nd ref='-58247' />
    <nd ref='-58249' />
    <nd ref='-58251' />
    <nd ref='-58253' />
    <nd ref='-58255' />
    <nd ref='-58257' />
    <nd ref='-58259' />
    <nd ref='-58261' />
    <nd ref='-58263' />
    <nd ref='-58265' />
    <nd ref='-58267' />
    <nd ref='-58269' />
    <nd ref='-58271' />
    <nd ref='-58273' />
    <nd ref='-58275' />
    <nd ref='-58277' />
    <nd ref='-58279' />
    <nd ref='-58281' />
    <nd ref='-58283' />
    <nd ref='-58285' />
    <nd ref='-58287' />
    <nd ref='-58289' />
    <nd ref='-58291' />
    <nd ref='-58293' />
    <nd ref='-58295' />
    <nd ref='-58297' />
    <nd ref='-58299' />
    <nd ref='-58301' />
    <nd ref='-58303' />
    <nd ref='-58305' />
    <nd ref='-58307' />
    <nd ref='-58309' />
    <nd ref='-58311' />
    <nd ref='-58313' />
    <nd ref='-58315' />
    <nd ref='-58317' />
    <nd ref='-58319' />
    <nd ref='-58321' />
    <nd ref='-58323' />
    <nd ref='-58325' />
    <nd ref='-58327' />
    <nd ref='-58329' />
    <nd ref='-58331' />
    <nd ref='-58333' />
    <nd ref='-58335' />
    <nd ref='-58337' />
    <nd ref='-58339' />
    <nd ref='-58341' />
    <nd ref='-58343' />
    <nd ref='-58345' />
    <nd ref='-58347' />
    <nd ref='-58349' />
    <nd ref='-58351' />
    <nd ref='-58353' />
    <nd ref='-58355' />
    <nd ref='-58357' />
    <nd ref='-58359' />
    <nd ref='-58361' />
    <nd ref='-58363' />
    <nd ref='-58365' />
    <nd ref='-58367' />
    <nd ref='-58369' />
    <nd ref='-58371' />
    <nd ref='-58373' />
    <nd ref='-58375' />
    <nd ref='-58377' />
    <nd ref='-58379' />
    <nd ref='-58381' />
    <nd ref='-58383' />
    <nd ref='-58385' />
    <nd ref='-58387' />
    <nd ref='-58389' />
    <nd ref='-58391' />
    <nd ref='-58393' />
    <nd ref='-58395' />
    <nd ref='-58397' />
    <nd ref='-58399' />
    <nd ref='-58401' />
    <nd ref='-58403' />
    <nd ref='-58405' />
    <nd ref='-58407' />
    <nd ref='-58409' />
    <nd ref='-58411' />
    <nd ref='-58413' />
    <nd ref='-58415' />
    <nd ref='-58417' />
    <nd ref='-58419' />
    <nd ref='-58421' />
    <nd ref='-58423' />
    <nd ref='-58425' />
    <nd ref='-58427' />
    <nd ref='-58429' />
    <nd ref='-58431' />
    <nd ref='-58433' />
    <nd ref='-58435' />
    <nd ref='-58437' />
    <nd ref='-58439' />
    <nd ref='-58441' />
    <nd ref='-58443' />
    <nd ref='-58445' />
    <nd ref='-58447' />
    <nd ref='-58449' />
    <nd ref='-58451' />
    <nd ref='-58453' />
    <nd ref='-58455' />
    <nd ref='-58457' />
    <nd ref='-58459' />
    <nd ref='-58461' />
    <nd ref='-58463' />
    <nd ref='-58465' />
    <nd ref='-58467' />
    <nd ref='-58469' />
    <nd ref='-58471' />
    <nd ref='-58473' />
    <nd ref='-58475' />
    <nd ref='-58477' />
    <nd ref='-58479' />
    <nd ref='-58481' />
    <nd ref='-58483' />
    <nd ref='-58485' />
    <nd ref='-58487' />
    <nd ref='-58489' />
    <nd ref='-58491' />
    <nd ref='-58493' />
    <nd ref='-58495' />
    <nd ref='-58497' />
    <nd ref='-58499' />
    <nd ref='-58501' />
    <nd ref='-58503' />
    <nd ref='-58505' />
    <nd ref='-58507' />
    <nd ref='-58509' />
    <nd ref='-58511' />
    <nd ref='-58513' />
    <nd ref='-58515' />
    <nd ref='-58517' />
    <nd ref='-58519' />
    <nd ref='-58521' />
    <nd ref='-58523' />
    <nd ref='-58525' />
    <nd ref='-58527' />
    <nd ref='-58529' />
    <nd ref='-58531' />
    <nd ref='-58533' />
    <nd ref='-58535' />
    <nd ref='-58537' />
    <nd ref='-58539' />
    <nd ref='-58541' />
    <nd ref='-58543' />
    <nd ref='-58545' />
    <nd ref='-58547' />
    <nd ref='-58549' />
    <nd ref='-58551' />
    <nd ref='-58553' />
    <nd ref='-58555' />
    <nd ref='-58557' />
    <nd ref='-58559' />
    <nd ref='-58561' />
    <nd ref='-58563' />
    <nd ref='-58565' />
    <nd ref='-58567' />
    <nd ref='-58569' />
    <nd ref='-58571' />
    <nd ref='-58573' />
    <nd ref='-58575' />
    <nd ref='-58577' />
    <nd ref='-58579' />
    <nd ref='-58581' />
    <nd ref='-58583' />
    <nd ref='-58585' />
    <nd ref='-58587' />
    <nd ref='-58589' />
    <nd ref='-58591' />
    <nd ref='-58593' />
    <nd ref='-58595' />
    <nd ref='-58597' />
    <nd ref='-58599' />
    <nd ref='-58601' />
    <nd ref='-58603' />
    <nd ref='-58605' />
    <nd ref='-58607' />
    <nd ref='-58609' />
    <nd ref='-58611' />
    <nd ref='-58613' />
    <nd ref='-58615' />
    <nd ref='-58617' />
    <nd ref='-58619' />
    <nd ref='-58621' />
    <nd ref='-58623' />
    <nd ref='-58625' />
    <nd ref='-58627' />
    <nd ref='-58629' />
    <nd ref='-58631' />
    <nd ref='-58633' />
    <nd ref='-58635' />
    <nd ref='-58637' />
    <nd ref='-58639' />
    <nd ref='-58641' />
    <nd ref='-58643' />
    <nd ref='-58645' />
    <nd ref='-58647' />
    <nd ref='-58649' />
    <nd ref='-58651' />
    <nd ref='-58653' />
    <nd ref='-58655' />
    <nd ref='-58657' />
    <nd ref='-58659' />
    <nd ref='-58661' />
    <nd ref='-58663' />
    <nd ref='-58665' />
    <nd ref='-58667' />
    <nd ref='-58669' />
    <nd ref='-58671' />
    <nd ref='-58673' />
    <nd ref='-58675' />
    <nd ref='-58677' />
    <nd ref='-58679' />
    <nd ref='-58681' />
    <nd ref='-58683' />
    <nd ref='-58685' />
    <nd ref='-58687' />
    <nd ref='-58689' />
    <nd ref='-58691' />
    <nd ref='-58693' />
    <nd ref='-58695' />
    <nd ref='-58697' />
    <nd ref='-58699' />
    <nd ref='-58701' />
    <nd ref='-58703' />
    <nd ref='-58705' />
    <nd ref='-58707' />
    <nd ref='-58709' />
    <nd ref='-58711' />
    <nd ref='-58713' />
    <nd ref='-58715' />
    <nd ref='-58717' />
    <nd ref='-58719' />
    <nd ref='-58721' />
    <nd ref='-58723' />
    <nd ref='-58725' />
    <nd ref='-58727' />
    <nd ref='-58729' />
    <nd ref='-58731' />
    <nd ref='-58733' />
    <nd ref='-58763' />
    <nd ref='-58761' />
    <nd ref='-58759' />
    <nd ref='-58757' />
    <nd ref='-58755' />
    <nd ref='-58753' />
    <nd ref='-58751' />
    <nd ref='-58749' />
    <nd ref='-58747' />
    <nd ref='-58745' />
    <nd ref='-58743' />
    <nd ref='-58741' />
    <nd ref='-58739' />
    <nd ref='-58737' />
    <nd ref='-58735' />
    <nd ref='-58771' />
    <nd ref='-58769' />
    <nd ref='-58767' />
    <nd ref='-58765' />
    <nd ref='-58789' />
    <nd ref='-58787' />
    <nd ref='-58785' />
    <nd ref='-58783' />
    <nd ref='-58781' />
    <nd ref='-58779' />
    <nd ref='-58777' />
    <nd ref='-58775' />
    <nd ref='-58773' />
    <nd ref='-58807' />
    <nd ref='-58805' />
    <nd ref='-58803' />
    <nd ref='-58801' />
    <nd ref='-58799' />
    <nd ref='-58797' />
    <nd ref='-58795' />
    <nd ref='-58793' />
    <nd ref='-58791' />
    <nd ref='-58899' />
    <nd ref='-58897' />
    <nd ref='-58895' />
    <nd ref='-58893' />
    <nd ref='-58891' />
    <nd ref='-58889' />
    <nd ref='-58887' />
    <nd ref='-58885' />
    <nd ref='-58883' />
    <nd ref='-58881' />
    <nd ref='-58879' />
    <nd ref='-58877' />
    <nd ref='-58875' />
    <nd ref='-58873' />
    <nd ref='-58871' />
    <nd ref='-58869' />
    <nd ref='-58867' />
    <nd ref='-58865' />
    <nd ref='-58863' />
    <nd ref='-58861' />
    <nd ref='-58859' />
    <nd ref='-58857' />
    <nd ref='-58855' />
    <nd ref='-58853' />
    <nd ref='-58851' />
    <nd ref='-58849' />
    <nd ref='-58847' />
    <nd ref='-58845' />
    <nd ref='-58843' />
    <nd ref='-58841' />
    <nd ref='-58839' />
    <nd ref='-58837' />
    <nd ref='-58835' />
    <nd ref='-58833' />
    <nd ref='-58831' />
    <nd ref='-58829' />
    <nd ref='-58827' />
    <nd ref='-58825' />
    <nd ref='-58823' />
    <nd ref='-58821' />
    <nd ref='-58819' />
    <nd ref='-58817' />
    <nd ref='-58815' />
    <nd ref='-58813' />
    <nd ref='-58811' />
    <nd ref='-58809' />
    <nd ref='-58905' />
    <nd ref='-58903' />
    <nd ref='-58901' />
    <nd ref='-59061' />
    <nd ref='-59059' />
    <nd ref='-59057' />
    <nd ref='-59055' />
    <nd ref='-59053' />
    <nd ref='-59051' />
    <nd ref='-59049' />
    <nd ref='-59047' />
    <nd ref='-59045' />
    <nd ref='-59043' />
    <nd ref='-59041' />
    <nd ref='-59039' />
    <nd ref='-59037' />
    <nd ref='-59035' />
    <nd ref='-59033' />
    <nd ref='-59031' />
    <nd ref='-59029' />
    <nd ref='-59027' />
    <nd ref='-59025' />
    <nd ref='-59023' />
    <nd ref='-59021' />
    <nd ref='-59019' />
    <nd ref='-59017' />
    <nd ref='-59015' />
    <nd ref='-59013' />
    <nd ref='-59011' />
    <nd ref='-59009' />
    <nd ref='-59007' />
    <nd ref='-59005' />
    <nd ref='-59003' />
    <nd ref='-59001' />
    <nd ref='-58999' />
    <nd ref='-58997' />
    <nd ref='-58995' />
    <nd ref='-58993' />
    <nd ref='-58991' />
    <nd ref='-58989' />
    <nd ref='-58987' />
    <nd ref='-58985' />
    <nd ref='-58983' />
    <nd ref='-58981' />
    <nd ref='-58979' />
    <nd ref='-58977' />
    <nd ref='-58975' />
    <nd ref='-58973' />
    <nd ref='-58971' />
    <nd ref='-58969' />
    <nd ref='-58967' />
    <nd ref='-58965' />
    <nd ref='-58963' />
    <nd ref='-58961' />
    <nd ref='-58959' />
    <nd ref='-58957' />
    <nd ref='-58955' />
    <nd ref='-58953' />
    <nd ref='-58951' />
    <nd ref='-58949' />
    <nd ref='-58947' />
    <nd ref='-58945' />
    <nd ref='-58943' />
    <nd ref='-58941' />
    <nd ref='-58939' />
    <nd ref='-58937' />
    <nd ref='-58935' />
    <nd ref='-58933' />
    <nd ref='-58931' />
    <nd ref='-58929' />
    <nd ref='-58927' />
    <nd ref='-58925' />
    <nd ref='-58923' />
    <nd ref='-58921' />
    <nd ref='-58919' />
    <nd ref='-58917' />
    <nd ref='-58915' />
    <nd ref='-58913' />
    <nd ref='-58911' />
    <nd ref='-58909' />
    <nd ref='-58907' />
    <nd ref='-59089' />
    <nd ref='-59087' />
    <nd ref='-59085' />
    <nd ref='-59083' />
    <nd ref='-59081' />
    <nd ref='-59079' />
    <nd ref='-59077' />
    <nd ref='-59075' />
    <nd ref='-59073' />
    <nd ref='-59071' />
    <nd ref='-59069' />
    <nd ref='-59067' />
    <nd ref='-59065' />
    <nd ref='-59063' />
    <nd ref='-59091' />
    <nd ref='-59093' />
    <nd ref='-59095' />
    <nd ref='-59105' />
    <nd ref='-59103' />
    <nd ref='-59101' />
    <nd ref='-59099' />
    <nd ref='-59097' />
    <nd ref='-59129' />
    <nd ref='-59127' />
    <nd ref='-59125' />
    <nd ref='-59123' />
    <nd ref='-59121' />
    <nd ref='-59119' />
    <nd ref='-59117' />
    <nd ref='-59115' />
    <nd ref='-59113' />
    <nd ref='-59111' />
    <nd ref='-59109' />
    <nd ref='-59107' />
    <nd ref='-59143' />
    <nd ref='-59141' />
    <nd ref='-59139' />
    <nd ref='-59137' />
    <nd ref='-59135' />
    <nd ref='-59133' />
    <nd ref='-59131' />
    <nd ref='-59233' />
    <nd ref='-59231' />
    <nd ref='-59229' />
    <nd ref='-59227' />
    <nd ref='-59225' />
    <nd ref='-59223' />
    <nd ref='-59221' />
    <nd ref='-59219' />
    <nd ref='-59217' />
    <nd ref='-59215' />
    <nd ref='-59213' />
    <nd ref='-59211' />
    <nd ref='-59209' />
    <nd ref='-59207' />
    <nd ref='-59205' />
    <nd ref='-59203' />
    <nd ref='-59201' />
    <nd ref='-59199' />
    <nd ref='-59197' />
    <nd ref='-59195' />
    <nd ref='-59193' />
    <nd ref='-59191' />
    <nd ref='-59189' />
    <nd ref='-59187' />
    <nd ref='-59185' />
    <nd ref='-59183' />
    <nd ref='-59181' />
    <nd ref='-59179' />
    <nd ref='-59177' />
    <nd ref='-59175' />
    <nd ref='-59173' />
    <nd ref='-59171' />
    <nd ref='-59169' />
    <nd ref='-59167' />
    <nd ref='-59165' />
    <nd ref='-59163' />
    <nd ref='-59161' />
    <nd ref='-59159' />
    <nd ref='-59157' />
    <nd ref='-59155' />
    <nd ref='-59153' />
    <nd ref='-59151' />
    <nd ref='-59149' />
    <nd ref='-59147' />
    <nd ref='-59145' />
    <nd ref='-59265' />
    <nd ref='-59263' />
    <nd ref='-59261' />
    <nd ref='-59259' />
    <nd ref='-59257' />
    <nd ref='-59255' />
    <nd ref='-59253' />
    <nd ref='-59251' />
    <nd ref='-59249' />
    <nd ref='-59247' />
    <nd ref='-59245' />
    <nd ref='-59243' />
    <nd ref='-59241' />
    <nd ref='-59239' />
    <nd ref='-59237' />
    <nd ref='-59235' />
    <nd ref='-59269' />
    <nd ref='-59267' />
    <nd ref='-59289' />
    <nd ref='-59287' />
    <nd ref='-59285' />
    <nd ref='-59283' />
    <nd ref='-59281' />
    <nd ref='-59279' />
    <nd ref='-59277' />
    <nd ref='-59275' />
    <nd ref='-59273' />
    <nd ref='-59271' />
    <nd ref='-59359' />
    <nd ref='-59357' />
    <nd ref='-59355' />
    <nd ref='-59353' />
    <nd ref='-59351' />
    <nd ref='-59349' />
    <nd ref='-59347' />
    <nd ref='-59345' />
    <nd ref='-59343' />
    <nd ref='-59341' />
    <nd ref='-59339' />
    <nd ref='-59337' />
    <nd ref='-59335' />
    <nd ref='-59333' />
    <nd ref='-59331' />
    <nd ref='-59329' />
    <nd ref='-59327' />
    <nd ref='-59325' />
    <nd ref='-59323' />
    <nd ref='-59321' />
    <nd ref='-59319' />
    <nd ref='-59317' />
    <nd ref='-59315' />
    <nd ref='-59313' />
    <nd ref='-59311' />
    <nd ref='-59309' />
    <nd ref='-59307' />
    <nd ref='-59305' />
    <nd ref='-59303' />
    <nd ref='-59301' />
    <nd ref='-59299' />
    <nd ref='-59297' />
    <nd ref='-59295' />
    <nd ref='-59293' />
    <nd ref='-59291' />
    <nd ref='-59375' />
    <nd ref='-59373' />
    <nd ref='-59371' />
    <nd ref='-59369' />
    <nd ref='-59367' />
    <nd ref='-59365' />
    <nd ref='-59363' />
    <nd ref='-59361' />
    <nd ref='-59379' />
    <nd ref='-59381' />
    <nd ref='-59383' />
    <tag k='name' v='Stanwell Park to Austinmer' />
    <tag k='park' v='Illawarra Escarpment State Conservation Area' />
    <tag k='photo' v='136319147@N08/22840565707' />
    <tag k='role' v='primary' />
    <tag k='style' v='oneway' />
    <tag k='transport' v='train;carshuffle' />
  </way>
</osm>
