<?xml version='1.0' encoding='UTF-8'?>
<osm version='0.6' upload='false' generator='JOSM'>
  <node id='-44453' action='modify' visible='true' lat='-34.3144938' lon='149.9642261' />
  <node id='-44454' action='modify' visible='true' lat='-34.3146503' lon='149.9641932' />
  <node id='-44455' action='modify' visible='true' lat='-34.314732' lon='149.9641273' />
  <node id='-44458' action='modify' visible='true' lat='-34.3148544' lon='149.9639095' />
  <node id='-44461' action='modify' visible='true' lat='-34.3103282' lon='149.9665387' />
  <node id='-44466' action='modify' visible='true' lat='-34.3080397' lon='149.9685309' />
  <node id='-44467' action='modify' visible='true' lat='-34.3082099' lon='149.9679816' />
  <node id='-44468' action='modify' visible='true' lat='-34.30838' lon='149.967664' />
  <node id='-44469' action='modify' visible='true' lat='-34.3085927' lon='149.9672864' />
  <node id='-44470' action='modify' visible='true' lat='-34.3086991' lon='149.9672006' />
  <node id='-44471' action='modify' visible='true' lat='-34.3096066' lon='149.9668315' />
  <node id='-44472' action='modify' visible='true' lat='-34.3097696' lon='149.9668143' />
  <node id='-44473' action='modify' visible='true' lat='-34.3099256' lon='149.9667972' />
  <node id='-44474' action='modify' visible='true' lat='-34.3100461' lon='149.9667628' />
  <node id='-44475' action='modify' visible='true' lat='-34.3102092' lon='149.9665997' />
  <node id='-44477' action='modify' visible='true' lat='-34.310393' lon='149.9665274' />
  <node id='-44478' action='modify' visible='true' lat='-34.3105211' lon='149.9665053' />
  <node id='-44479' action='modify' visible='true' lat='-34.3106629' lon='149.9665225' />
  <node id='-44480' action='modify' visible='true' lat='-34.3108756' lon='149.9666341' />
  <node id='-44481' action='modify' visible='true' lat='-34.3110174' lon='149.9666856' />
  <node id='-44482' action='modify' visible='true' lat='-34.3111663' lon='149.9667027' />
  <node id='-44483' action='modify' visible='true' lat='-34.3113081' lon='149.9666512' />
  <node id='-44484' action='modify' visible='true' lat='-34.3114782' lon='149.9665311' />
  <node id='-44485' action='modify' visible='true' lat='-34.3115845' lon='149.9664882' />
  <node id='-44486' action='modify' visible='true' lat='-34.3117618' lon='149.9664882' />
  <node id='-44487' action='modify' visible='true' lat='-34.3119584' lon='149.9663897' />
  <node id='-44488' action='modify' visible='true' lat='-34.3137384' lon='149.9642426' />
  <node id='-44489' action='modify' visible='true' lat='-34.3129626' lon='149.9648771' />
  <node id='-44490' action='modify' visible='true' lat='-34.3128401' lon='149.9652231' />
  <node id='-44491' action='modify' visible='true' lat='-34.3126903' lon='149.9653632' />
  <node id='-44492' action='modify' visible='true' lat='-34.3124862' lon='149.9653797' />
  <node id='-44493' action='modify' visible='true' lat='-34.3123433' lon='149.9655609' />
  <node id='-44494' action='modify' visible='true' lat='-34.3123841' lon='149.9657092' />
  <node id='-44495' action='modify' visible='true' lat='-34.3123637' lon='149.9660306' />
  <node id='-44496' action='modify' visible='true' lat='-34.3121459' lon='149.96608' />
  <node id='-44497' action='modify' visible='true' lat='-34.3120438' lon='149.9662283' />
  <node id='-44498' action='modify' visible='true' lat='-34.3119991' lon='149.9662984' />
  <node id='-44499' action='modify' visible='true' lat='-34.3081125' lon='149.968996' />
  <node id='-44500' action='modify' visible='true' lat='-34.3079543' lon='149.9687364' />
  <node id='-44501' action='modify' visible='true' lat='-34.3104579' lon='149.9663358' />
  <node id='-44502' action='modify' visible='true' lat='-34.3104851' lon='149.9660516' />
  <node id='-44503' action='modify' visible='true' lat='-34.3106179' lon='149.9657055' />
  <node id='-44504' action='modify' visible='true' lat='-34.3108935' lon='149.9652977' />
  <node id='-44505' action='modify' visible='true' lat='-34.3110466' lon='149.9650999' />
  <node id='-44506' action='modify' visible='true' lat='-34.3111555' lon='149.9646303' />
  <node id='-44507' action='modify' visible='true' lat='-34.3110636' lon='149.9643625' />
  <node id='-44508' action='modify' visible='true' lat='-34.310771' lon='149.964449' />
  <node id='-44509' action='modify' visible='true' lat='-34.3106111' lon='149.9644037' />
  <node id='-44510' action='modify' visible='true' lat='-34.3105634' lon='149.9637569' />
  <node id='-44511' action='modify' visible='true' lat='-34.310788' lon='149.963246' />
  <node id='-44512' action='modify' visible='true' lat='-34.3109786' lon='149.9630236' />
  <node id='-44513' action='modify' visible='true' lat='-34.3111215' lon='149.9625539' />
  <node id='-44514' action='modify' visible='true' lat='-34.3113427' lon='149.9624015' />
  <node id='-44515' action='modify' visible='true' lat='-34.311751' lon='149.9625004' />
  <node id='-44516' action='modify' visible='true' lat='-34.3121015' lon='149.9625375' />
  <node id='-44517' action='modify' visible='true' lat='-34.3122954' lon='149.9625498' />
  <node id='-44518' action='modify' visible='true' lat='-34.3125439' lon='149.9625251' />
  <node id='-44520' action='modify' visible='true' lat='-34.3140456' lon='149.9622878' />
  <node id='-44521' action='modify' visible='true' lat='-34.3140035' lon='149.9624139' />
  <node id='-44522' action='modify' visible='true' lat='-34.3140478' lon='149.9626848' />
  <node id='-44523' action='modify' visible='true' lat='-34.3140489' lon='149.962843' />
  <node id='-44524' action='modify' visible='true' lat='-34.3140257' lon='149.9630375' />
  <node id='-44525' action='modify' visible='true' lat='-34.3142339' lon='149.9632883' />
  <node id='-44526' action='modify' visible='true' lat='-34.314327' lon='149.9633084' />
  <node id='-44527' action='modify' visible='true' lat='-34.3145097' lon='149.9632159' />
  <node id='-44528' action='modify' visible='true' lat='-34.3145408' lon='149.9633929' />
  <node id='-44529' action='modify' visible='true' lat='-34.3147678' lon='149.963413' />
  <node id='-44530' action='modify' visible='true' lat='-34.3149296' lon='149.9634492' />
  <node id='-44531' action='modify' visible='true' lat='-34.3149705' lon='149.9635337' />
  <node id='-44532' action='modify' visible='true' lat='-34.3150126' lon='149.963586' />
  <node id='-44533' action='modify' visible='true' lat='-34.3150647' lon='149.9636316' />
  <node id='-44534' action='modify' visible='true' lat='-34.3151234' lon='149.9636571' />
  <node id='-44535' action='modify' visible='true' lat='-34.3151389' lon='149.9636759' />
  <node id='-44536' action='modify' visible='true' lat='-34.3151223' lon='149.9637349' />
  <node id='-44537' action='modify' visible='true' lat='-34.3150891' lon='149.9637818' />
  <node id='-44538' action='modify' visible='true' lat='-34.3150547' lon='149.9637711' />
  <node id='-44539' action='modify' visible='true' lat='-34.3145332' lon='149.96031' />
  <node id='-44540' action='modify' visible='true' lat='-34.3145005' lon='149.9602908' />
  <node id='-44541' action='modify' visible='true' lat='-34.3144362' lon='149.9602183' />
  <node id='-44542' action='modify' visible='true' lat='-34.3143875' lon='149.9600708' />
  <node id='-44543' action='modify' visible='true' lat='-34.3143831' lon='149.9600158' />
  <node id='-44544' action='modify' visible='true' lat='-34.3082353' lon='149.9692358' />
  <node id='-44545' action='modify' visible='true' lat='-34.3081735' lon='149.9691161' />
  <node id='-44546' action='modify' visible='true' lat='-34.3104488' lon='149.9667088' />
  <node id='-44547' action='modify' visible='true' lat='-34.3105469' lon='149.9668449' />
  <node id='-44548' action='modify' visible='true' lat='-34.3106084' lon='149.966857' />
  <node id='-44549' action='modify' visible='true' lat='-34.3106272' lon='149.9668952' />
  <node id='-44550' action='modify' visible='true' lat='-34.3106903' lon='149.9670434' />
  <node id='-44551' action='modify' visible='true' lat='-34.3107562' lon='149.9671567' />
  <node id='-44552' action='modify' visible='true' lat='-34.3108593' lon='149.9672338' />
  <node id='-44553' action='modify' visible='true' lat='-34.3109102' lon='149.9673545' />
  <node id='-44554' action='modify' visible='true' lat='-34.3108061' lon='149.9674129' />
  <node id='-44555' action='modify' visible='true' lat='-34.3107607' lon='149.9675087' />
  <node id='-44556' action='modify' visible='true' lat='-34.3106892' lon='149.9676697' />
  <node id='-44557' action='modify' visible='true' lat='-34.3106876' lon='149.967734' />
  <node id='-44558' action='modify' visible='true' lat='-34.3106283' lon='149.9678373' />
  <node id='-44559' action='modify' visible='true' lat='-34.3106372' lon='149.9678708' />
  <node id='-44560' action='modify' visible='true' lat='-34.3106776' lon='149.9679091' />
  <node id='-44561' action='modify' visible='true' lat='-34.3107507' lon='149.9679057' />
  <node id='-44562' action='modify' visible='true' lat='-34.3108388' lon='149.967956' />
  <node id='-44563' action='modify' visible='true' lat='-34.3108737' lon='149.9679969' />
  <node id='-44564' action='modify' visible='true' lat='-34.3109158' lon='149.9680177' />
  <node id='-44565' action='modify' visible='true' lat='-34.3109728' lon='149.9680278' />
  <node id='-44566' action='modify' visible='true' lat='-34.3109739' lon='149.9681491' />
  <node id='-44567' action='modify' visible='true' lat='-34.3109662' lon='149.9682638' />
  <node id='-44568' action='modify' visible='true' lat='-34.3110476' lon='149.968306' />
  <node id='-44569' action='modify' visible='true' lat='-34.3112099' lon='149.9684086' />
  <node id='-44570' action='modify' visible='true' lat='-34.3114292' lon='149.9684837' />
  <node id='-44571' action='modify' visible='true' lat='-34.3117239' lon='149.968768' />
  <node id='-44572' action='modify' visible='true' lat='-34.3118258' lon='149.9689907' />
  <node id='-44573' action='modify' visible='true' lat='-34.311972' lon='149.9690282' />
  <node id='-44574' action='modify' visible='true' lat='-34.3120717' lon='149.9691248' />
  <node id='-44575' action='modify' visible='true' lat='-34.3120517' lon='149.9694574' />
  <node id='-44576' action='modify' visible='true' lat='-34.3120739' lon='149.9697524' />
  <node id='-44577' action='modify' visible='true' lat='-34.3119277' lon='149.970136' />
  <node id='-44578' action='modify' visible='true' lat='-34.3118014' lon='149.9702352' />
  <node id='-44579' action='modify' visible='true' lat='-34.3116818' lon='149.9701896' />
  <node id='-44580' action='modify' visible='true' lat='-34.3110924' lon='149.9704632' />
  <node id='-44581' action='modify' visible='true' lat='-34.3105851' lon='149.9703291' />
  <node id='-44582' action='modify' visible='true' lat='-34.3104854' lon='149.9703666' />
  <node id='-44583' action='modify' visible='true' lat='-34.3099891' lon='149.9707046' />
  <node id='-44584' action='modify' visible='true' lat='-34.309823' lon='149.9707529' />
  <node id='-44585' action='modify' visible='true' lat='-34.3095682' lon='149.9710238' />
  <node id='-44586' action='modify' visible='true' lat='-34.3092824' lon='149.9711981' />
  <node id='-44587' action='modify' visible='true' lat='-34.3091849' lon='149.9712491' />
  <node id='-44588' action='modify' visible='true' lat='-34.3090054' lon='149.9711177' />
  <node id='-44589' action='modify' visible='true' lat='-34.3088083' lon='149.9709353' />
  <node id='-44590' action='modify' visible='true' lat='-34.3086332' lon='149.9708199' />
  <node id='-44591' action='modify' visible='true' lat='-34.3086044' lon='149.9707234' />
  <node id='-44592' action='modify' visible='true' lat='-34.3085734' lon='149.9705973' />
  <node id='-44593' action='modify' visible='true' lat='-34.3084914' lon='149.9704766' />
  <node id='-44594' action='modify' visible='true' lat='-34.3083962' lon='149.9703023' />
  <node id='-44595' action='modify' visible='true' lat='-34.3082898' lon='149.970262' />
  <node id='-44596' action='modify' visible='true' lat='-34.3081857' lon='149.9702205' />
  <node id='-44597' action='modify' visible='true' lat='-34.3081403' lon='149.9701856' />
  <node id='-44598' action='modify' visible='true' lat='-34.3081403' lon='149.9701252' />
  <node id='-44599' action='modify' visible='true' lat='-34.3081757' lon='149.9700743' />
  <node id='-44600' action='modify' visible='true' lat='-34.3083098' lon='149.969971' />
  <node id='-44601' action='modify' visible='true' lat='-34.3084482' lon='149.9698275' />
  <node id='-44602' action='modify' visible='true' lat='-34.3086487' lon='149.9695365' />
  <node id='-44603' action='modify' visible='true' lat='-34.3085223' lon='149.9693997' />
  <node id='-44604' action='modify' visible='true' lat='-34.3147184' lon='149.9600866' />
  <node id='-44605' action='modify' visible='true' lat='-34.3147306' lon='149.9601201' />
  <node id='-44606' action='modify' visible='true' lat='-34.3147788' lon='149.9601965' />
  <node id='-44607' action='modify' visible='true' lat='-34.3147971' lon='149.9602891' />
  <node id='-44608' action='modify' visible='true' lat='-34.3147827' lon='149.9603427' />
  <node id='-44609' action='modify' visible='true' lat='-34.3147406' lon='149.9603455' />
  <node id='-44610' action='modify' visible='true' lat='-34.3147068' lon='149.9603308' />
  <node id='-44611' action='modify' visible='true' lat='-34.3146537' lon='149.9603046' />
  <node id='-44612' action='modify' visible='true' lat='-34.314621' lon='149.9603173' />
  <node id='-44613' action='modify' visible='true' lat='-34.3145883' lon='149.9603609' />
  <node id='-44614' action='modify' visible='true' lat='-34.3145717' lon='149.9603576' />
  <node id='-44615' action='modify' visible='true' lat='-34.3145689' lon='149.9603234' />
  <node id='-44616' action='modify' visible='true' lat='-34.3145717' lon='149.9602671' />
  <node id='-44617' action='modify' visible='true' lat='-34.3145639' lon='149.960259' />
  <node id='-44618' action='modify' visible='true' lat='-34.3145423' lon='149.9602852' />
  <node id='-44619' action='modify' visible='true' lat='-34.3145191' lon='149.9603482' />
  <node id='-44620' action='modify' visible='true' lat='-34.3145036' lon='149.9604481' />
  <node id='-44621' action='modify' visible='true' lat='-34.3145296' lon='149.960548' />
  <node id='-44622' action='modify' visible='true' lat='-34.3145955' lon='149.9605802' />
  <node id='-44623' action='modify' visible='true' lat='-34.3146886' lon='149.9605534' />
  <node id='-44624' action='modify' visible='true' lat='-34.3146664' lon='149.9606017' />
  <node id='-44625' action='modify' visible='true' lat='-34.3146636' lon='149.960666' />
  <node id='-44626' action='modify' visible='true' lat='-34.3146874' lon='149.9607096' />
  <node id='-44627' action='modify' visible='true' lat='-34.3147002' lon='149.9607291' />
  <node id='-44628' action='modify' visible='true' lat='-34.3146548' lon='149.9608263' />
  <node id='-44629' action='modify' visible='true' lat='-34.3146703' lon='149.9608893' />
  <node id='-44630' action='modify' visible='true' lat='-34.3146769' lon='149.9611119' />
  <node id='-44631' action='modify' visible='true' lat='-34.3146747' lon='149.9615867' />
  <node id='-44632' action='modify' visible='true' lat='-34.3146348' lon='149.961702' />
  <node id='-44633' action='modify' visible='true' lat='-34.3144709' lon='149.9618844' />
  <node id='-44634' action='modify' visible='true' lat='-34.3142095' lon='149.9620266' />
  <node id='-44635' action='modify' visible='true' lat='-34.3138506' lon='149.962158' />
  <node id='-44636' action='modify' visible='true' lat='-34.3133189' lon='149.9623645' />
  <node id='-44637' action='modify' visible='true' lat='-34.3126631' lon='149.9624933' />
  <node id='-44762' action='modify' visible='true' lat='-34.31480279399' lon='149.96401861052' />
  <node id='-44764' action='modify' visible='true' lat='-34.31484488615' lon='149.96395557861' />
  <node id='-44774' action='modify' visible='true' lat='-34.31041507186' lon='149.96652073006' />
  <node id='-44817' action='modify' visible='true' lat='-34.31414509947' lon='149.96206721598' />
  <node id='-44818' action='modify' visible='true' lat='-34.31473072936' lon='149.96008001821' />
  <node id='-44820' action='modify' visible='true' lat='-34.31421423057' lon='149.96204191177' />
  <node id='-44821' action='modify' visible='true' lat='-34.31447841254' lon='149.96189819839' />
  <node id='-44822' action='modify' visible='true' lat='-34.31464608887' lon='149.96171159578' />
  <node id='-44823' action='modify' visible='true' lat='-34.31468815946' lon='149.96159002337' />
  <node id='-44824' action='modify' visible='true' lat='-34.314690376' lon='149.96111165303' />
  <node id='-44825' action='modify' visible='true' lat='-34.31468370434' lon='149.9608866361' />
  <node id='-44826' action='modify' visible='true' lat='-34.31466934975' lon='149.96082829159' />
  <node id='-44827' action='modify' visible='true' lat='-34.31471639991' lon='149.96072755862' />
  <node id='-44828' action='modify' visible='true' lat='-34.3146983161' lon='149.96070000905' />
  <node id='-44829' action='modify' visible='true' lat='-34.31467728975' lon='149.96066149018' />
  <node id='-44830' action='modify' visible='true' lat='-34.31467969167' lon='149.96060633164' />
  <node id='-44831' action='modify' visible='true' lat='-34.31471525456' lon='149.96052895832' />
  <node id='-44832' action='modify' visible='true' lat='-34.31459656081' lon='149.96056312581' />
  <node id='-44833' action='modify' visible='true' lat='-34.31454054043' lon='149.96053575318' />
  <node id='-44834' action='modify' visible='true' lat='-34.31451746627' lon='149.96044709514' />
  <node id='-44835' action='modify' visible='true' lat='-34.31453204992' lon='149.96035310114' />
  <node id='-44836' action='modify' visible='true' lat='-34.31454550816' lon='149.96031663979' />
  <node id='-44837' action='modify' visible='true' lat='-34.31455360057' lon='149.96029458576' />
  <node id='-44838' action='modify' visible='true' lat='-34.31456461062' lon='149.96028123097' />
  <node id='-44839' action='modify' visible='true' lat='-34.31455784744' lon='149.96027420767' />
  <node id='-44840' action='modify' visible='true' lat='-34.3145553852' lon='149.96032371633' />
  <node id='-44841' action='modify' visible='true' lat='-34.3145593112' lon='149.96037166966' />
  <node id='-44842' action='modify' visible='true' lat='-34.31459334882' lon='149.96037843618' />
  <node id='-44843' action='modify' visible='true' lat='-34.3146285507' lon='149.96033150033' />
  <node id='-44844' action='modify' visible='true' lat='-34.31465315122' lon='149.960321946' />
  <node id='-44845' action='modify' visible='true' lat='-34.31470197756' lon='149.96034603734' />
  <node id='-44846' action='modify' visible='true' lat='-34.31473861358' lon='149.96036197075' />
  <node id='-44847' action='modify' visible='true' lat='-34.31479265796' lon='149.96035837635' />
  <node id='-44848' action='modify' visible='true' lat='-34.31481108828' lon='149.96028977459' />
  <node id='-44849' action='modify' visible='true' lat='-34.31479124061' lon='149.96018934317' />
  <node id='-44850' action='modify' visible='true' lat='-34.31474228208' lon='149.96011174084' />
  <node id='-44918' action='modify' visible='true' lat='-34.3105008' lon='149.957338' />
  <node id='-44919' action='modify' visible='true' lat='-34.3105054' lon='149.9573508' />
  <node id='-44920' action='modify' visible='true' lat='-34.3105388' lon='149.9574443' />
  <node id='-44921' action='modify' visible='true' lat='-34.3105886' lon='149.957509' />
  <node id='-44922' action='modify' visible='true' lat='-34.3107356' lon='149.9579014' />
  <node id='-44923' action='modify' visible='true' lat='-34.3110835' lon='149.9585169' />
  <node id='-44924' action='modify' visible='true' lat='-34.3111906' lon='149.9585235' />
  <node id='-44925' action='modify' visible='true' lat='-34.3115009' lon='149.9587545' />
  <node id='-44926' action='modify' visible='true' lat='-34.3115133' lon='149.9587637' />
  <node id='-44927' action='modify' visible='true' lat='-34.3116684' lon='149.9586617' />
  <node id='-44928' action='modify' visible='true' lat='-34.3116752' lon='149.9586358' />
  <node id='-44929' action='modify' visible='true' lat='-34.3117016' lon='149.9585357' />
  <node id='-44930' action='modify' visible='true' lat='-34.3117016' lon='149.9581655' />
  <node id='-44931' action='modify' visible='true' lat='-34.3117836' lon='149.9580261' />
  <node id='-44932' action='modify' visible='true' lat='-34.3118766' lon='149.9580904' />
  <node id='-44933' action='modify' visible='true' lat='-34.3119497' lon='149.9581897' />
  <node id='-44934' action='modify' visible='true' lat='-34.3124061' lon='149.9582058' />
  <node id='-44935' action='modify' visible='true' lat='-34.3126122' lon='149.9580046' />
  <node id='-44936' action='modify' visible='true' lat='-34.3128514' lon='149.9578222' />
  <node id='-44937' action='modify' visible='true' lat='-34.3130132' lon='149.9577444' />
  <node id='-44938' action='modify' visible='true' lat='-34.3130774' lon='149.9577954' />
  <node id='-44939' action='modify' visible='true' lat='-34.3131062' lon='149.9580583' />
  <node id='-44940' action='modify' visible='true' lat='-34.3130552' lon='149.9582862' />
  <node id='-44941' action='modify' visible='true' lat='-34.3129511' lon='149.958423' />
  <node id='-44942' action='modify' visible='true' lat='-34.3129356' lon='149.958651' />
  <node id='-44943' action='modify' visible='true' lat='-34.3129755' lon='149.958871' />
  <node id='-44944' action='modify' visible='true' lat='-34.3131007' lon='149.9590938' />
  <node id='-44945' action='modify' visible='true' lat='-34.3131217' lon='149.9591311' />
  <node id='-44946' action='modify' visible='true' lat='-34.3132568' lon='149.9594557' />
  <node id='-44947' action='modify' visible='true' lat='-34.3134629' lon='149.9595683' />
  <node id='-44948' action='modify' visible='true' lat='-34.3138771' lon='149.9594007' />
  <node id='-44949' action='modify' visible='true' lat='-34.3140389' lon='149.9594208' />
  <node id='-44950' action='modify' visible='true' lat='-34.3141918' lon='149.9599143' />
  <node id='-44951' action='modify' visible='true' lat='-34.3146269' lon='149.9600323' />
  <node id='-44984' action='modify' visible='true' lat='-34.31470808654' lon='149.96005229394' />
  <node id='-44986' action='modify' visible='true' lat='-34.31472462909' lon='149.96008327472' />
  <way id='-44440' action='modify' visible='true'>
    <nd ref='-44539' />
    <nd ref='-44540' />
    <nd ref='-44541' />
    <nd ref='-44542' />
    <nd ref='-44543' />
    <tag k='description' v='A free self explore cave, which is lit via a light switch at the entrance.' />
    <tag k='name' v='Tinted Cave' />
    <tag k='role' v='sidetrack' />
    <tag k='style' v='return' />
  </way>
  <way id='-44715' action='modify' visible='true'>
    <nd ref='-44544' />
    <nd ref='-44545' />
    <nd ref='-44499' />
    <nd ref='-44500' />
    <nd ref='-44466' />
    <nd ref='-44467' />
    <nd ref='-44468' />
    <nd ref='-44469' />
    <nd ref='-44470' />
    <nd ref='-44471' />
    <nd ref='-44472' />
    <nd ref='-44473' />
    <nd ref='-44474' />
    <nd ref='-44475' />
    <nd ref='-44461' />
    <nd ref='-44477' />
    <nd ref='-44501' />
    <nd ref='-44502' />
    <nd ref='-44503' />
    <nd ref='-44504' />
    <nd ref='-44505' />
    <nd ref='-44506' />
    <nd ref='-44507' />
    <nd ref='-44508' />
    <nd ref='-44509' />
    <nd ref='-44510' />
    <nd ref='-44511' />
    <nd ref='-44512' />
    <nd ref='-44513' />
    <nd ref='-44514' />
    <nd ref='-44515' />
    <nd ref='-44516' />
    <nd ref='-44517' />
    <nd ref='-44518' />
    <nd ref='-44637' />
    <nd ref='-44636' />
    <nd ref='-44635' />
    <nd ref='-44634' />
    <nd ref='-44633' />
    <nd ref='-44632' />
    <nd ref='-44631' />
    <nd ref='-44630' />
    <nd ref='-44629' />
    <nd ref='-44628' />
    <nd ref='-44627' />
    <nd ref='-44626' />
    <nd ref='-44625' />
    <nd ref='-44624' />
    <nd ref='-44623' />
    <nd ref='-44622' />
    <nd ref='-44621' />
    <nd ref='-44620' />
    <nd ref='-44619' />
    <nd ref='-44539' />
    <nd ref='-44618' />
    <nd ref='-44617' />
    <nd ref='-44616' />
    <nd ref='-44615' />
    <nd ref='-44614' />
    <nd ref='-44613' />
    <nd ref='-44612' />
    <nd ref='-44611' />
    <nd ref='-44610' />
    <nd ref='-44609' />
    <nd ref='-44608' />
    <nd ref='-44607' />
    <nd ref='-44606' />
    <nd ref='-44605' />
    <nd ref='-44604' />
    <nd ref='-44986' />
    <nd ref='-44818' />
    <nd ref='-44850' />
    <nd ref='-44849' />
    <nd ref='-44848' />
    <nd ref='-44847' />
    <nd ref='-44846' />
    <nd ref='-44845' />
    <nd ref='-44844' />
    <nd ref='-44843' />
    <nd ref='-44842' />
    <nd ref='-44841' />
    <nd ref='-44840' />
    <nd ref='-44839' />
    <nd ref='-44838' />
    <nd ref='-44837' />
    <nd ref='-44836' />
    <nd ref='-44835' />
    <nd ref='-44834' />
    <nd ref='-44833' />
    <nd ref='-44832' />
    <nd ref='-44831' />
    <nd ref='-44830' />
    <nd ref='-44829' />
    <nd ref='-44828' />
    <nd ref='-44827' />
    <nd ref='-44826' />
    <nd ref='-44825' />
    <nd ref='-44824' />
    <nd ref='-44823' />
    <nd ref='-44822' />
    <nd ref='-44821' />
    <nd ref='-44820' />
    <nd ref='-44817' />
    <nd ref='-44520' />
    <nd ref='-44521' />
    <nd ref='-44522' />
    <nd ref='-44523' />
    <nd ref='-44524' />
    <nd ref='-44525' />
    <nd ref='-44526' />
    <nd ref='-44527' />
    <nd ref='-44528' />
    <nd ref='-44529' />
    <nd ref='-44530' />
    <nd ref='-44531' />
    <nd ref='-44532' />
    <nd ref='-44533' />
    <nd ref='-44534' />
    <nd ref='-44535' />
    <nd ref='-44536' />
    <nd ref='-44537' />
    <nd ref='-44538' />
    <nd ref='-44458' />
    <nd ref='-44764' />
    <nd ref='-44762' />
    <nd ref='-44455' />
    <nd ref='-44454' />
    <nd ref='-44453' />
    <nd ref='-44488' />
    <nd ref='-44489' />
    <nd ref='-44490' />
    <nd ref='-44491' />
    <nd ref='-44492' />
    <nd ref='-44493' />
    <nd ref='-44494' />
    <nd ref='-44495' />
    <nd ref='-44496' />
    <nd ref='-44497' />
    <nd ref='-44498' />
    <nd ref='-44487' />
    <nd ref='-44486' />
    <nd ref='-44485' />
    <nd ref='-44484' />
    <nd ref='-44483' />
    <nd ref='-44482' />
    <nd ref='-44481' />
    <nd ref='-44480' />
    <nd ref='-44479' />
    <nd ref='-44478' />
    <nd ref='-44774' />
    <nd ref='-44546' />
    <nd ref='-44547' />
    <nd ref='-44548' />
    <nd ref='-44549' />
    <nd ref='-44550' />
    <nd ref='-44551' />
    <nd ref='-44552' />
    <nd ref='-44553' />
    <nd ref='-44554' />
    <nd ref='-44555' />
    <nd ref='-44556' />
    <nd ref='-44557' />
    <nd ref='-44558' />
    <nd ref='-44559' />
    <nd ref='-44560' />
    <nd ref='-44561' />
    <nd ref='-44562' />
    <nd ref='-44563' />
    <nd ref='-44564' />
    <nd ref='-44565' />
    <nd ref='-44566' />
    <nd ref='-44567' />
    <nd ref='-44568' />
    <nd ref='-44569' />
    <nd ref='-44570' />
    <nd ref='-44571' />
    <nd ref='-44572' />
    <nd ref='-44573' />
    <nd ref='-44574' />
    <nd ref='-44575' />
    <nd ref='-44576' />
    <nd ref='-44577' />
    <nd ref='-44578' />
    <nd ref='-44579' />
    <nd ref='-44580' />
    <nd ref='-44581' />
    <nd ref='-44582' />
    <nd ref='-44583' />
    <nd ref='-44584' />
    <nd ref='-44585' />
    <nd ref='-44586' />
    <nd ref='-44587' />
    <nd ref='-44588' />
    <nd ref='-44589' />
    <nd ref='-44590' />
    <nd ref='-44591' />
    <nd ref='-44592' />
    <nd ref='-44593' />
    <nd ref='-44594' />
    <nd ref='-44595' />
    <nd ref='-44596' />
    <nd ref='-44597' />
    <nd ref='-44598' />
    <nd ref='-44599' />
    <nd ref='-44600' />
    <nd ref='-44601' />
    <nd ref='-44602' />
    <nd ref='-44603' />
    <tag k='description' v='This walk visits Mares Forest Creek where you can traverse through the canyon without equiptment, marked as the Mares Forest Creek Canyon sidetrip. In some sections you&apos;ll need to swim combined with sections you&apos;ll need to walk, so water shoes are recommended.' />
    <tag k='name' v='Wombeyan Caves Loop via Mares Forest Creek Canyon' />
    <tag k='park' v='Wombeyan Karst Conservation Reserve' />
    <tag k='photo' v='136319147@N08/32040547823' />
    <tag k='role' v='primary' />
    <tag k='style' v='loop' />
    <tag k='transport' v='car' />
  </way>
  <way id='-44917' action='modify' visible='true'>
    <nd ref='-44986' />
    <nd ref='-44984' />
    <nd ref='-44951' />
    <nd ref='-44950' />
    <nd ref='-44949' />
    <nd ref='-44948' />
    <nd ref='-44947' />
    <nd ref='-44946' />
    <nd ref='-44945' />
    <nd ref='-44944' />
    <nd ref='-44943' />
    <nd ref='-44942' />
    <nd ref='-44941' />
    <nd ref='-44940' />
    <nd ref='-44939' />
    <nd ref='-44938' />
    <nd ref='-44937' />
    <nd ref='-44936' />
    <nd ref='-44935' />
    <nd ref='-44934' />
    <nd ref='-44933' />
    <nd ref='-44932' />
    <nd ref='-44931' />
    <nd ref='-44930' />
    <nd ref='-44929' />
    <nd ref='-44928' />
    <nd ref='-44927' />
    <nd ref='-44926' />
    <nd ref='-44925' />
    <nd ref='-44924' />
    <nd ref='-44923' />
    <nd ref='-44922' />
    <nd ref='-44921' />
    <nd ref='-44920' />
    <nd ref='-44919' />
    <nd ref='-44918' />
    <tag k='description' v='This section traverses through the canyon which can be done without equiptment. In some sections you&apos;ll need to swim other sections you&apos;ll need to walk, so water shoes are recommended. The water can get very cold so it&apos;s nicest in the peak of summer.' />
    <tag k='name' v='Mares Forest Creek Canyon' />
    <tag k='role' v='sidetrack' />
    <tag k='style' v='return' />
  </way>
</osm>
