<?xml version='1.0' encoding='UTF-8'?>
<osm version='0.6' upload='false' generator='JOSM'>
  <node id='-19686' visible='true' lat='-34.0802134' lon='151.1661377' />
  <node id='-19688' visible='true' lat='-34.0801932' lon='151.166279' />
  <node id='-19690' visible='true' lat='-34.080214' lon='151.1663649' />
  <node id='-19692' visible='true' lat='-34.0802467' lon='151.1664894' />
  <node id='-19694' visible='true' lat='-34.0800849' lon='151.1668135' />
  <node id='-19696' visible='true' lat='-34.0800211' lon='151.167019' />
  <node id='-19698' visible='true' lat='-34.080015' lon='151.1672556' />
  <node id='-19700' visible='true' lat='-34.0799659' lon='151.1675294' />
  <node id='-19702' visible='true' lat='-34.0800633' lon='151.1677522' />
  <node id='-19704' visible='true' lat='-34.0800996' lon='151.1678765' />
  <node id='-19706' visible='true' lat='-34.0800746' lon='151.1681041' />
  <node id='-19708' visible='true' lat='-34.080106' lon='151.1682023' />
  <node id='-19710' visible='true' lat='-34.0800881' lon='151.1683562' />
  <node id='-19712' visible='true' lat='-34.0799929' lon='151.1685014' />
  <node id='-19714' visible='true' lat='-34.0800354' lon='151.1687653' />
  <node id='-19716' visible='true' lat='-34.0799613' lon='151.1690692' />
  <node id='-19718' visible='true' lat='-34.0798994' lon='151.1691579' />
  <node id='-19720' visible='true' lat='-34.0797161' lon='151.1692821' />
  <node id='-19722' visible='true' lat='-34.0796937' lon='151.1693712' />
  <node id='-19724' visible='true' lat='-34.0797049' lon='151.1694981' />
  <node id='-19726' visible='true' lat='-34.0798322' lon='151.1695607' />
  <node id='-19728' action='modify' visible='true' lat='-34.08082385233' lon='151.1564000492' />
  <node id='-19730' action='modify' visible='true' lat='-34.0808379848' lon='151.15634032838' />
  <node id='-19732' action='modify' visible='true' lat='-34.08148807576' lon='151.15602039545' />
  <node id='-19734' action='modify' visible='true' lat='-34.08206043432' lon='151.15549143966' />
  <node id='-19736' action='modify' visible='true' lat='-34.08233954604' lon='151.15507339396' />
  <node id='-19738' action='modify' visible='true' lat='-34.08230774855' lon='151.15477905566' />
  <node id='-19740' action='modify' visible='true' lat='-34.08246320284' lon='151.15462122208' />
  <node id='-19742' action='modify' visible='true' lat='-34.08280944091' lon='151.15422450524' />
  <node id='-19744' visible='true' lat='-34.0827394' lon='151.1511105' />
  <node id='-19746' visible='true' lat='-34.08287178298' lon='151.15124332733' />
  <node id='-19748' visible='true' lat='-34.08275517275' lon='151.15137708236' />
  <node id='-19750' visible='true' lat='-34.08258803114' lon='151.15172906927' />
  <node id='-19752' visible='true' lat='-34.08247336403' lon='151.15215614672' />
  <node id='-19754' visible='true' lat='-34.08246947701' lon='151.15240019097' />
  <node id='-19756' visible='true' lat='-34.08251612128' lon='151.15264188865' />
  <node id='-19758' visible='true' lat='-34.08264244938' lon='151.15292347818' />
  <node id='-19760' visible='true' lat='-34.082931' lon='151.1535189' />
  <node id='-19762' visible='true' lat='-34.0830559' lon='151.1536404' />
  <node id='-19764' visible='true' lat='-34.0831602' lon='151.1536516' />
  <node id='-19766' visible='true' lat='-34.0834207' lon='151.1537404' />
  <node id='-19768' visible='true' lat='-34.0832273' lon='151.1545316' />
  <node id='-19770' visible='true' lat='-34.0830448' lon='151.1550645' />
  <node id='-19772' visible='true' lat='-34.0828309' lon='151.1554316' />
  <node id='-19774' visible='true' lat='-34.0826029' lon='151.1557313' />
  <node id='-19776' visible='true' lat='-34.0818618' lon='151.1562296' />
  <node id='-19778' visible='true' lat='-34.0814652' lon='151.1564577' />
  <node id='-19780' visible='true' lat='-34.0812319' lon='151.1567085' />
  <node id='-19782' visible='true' lat='-34.080824' lon='151.1571307' />
  <node id='-19784' visible='true' lat='-34.0807284' lon='151.1574151' />
  <node id='-19786' visible='true' lat='-34.0813327' lon='151.1585897' />
  <node id='-19788' visible='true' lat='-34.081412' lon='151.1586591' />
  <node id='-19790' visible='true' lat='-34.0813426' lon='151.1587345' />
  <node id='-19792' visible='true' lat='-34.0811888' lon='151.1588817' />
  <node id='-19794' visible='true' lat='-34.0811744' lon='151.1590112' />
  <node id='-19796' visible='true' lat='-34.0812136' lon='151.1591755' />
  <node id='-19798' visible='true' lat='-34.081266' lon='151.1593439' />
  <node id='-19800' visible='true' lat='-34.081247' lon='151.1594444' />
  <node id='-19802' visible='true' lat='-34.0812159' lon='151.1595519' />
  <node id='-19804' visible='true' lat='-34.0813154' lon='151.1597413' />
  <node id='-19806' visible='true' lat='-34.0813902' lon='151.1600939' />
  <node id='-19808' visible='true' lat='-34.0814107' lon='151.1602004' />
  <node id='-19810' visible='true' lat='-34.0815087' lon='151.1605698' />
  <node id='-19812' visible='true' lat='-34.0815634' lon='151.1609429' />
  <node id='-19814' visible='true' lat='-34.0816481' lon='151.161256' />
  <node id='-19816' visible='true' lat='-34.081715' lon='151.1614965' />
  <node id='-19818' visible='true' lat='-34.0817282' lon='151.1617595' />
  <node id='-19820' visible='true' lat='-34.0817665' lon='151.1622516' />
  <node id='-19822' visible='true' lat='-34.0817814' lon='151.162912' />
  <node id='-19824' visible='true' lat='-34.0816816' lon='151.163556' />
  <node id='-19826' visible='true' lat='-34.0816291' lon='151.1638157' />
  <node id='-19828' visible='true' lat='-34.0813176' lon='151.1647956' />
  <node id='-19830' visible='true' lat='-34.0812073' lon='151.1650674' />
  <node id='-19832' visible='true' lat='-34.0808717' lon='151.1655104' />
  <node id='-19834' visible='true' lat='-34.0806157' lon='151.1657432' />
  <node id='-19836' visible='true' lat='-34.0804092' lon='151.1658854' />
  <node id='-19838' action='modify' visible='true' lat='-34.08018279606' lon='151.16602956846' />
  <node id='-19840' visible='true' lat='-34.0797513' lon='151.1661108' />
  <node id='-19842' visible='true' lat='-34.079512' lon='151.1661069' />
  <node id='-19844' visible='true' lat='-34.0793798' lon='151.16606' />
  <node id='-19846' action='modify' visible='true' lat='-34.0793233' lon='151.1659959' />
  <node id='-19848' visible='true' lat='-34.0792121' lon='151.1658947' />
  <node id='-19850' visible='true' lat='-34.0791346' lon='151.1658497' />
  <node id='-19852' visible='true' lat='-34.0789919' lon='151.1658914' />
  <node id='-19854' visible='true' lat='-34.0788989' lon='151.1659644' />
  <node id='-19856' visible='true' lat='-34.0788263' lon='151.1660641' />
  <node id='-19858' visible='true' lat='-34.0787223' lon='151.166232' />
  <node id='-19860' visible='true' lat='-34.0786774' lon='151.1663852' />
  <node id='-19862' visible='true' lat='-34.0784591' lon='151.1663776' />
  <node id='-19864' visible='true' lat='-34.0783613' lon='151.1664491' />
  <node id='-19866' visible='true' lat='-34.0781567' lon='151.1664825' />
  <node id='-19868' visible='true' lat='-34.0779533' lon='151.1664049' />
  <node id='-19870' visible='true' lat='-34.0779095' lon='151.1662737' />
  <node id='-19872' visible='true' lat='-34.0777154' lon='151.1662951' />
  <node id='-19874' action='modify' visible='true' lat='-34.07765071259' lon='151.16634239925' />
  <node id='-19876' action='modify' visible='true' lat='-34.07758678421' lon='151.16676002674' />
  <node id='-19878' action='modify' visible='true' lat='-34.07756044117' lon='151.16701673992' />
  <node id='-19880' action='modify' visible='true' lat='-34.07744861187' lon='151.1671731482' />
  <node id='-19882' action='modify' visible='true' lat='-34.0771088335' lon='151.16720274802' />
  <node id='-19884' action='modify' visible='true' lat='-34.07702815759' lon='151.16716953596' />
  <node id='-19886' visible='true' lat='-34.076898' lon='151.1670102' />
  <node id='-19888' visible='true' lat='-34.0768978' lon='151.1671354' />
  <node id='-19890' visible='true' lat='-34.0767999' lon='151.167351' />
  <node id='-19892' visible='true' lat='-34.0767565' lon='151.1673829' />
  <node id='-19894' visible='true' lat='-34.0767309' lon='151.1674735' />
  <node id='-19896' visible='true' lat='-34.0766027' lon='151.1675836' />
  <node id='-19898' visible='true' lat='-34.0765391' lon='151.1677422' />
  <node id='-19900' visible='true' lat='-34.076484' lon='151.1677851' />
  <node id='-19902' visible='true' lat='-34.0764008' lon='151.1679104' />
  <node id='-19904' visible='true' lat='-34.0761058' lon='151.1679527' />
  <node id='-19906' visible='true' lat='-34.0759214' lon='151.1680657' />
  <node id='-19908' visible='true' lat='-34.0756824' lon='151.1681394' />
  <node id='-19910' visible='true' lat='-34.0754979' lon='151.1681032' />
  <node id='-19912' visible='true' lat='-34.0753559' lon='151.1682682' />
  <node id='-19914' visible='true' lat='-34.0753368' lon='151.1685663' />
  <node id='-19916' visible='true' lat='-34.0754394' lon='151.168635' />
  <node id='-19918' visible='true' lat='-34.0755499' lon='151.1686399' />
  <node id='-19920' visible='true' lat='-34.0755851' lon='151.1686968' />
  <node id='-19922' visible='true' lat='-34.0758351' lon='151.168816' />
  <node id='-19924' visible='true' lat='-34.0759499' lon='151.168807' />
  <node id='-19926' visible='true' lat='-34.0760279' lon='151.1689271' />
  <node id='-19928' visible='true' lat='-34.0763593' lon='151.1691336' />
  <node id='-19930' visible='true' lat='-34.0766747' lon='151.1690597' />
  <node id='-19932' visible='true' lat='-34.0769612' lon='151.168978' />
  <node id='-19934' visible='true' lat='-34.0770321' lon='151.1690594' />
  <node id='-19936' visible='true' lat='-34.077129' lon='151.169097' />
  <node id='-19938' visible='true' lat='-34.0772548' lon='151.1692322' />
  <node id='-19940' visible='true' lat='-34.0774889' lon='151.1694312' />
  <node id='-19942' visible='true' lat='-34.0775954' lon='151.1694299' />
  <node id='-19944' visible='true' lat='-34.0776674' lon='151.169565' />
  <node id='-19946' visible='true' lat='-34.0778238' lon='151.169716' />
  <node id='-19948' visible='true' lat='-34.0781325' lon='151.1695703' />
  <node id='-19950' visible='true' lat='-34.0782189' lon='151.1695749' />
  <node id='-19952' visible='true' lat='-34.0784984' lon='151.1697361' />
  <node id='-19954' visible='true' lat='-34.0787051' lon='151.1697443' />
  <node id='-19956' visible='true' lat='-34.0787942' lon='151.1698559' />
  <node id='-19958' visible='true' lat='-34.078989' lon='151.1699369' />
  <node id='-19960' visible='true' lat='-34.0792132' lon='151.1699733' />
  <node id='-19962' visible='true' lat='-34.0793669' lon='151.1700357' />
  <node id='-19964' visible='true' lat='-34.079444' lon='151.1700033' />
  <node id='-19966' visible='true' lat='-34.0794967' lon='151.1699529' />
  <node id='-19968' visible='true' lat='-34.0795339' lon='151.169805' />
  <node id='-19970' visible='true' lat='-34.0796887' lon='151.1698064' />
  <node id='-19972' visible='true' lat='-34.0797984' lon='151.1698385' />
  <node id='-19974' action='modify' visible='true' lat='-34.08274227061' lon='151.15110632921' />
  <node id='-19976' action='modify' visible='true' lat='-34.0801848914' lon='151.16603436516' />
  <node id='-19978' action='modify' visible='true' lat='-34.08287853991' lon='151.15124305606' />
  <node id='-19980' action='modify' visible='true' lat='-34.08275874621' lon='151.15138046262' />
  <node id='-19982' action='modify' visible='true' lat='-34.08259215933' lon='151.15173128133' />
  <node id='-19984' action='modify' visible='true' lat='-34.08247784044' lon='151.15215706186' />
  <node id='-19986' action='modify' visible='true' lat='-34.08247397719' lon='151.15239961391' />
  <node id='-19988' action='modify' visible='true' lat='-34.08252035725' lon='151.15263994256' />
  <node id='-19990' action='modify' visible='true' lat='-34.08264637255' lon='151.15292083486' />
  <node id='-19992' action='modify' visible='true' lat='-34.08293446287' lon='151.15351530688' />
  <node id='-19994' action='modify' visible='true' lat='-34.08305765347' lon='151.15363514401' />
  <node id='-19996' action='modify' visible='true' lat='-34.08316100965' lon='151.15364624266' />
  <node id='-19998' action='modify' visible='true' lat='-34.08342629362' lon='151.15373667344' />
  <node id='-20000' action='modify' visible='true' lat='-34.08323153845' lon='151.15453341749' />
  <node id='-20002' action='modify' visible='true' lat='-34.08304876202' lon='151.15506712468' />
  <node id='-20004' action='modify' visible='true' lat='-34.08283440595' lon='151.15543500742' />
  <node id='-20006' action='modify' visible='true' lat='-34.08260571797' lon='151.15573561177' />
  <node id='-20008' action='modify' visible='true' lat='-34.08186385598' lon='151.15623442413' />
  <node id='-20010' action='modify' visible='true' lat='-34.08146770898' lon='151.15646226359' />
  <node id='-20012' action='modify' visible='true' lat='-34.08123484674' lon='151.15671259301' />
  <node id='-20014' action='modify' visible='true' lat='-34.08082775218' lon='151.15713395935' />
  <node id='-20016' action='modify' visible='true' lat='-34.08073342163' lon='151.15741458288' />
  <node id='-20018' action='modify' visible='true' lat='-34.0813360522' lon='151.15858593801' />
  <node id='-20020' action='modify' visible='true' lat='-34.08141913215' lon='151.15865864607' />
  <node id='-20022' action='modify' visible='true' lat='-34.08134549632' lon='151.15873864812' />
  <node id='-20024' action='modify' visible='true' lat='-34.08119300884' lon='151.15888459192' />
  <node id='-20026' action='modify' visible='true' lat='-34.08117897578' lon='151.15901079207' />
  <node id='-20028' action='modify' visible='true' lat='-34.08121786405' lon='151.15917378551' />
  <node id='-20030' action='modify' visible='true' lat='-34.08127067981' lon='151.15934352167' />
  <node id='-20032' action='modify' visible='true' lat='-34.08125132446' lon='151.1594459013' />
  <node id='-20034' action='modify' visible='true' lat='-34.08122085795' lon='151.15955121158' />
  <node id='-20036' action='modify' visible='true' lat='-34.08131957312' lon='151.15973911766' />
  <node id='-20038' action='modify' visible='true' lat='-34.08139458795' lon='151.16009273036' />
  <node id='-20040' action='modify' visible='true' lat='-34.08141503883' lon='151.16019897516' />
  <node id='-20042' action='modify' visible='true' lat='-34.08151306886' lon='151.16056848837' />
  <node id='-20044' action='modify' visible='true' lat='-34.08156776639' lon='151.16094157154' />
  <node id='-20046' action='modify' visible='true' lat='-34.08165239192' lon='151.16125439629' />
  <node id='-20048' action='modify' visible='true' lat='-34.08171944733' lon='151.16149545499' />
  <node id='-20050' action='modify' visible='true' lat='-34.08173267945' lon='151.161759095' />
  <node id='-20052' action='modify' visible='true' lat='-34.08177098565' lon='151.16225127463' />
  <node id='-20054' action='modify' visible='true' lat='-34.08178590268' lon='151.16291242976' />
  <node id='-20056' action='modify' visible='true' lat='-34.08168599123' lon='151.16355714897' />
  <node id='-20058' action='modify' visible='true' lat='-34.08163339562' lon='151.16381732194' />
  <node id='-20060' action='modify' visible='true' lat='-34.08132172499' lon='151.16479775875' />
  <node id='-20062' action='modify' visible='true' lat='-34.08121104824' lon='151.16507048714' />
  <node id='-20064' action='modify' visible='true' lat='-34.08087473593' lon='151.16551442743' />
  <node id='-20066' action='modify' visible='true' lat='-34.08061816869' lon='151.16574774327' />
  <node id='-20068' action='modify' visible='true' lat='-34.08041138393' lon='151.16589013936' />
  <way id='-20070' action='modify' visible='true'>
    <nd ref='-19760' />
    <nd ref='-19742' />
    <nd ref='-19740' />
    <nd ref='-19738' />
    <nd ref='-19736' />
    <nd ref='-19734' />
    <nd ref='-19732' />
    <nd ref='-19730' />
    <nd ref='-19728' />
    <nd ref='-19780' />
    <tag k='role' v='altroute' />
    <tag k='style' v='oneway' />
  </way>
  <way id='-20072' action='modify' visible='true'>
    <nd ref='-19744' />
    <nd ref='-19746' />
    <nd ref='-19748' />
    <nd ref='-19750' />
    <nd ref='-19752' />
    <nd ref='-19754' />
    <nd ref='-19756' />
    <nd ref='-19758' />
    <nd ref='-19760' />
    <nd ref='-19762' />
    <nd ref='-19764' />
    <nd ref='-19766' />
    <nd ref='-19768' />
    <nd ref='-19770' />
    <nd ref='-19772' />
    <nd ref='-19774' />
    <nd ref='-19776' />
    <nd ref='-19778' />
    <nd ref='-19780' />
    <nd ref='-19782' />
    <nd ref='-19784' />
    <nd ref='-19786' />
    <nd ref='-19788' />
    <nd ref='-19790' />
    <nd ref='-19792' />
    <nd ref='-19794' />
    <nd ref='-19796' />
    <nd ref='-19798' />
    <nd ref='-19800' />
    <nd ref='-19802' />
    <nd ref='-19804' />
    <nd ref='-19806' />
    <nd ref='-19808' />
    <nd ref='-19810' />
    <nd ref='-19812' />
    <nd ref='-19814' />
    <nd ref='-19816' />
    <nd ref='-19818' />
    <nd ref='-19820' />
    <nd ref='-19822' />
    <nd ref='-19824' />
    <nd ref='-19826' />
    <nd ref='-19828' />
    <nd ref='-19830' />
    <nd ref='-19832' />
    <nd ref='-19834' />
    <nd ref='-19836' />
    <nd ref='-19838' />
    <nd ref='-19840' />
    <nd ref='-19842' />
    <nd ref='-19844' />
    <nd ref='-19846' />
    <nd ref='-19848' />
    <nd ref='-19850' />
    <nd ref='-19852' />
    <nd ref='-19854' />
    <nd ref='-19856' />
    <nd ref='-19858' />
    <nd ref='-19860' />
    <nd ref='-19862' />
    <nd ref='-19864' />
    <nd ref='-19866' />
    <nd ref='-19868' />
    <nd ref='-19870' />
    <nd ref='-19872' />
    <nd ref='-19874' />
    <nd ref='-19876' />
    <nd ref='-19878' />
    <nd ref='-19880' />
    <nd ref='-19882' />
    <nd ref='-19884' />
    <nd ref='-19886' />
    <nd ref='-19888' />
    <nd ref='-19890' />
    <nd ref='-19892' />
    <nd ref='-19894' />
    <nd ref='-19896' />
    <nd ref='-19898' />
    <nd ref='-19900' />
    <nd ref='-19902' />
    <nd ref='-19904' />
    <nd ref='-19906' />
    <nd ref='-19908' />
    <nd ref='-19910' />
    <nd ref='-19912' />
    <nd ref='-19914' />
    <nd ref='-19916' />
    <nd ref='-19918' />
    <nd ref='-19920' />
    <nd ref='-19922' />
    <nd ref='-19924' />
    <nd ref='-19926' />
    <nd ref='-19928' />
    <nd ref='-19930' />
    <nd ref='-19932' />
    <nd ref='-19934' />
    <nd ref='-19936' />
    <nd ref='-19938' />
    <nd ref='-19940' />
    <nd ref='-19942' />
    <nd ref='-19944' />
    <nd ref='-19946' />
    <nd ref='-19948' />
    <nd ref='-19950' />
    <nd ref='-19952' />
    <nd ref='-19954' />
    <nd ref='-19956' />
    <nd ref='-19958' />
    <nd ref='-19960' />
    <nd ref='-19962' />
    <nd ref='-19964' />
    <nd ref='-19966' />
    <nd ref='-19968' />
    <nd ref='-19970' />
    <nd ref='-19972' />
    <nd ref='-19726' />
    <nd ref='-19724' />
    <nd ref='-19722' />
    <nd ref='-19720' />
    <nd ref='-19718' />
    <nd ref='-19716' />
    <nd ref='-19714' />
    <nd ref='-19712' />
    <nd ref='-19710' />
    <nd ref='-19708' />
    <nd ref='-19706' />
    <nd ref='-19704' />
    <nd ref='-19702' />
    <nd ref='-19700' />
    <nd ref='-19698' />
    <nd ref='-19696' />
    <nd ref='-19694' />
    <nd ref='-19692' />
    <nd ref='-19690' />
    <nd ref='-19688' />
    <nd ref='-19686' />
    <nd ref='-19976' />
    <nd ref='-20068' />
    <nd ref='-20066' />
    <nd ref='-20064' />
    <nd ref='-20062' />
    <nd ref='-20060' />
    <nd ref='-20058' />
    <nd ref='-20056' />
    <nd ref='-20054' />
    <nd ref='-20052' />
    <nd ref='-20050' />
    <nd ref='-20048' />
    <nd ref='-20046' />
    <nd ref='-20044' />
    <nd ref='-20042' />
    <nd ref='-20040' />
    <nd ref='-20038' />
    <nd ref='-20036' />
    <nd ref='-20034' />
    <nd ref='-20032' />
    <nd ref='-20030' />
    <nd ref='-20028' />
    <nd ref='-20026' />
    <nd ref='-20024' />
    <nd ref='-20022' />
    <nd ref='-20020' />
    <nd ref='-20018' />
    <nd ref='-20016' />
    <nd ref='-20014' />
    <nd ref='-20012' />
    <nd ref='-20010' />
    <nd ref='-20008' />
    <nd ref='-20006' />
    <nd ref='-20004' />
    <nd ref='-20002' />
    <nd ref='-20000' />
    <nd ref='-19998' />
    <nd ref='-19996' />
    <nd ref='-19994' />
    <nd ref='-19992' />
    <nd ref='-19990' />
    <nd ref='-19988' />
    <nd ref='-19986' />
    <nd ref='-19984' />
    <nd ref='-19982' />
    <nd ref='-19980' />
    <nd ref='-19978' />
    <nd ref='-19974' />
    <tag k='name' v='Jibbon Point Loop' />
    <tag k='park' v='Royal National Park' />
    <tag k='photo' v='136319147@N08/22611034623' />
    <tag k='role' v='primary' />
    <tag k='style' v='loop' />
    <tag k='transport' v='car;ferry+train' />
  </way>
</osm>
