<?xml version='1.0' encoding='UTF-8'?>
<osm version='0.6' upload='false' generator='JOSM'>
  <node id='-103782' action='modify' lat='-34.26074' lon='150.5188125' />
  <node id='-103783' action='modify' lat='-34.2608539' lon='150.5187737' />
  <node id='-103784' action='modify' lat='-34.2612286' lon='150.5187039' />
  <node id='-103785' action='modify' lat='-34.2613616' lon='150.5186771' />
  <node id='-103786' action='modify' lat='-34.2615788' lon='150.5185483' />
  <node id='-103787' action='modify' lat='-34.2618847' lon='150.5184464' />
  <node id='-103788' action='modify' lat='-34.2621508' lon='150.5182211' />
  <node id='-103789' action='modify' lat='-34.2624389' lon='150.5178027' />
  <node id='-103790' action='modify' lat='-34.2624788' lon='150.5175667' />
  <node id='-103791' action='modify' lat='-34.2624966' lon='150.5173467' />
  <node id='-103792' action='modify' lat='-34.2626251' lon='150.5167084' />
  <node id='-103793' action='modify' lat='-34.2626118' lon='150.5166225' />
  <node id='-103794' action='modify' lat='-34.2625673' lon='150.5165276' />
  <node id='-103795' action='modify' lat='-34.262368' lon='150.5161022' />
  <node id='-103796' action='modify' lat='-34.2621463' lon='150.515834' />
  <node id='-103797' action='modify' lat='-34.2619601' lon='150.5156784' />
  <node id='-103798' action='modify' lat='-34.2618714' lon='150.5156408' />
  <node id='-103799' action='modify' lat='-34.2618094' lon='150.5155443' />
  <node id='-103800' action='modify' lat='-34.2617766' lon='150.5155187' />
  <node id='-103801' action='modify' lat='-34.2616719' lon='150.515437' />
  <node id='-103802' action='modify' lat='-34.2615256' lon='150.5152385' />
  <node id='-103803' action='modify' lat='-34.2614769' lon='150.5151849' />
  <node id='-103804' action='modify' lat='-34.2613841' lon='150.5150959' />
  <node id='-103805' action='modify' lat='-34.2613893' lon='150.5149582' />
  <node id='-103806' action='modify' lat='-34.2613549' lon='150.514867' />
  <node id='-103807' action='modify' lat='-34.2612984' lon='150.5147195' />
  <node id='-103808' action='modify' lat='-34.2613593' lon='150.5144942' />
  <node id='-103809' action='modify' lat='-34.2613782' lon='150.514297' />
  <node id='-103810' action='modify' lat='-34.2614233' lon='150.5141533' />
  <node id='-103811' action='modify' lat='-34.2615184' lon='150.5138505' />
  <node id='-103812' action='modify' lat='-34.2615456' lon='150.5135957' />
  <node id='-103813' action='modify' lat='-34.2614192' lon='150.5133301' />
  <node id='-103814' action='modify' lat='-34.2614769' lon='150.5130498' />
  <node id='-103815' action='modify' lat='-34.2614223' lon='150.5129005' />
  <node id='-103816' action='modify' lat='-34.2615866' lon='150.5127085' />
  <node id='-103817' action='modify' lat='-34.2618138' lon='150.5124785' />
  <node id='-103818' action='modify' lat='-34.2619912' lon='150.5123042' />
  <node id='-103819' action='modify' lat='-34.2621375' lon='150.5122183' />
  <node id='-103820' action='modify' lat='-34.2621977' lon='150.5121455' />
  <node id='-103821' action='modify' lat='-34.2622312' lon='150.5121049' />
  <node id='-103822' action='modify' lat='-34.262266' lon='150.5120628' />
  <node id='-103823' action='modify' lat='-34.2623902' lon='150.5117141' />
  <node id='-103824' action='modify' lat='-34.2625232' lon='150.5114673' />
  <node id='-103825' action='modify' lat='-34.2625937' lon='150.5113463' />
  <node id='-103826' action='modify' lat='-34.2626606' lon='150.5112313' />
  <node id='-103827' action='modify' lat='-34.2627182' lon='150.5108129' />
  <node id='-103828' action='modify' lat='-34.2627714' lon='150.51044' />
  <node id='-103829' action='modify' lat='-34.2628834' lon='150.5098057' />
  <node id='-103830' action='modify' lat='-34.2630208' lon='150.5094316' />
  <node id='-103831' action='modify' lat='-34.2632769' lon='150.509343' />
  <node id='-103832' action='modify' lat='-34.2634941' lon='150.5093055' />
  <node id='-103833' action='modify' lat='-34.2637025' lon='150.5092411' />
  <node id='-103834' action='modify' lat='-34.2638' lon='150.5090426' />
  <node id='-103835' action='modify' lat='-34.2639419' lon='150.5088227' />
  <node id='-103836' action='modify' lat='-34.2640483' lon='150.5087046' />
  <node id='-103837' action='modify' lat='-34.2642035' lon='150.5083399' />
  <node id='-103838' action='modify' lat='-34.2644517' lon='150.5080126' />
  <node id='-103839' action='modify' lat='-34.264465' lon='150.5079107' />
  <node id='-103840' action='modify' lat='-34.2644296' lon='150.5076961' />
  <node id='-103841' action='modify' lat='-34.2644695' lon='150.5074172' />
  <node id='-103842' action='modify' lat='-34.2644606' lon='150.5073099' />
  <node id='-103843' action='modify' lat='-34.2641857' lon='150.5067681' />
  <node id='-103844' action='modify' lat='-34.2641503' lon='150.5065696' />
  <node id='-103845' action='modify' lat='-34.2640882' lon='150.5063818' />
  <node id='-103846' action='modify' lat='-34.2639508' lon='150.5062746' />
  <node id='-103847' action='modify' lat='-34.2639064' lon='150.5061887' />
  <node id='-103848' action='modify' lat='-34.2636714' lon='150.5061351' />
  <node id='-103849' action='modify' lat='-34.263534' lon='150.5059688' />
  <node id='-103850' action='modify' lat='-34.2635163' lon='150.5057649' />
  <node id='-103851' action='modify' lat='-34.2634232' lon='150.5054109' />
  <node id='-103852' action='modify' lat='-34.2633079' lon='150.5051856' />
  <node id='-103853' action='modify' lat='-34.2630729' lon='150.5049603' />
  <node id='-103854' action='modify' lat='-34.2628468' lon='150.5047189' />
  <node id='-103855' action='modify' lat='-34.2626384' lon='150.5046384' />
  <node id='-103856' action='modify' lat='-34.2623857' lon='150.5045472' />
  <node id='-103857' action='modify' lat='-34.2621951' lon='150.5044614' />
  <way id='-106047' action='modify'>
    <nd ref='-103782' />
    <nd ref='-103783' />
    <nd ref='-103784' />
    <nd ref='-103785' />
    <nd ref='-103786' />
    <nd ref='-103787' />
    <nd ref='-103788' />
    <nd ref='-103789' />
    <nd ref='-103790' />
    <nd ref='-103791' />
    <nd ref='-103792' />
    <nd ref='-103793' />
    <nd ref='-103794' />
    <nd ref='-103795' />
    <nd ref='-103796' />
    <nd ref='-103797' />
    <nd ref='-103798' />
    <nd ref='-103799' />
    <nd ref='-103800' />
    <nd ref='-103801' />
    <nd ref='-103802' />
    <nd ref='-103803' />
    <nd ref='-103804' />
    <nd ref='-103805' />
    <nd ref='-103806' />
    <nd ref='-103807' />
    <nd ref='-103808' />
    <nd ref='-103809' />
    <nd ref='-103810' />
    <nd ref='-103811' />
    <nd ref='-103812' />
    <nd ref='-103813' />
    <nd ref='-103814' />
    <nd ref='-103815' />
    <nd ref='-103816' />
    <nd ref='-103817' />
    <nd ref='-103818' />
    <nd ref='-103819' />
    <nd ref='-103820' />
    <nd ref='-103821' />
    <nd ref='-103822' />
    <nd ref='-103823' />
    <nd ref='-103824' />
    <nd ref='-103825' />
    <nd ref='-103826' />
    <nd ref='-103827' />
    <nd ref='-103828' />
    <nd ref='-103829' />
    <nd ref='-103830' />
    <nd ref='-103831' />
    <nd ref='-103832' />
    <nd ref='-103833' />
    <tag k='name' v='Aqua Pool Trail' />
    <tag k='park' v='Nattai National Park' />
    <tag k='photo' v='136319147@N08/40285465062' />
    <tag k='role' v='primary' />
    <tag k='style' v='return' />
    <tag k='transport' v='car' />
  </way>
  <way id='-106068' action='modify'>
    <nd ref='-103833' />
    <nd ref='-103834' />
    <nd ref='-103835' />
    <nd ref='-103836' />
    <nd ref='-103837' />
    <nd ref='-103838' />
    <nd ref='-103839' />
    <nd ref='-103840' />
    <nd ref='-103841' />
    <nd ref='-103842' />
    <nd ref='-103843' />
    <nd ref='-103844' />
    <nd ref='-103845' />
    <nd ref='-103846' />
    <nd ref='-103847' />
    <nd ref='-103848' />
    <nd ref='-103849' />
    <nd ref='-103850' />
    <nd ref='-103851' />
    <nd ref='-103852' />
    <nd ref='-103853' />
    <nd ref='-103854' />
    <nd ref='-103855' />
    <nd ref='-103856' />
    <nd ref='-103857' />
    <tag k='photo' v='136319147@N08/51849591982' />
    <tag k='role' v='sidetrack' />
    <tag k='style' v='return' />
  </way>
</osm>
