<?xml version='1.0' encoding='UTF-8'?>
<osm version='0.6' upload='false' generator='JOSM'>
  <node id='-170347' action='modify' visible='true' lat='-33.5702187' lon='150.3382049' />
  <node id='-170348' visible='true' lat='-33.5700508' lon='150.3381287' />
  <node id='-170349' visible='true' lat='-33.5698139' lon='150.3376781' />
  <node id='-170350' visible='true' lat='-33.5695949' lon='150.3374957' />
  <node id='-170351' visible='true' lat='-33.569291' lon='150.3374153' />
  <node id='-170352' visible='true' lat='-33.569139' lon='150.3372865' />
  <node id='-170353' visible='true' lat='-33.5689781' lon='150.3369808' />
  <node id='-170354' visible='true' lat='-33.5689021' lon='150.3369164' />
  <node id='-170355' visible='true' lat='-33.5688127' lon='150.3372114' />
  <node id='-170356' visible='true' lat='-33.5687189' lon='150.3372114' />
  <node id='-170357' visible='true' lat='-33.5683702' lon='150.3370559' />
  <node id='-170358' visible='true' lat='-33.5681288' lon='150.3368735' />
  <node id='-170359' visible='true' lat='-33.5679545' lon='150.3369057' />
  <node id='-170360' visible='true' lat='-33.5679054' lon='150.3368252' />
  <node id='-170361' visible='true' lat='-33.5682987' lon='150.336337' />
  <node id='-170362' visible='true' lat='-33.5684641' lon='150.3362619' />
  <node id='-170363' visible='true' lat='-33.5687904' lon='150.3356289' />
  <node id='-170364' visible='true' lat='-33.5688753' lon='150.3354358' />
  <node id='-170365' visible='true' lat='-33.5689066' lon='150.3350657' />
  <node id='-170366' visible='true' lat='-33.568987' lon='150.3350013' />
  <node id='-170367' visible='true' lat='-33.5688842' lon='150.3350013' />
  <node id='-170368' visible='true' lat='-33.5687546' lon='150.335173' />
  <node id='-170369' visible='true' lat='-33.568701' lon='150.3350496' />
  <node id='-170370' visible='true' lat='-33.5687546' lon='150.3348618' />
  <node id='-170371' visible='true' lat='-33.5690809' lon='150.3348404' />
  <node id='-170372' visible='true' lat='-33.5690451' lon='150.3347116' />
  <node id='-170373' visible='true' lat='-33.5693401' lon='150.3346311' />
  <node id='-170374' visible='true' lat='-33.5696843' lon='150.3347599' />
  <node id='-170375' visible='true' lat='-33.5700598' lon='150.3345829' />
  <node id='-170376' visible='true' lat='-33.5702207' lon='150.3343844' />
  <node id='-170377' visible='true' lat='-33.5703861' lon='150.3344058' />
  <node id='-170378' visible='true' lat='-33.5704352' lon='150.3342288' />
  <node id='-170379' visible='true' lat='-33.570614' lon='150.3341269' />
  <node id='-170380' visible='true' lat='-33.5711995' lon='150.3340625' />
  <node id='-170381' visible='true' lat='-33.5715884' lon='150.3338211' />
  <node id='-170382' visible='true' lat='-33.5717582' lon='150.3335744' />
  <node id='-170383' visible='true' lat='-33.5719191' lon='150.3334778' />
  <node id='-170384' visible='true' lat='-33.5723929' lon='150.3334617' />
  <node id='-170385' visible='true' lat='-33.5726075' lon='150.3332471' />
  <node id='-170386' visible='true' lat='-33.5730902' lon='150.33329' />
  <node id='-170387' visible='true' lat='-33.5731572' lon='150.3335314' />
  <node id='-170388' visible='true' lat='-33.5733628' lon='150.3336924' />
  <node id='-170389' visible='true' lat='-33.5737427' lon='150.3336977' />
  <node id='-170390' visible='true' lat='-33.5738455' lon='150.3337675' />
  <node id='-170391' visible='true' lat='-33.5741584' lon='150.3337943' />
  <node id='-170392' visible='true' lat='-33.5742612' lon='150.3337085' />
  <node id='-170393' visible='true' lat='-33.5748601' lon='150.3337903' />
  <node id='-170394' visible='true' lat='-33.575231' lon='150.3340102' />
  <node id='-170395' visible='true' lat='-33.5753562' lon='150.3341497' />
  <node id='-170396' visible='true' lat='-33.5756244' lon='150.3340907' />
  <node id='-170397' visible='true' lat='-33.5759149' lon='150.333978' />
  <node id='-170398' visible='true' lat='-33.5759908' lon='150.3339083' />
  <node id='-170399' visible='true' lat='-33.5762992' lon='150.3338064' />
  <node id='-170400' visible='true' lat='-33.5765138' lon='150.3338278' />
  <node id='-170401' visible='true' lat='-33.5768802' lon='150.3339673' />
  <node id='-170402' visible='true' lat='-33.5770903' lon='150.3341175' />
  <node id='-170403' visible='true' lat='-33.57743' lon='150.3347612' />
  <node id='-170404' visible='true' lat='-33.5775864' lon='150.3349329' />
  <node id='-170405' visible='true' lat='-33.577783' lon='150.3353513' />
  <node id='-170406' visible='true' lat='-33.5779484' lon='150.335523' />
  <node id='-170407' visible='true' lat='-33.5780289' lon='150.3357805' />
  <node id='-170408' visible='true' lat='-33.5779976' lon='150.3360862' />
  <node id='-170409' visible='true' lat='-33.5779663' lon='150.3363115' />
  <node id='-170410' visible='true' lat='-33.5780378' lon='150.3365529' />
  <node id='-170411' visible='true' lat='-33.5781272' lon='150.3365422' />
  <node id='-170412' visible='true' lat='-33.5782344' lon='150.3363276' />
  <node id='-170413' visible='true' lat='-33.5783238' lon='150.336274' />
  <node id='-170414' visible='true' lat='-33.5784847' lon='150.3363276' />
  <node id='-170415' visible='true' lat='-33.5785875' lon='150.3363276' />
  <node id='-170416' visible='true' lat='-33.5786635' lon='150.3362633' />
  <node id='-170417' visible='true' lat='-33.5786546' lon='150.3361399' />
  <node id='-170418' visible='true' lat='-33.5787261' lon='150.3360702' />
  <node id='-170419' visible='true' lat='-33.5791953' lon='150.3362311' />
  <node id='-170420' visible='true' lat='-33.5794009' lon='150.3365315' />
  <node id='-170421' visible='true' lat='-33.5795842' lon='150.3367729' />
  <node id='-170422' visible='true' lat='-33.5798612' lon='150.3368802' />
  <node id='-170423' visible='true' lat='-33.5802992' lon='150.3368426' />
  <node id='-170424' visible='true' lat='-33.5805987' lon='150.3368641' />
  <node id='-170425' visible='true' lat='-33.5809919' lon='150.3367729' />
  <node id='-170426' visible='true' lat='-33.5813316' lon='150.3365369' />
  <node id='-170427' visible='true' lat='-33.5814344' lon='150.3362955' />
  <node id='-170428' visible='true' lat='-33.5814344' lon='150.3361345' />
  <node id='-170429' visible='true' lat='-33.5815282' lon='150.3359629' />
  <node id='-170430' visible='true' lat='-33.5813497' lon='150.335685' />
  <node id='-170513' visible='true' lat='-33.6110568' lon='150.3585115' />
  <node id='-170514' visible='true' lat='-33.6107817' lon='150.3586614' />
  <node id='-170515' visible='true' lat='-33.6105583' lon='150.3589886' />
  <node id='-170516' visible='true' lat='-33.6104109' lon='150.3590584' />
  <node id='-170517' visible='true' lat='-33.6102367' lon='150.359171' />
  <node id='-170518' visible='true' lat='-33.6099597' lon='150.3592354' />
  <node id='-170519' visible='true' lat='-33.6097899' lon='150.359273' />
  <node id='-170520' visible='true' lat='-33.6096067' lon='150.35923' />
  <node id='-170521' visible='true' lat='-33.609437' lon='150.3592515' />
  <node id='-170522' visible='true' lat='-33.6093744' lon='150.3592837' />
  <node id='-170523' visible='true' lat='-33.6092225' lon='150.3591657' />
  <node id='-170524' visible='true' lat='-33.6090349' lon='150.3591496' />
  <node id='-170525' visible='true' lat='-33.6089411' lon='150.3590691' />
  <node id='-170526' visible='true' lat='-33.6088249' lon='150.3591388' />
  <node id='-170527' visible='true' lat='-33.6086417' lon='150.3590208' />
  <node id='-170528' visible='true' lat='-33.6083201' lon='150.35923' />
  <node id='-170529' visible='true' lat='-33.6082084' lon='150.3593427' />
  <node id='-170530' visible='true' lat='-33.6081056' lon='150.3596699' />
  <node id='-170531' visible='true' lat='-33.6079582' lon='150.3600669' />
  <node id='-170532' visible='true' lat='-33.6079492' lon='150.3603351' />
  <node id='-170533' visible='true' lat='-33.6078688' lon='150.360496' />
  <node id='-170534' visible='true' lat='-33.6076812' lon='150.3607106' />
  <node id='-170535' visible='true' lat='-33.6076052' lon='150.3608286' />
  <node id='-170536' visible='true' lat='-33.6074533' lon='150.3609413' />
  <node id='-170537' visible='true' lat='-33.6074042' lon='150.3610539' />
  <node id='-170538' visible='true' lat='-33.6072255' lon='150.3611505' />
  <node id='-170539' visible='true' lat='-33.6071361' lon='150.3612632' />
  <node id='-170540' visible='true' lat='-33.6071227' lon='150.3613973' />
  <node id='-170541' visible='true' lat='-33.6069797' lon='150.3616065' />
  <node id='-170542' visible='true' lat='-33.6067921' lon='150.361746' />
  <node id='-170543' visible='true' lat='-33.6066983' lon='150.3617942' />
  <node id='-170544' visible='true' lat='-33.6063632' lon='150.3618479' />
  <node id='-170545' visible='true' lat='-33.6063051' lon='150.3619176' />
  <node id='-170546' visible='true' lat='-33.6061934' lon='150.3619659' />
  <node id='-170547' visible='true' lat='-33.6060728' lon='150.3619659' />
  <node id='-170548' visible='true' lat='-33.6058404' lon='150.3618318' />
  <node id='-170549' visible='true' lat='-33.6055634' lon='150.3617889' />
  <node id='-170550' visible='true' lat='-33.6053937' lon='150.3619015' />
  <node id='-170551' visible='true' lat='-33.6052283' lon='150.3618801' />
  <node id='-170552' visible='true' lat='-33.6051524' lon='150.3619444' />
  <node id='-170553' visible='true' lat='-33.6050943' lon='150.3619498' />
  <node id='-170554' visible='true' lat='-33.6049379' lon='150.3618371' />
  <node id='-170555' visible='true' lat='-33.6047503' lon='150.3618103' />
  <node id='-170556' visible='true' lat='-33.6045984' lon='150.3618532' />
  <node id='-170557' visible='true' lat='-33.6045448' lon='150.3618103' />
  <node id='-170558' visible='true' lat='-33.6043035' lon='150.3618371' />
  <node id='-170559' visible='true' lat='-33.6041561' lon='150.3617835' />
  <node id='-170560' visible='true' lat='-33.604031' lon='150.3616816' />
  <node id='-170561' visible='true' lat='-33.6038344' lon='150.3616387' />
  <node id='-170562' visible='true' lat='-33.603669' lon='150.361644' />
  <node id='-170563' visible='true' lat='-33.6034948' lon='150.361746' />
  <node id='-170564' visible='true' lat='-33.6032893' lon='150.361644' />
  <node id='-170565' visible='true' lat='-33.6028693' lon='150.3616279' />
  <node id='-170566' visible='true' lat='-33.6027576' lon='150.3615797' />
  <node id='-170567' visible='true' lat='-33.6025789' lon='150.3616655' />
  <node id='-170568' visible='true' lat='-33.6024046' lon='150.3616601' />
  <node id='-170569' visible='true' lat='-33.6020427' lon='150.361585' />
  <node id='-170570' visible='true' lat='-33.6018997' lon='150.3614992' />
  <node id='-170571' visible='true' lat='-33.6015557' lon='150.3614777' />
  <node id='-170572' visible='true' lat='-33.6014529' lon='150.3612095' />
  <node id='-170573' visible='true' lat='-33.6012563' lon='150.3612632' />
  <node id='-170574' visible='true' lat='-33.6010687' lon='150.3614187' />
  <node id='-170575' visible='true' lat='-33.6009033' lon='150.3613865' />
  <node id='-170576' visible='true' lat='-33.6007827' lon='150.3612953' />
  <node id='-170577' visible='true' lat='-33.6006174' lon='150.3613436' />
  <node id='-170578' visible='true' lat='-33.6004387' lon='150.3612471' />
  <node id='-170579' visible='true' lat='-33.6002599' lon='150.3611237' />
  <node id='-170580' visible='true' lat='-33.6000901' lon='150.3611022' />
  <node id='-170581' visible='true' lat='-33.5999561' lon='150.3609359' />
  <node id='-170582' visible='true' lat='-33.5997863' lon='150.3608233' />
  <node id='-170583' visible='true' lat='-33.599545' lon='150.3607643' />
  <node id='-170584' visible='true' lat='-33.5991742' lon='150.360834' />
  <node id='-170585' visible='true' lat='-33.5988391' lon='150.3609627' />
  <node id='-170586' visible='true' lat='-33.5985039' lon='150.3611451' />
  <node id='-170587' visible='true' lat='-33.5983654' lon='150.3611934' />
  <node id='-170588' visible='true' lat='-33.5980884' lon='150.3610754' />
  <node id='-170589' visible='true' lat='-33.5979812' lon='150.3607857' />
  <node id='-170590' visible='true' lat='-33.5978024' lon='150.3605229' />
  <node id='-170591' visible='true' lat='-33.5975165' lon='150.3603995' />
  <node id='-170592' visible='true' lat='-33.597159' lon='150.3602922' />
  <node id='-170593' visible='true' lat='-33.5968954' lon='150.3600025' />
  <node id='-170594' visible='true' lat='-33.5967166' lon='150.3598952' />
  <node id='-170595' visible='true' lat='-33.59652' lon='150.3597182' />
  <node id='-170596' visible='true' lat='-33.5964262' lon='150.3596753' />
  <node id='-170597' visible='true' lat='-33.5962743' lon='150.3596646' />
  <node id='-170598' visible='true' lat='-33.5960866' lon='150.3595841' />
  <node id='-170599' visible='true' lat='-33.5959302' lon='150.3596002' />
  <node id='-170600' visible='true' lat='-33.5958811' lon='150.3595036' />
  <node id='-170601' visible='true' lat='-33.5955281' lon='150.3593051' />
  <node id='-170602' visible='true' lat='-33.5954074' lon='150.3592783' />
  <node id='-170603' visible='true' lat='-33.5952153' lon='150.3590959' />
  <node id='-170604' visible='true' lat='-33.5950142' lon='150.3590262' />
  <node id='-170605' visible='true' lat='-33.5947908' lon='150.3589725' />
  <node id='-170606' visible='true' lat='-33.5947863' lon='150.3588384' />
  <node id='-170607' visible='true' lat='-33.5945986' lon='150.3587097' />
  <node id='-170608' visible='true' lat='-33.5944422' lon='150.3585434' />
  <node id='-170609' visible='true' lat='-33.5942412' lon='150.3584951' />
  <node id='-170610' visible='true' lat='-33.5941652' lon='150.3584093' />
  <node id='-170611' visible='true' lat='-33.5938613' lon='150.3580874' />
  <node id='-170612' visible='true' lat='-33.5936603' lon='150.3580445' />
  <node id='-170613' visible='true' lat='-33.5934994' lon='150.3579748' />
  <node id='-170614' visible='true' lat='-33.5934592' lon='150.3578836' />
  <node id='-170615' visible='true' lat='-33.5934324' lon='150.3575617' />
  <node id='-170616' visible='true' lat='-33.5933251' lon='150.3574061' />
  <node id='-170617' visible='true' lat='-33.5932626' lon='150.3572559' />
  <node id='-170618' visible='true' lat='-33.5930436' lon='150.357095' />
  <node id='-170619' visible='true' lat='-33.5929632' lon='150.3569287' />
  <node id='-170620' visible='true' lat='-33.5928693' lon='150.3568858' />
  <node id='-170621' visible='true' lat='-33.5926861' lon='150.3564996' />
  <node id='-170622' visible='true' lat='-33.5926951' lon='150.3562474' />
  <node id='-170623' visible='true' lat='-33.592628' lon='150.3560328' />
  <node id='-170624' visible='true' lat='-33.5927264' lon='150.3556627' />
  <node id='-170625' visible='true' lat='-33.5927844' lon='150.3554803' />
  <node id='-170626' visible='true' lat='-33.592771' lon='150.3553247' />
  <node id='-170627' visible='true' lat='-33.5926951' lon='150.3550726' />
  <node id='-170628' visible='true' lat='-33.5925521' lon='150.3548741' />
  <node id='-170629' visible='true' lat='-33.5924448' lon='150.3547829' />
  <node id='-170630' visible='true' lat='-33.5923867' lon='150.3546113' />
  <node id='-170631' visible='true' lat='-33.5921633' lon='150.3544933' />
  <node id='-170632' visible='true' lat='-33.5920739' lon='150.3544343' />
  <node id='-170633' visible='true' lat='-33.591855' lon='150.3543913' />
  <node id='-170634' visible='true' lat='-33.5915467' lon='150.3540695' />
  <node id='-170635' visible='true' lat='-33.5914126' lon='150.3537315' />
  <node id='-170636' visible='true' lat='-33.5913054' lon='150.3532809' />
  <node id='-170637' visible='true' lat='-33.5913188' lon='150.3524655' />
  <node id='-170638' visible='true' lat='-33.5915198' lon='150.3519934' />
  <node id='-170639' visible='true' lat='-33.5916271' lon='150.3517413' />
  <node id='-170640' visible='true' lat='-33.591645' lon='150.3515482' />
  <node id='-170641' visible='true' lat='-33.591712' lon='150.3514248' />
  <node id='-170642' visible='true' lat='-33.5917835' lon='150.3508884' />
  <node id='-170643' visible='true' lat='-33.5917701' lon='150.3506792' />
  <node id='-170644' visible='true' lat='-33.5918103' lon='150.3504324' />
  <node id='-170645' visible='true' lat='-33.5917522' lon='150.3500998' />
  <node id='-170646' visible='true' lat='-33.5917522' lon='150.3497994' />
  <node id='-170647' visible='true' lat='-33.5917075' lon='150.3494829' />
  <node id='-170648' visible='true' lat='-33.5915824' lon='150.3491342' />
  <node id='-170649' visible='true' lat='-33.5915467' lon='150.3488767' />
  <node id='-170650' visible='true' lat='-33.5914796' lon='150.3488606' />
  <node id='-170651' visible='true' lat='-33.5913858' lon='150.3483349' />
  <node id='-170652' visible='true' lat='-33.5913992' lon='150.3482115' />
  <node id='-170653' visible='true' lat='-33.5912696' lon='150.347777' />
  <node id='-170654' visible='true' lat='-33.5911311' lon='150.3476053' />
  <node id='-170655' visible='true' lat='-33.5910149' lon='150.3472942' />
  <node id='-170656' visible='true' lat='-33.5909345' lon='150.3471011' />
  <node id='-170657' visible='true' lat='-33.5908004' lon='150.3469509' />
  <node id='-170658' visible='true' lat='-33.5905948' lon='150.3468919' />
  <node id='-170659' visible='true' lat='-33.5904161' lon='150.3466988' />
  <node id='-170660' visible='true' lat='-33.5901659' lon='150.3466344' />
  <node id='-170661' visible='true' lat='-33.5898128' lon='150.3464895' />
  <node id='-170662' visible='true' lat='-33.5894643' lon='150.3461999' />
  <node id='-170663' visible='true' lat='-33.5893213' lon='150.3459048' />
  <node id='-170664' visible='true' lat='-33.5889548' lon='150.3455079' />
  <node id='-170665' visible='true' lat='-33.5887761' lon='150.3453094' />
  <node id='-170666' visible='true' lat='-33.5885527' lon='150.3449982' />
  <node id='-170667' visible='true' lat='-33.5882488' lon='150.3448534' />
  <node id='-170668' visible='true' lat='-33.5878243' lon='150.3447032' />
  <node id='-170669' visible='true' lat='-33.5876097' lon='150.3445691' />
  <node id='-170670' visible='true' lat='-33.587431' lon='150.3441614' />
  <node id='-170671' visible='true' lat='-33.5873014' lon='150.3438181' />
  <node id='-170672' visible='true' lat='-33.5873103' lon='150.3433245' />
  <node id='-170673' visible='true' lat='-33.5874265' lon='150.3432119' />
  <node id='-170674' visible='true' lat='-33.5875159' lon='150.3430885' />
  <node id='-170675' visible='true' lat='-33.5875204' lon='150.3429973' />
  <node id='-170676' visible='true' lat='-33.5872299' lon='150.3428686' />
  <node id='-170677' visible='true' lat='-33.587221' lon='150.3427237' />
  <node id='-170678' visible='true' lat='-33.5871673' lon='150.3425306' />
  <node id='-170679' visible='true' lat='-33.5869931' lon='150.3421926' />
  <node id='-170680' visible='true' lat='-33.5869662' lon='150.3419942' />
  <node id='-170681' visible='true' lat='-33.5867205' lon='150.341785' />
  <node id='-170682' visible='true' lat='-33.5863987' lon='150.3415328' />
  <node id='-170683' visible='true' lat='-33.5859876' lon='150.3412753' />
  <node id='-170684' visible='true' lat='-33.5857194' lon='150.3410125' />
  <node id='-170685' visible='true' lat='-33.5855541' lon='150.3409374' />
  <node id='-170686' visible='true' lat='-33.5854513' lon='150.3408408' />
  <node id='-170687' visible='true' lat='-33.5851698' lon='150.3408462' />
  <node id='-170688' visible='true' lat='-33.5850893' lon='150.3407443' />
  <node id='-170689' visible='true' lat='-33.5848569' lon='150.3405565' />
  <node id='-170690' visible='true' lat='-33.5848212' lon='150.3404707' />
  <node id='-170691' visible='true' lat='-33.584772' lon='150.34024' />
  <node id='-170692' visible='true' lat='-33.584772' lon='150.3400737' />
  <node id='-170693' visible='true' lat='-33.5847318' lon='150.3400093' />
  <node id='-170694' visible='true' lat='-33.5843654' lon='150.3397089' />
  <node id='-170695' visible='true' lat='-33.5841955' lon='150.3392208' />
  <node id='-170696' visible='true' lat='-33.5840257' lon='150.338797' />
  <node id='-170697' visible='true' lat='-33.5840749' lon='150.3386682' />
  <node id='-170698' visible='true' lat='-33.5840212' lon='150.3385663' />
  <node id='-170699' visible='true' lat='-33.583914' lon='150.3384644' />
  <node id='-170700' visible='true' lat='-33.5836324' lon='150.3377724' />
  <node id='-170701' visible='true' lat='-33.583114' lon='150.3363723' />
  <node id='-170702' visible='true' lat='-33.5828459' lon='150.3359002' />
  <node id='-170703' visible='true' lat='-33.582837' lon='150.3357768' />
  <node id='-170704' visible='true' lat='-33.582694' lon='150.3356588' />
  <node id='-170705' visible='true' lat='-33.5826001' lon='150.3355998' />
  <node id='-170706' visible='true' lat='-33.5823498' lon='150.3353852' />
  <node id='-170707' visible='true' lat='-33.5818716' lon='150.335235' />
  <node id='-170708' visible='true' lat='-33.5815052' lon='150.3352565' />
  <node id='-170709' visible='true' lat='-33.5813336' lon='150.3354105' />
  <node id='-170732' visible='true' lat='-33.6117301' lon='150.3583711' />
  <node id='-170733' visible='true' lat='-33.6120443' lon='150.3581556' />
  <node id='-170734' visible='true' lat='-33.6124003' lon='150.3580814' />
  <node id='-170735' visible='true' lat='-33.6128202' lon='150.357781' />
  <node id='-170736' visible='true' lat='-33.613247' lon='150.3574459' />
  <node id='-170737' visible='true' lat='-33.6135797' lon='150.3570837' />
  <node id='-170738' visible='true' lat='-33.6137316' lon='150.3564936' />
  <node id='-170739' visible='true' lat='-33.6138388' lon='150.3561824' />
  <node id='-170740' visible='true' lat='-33.6140777' lon='150.356041' />
  <node id='-170741' visible='true' lat='-33.61415' lon='150.356007' />
  <node id='-170742' visible='true' lat='-33.614265' lon='150.355896' />
  <way id='-170344' action='modify' visible='true'>
    <nd ref='-170347' />
    <nd ref='-170348' />
    <nd ref='-170349' />
    <nd ref='-170350' />
    <nd ref='-170351' />
    <nd ref='-170352' />
    <nd ref='-170353' />
    <nd ref='-170354' />
    <nd ref='-170355' />
    <nd ref='-170356' />
    <nd ref='-170357' />
    <nd ref='-170358' />
    <nd ref='-170359' />
    <nd ref='-170360' />
    <nd ref='-170361' />
    <nd ref='-170362' />
    <nd ref='-170363' />
    <nd ref='-170364' />
    <nd ref='-170365' />
    <nd ref='-170366' />
    <nd ref='-170367' />
    <nd ref='-170368' />
    <nd ref='-170369' />
    <nd ref='-170370' />
    <nd ref='-170371' />
    <nd ref='-170372' />
    <nd ref='-170373' />
    <nd ref='-170374' />
    <nd ref='-170375' />
    <nd ref='-170376' />
    <nd ref='-170377' />
    <nd ref='-170378' />
    <nd ref='-170379' />
    <nd ref='-170380' />
    <nd ref='-170381' />
    <nd ref='-170382' />
    <nd ref='-170383' />
    <nd ref='-170384' />
    <nd ref='-170385' />
    <nd ref='-170386' />
    <nd ref='-170387' />
    <nd ref='-170388' />
    <nd ref='-170389' />
    <nd ref='-170390' />
    <nd ref='-170391' />
    <nd ref='-170392' />
    <nd ref='-170393' />
    <nd ref='-170394' />
    <nd ref='-170395' />
    <nd ref='-170396' />
    <nd ref='-170397' />
    <nd ref='-170398' />
    <nd ref='-170399' />
    <nd ref='-170400' />
    <nd ref='-170401' />
    <nd ref='-170402' />
    <nd ref='-170403' />
    <nd ref='-170404' />
    <nd ref='-170405' />
    <nd ref='-170406' />
    <nd ref='-170407' />
    <nd ref='-170408' />
    <nd ref='-170409' />
    <nd ref='-170410' />
    <nd ref='-170411' />
    <nd ref='-170412' />
    <nd ref='-170413' />
    <nd ref='-170414' />
    <nd ref='-170415' />
    <nd ref='-170416' />
    <nd ref='-170417' />
    <nd ref='-170418' />
    <nd ref='-170419' />
    <nd ref='-170420' />
    <nd ref='-170421' />
    <nd ref='-170422' />
    <nd ref='-170423' />
    <nd ref='-170424' />
    <nd ref='-170425' />
    <nd ref='-170426' />
    <nd ref='-170427' />
    <nd ref='-170428' />
    <nd ref='-170429' />
    <nd ref='-170430' />
    <nd ref='-170709' />
    <nd ref='-170708' />
    <nd ref='-170707' />
    <nd ref='-170706' />
    <nd ref='-170705' />
    <nd ref='-170704' />
    <nd ref='-170703' />
    <nd ref='-170702' />
    <nd ref='-170701' />
    <nd ref='-170700' />
    <nd ref='-170699' />
    <nd ref='-170698' />
    <nd ref='-170697' />
    <nd ref='-170696' />
    <nd ref='-170695' />
    <nd ref='-170694' />
    <nd ref='-170693' />
    <nd ref='-170692' />
    <nd ref='-170691' />
    <nd ref='-170690' />
    <nd ref='-170689' />
    <nd ref='-170688' />
    <nd ref='-170687' />
    <nd ref='-170686' />
    <nd ref='-170685' />
    <nd ref='-170684' />
    <nd ref='-170683' />
    <nd ref='-170682' />
    <nd ref='-170681' />
    <nd ref='-170680' />
    <nd ref='-170679' />
    <nd ref='-170678' />
    <nd ref='-170677' />
    <nd ref='-170676' />
    <nd ref='-170675' />
    <nd ref='-170674' />
    <nd ref='-170673' />
    <nd ref='-170672' />
    <nd ref='-170671' />
    <nd ref='-170670' />
    <nd ref='-170669' />
    <nd ref='-170668' />
    <nd ref='-170667' />
    <nd ref='-170666' />
    <nd ref='-170665' />
    <nd ref='-170664' />
    <nd ref='-170663' />
    <nd ref='-170662' />
    <nd ref='-170661' />
    <nd ref='-170660' />
    <nd ref='-170659' />
    <nd ref='-170658' />
    <nd ref='-170657' />
    <nd ref='-170656' />
    <nd ref='-170655' />
    <nd ref='-170654' />
    <nd ref='-170653' />
    <nd ref='-170652' />
    <nd ref='-170651' />
    <nd ref='-170650' />
    <nd ref='-170649' />
    <nd ref='-170648' />
    <nd ref='-170647' />
    <nd ref='-170646' />
    <nd ref='-170645' />
    <nd ref='-170644' />
    <nd ref='-170643' />
    <nd ref='-170642' />
    <nd ref='-170641' />
    <nd ref='-170640' />
    <nd ref='-170639' />
    <nd ref='-170638' />
    <nd ref='-170637' />
    <nd ref='-170636' />
    <nd ref='-170635' />
    <nd ref='-170634' />
    <nd ref='-170633' />
    <nd ref='-170632' />
    <nd ref='-170631' />
    <nd ref='-170630' />
    <nd ref='-170629' />
    <nd ref='-170628' />
    <nd ref='-170627' />
    <nd ref='-170626' />
    <nd ref='-170625' />
    <nd ref='-170624' />
    <nd ref='-170623' />
    <nd ref='-170622' />
    <nd ref='-170621' />
    <nd ref='-170620' />
    <nd ref='-170619' />
    <nd ref='-170618' />
    <nd ref='-170617' />
    <nd ref='-170616' />
    <nd ref='-170615' />
    <nd ref='-170614' />
    <nd ref='-170613' />
    <nd ref='-170612' />
    <nd ref='-170611' />
    <nd ref='-170610' />
    <nd ref='-170609' />
    <nd ref='-170608' />
    <nd ref='-170607' />
    <nd ref='-170606' />
    <nd ref='-170605' />
    <nd ref='-170604' />
    <nd ref='-170603' />
    <nd ref='-170602' />
    <nd ref='-170601' />
    <nd ref='-170600' />
    <nd ref='-170599' />
    <nd ref='-170598' />
    <nd ref='-170597' />
    <nd ref='-170596' />
    <nd ref='-170595' />
    <nd ref='-170594' />
    <nd ref='-170593' />
    <nd ref='-170592' />
    <nd ref='-170591' />
    <nd ref='-170590' />
    <nd ref='-170589' />
    <nd ref='-170588' />
    <nd ref='-170587' />
    <nd ref='-170586' />
    <nd ref='-170585' />
    <nd ref='-170584' />
    <nd ref='-170583' />
    <nd ref='-170582' />
    <nd ref='-170581' />
    <nd ref='-170580' />
    <nd ref='-170579' />
    <nd ref='-170578' />
    <nd ref='-170577' />
    <nd ref='-170576' />
    <nd ref='-170575' />
    <nd ref='-170574' />
    <nd ref='-170573' />
    <nd ref='-170572' />
    <nd ref='-170571' />
    <nd ref='-170570' />
    <nd ref='-170569' />
    <nd ref='-170568' />
    <nd ref='-170567' />
    <nd ref='-170566' />
    <nd ref='-170565' />
    <nd ref='-170564' />
    <nd ref='-170563' />
    <nd ref='-170562' />
    <nd ref='-170561' />
    <nd ref='-170560' />
    <nd ref='-170559' />
    <nd ref='-170558' />
    <nd ref='-170557' />
    <nd ref='-170556' />
    <nd ref='-170555' />
    <nd ref='-170554' />
    <nd ref='-170553' />
    <nd ref='-170552' />
    <nd ref='-170551' />
    <nd ref='-170550' />
    <nd ref='-170549' />
    <nd ref='-170548' />
    <nd ref='-170547' />
    <nd ref='-170546' />
    <nd ref='-170545' />
    <nd ref='-170544' />
    <nd ref='-170543' />
    <nd ref='-170542' />
    <nd ref='-170541' />
    <nd ref='-170540' />
    <nd ref='-170539' />
    <nd ref='-170538' />
    <nd ref='-170537' />
    <nd ref='-170536' />
    <nd ref='-170535' />
    <nd ref='-170534' />
    <nd ref='-170533' />
    <nd ref='-170532' />
    <nd ref='-170531' />
    <nd ref='-170530' />
    <nd ref='-170529' />
    <nd ref='-170528' />
    <nd ref='-170527' />
    <nd ref='-170526' />
    <nd ref='-170525' />
    <nd ref='-170524' />
    <nd ref='-170523' />
    <nd ref='-170522' />
    <nd ref='-170521' />
    <nd ref='-170520' />
    <nd ref='-170519' />
    <nd ref='-170518' />
    <nd ref='-170517' />
    <nd ref='-170516' />
    <nd ref='-170515' />
    <nd ref='-170514' />
    <nd ref='-170513' />
    <nd ref='-170732' />
    <nd ref='-170733' />
    <nd ref='-170734' />
    <nd ref='-170735' />
    <nd ref='-170736' />
    <nd ref='-170737' />
    <nd ref='-170738' />
    <nd ref='-170739' />
    <nd ref='-170740' />
    <nd ref='-170741' />
    <nd ref='-170742' />
    <tag k='name' v='Pierces Pass to Acacia Flat' />
    <tag k='park' v='Blue Mountains National Park' />
    <tag k='role' v='primary' />
    <tag k='photo' v='136319147@N08/44644174412' />
    <tag k='style' v='return' />
    <tag k='transport' v='car' />
  </way>
</osm>
