<?xml version='1.0' encoding='UTF-8'?>
<osm version='0.6' upload='false' generator='JOSM'>
  <node id='-49449' action='modify' lat='-33.40097401457' lon='151.04873404543' />
  <node id='-49451' action='modify' lat='-33.40101879878' lon='151.04879154529' />
  <node id='-49453' action='modify' lat='-33.40100312431' lon='151.04902087416' />
  <node id='-49455' action='modify' lat='-33.40099304786' lon='151.0493306693' />
  <node id='-49457' action='modify' lat='-33.40099304786' lon='151.04938699569' />
  <node id='-49459' action='modify' lat='-33.40091360105' lon='151.04963762633' />
  <node id='-49461' action='modify' lat='-33.40087996764' lon='151.04974372949' />
  <node id='-49463' action='modify' lat='-33.40080607355' lon='151.05017556514' />
  <node id='-49465' action='modify' lat='-33.40081055198' lon='151.05032442774' />
  <node id='-49467' action='modify' lat='-33.40087772842' lon='151.05048804249' />
  <node id='-49469' action='modify' lat='-33.40095162245' lon='151.05059801306' />
  <node id='-49471' action='modify' lat='-33.40096393811' lon='151.05080051984' />
  <node id='-49473' action='modify' lat='-33.40099304786' lon='151.05095877017' />
  <node id='-49475' action='modify' lat='-33.40094602442' lon='151.05110763277' />
  <node id='-49477' action='modify' lat='-33.4010714202' lon='151.05143218006' />
  <node id='-49479' action='modify' lat='-33.40106246337' lon='151.05160920586' />
  <node id='-49481' action='modify' lat='-33.40109829071' lon='151.0518599924' />
  <node id='-49483' action='modify' lat='-33.4010020047' lon='151.05199142064' />
  <node id='-49485' action='modify' lat='-33.40101991839' lon='151.05216576423' />
  <node id='-49487' action='modify' lat='-33.40094826363' lon='151.05238034095' />
  <node id='-49489' action='modify' lat='-33.40095498127' lon='151.05248092379' />
  <node id='-49491' action='modify' lat='-33.4008900441' lon='151.05250238146' />
  <node id='-49493' action='modify' lat='-33.40070978722' lon='151.05268343057' />
  <node id='-49495' action='modify' lat='-33.40057543403' lon='151.05280949439' />
  <node id='-49497' action='modify' lat='-33.40054296531' lon='151.05292751159' />
  <node id='-49499' action='modify' lat='-33.40033471737' lon='151.05319439139' />
  <node id='-49501' action='modify' lat='-33.40014438279' lon='151.05335532393' />
  <node id='-49503' action='modify' lat='-33.40000890911' lon='151.05342506136' />
  <node id='-49505' action='modify' lat='-33.39988687065' lon='151.05354978408' />
  <node id='-49507' action='modify' lat='-33.39984992319' lon='151.05366780128' />
  <node id='-49509' action='modify' lat='-33.39979394216' lon='151.05367987122' />
  <node id='-49511' action='modify' lat='-33.39962040075' lon='151.05385555591' />
  <node id='-49513' action='modify' lat='-33.39946589262' lon='151.05396954979' />
  <node id='-49515' action='modify' lat='-33.39946589262' lon='151.05406610932' />
  <node id='-49517' action='modify' lat='-33.39948604587' lon='151.05419485535' />
  <node id='-49519' action='modify' lat='-33.39956329995' lon='151.05428470935' />
  <node id='-49521' action='modify' lat='-33.39965622868' lon='151.05433567132' />
  <node id='-49523' action='modify' lat='-33.39965846793' lon='151.05436249341' />
  <node id='-49525' action='modify' lat='-33.39963831472' lon='151.05438663329' />
  <node id='-49527' action='modify' lat='-33.3995845728' lon='151.05454488363' />
  <node id='-49529' action='modify' lat='-33.39955434296' lon='151.05461864437' />
  <node id='-49531' action='modify' lat='-33.39957785506' lon='151.0546843585' />
  <node id='-49533' action='modify' lat='-33.39959464942' lon='151.05471922721' />
  <node id='-49535' action='modify' lat='-33.39956665883' lon='151.05487479534' />
  <node id='-49537' action='modify' lat='-33.39952747198' lon='151.05494453277' />
  <node id='-49539' action='modify' lat='-33.3995375486' lon='151.05517117943' />
  <node id='-49541' action='modify' lat='-33.39957113732' lon='151.05528919663' />
  <node id='-49543' action='modify' lat='-33.39957449619' lon='151.05548365678' />
  <node id='-49545' action='modify' lat='-33.39958233356' lon='151.05558155741' />
  <node id='-49547' action='modify' lat='-33.39956329995' lon='151.05567275252' />
  <node id='-49549' action='modify' lat='-33.3994692515' lon='151.05577467646' />
  <node id='-49551' action='modify' lat='-33.39940991135' lon='151.05575455989' />
  <node id='-49553' action='modify' lat='-33.39934497303' lon='151.05578272309' />
  <node id='-49555' action='modify' lat='-33.39917590924' lon='151.05601339306' />
  <node id='-49557' action='modify' lat='-33.39904603219' lon='151.05613543357' />
  <node id='-49559' action='modify' lat='-33.39888480525' lon='151.05633257593' />
  <node id='-49561' action='modify' lat='-33.3987526885' lon='151.05657665696' />
  <node id='-49563' action='modify' lat='-33.39855115409' lon='151.05692936744' />
  <node id='-49565' action='modify' lat='-33.39844030997' lon='151.05708761777' />
  <node id='-49567' action='modify' lat='-33.39835297813' lon='151.05727000799' />
  <node id='-49569' action='modify' lat='-33.39835073885' lon='151.05751543011' />
  <node id='-49571' action='modify' lat='-33.39838992623' lon='151.05765624608' />
  <node id='-49573' action='modify' lat='-33.39834402102' lon='151.05776889886' />
  <node id='-49575' action='modify' lat='-33.3983977637' lon='151.05793653693' />
  <node id='-49577' action='modify' lat='-33.39843695105' lon='151.05809344615' />
  <node id='-49579' action='modify' lat='-33.39838320839' lon='151.05827047195' />
  <node id='-49581' action='modify' lat='-33.39840672081' lon='151.05839385356' />
  <node id='-49583' action='modify' lat='-33.39840448153' lon='151.05873047079' />
  <node id='-49585' action='modify' lat='-33.39837649056' lon='151.05915962424' />
  <node id='-49587' action='modify' lat='-33.398412319' lon='151.05922533836' />
  <node id='-49589' action='modify' lat='-33.39835185849' lon='151.05941309299' />
  <node id='-49591' action='modify' lat='-33.39830595326' lon='151.05962230529' />
  <node id='-49593' action='modify' lat='-33.39828915866' lon='151.05972557034' />
  <node id='-49595' action='modify' lat='-33.39826788549' lon='151.05993210043' />
  <node id='-49597' action='modify' lat='-33.39825109088' lon='151.06008632745' />
  <node id='-49599' action='modify' lat='-33.39825444981' lon='151.06014801826' />
  <node id='-49601' action='modify' lat='-33.39830371398' lon='151.06025530662' />
  <node id='-49603' action='modify' lat='-33.39828244082' lon='151.06038807597' />
  <node id='-49605' action='modify' lat='-33.39835185849' lon='151.06048329439' />
  <node id='-49607' action='modify' lat='-33.398412319' lon='151.06054364409' />
  <node id='-49609' action='modify' lat='-33.39836977272' lon='151.06058387722' />
  <node id='-49611' action='modify' lat='-33.39833842282' lon='151.06059192385' />
  <node id='-49613' action='modify' lat='-33.39833842282' lon='151.06067641343' />
  <node id='-49615' action='modify' lat='-33.39840000298' lon='151.06073676314' />
  <node id='-49617' action='modify' lat='-33.3985242828' lon='151.0608440515' />
  <node id='-49619' action='modify' lat='-33.39871686019' lon='151.06098889078' />
  <node id='-49621' action='modify' lat='-33.39874037252' lon='151.06135233011' />
  <node id='-49623' action='modify' lat='-33.39875380813' lon='151.0614086565' />
  <node id='-49625' action='modify' lat='-33.39882434506' lon='151.06143547859' />
  <node id='-49627' action='modify' lat='-33.39874820996' lon='151.06155617799' />
  <node id='-49629' action='modify' lat='-33.39873477435' lon='151.0617372271' />
  <node id='-49631' action='modify' lat='-33.3988053113' lon='151.06193839278' />
  <node id='-49633' action='modify' lat='-33.39886577149' lon='151.06213687624' />
  <node id='-49635' action='modify' lat='-33.39884113956' lon='151.06227769222' />
  <node id='-49637' action='modify' lat='-33.39888816414' lon='151.06235547628' />
  <node id='-49639' action='modify' lat='-33.39902587884' lon='151.06263174381' />
  <node id='-49641' action='modify' lat='-33.3989564617' lon='151.06282218065' />
  <node id='-49643' action='modify' lat='-33.39890831753' lon='151.0629281279' />
  <node id='-49645' action='modify' lat='-33.39885905369' lon='151.06299250092' />
  <node id='-49647' action='modify' lat='-33.39881986653' lon='151.06304212179' />
  <node id='-49649' action='modify' lat='-33.39875716704' lon='151.06308604296' />
  <node id='-49651' action='modify' lat='-33.39872917618' lon='151.06313767548' />
  <node id='-49653' action='modify' lat='-33.39872413782' lon='151.06322685893' />
  <node id='-49655' action='modify' lat='-33.3987526885' lon='151.06326306875' />
  <node id='-49657' action='modify' lat='-33.39878067935' lon='151.06325032826' />
  <node id='-49659' action='modify' lat='-33.39878403825' lon='151.06318930801' />
  <node id='-49661' action='modify' lat='-33.39890159973' lon='151.06316047426' />
  <node id='-49663' action='modify' lat='-33.39896877765' lon='151.06316852089' />
  <node id='-49665' action='modify' lat='-33.3990426733' lon='151.06314706321' />
  <node id='-49667' action='modify' lat='-33.39911544926' lon='151.06310280676' />
  <node id='-49669' action='modify' lat='-33.39915799517' lon='151.06294857975' />
  <node id='-49671' action='modify' lat='-33.39936624593' lon='151.06297942515' />
  <node id='-49673' action='modify' lat='-33.39954650559' lon='151.06303843375' />
  <node id='-49675' action='modify' lat='-33.39968757811' lon='151.06309073682' />
  <node id='-49677' action='modify' lat='-33.39983872699' lon='151.06316449757' />
  <node id='-49679' action='modify' lat='-33.39995292818' lon='151.06330933686' />
  <node id='-49681' action='modify' lat='-33.39999099522' lon='151.06341796632' />
  <node id='-49683' action='modify' lat='-33.40008392349' lon='151.06356682892' />
  <node id='-49685' action='modify' lat='-33.40026754051' lon='151.06369423385' />
  <node id='-49687' action='modify' lat='-33.40039181766' lon='151.06381493326' />
  <node id='-49689' action='modify' lat='-33.40047578861' lon='151.06390746947' />
  <node id='-49691' action='modify' lat='-33.40051049658' lon='151.06403889771' />
  <node id='-49693' action='modify' lat='-33.40065828519' lon='151.0640965652' />
  <node id='-49695' action='modify' lat='-33.40071202644' lon='151.06423335786' />
  <node id='-49697' action='modify' lat='-33.400784801' lon='151.06430980082' />
  <node id='-49699' action='modify' lat='-33.40093930678' lon='151.06455388184' />
  <node id='-49701' action='modify' lat='-33.40108933387' lon='151.06478186961' />
  <node id='-49703' action='modify' lat='-33.40118561978' lon='151.0650460672' />
  <node id='-49705' action='modify' lat='-33.40128862319' lon='151.06529283043' />
  <node id='-49707' action='modify' lat='-33.401291982' lon='151.06550874825' />
  <node id='-49709' action='modify' lat='-33.40124271951' lon='151.06567504521' />
  <node id='-49711' action='modify' lat='-33.40119905502' lon='151.06585341211' />
  <node id='-49713' action='modify' lat='-33.40120577263' lon='151.06593521948' />
  <node id='-49715' action='modify' lat='-33.40126175275' lon='151.06614040847' />
  <node id='-49717' action='modify' lat='-33.40126623116' lon='151.06633620973' />
  <node id='-49719' action='modify' lat='-33.40128862319' lon='151.06653335209' />
  <node id='-49721' action='modify' lat='-33.40130429761' lon='151.06674792882' />
  <node id='-49723' action='modify' lat='-33.401291982' lon='151.06685924049' />
  <node id='-49725' action='modify' lat='-33.40132221123' lon='151.0669799399' />
  <node id='-49727' action='modify' lat='-33.40134572286' lon='151.06719451662' />
  <node id='-49729' action='modify' lat='-33.40147671606' lon='151.06728168841' />
  <node id='-49731' action='modify' lat='-33.40166816732' lon='151.06727095957' />
  <node id='-49733' action='modify' lat='-33.40177900732' lon='151.06726559516' />
  <node id='-49735' action='modify' lat='-33.40187753165' lon='151.0673393559' />
  <node id='-49737' action='modify' lat='-33.40201300243' lon='151.06759818907' />
  <node id='-49739' action='modify' lat='-33.40210592854' lon='151.06769206639' />
  <node id='-49741' action='modify' lat='-33.40220557209' lon='151.06778728481' />
  <node id='-49743' action='modify' lat='-33.40222684429' lon='151.06789859648' />
  <node id='-49745' action='modify' lat='-33.40231529182' lon='151.06815340634' />
  <node id='-49747' action='modify' lat='-33.40233320523' lon='151.0683210444' />
  <node id='-49749' action='modify' lat='-33.40240597843' lon='151.06864961501' />
  <node id='-49751' action='modify' lat='-33.4024597186' lon='151.06902780648' />
  <node id='-49753' action='modify' lat='-33.40250226288' lon='151.06916459914' />
  <node id='-49755' action='modify' lat='-33.4024765124' lon='151.06935503598' />
  <node id='-49757' action='modify' lat='-33.40251345874' lon='151.0695387673' />
  <node id='-49759' action='modify' lat='-33.40255376382' lon='151.06959107037' />
  <node id='-49761' action='modify' lat='-33.40261534099' lon='151.06997596737' />
  <node id='-49763' action='modify' lat='-33.40261422141' lon='151.07004168149' />
  <node id='-49765' action='modify' lat='-33.40270714688' lon='151.07015567537' />
  <node id='-49767' action='modify' lat='-33.40271162521' lon='151.07029649134' />
  <node id='-49769' action='modify' lat='-33.40270490771' lon='151.07046010609' />
  <node id='-49771' action='modify' lat='-33.40271498396' lon='151.07062372084' />
  <node id='-49773' action='modify' lat='-33.40271610354' lon='151.07071625705' />
  <node id='-49775' action='modify' lat='-33.40271050563' lon='151.07093083377' />
  <node id='-49777' action='modify' lat='-33.40267691812' lon='151.0710582387' />
  <node id='-49779' action='modify' lat='-33.40261198224' lon='151.07110517736' />
  <node id='-49781' action='modify' lat='-33.40248882785' lon='151.07115613933' />
  <node id='-49783' action='modify' lat='-33.40230633511' lon='151.07134523507' />
  <node id='-49785' action='modify' lat='-33.40218877824' lon='151.07144179459' />
  <node id='-49787' action='modify' lat='-33.40202083957' lon='151.07162552591' />
  <node id='-49789' action='modify' lat='-33.40185513977' lon='151.07182400938' />
  <node id='-49791' action='modify' lat='-33.40178796408' lon='151.07191252227' />
  <node id='-49793' action='modify' lat='-33.40166928691' lon='151.07192191001' />
  <node id='-49795' action='modify' lat='-33.40159875229' lon='151.07201578732' />
  <node id='-49797' action='modify' lat='-33.4015953935' lon='151.07210698243' />
  <node id='-49799' action='modify' lat='-33.40146999847' lon='151.07221561189' />
  <node id='-49801' action='modify' lat='-33.40125279593' lon='151.07240202542' />
  <node id='-49803' action='modify' lat='-33.40113859644' lon='151.07254954692' />
  <node id='-49805' action='modify' lat='-33.40103671246' lon='151.07258978005' />
  <node id='-49807' action='modify' lat='-33.40095386166' lon='151.07264208313' />
  <node id='-49809' action='modify' lat='-33.4007993559' lon='151.07271182056' />
  <node id='-49811' action='modify' lat='-33.40069859113' lon='151.07277753468' />
  <node id='-49813' action='modify' lat='-33.40058886936' lon='151.07282045003' />
  <node id='-49815' action='modify' lat='-33.40048362589' lon='151.07289823409' />
  <node id='-49817' action='modify' lat='-33.40043436295' lon='151.07293578501' />
  <node id='-49819' action='modify' lat='-33.40019252628' lon='151.07307525988' />
  <node id='-49821' action='modify' lat='-33.40013206701' lon='151.07313426848' />
  <node id='-49823' action='modify' lat='-33.40004809573' lon='151.07325362678' />
  <node id='-49825' action='modify' lat='-33.40002794261' lon='151.07329788323' />
  <node id='-49827' action='modify' lat='-33.39983984661' lon='151.07337969061' />
  <node id='-49829' action='modify' lat='-33.39974020034' lon='151.07342662926' />
  <node id='-49831' action='modify' lat='-33.3995845728' lon='151.0735862207' />
  <node id='-49833' action='modify' lat='-33.39945357675' lon='151.07371496673' />
  <node id='-49835' action='modify' lat='-33.39940319359' lon='151.07381152626' />
  <node id='-49837' action='modify' lat='-33.39935616929' lon='151.07390540357' />
  <node id='-49839' action='modify' lat='-33.39928227391' lon='151.07396441217' />
  <node id='-49841' action='modify' lat='-33.39915351666' lon='151.07394966002' />
  <node id='-49843' action='modify' lat='-33.39908409962' lon='151.07393759008' />
  <node id='-49845' action='modify' lat='-33.39899340954' lon='151.07387187596' />
  <node id='-49847' action='modify' lat='-33.39889264267' lon='151.07376995202' />
  <node id='-49849' action='modify' lat='-33.39879747386' lon='151.07365461703' />
  <node id='-49851' action='modify' lat='-33.39872805654' lon='151.07354464646' />
  <node id='-49853' action='modify' lat='-33.39865416062' lon='151.07344808694' />
  <node id='-49855' action='modify' lat='-33.39858362355' lon='151.07328715439' />
  <node id='-49857' action='modify' lat='-33.39843135286' lon='151.07326972004' />
  <node id='-49859' action='modify' lat='-33.3982958765' lon='151.07321339365' />
  <node id='-49861' action='modify' lat='-33.39822981771' lon='151.07323753353' />
  <node id='-49863' action='modify' lat='-33.39818839098' lon='151.0732083645' />
  <node id='-49865' action='modify' lat='-33.39808986246' lon='151.07316276695' />
  <node id='-49867' action='modify' lat='-33.39799245348' lon='151.073176178' />
  <node id='-49869' action='modify' lat='-33.39786033538' lon='151.07323250439' />
  <node id='-49871' action='modify' lat='-33.39781219059' lon='151.0732378688' />
  <node id='-49873' action='modify' lat='-33.39777188331' lon='151.07314533259' />
  <node id='-49875' action='modify' lat='-33.3977147813' lon='151.07310107614' />
  <node id='-49877' action='modify' lat='-33.39764536312' lon='151.07304877307' />
  <node id='-49879' action='modify' lat='-33.39759050032' lon='151.07296294238' />
  <node id='-49881' action='modify' lat='-33.39751548379' lon='151.07285297181' />
  <node id='-49883' action='modify' lat='-33.39743934754' lon='151.07274970676' />
  <node id='-49885' action='modify' lat='-33.39739008287' lon='151.07265851166' />
  <node id='-49887' action='modify' lat='-33.39726356212' lon='151.07248819138' />
  <node id='-49889' action='modify' lat='-33.39725572454' lon='151.07234603431' />
  <node id='-49891' action='modify' lat='-33.39710793014' lon='151.07223472263' />
  <node id='-49893' action='modify' lat='-33.3970609046' lon='151.07212877538' />
  <node id='-49895' action='modify' lat='-33.39691870816' lon='151.072136822' />
  <node id='-49897' action='modify' lat='-33.39678322944' lon='151.07219180729' />
  <node id='-49899' action='modify' lat='-33.39665782747' lon='151.07224545147' />
  <node id='-49901' action='modify' lat='-33.39635887739' lon='151.07229641344' />
  <node id='-49903' action='modify' lat='-33.3962670648' lon='151.07233262326' />
  <node id='-49905' action='modify' lat='-33.39615733743' lon='151.07241174843' />
  <node id='-49907' action='modify' lat='-33.39610247369' lon='151.07236212756' />
  <node id='-49909' action='modify' lat='-33.39607448197' lon='151.07230580117' />
  <node id='-49911' action='modify' lat='-33.39607224264' lon='151.0722534981' />
  <node id='-49913' action='modify' lat='-33.39606216562' lon='151.07221192386' />
  <node id='-49915' action='modify' lat='-33.3959893871' lon='151.07221192386' />
  <node id='-49917' action='modify' lat='-33.39593564293' lon='151.07226422693' />
  <node id='-49919' action='modify' lat='-33.39582591514' lon='151.07224276926' />
  <node id='-49921' action='modify' lat='-33.39578224792' lon='151.07223069932' />
  <node id='-49923' action='modify' lat='-33.39572738395' lon='151.07216096188' />
  <node id='-49925' action='modify' lat='-33.39569267407' lon='151.07208183672' />
  <node id='-49927' action='modify' lat='-33.39566468222' lon='151.07202819254' />
  <node id='-49929' action='modify' lat='-33.39566692157' lon='151.07191419865' />
  <node id='-49931' action='modify' lat='-33.39564900679' lon='151.07187798883' />
  <node id='-49933' action='modify' lat='-33.39559750175' lon='151.07180422809' />
  <node id='-49935' action='modify' lat='-33.39558294598' lon='151.07169962193' />
  <node id='-49937' action='modify' lat='-33.39555831312' lon='151.0715990391' />
  <node id='-49939' action='modify' lat='-33.39549337192' lon='151.07149845626' />
  <node id='-49941' action='modify' lat='-33.39539372067' lon='151.07143810655' />
  <node id='-49943' action='modify' lat='-33.3952627183' lon='151.07135495808' />
  <node id='-49945' action='modify' lat='-33.39507685134' lon='151.07127717401' />
  <node id='-49947' action='modify' lat='-33.3949716012' lon='151.07130533721' />
  <node id='-49949' action='modify' lat='-33.39474206588' lon='151.0712744918' />
  <node id='-49951' action='modify' lat='-33.39469727843' lon='151.07119402553' />
  <node id='-49953' action='modify' lat='-33.39464129408' lon='151.07103711631' />
  <node id='-49955' action='modify' lat='-33.39459538689' lon='151.07084936168' />
  <node id='-49957' action='modify' lat='-33.39456067656' lon='151.07073536779' />
  <node id='-49959' action='modify' lat='-33.39458978845' lon='151.0706186917' />
  <node id='-49961' action='modify' lat='-33.39466368782' lon='151.07045641806' />
  <node id='-49963' action='modify' lat='-33.39472079184' lon='151.07034242417' />
  <node id='-49965' action='modify' lat='-33.39476781865' lon='151.07023781802' />
  <node id='-49967' action='modify' lat='-33.39478237456' lon='151.07015601065' />
  <node id='-49969' action='modify' lat='-33.39476557928' lon='151.07001251246' />
  <node id='-49971' action='modify' lat='-33.39474094619' lon='151.06992802288' />
  <node id='-49973' action='modify' lat='-33.39465249095' lon='151.06982073452' />
  <node id='-49975' action='modify' lat='-33.39457747188' lon='151.06983548667' />
  <node id='-49977' action='modify' lat='-33.3945942672' lon='151.06968528296' />
  <node id='-49979' action='modify' lat='-33.39461330189' lon='151.06956056024' />
  <node id='-49981' action='modify' lat='-33.39459650658' lon='151.06947070624' />
  <node id='-49983' action='modify' lat='-33.39468832093' lon='151.06928563382' />
  <node id='-49985' action='modify' lat='-33.39471743278' lon='151.06911531355' />
  <node id='-49987' action='modify' lat='-33.3947241509' lon='151.06896913316' />
  <node id='-49989' action='modify' lat='-33.3947319887' lon='151.06888062026' />
  <node id='-49991' action='modify' lat='-33.39477229739' lon='151.068774673' />
  <node id='-49993' action='modify' lat='-33.39472862964' lon='151.06868079569' />
  <node id='-49995' action='modify' lat='-33.39468720125' lon='151.06861642267' />
  <node id='-49997' action='modify' lat='-33.39471183435' lon='151.06840855147' />
  <node id='-49999' action='modify' lat='-33.39472303121' lon='151.06818861033' />
  <node id='-50001' action='modify' lat='-33.39471855247' lon='151.0680598643' />
  <node id='-50003' action='modify' lat='-33.39465920908' lon='151.06782651212' />
  <node id='-50005' action='modify' lat='-33.39456851438' lon='151.06769776608' />
  <node id='-50007' action='modify' lat='-33.39446998176' lon='151.06756365563' />
  <node id='-50009' action='modify' lat='-33.39440168067' lon='151.06738931205' />
  <node id='-50011' action='modify' lat='-33.39424492388' lon='151.06721630957' />
  <node id='-50013' action='modify' lat='-33.39418222109' lon='151.06716266538' />
  <node id='-50015' action='modify' lat='-33.39409376528' lon='151.06717607643' />
  <node id='-50017' action='modify' lat='-33.394069132' lon='151.06704196598' />
  <node id='-50019' action='modify' lat='-33.39406129414' lon='151.0667791095' />
  <node id='-50021' action='modify' lat='-33.3940467381' lon='151.06658330824' />
  <node id='-50023' action='modify' lat='-33.39409152589' lon='151.06639018919' />
  <node id='-50025' action='modify' lat='-33.39424940265' lon='151.06625876095' />
  <node id='-50027' action='modify' lat='-33.39439720191' lon='151.06604954864' />
  <node id='-50029' action='modify' lat='-33.39448117865' lon='151.06591946151' />
  <node id='-50031' action='modify' lat='-33.39461778065' lon='151.06576121117' />
  <node id='-50033' action='modify' lat='-33.39469391937' lon='151.06558016207' />
  <node id='-50035' action='modify' lat='-33.39477117771' lon='151.06544471051' />
  <node id='-50037' action='modify' lat='-33.39477677614' lon='151.06533071663' />
  <node id='-50039' action='modify' lat='-33.39484955566' lon='151.06518990065' />
  <node id='-50041' action='modify' lat='-33.39494808785' lon='151.06507993008' />
  <node id='-50043' action='modify' lat='-33.39503542311' lon='151.06498739387' />
  <node id='-50045' action='modify' lat='-33.39511156146' lon='151.06483584906' />
  <node id='-50047' action='modify' lat='-33.39523920503' lon='151.06466150548' />
  <node id='-50049' action='modify' lat='-33.39528287252' lon='151.06453275945' />
  <node id='-50051' action='modify' lat='-33.39521905079' lon='151.06429136063' />
  <node id='-50053' action='modify' lat='-33.39516978487' lon='151.06402179863' />
  <node id='-50055' action='modify' lat='-33.39511268115' lon='151.06390378143' />
  <node id='-50057' action='modify' lat='-33.39502198692' lon='151.06381258633' />
  <node id='-50059' action='modify' lat='-33.39488762493' lon='151.06359935071' />
  <node id='-50061' action='modify' lat='-33.39477789582' lon='151.06350145008' />
  <node id='-50063' action='modify' lat='-33.3946659272' lon='151.0634786513' />
  <node id='-50065' action='modify' lat='-33.39460322471' lon='151.06333783533' />
  <node id='-50067' action='modify' lat='-33.39455395843' lon='151.06320774819' />
  <node id='-50069' action='modify' lat='-33.39458307032' lon='151.06313935186' />
  <node id='-50071' action='modify' lat='-33.39456739469' lon='151.06301060583' />
  <node id='-50073' action='modify' lat='-33.39456739469' lon='151.06292611625' />
  <node id='-50075' action='modify' lat='-33.39454388123' lon='151.06277054812' />
  <node id='-50077' action='modify' lat='-33.39447446052' lon='151.06264716651' />
  <node id='-50079' action='modify' lat='-33.39440951851' lon='151.0625841346' />
  <node id='-50081' action='modify' lat='-33.39437592779' lon='151.06251707937' />
  <node id='-50083' action='modify' lat='-33.39438152625' lon='151.06245807077' />
  <node id='-50085' action='modify' lat='-33.39435353398' lon='151.06241649653' />
  <node id='-50087' action='modify' lat='-33.39414079243' lon='151.06219655539' />
  <node id='-50089' action='modify' lat='-33.39396052155' lon='151.06207317378' />
  <node id='-50091' action='modify' lat='-33.39375001844' lon='151.06203696396' />
  <node id='-50093' action='modify' lat='-33.39354511333' lon='151.06202221181' />
  <node id='-50095' action='modify' lat='-33.39337491855' lon='151.06201684739' />
  <node id='-50097' action='modify' lat='-33.39327302546' lon='151.06208122041' />
  <node id='-50099' action='modify' lat='-33.3931274637' lon='151.06205573942' />
  <node id='-50101' action='modify' lat='-33.39308043601' lon='151.06203964617' />
  <node id='-50103' action='modify' lat='-33.39313866077' lon='151.06198600199' />
  <node id='-50105' action='modify' lat='-33.39315433666' lon='151.06176740195' />
  <node id='-50107' action='modify' lat='-33.39320360373' lon='151.06164938475' />
  <node id='-50109' action='modify' lat='-33.39322599784' lon='151.06145760681' />
  <node id='-50111' action='modify' lat='-33.39325622989' lon='151.061395916' />
  <node id='-50113' action='modify' lat='-33.39337939736' lon='151.06134361293' />
  <node id='-50115' action='modify' lat='-33.39338163677' lon='151.06121486689' />
  <node id='-50117' action='modify' lat='-33.39345889628' lon='151.06112903621' />
  <node id='-50119' action='modify' lat='-33.39354511333' lon='151.06097212698' />
  <node id='-50121' action='modify' lat='-33.39390005794' lon='151.06085679199' />
  <node id='-50123' action='modify' lat='-33.39417438323' lon='151.06072268154' />
  <node id='-50125' action='modify' lat='-33.394324422' lon='151.06067708399' />
  <node id='-50127' action='modify' lat='-33.3944218351' lon='151.06067306067' />
  <node id='-50129' action='modify' lat='-33.39454835999' lon='151.06050944592' />
  <node id='-50131' action='modify' lat='-33.39474654462' lon='151.06027609374' />
  <node id='-50133' action='modify' lat='-33.39482940134' lon='151.06010979678' />
  <node id='-50135' action='modify' lat='-33.39500295232' lon='151.06000116732' />
  <node id='-50137' action='modify' lat='-33.39518210135' lon='151.05998105075' />
  <node id='-50139' action='modify' lat='-33.39529294963' lon='151.05995288755' />
  <node id='-50141' action='modify' lat='-33.39538588293' lon='151.05999043848' />
  <node id='-50143' action='modify' lat='-33.39546314065' lon='151.05991533663' />
  <node id='-50145' action='modify' lat='-33.39551688512' lon='151.05976781513' />
  <node id='-50147' action='modify' lat='-33.39557622793' lon='151.05973160531' />
  <node id='-50149' action='modify' lat='-33.39565796418' lon='151.05970344211' />
  <node id='-50151' action='modify' lat='-33.39578672661' lon='151.05956799056' />
  <node id='-50153' action='modify' lat='-33.39597707073' lon='151.0595210519' />
  <node id='-50155' action='modify' lat='-33.39605656727' lon='151.05931988623' />
  <node id='-50157' action='modify' lat='-33.39611926872' lon='151.05898192789' />
  <node id='-50159' action='modify' lat='-33.39615621776' lon='151.05877405669' />
  <node id='-50161' action='modify' lat='-33.39612262772' lon='151.05850181248' />
  <node id='-50163' action='modify' lat='-33.39595691667' lon='151.05835697319' />
  <node id='-50165' action='modify' lat='-33.3957912053' lon='151.05834892656' />
  <node id='-50167' action='modify' lat='-33.39562549362' lon='151.05823493268' />
  <node id='-50169' action='modify' lat='-33.39553927864' lon='151.0580914345' />
  <node id='-50171' action='modify' lat='-33.3954463455' lon='151.05798548724' />
  <node id='-50173' action='modify' lat='-33.39536572873' lon='151.05774677064' />
  <node id='-50175' action='modify' lat='-33.39522352951' lon='151.05755096938' />
  <node id='-50177' action='modify' lat='-33.39512611732' lon='151.05738869573' />
  <node id='-50179' action='modify' lat='-33.39494808785' lon='151.05726799633' />
  <node id='-50181' action='modify' lat='-33.39480812732' lon='151.05722508098' />
  <node id='-50183' action='modify' lat='-33.39456403562' lon='151.05709633495' />
  <node id='-50185' action='modify' lat='-33.39448117865' lon='151.05703196194' />
  <node id='-50187' action='modify' lat='-33.39441623665' lon='151.05694747235' />
  <node id='-50189' action='modify' lat='-33.39439608222' lon='151.05677983429' />
  <node id='-50191' action='modify' lat='-33.39430314787' lon='151.05671680238' />
  <node id='-50193' action='modify' lat='-33.39415646814' lon='151.05672216679' />
  <node id='-50195' action='modify' lat='-33.39394036702' lon='151.05667791035' />
  <node id='-50197' action='modify' lat='-33.39387766401' lon='151.05659610297' />
  <node id='-50199' action='modify' lat='-33.39385415036' lon='151.05648210909' />
  <node id='-50201' action='modify' lat='-33.39373658205' lon='151.05622193481' />
  <node id='-50203' action='modify' lat='-33.39372090627' lon='151.05602881576' />
  <node id='-50205' action='modify' lat='-33.39368283649' lon='151.0559215274' />
  <node id='-50207' action='modify' lat='-33.39356078915' lon='151.05570024516' />
  <node id='-50209' action='modify' lat='-33.39348912824' lon='151.05567074086' />
  <node id='-50211' action='modify' lat='-33.39347457211' lon='151.05559966232' />
  <node id='-50213' action='modify' lat='-33.39341970668' lon='151.05555540587' />
  <node id='-50215' action='modify' lat='-33.39335364418' lon='151.05548164513' />
  <node id='-50217' action='modify' lat='-33.39335252447' lon='151.05540117885' />
  <node id='-50219' action='modify' lat='-33.39345777657' lon='151.05512222912' />
  <node id='-50221' action='modify' lat='-33.39347569181' lon='151.05491301681' />
  <node id='-50223' action='modify' lat='-33.39348688883' lon='151.05472660329' />
  <node id='-50225' action='modify' lat='-33.39355854974' lon='151.05450934436' />
  <node id='-50227' action='modify' lat='-33.39359214077' lon='151.05433231856' />
  <node id='-50229' action='modify' lat='-33.39360221808' lon='151.05412444736' />
  <node id='-50231' action='modify' lat='-33.39369515318' lon='151.05391523506' />
  <node id='-50233' action='modify' lat='-33.39373546236' lon='151.05381599333' />
  <node id='-50235' action='modify' lat='-33.39375337754' lon='151.05367249514' />
  <node id='-50237' action='modify' lat='-33.39385974885' lon='151.05349278714' />
  <node id='-50239' action='modify' lat='-33.39400866847' lon='151.05342975523' />
  <node id='-50241' action='modify' lat='-33.39413407427' lon='151.05325943496' />
  <node id='-50243' action='modify' lat='-33.39437592779' lon='151.05302608277' />
  <node id='-50245' action='modify' lat='-33.39449909368' lon='151.05290806558' />
  <node id='-50247' action='modify' lat='-33.39460994283' lon='151.05267471339' />
  <node id='-50249' action='modify' lat='-33.39475214305' lon='151.05239710476' />
  <node id='-50251' action='modify' lat='-33.39491561703' lon='151.05212217833' />
  <node id='-50253' action='modify' lat='-33.39498951613' lon='151.05198940899' />
  <node id='-50255' action='modify' lat='-33.39499063581' lon='151.05186066296' />
  <node id='-50257' action='modify' lat='-33.39506117579' lon='151.05173594024' />
  <node id='-50259' action='modify' lat='-33.39509700561' lon='151.05159378316' />
  <node id='-50261' action='modify' lat='-33.39506901357' lon='151.0514274862' />
  <node id='-50263' action='modify' lat='-33.39499175549' lon='151.05137115981' />
  <node id='-50265' action='modify' lat='-33.39485291472' lon='151.05138054754' />
  <node id='-50267' action='modify' lat='-33.39467824375' lon='151.05134031441' />
  <node id='-50269' action='modify' lat='-33.39445878486' lon='151.05143955614' />
  <node id='-50271' action='modify' lat='-33.39425612081' lon='151.05143955614' />
  <node id='-50273' action='modify' lat='-33.39404337902' lon='151.05144760277' />
  <node id='-50275' action='modify' lat='-33.39393140945' lon='151.05148917701' />
  <node id='-50277' action='modify' lat='-33.39387654431' lon='151.05148515369' />
  <node id='-50279' action='modify' lat='-33.39387542461' lon='151.05142480399' />
  <node id='-50281' action='modify' lat='-33.39393588824' lon='151.05123570825' />
  <node id='-50283' action='modify' lat='-33.39398403517' lon='151.05106672909' />
  <node id='-50285' action='modify' lat='-33.39407585017' lon='151.05086958672' />
  <node id='-50287' action='modify' lat='-33.39417550293' lon='151.05069390203' />
  <node id='-50289' action='modify' lat='-33.39429083126' lon='151.05047127869' />
  <node id='-50291' action='modify' lat='-33.39437704748' lon='151.0502969351' />
  <node id='-50293' action='modify' lat='-33.39441399727' lon='151.05010783936' />
  <node id='-50295' action='modify' lat='-33.39446438331' lon='151.04999116327' />
  <node id='-50297' action='modify' lat='-33.39441847603' lon='151.04984230067' />
  <node id='-50299' action='modify' lat='-33.39434233706' lon='151.0497926798' />
  <node id='-50301' action='modify' lat='-33.39409712436' lon='151.04977926876' />
  <node id='-50303' action='modify' lat='-33.39395492307' lon='151.04971087243' />
  <node id='-50305' action='modify' lat='-33.39383287611' lon='151.0496129718' />
  <node id='-50307' action='modify' lat='-33.39398515486' lon='151.04931792881' />
  <node id='-50309' action='modify' lat='-33.39395156398' lon='151.04922941591' />
  <node id='-50311' action='modify' lat='-33.39386534734' lon='151.04889145758' />
  <node id='-50313' action='modify' lat='-33.39391013522' lon='151.04860982563' />
  <node id='-50315' action='modify' lat='-33.39401314725' lon='151.04851997163' />
  <node id='-50317' action='modify' lat='-33.39415982722' lon='151.04832148816' />
  <node id='-50319' action='modify' lat='-33.39437592779' lon='151.04780248072' />
  <node id='-50321' action='modify' lat='-33.39448453772' lon='151.04759729173' />
  <node id='-50323' action='modify' lat='-33.39462113971' lon='151.04749804999' />
  <node id='-50325' action='modify' lat='-33.39464241377' lon='151.04720703031' />
  <node id='-50327' action='modify' lat='-33.39466368782' lon='151.04700318243' />
  <node id='-50329' action='modify' lat='-33.39471855247' lon='151.04678860571' />
  <node id='-50331' action='modify' lat='-33.39475998085' lon='151.04659012224' />
  <node id='-50333' action='modify' lat='-33.3949380107' lon='151.04636079337' />
  <node id='-50335' action='modify' lat='-33.39499399486' lon='151.04622936513' />
  <node id='-50337' action='modify' lat='-33.3950914072' lon='151.04612341787' />
  <node id='-50339' action='modify' lat='-33.39510708274' lon='151.04599869515' />
  <node id='-50341' action='modify' lat='-33.39523808535' lon='151.045894089' />
  <node id='-50343' action='modify' lat='-33.39537132712' lon='151.04581228163' />
  <node id='-50345' action='modify' lat='-33.39580464137' lon='151.045624527' />
  <node id='-50347' action='modify' lat='-33.39595131832' lon='151.04536435272' />
  <node id='-50349' action='modify' lat='-33.39606104595' lon='151.04532680179' />
  <node id='-50351' action='modify' lat='-33.39637343303' lon='151.04528254535' />
  <node id='-50353' action='modify' lat='-33.396393587' lon='151.04517123367' />
  <node id='-50355' action='modify' lat='-33.39644621122' lon='151.04517257478' />
  <node id='-50357' action='modify' lat='-33.39648987811' lon='151.04519403245' />
  <node id='-50359' action='modify' lat='-33.39672948576' lon='151.04508137967' />
  <node id='-50361' action='modify' lat='-33.39719862219' lon='151.0449405637' />
  <node id='-50363' action='modify' lat='-33.39749644973' lon='151.04479572441' />
  <node id='-50365' action='modify' lat='-33.39765208101' lon='151.04478767778' />
  <node id='-50367' action='modify' lat='-33.39776628508' lon='151.0446736839' />
  <node id='-50369' action='modify' lat='-33.39791967658' lon='151.04460796978' />
  <node id='-50371' action='modify' lat='-33.39817383564' lon='151.04464015629' />
  <node id='-50373' action='modify' lat='-33.39828020154' lon='151.04475415017' />
  <node id='-50375' action='modify' lat='-33.39842687431' lon='151.04495397474' />
  <node id='-50377' action='modify' lat='-33.3985063686' lon='151.04519000914' />
  <node id='-50379' action='modify' lat='-33.39855787191' lon='151.04538446929' />
  <node id='-50381' action='modify' lat='-33.39863064827' lon='151.0457157221' />
  <node id='-50383' action='modify' lat='-33.3987493296' lon='151.04582032825' />
  <node id='-50385' action='modify' lat='-33.39870902275' lon='151.0460724559' />
  <node id='-50387' action='modify' lat='-33.39885681443' lon='151.04652574922' />
  <node id='-50389' action='modify' lat='-33.39883330213' lon='151.04678055908' />
  <node id='-50391' action='modify' lat='-33.39887920708' lon='151.04692942168' />
  <node id='-50393' action='modify' lat='-33.39898781138' lon='151.0470528033' />
  <node id='-50395' action='modify' lat='-33.39907738184' lon='151.04721910025' />
  <node id='-50397' action='modify' lat='-33.39918934478' lon='151.04737600948' />
  <node id='-50399' action='modify' lat='-33.39933377676' lon='151.04750877883' />
  <node id='-50401' action='modify' lat='-33.39939087771' lon='151.04762545492' />
  <node id='-50403' action='modify' lat='-33.39955098409' lon='151.04772469665' />
  <node id='-50405' action='modify' lat='-33.39972788451' lon='151.0478856292' />
  <node id='-50407' action='modify' lat='-33.40004809573' lon='151.04798755314' />
  <node id='-50409' action='modify' lat='-33.40012199046' lon='151.04808411266' />
  <node id='-50411' action='modify' lat='-33.40019924398' lon='151.04817396666' />
  <node id='-50413' action='modify' lat='-33.4002294736' lon='151.04830807711' />
  <node id='-50415' action='modify' lat='-33.40031904277' lon='151.04841938879' />
  <node id='-50417' action='modify' lat='-33.40032016239' lon='151.04850521948' />
  <node id='-50419' action='modify' lat='-33.40033023891' lon='151.04863932993' />
  <node id='-50421' action='modify' lat='-33.40033359775' lon='151.04876539375' />
  <node id='-50423' action='modify' lat='-33.40034703312' lon='151.04883244898' />
  <node id='-50425' action='modify' lat='-33.40037726269' lon='151.04880294468' />
  <node id='-50427' action='modify' lat='-33.40053848686' lon='151.04881769683' />
  <node id='-50429' action='modify' lat='-33.40060566351' lon='151.04876271154' />
  <node id='-50431' action='modify' lat='-33.40065604597' lon='151.04869699742' />
  <node id='-50433' action='modify' lat='-33.40076016962' lon='151.04859239127' />
  <node id='-50435' action='modify' lat='-33.4007845211' lon='151.04857311289' />
  <way id='-50437' action='modify'>
    <nd ref='-49449' />
    <nd ref='-49451' />
    <nd ref='-49453' />
    <nd ref='-49455' />
    <nd ref='-49457' />
    <nd ref='-49459' />
    <nd ref='-49461' />
    <nd ref='-49463' />
    <nd ref='-49465' />
    <nd ref='-49467' />
    <nd ref='-49469' />
    <nd ref='-49471' />
    <nd ref='-49473' />
    <nd ref='-49475' />
    <nd ref='-49477' />
    <nd ref='-49479' />
    <nd ref='-49481' />
    <nd ref='-49483' />
    <nd ref='-49485' />
    <nd ref='-49487' />
    <nd ref='-49489' />
    <nd ref='-49491' />
    <nd ref='-49493' />
    <nd ref='-49495' />
    <nd ref='-49497' />
    <nd ref='-49499' />
    <nd ref='-49501' />
    <nd ref='-49503' />
    <nd ref='-49505' />
    <nd ref='-49507' />
    <nd ref='-49509' />
    <nd ref='-49511' />
    <nd ref='-49513' />
    <nd ref='-49515' />
    <nd ref='-49517' />
    <nd ref='-49519' />
    <nd ref='-49521' />
    <nd ref='-49523' />
    <nd ref='-49525' />
    <nd ref='-49527' />
    <nd ref='-49529' />
    <nd ref='-49531' />
    <nd ref='-49533' />
    <nd ref='-49535' />
    <nd ref='-49537' />
    <nd ref='-49539' />
    <nd ref='-49541' />
    <nd ref='-49543' />
    <nd ref='-49545' />
    <nd ref='-49547' />
    <nd ref='-49549' />
    <nd ref='-49551' />
    <nd ref='-49553' />
    <nd ref='-49555' />
    <nd ref='-49557' />
    <nd ref='-49559' />
    <nd ref='-49561' />
    <nd ref='-49563' />
    <nd ref='-49565' />
    <nd ref='-49567' />
    <nd ref='-49569' />
    <nd ref='-49571' />
    <nd ref='-49573' />
    <nd ref='-49575' />
    <nd ref='-49577' />
    <nd ref='-49579' />
    <nd ref='-49581' />
    <nd ref='-49583' />
    <nd ref='-49585' />
    <nd ref='-49587' />
    <nd ref='-49589' />
    <nd ref='-49591' />
    <nd ref='-49593' />
    <nd ref='-49595' />
    <nd ref='-49597' />
    <nd ref='-49599' />
    <nd ref='-49601' />
    <nd ref='-49603' />
    <nd ref='-49605' />
    <nd ref='-49607' />
    <nd ref='-49609' />
    <nd ref='-49611' />
    <nd ref='-49613' />
    <nd ref='-49615' />
    <nd ref='-49617' />
    <nd ref='-49619' />
    <nd ref='-49621' />
    <nd ref='-49623' />
    <nd ref='-49625' />
    <nd ref='-49627' />
    <nd ref='-49629' />
    <nd ref='-49631' />
    <nd ref='-49633' />
    <nd ref='-49635' />
    <nd ref='-49637' />
    <nd ref='-49639' />
    <nd ref='-49641' />
    <nd ref='-49643' />
    <nd ref='-49645' />
    <nd ref='-49647' />
    <nd ref='-49649' />
    <nd ref='-49651' />
    <nd ref='-49653' />
    <nd ref='-49655' />
    <nd ref='-49657' />
    <nd ref='-49659' />
    <nd ref='-49661' />
    <nd ref='-49663' />
    <nd ref='-49665' />
    <nd ref='-49667' />
    <nd ref='-49669' />
    <nd ref='-49671' />
    <nd ref='-49673' />
    <nd ref='-49675' />
    <nd ref='-49677' />
    <nd ref='-49679' />
    <nd ref='-49681' />
    <nd ref='-49683' />
    <nd ref='-49685' />
    <nd ref='-49687' />
    <nd ref='-49689' />
    <nd ref='-49691' />
    <nd ref='-49693' />
    <nd ref='-49695' />
    <nd ref='-49697' />
    <nd ref='-49699' />
    <nd ref='-49701' />
    <nd ref='-49703' />
    <nd ref='-49705' />
    <nd ref='-49707' />
    <nd ref='-49709' />
    <nd ref='-49711' />
    <nd ref='-49713' />
    <nd ref='-49715' />
    <nd ref='-49717' />
    <nd ref='-49719' />
    <nd ref='-49721' />
    <nd ref='-49723' />
    <nd ref='-49725' />
    <nd ref='-49727' />
    <nd ref='-49729' />
    <nd ref='-49731' />
    <nd ref='-49733' />
    <nd ref='-49735' />
    <nd ref='-49737' />
    <nd ref='-49739' />
    <nd ref='-49741' />
    <nd ref='-49743' />
    <nd ref='-49745' />
    <nd ref='-49747' />
    <nd ref='-49749' />
    <nd ref='-49751' />
    <nd ref='-49753' />
    <nd ref='-49755' />
    <nd ref='-49757' />
    <nd ref='-49759' />
    <nd ref='-49761' />
    <nd ref='-49763' />
    <nd ref='-49765' />
    <nd ref='-49767' />
    <nd ref='-49769' />
    <nd ref='-49771' />
    <nd ref='-49773' />
    <nd ref='-49775' />
    <nd ref='-49777' />
    <nd ref='-49779' />
    <nd ref='-49781' />
    <nd ref='-49783' />
    <nd ref='-49785' />
    <nd ref='-49787' />
    <nd ref='-49789' />
    <nd ref='-49791' />
    <nd ref='-49793' />
    <nd ref='-49795' />
    <nd ref='-49797' />
    <nd ref='-49799' />
    <nd ref='-49801' />
    <nd ref='-49803' />
    <nd ref='-49805' />
    <nd ref='-49807' />
    <nd ref='-49809' />
    <nd ref='-49811' />
    <nd ref='-49813' />
    <nd ref='-49815' />
    <nd ref='-49817' />
    <nd ref='-49819' />
    <nd ref='-49821' />
    <nd ref='-49823' />
    <nd ref='-49825' />
    <nd ref='-49827' />
    <nd ref='-49829' />
    <nd ref='-49831' />
    <nd ref='-49833' />
    <nd ref='-49835' />
    <nd ref='-49837' />
    <nd ref='-49839' />
    <nd ref='-49841' />
    <nd ref='-49843' />
    <nd ref='-49845' />
    <nd ref='-49847' />
    <nd ref='-49849' />
    <nd ref='-49851' />
    <nd ref='-49853' />
    <nd ref='-49855' />
    <nd ref='-49857' />
    <nd ref='-49859' />
    <nd ref='-49861' />
    <nd ref='-49863' />
    <nd ref='-49865' />
    <nd ref='-49867' />
    <nd ref='-49869' />
    <nd ref='-49871' />
    <nd ref='-49873' />
    <nd ref='-49875' />
    <nd ref='-49877' />
    <nd ref='-49879' />
    <nd ref='-49881' />
    <nd ref='-49883' />
    <nd ref='-49885' />
    <nd ref='-49887' />
    <nd ref='-49889' />
    <nd ref='-49891' />
    <nd ref='-49893' />
    <nd ref='-49895' />
    <nd ref='-49897' />
    <nd ref='-49899' />
    <nd ref='-49901' />
    <nd ref='-49903' />
    <nd ref='-49905' />
    <nd ref='-49907' />
    <nd ref='-49909' />
    <nd ref='-49911' />
    <nd ref='-49913' />
    <nd ref='-49915' />
    <nd ref='-49917' />
    <nd ref='-49919' />
    <nd ref='-49921' />
    <nd ref='-49923' />
    <nd ref='-49925' />
    <nd ref='-49927' />
    <nd ref='-49929' />
    <nd ref='-49931' />
    <nd ref='-49933' />
    <nd ref='-49935' />
    <nd ref='-49937' />
    <nd ref='-49939' />
    <nd ref='-49941' />
    <nd ref='-49943' />
    <nd ref='-49945' />
    <nd ref='-49947' />
    <nd ref='-49949' />
    <nd ref='-49951' />
    <nd ref='-49953' />
    <nd ref='-49955' />
    <nd ref='-49957' />
    <nd ref='-49959' />
    <nd ref='-49961' />
    <nd ref='-49963' />
    <nd ref='-49965' />
    <nd ref='-49967' />
    <nd ref='-49969' />
    <nd ref='-49971' />
    <nd ref='-49973' />
    <nd ref='-49975' />
    <nd ref='-49977' />
    <nd ref='-49979' />
    <nd ref='-49981' />
    <nd ref='-49983' />
    <nd ref='-49985' />
    <nd ref='-49987' />
    <nd ref='-49989' />
    <nd ref='-49991' />
    <nd ref='-49993' />
    <nd ref='-49995' />
    <nd ref='-49997' />
    <nd ref='-49999' />
    <nd ref='-50001' />
    <nd ref='-50003' />
    <nd ref='-50005' />
    <nd ref='-50007' />
    <nd ref='-50009' />
    <nd ref='-50011' />
    <nd ref='-50013' />
    <nd ref='-50015' />
    <nd ref='-50017' />
    <nd ref='-50019' />
    <nd ref='-50021' />
    <nd ref='-50023' />
    <nd ref='-50025' />
    <nd ref='-50027' />
    <nd ref='-50029' />
    <nd ref='-50031' />
    <nd ref='-50033' />
    <nd ref='-50035' />
    <nd ref='-50037' />
    <nd ref='-50039' />
    <nd ref='-50041' />
    <nd ref='-50043' />
    <nd ref='-50045' />
    <nd ref='-50047' />
    <nd ref='-50049' />
    <nd ref='-50051' />
    <nd ref='-50053' />
    <nd ref='-50055' />
    <nd ref='-50057' />
    <nd ref='-50059' />
    <nd ref='-50061' />
    <nd ref='-50063' />
    <nd ref='-50065' />
    <nd ref='-50067' />
    <nd ref='-50069' />
    <nd ref='-50071' />
    <nd ref='-50073' />
    <nd ref='-50075' />
    <nd ref='-50077' />
    <nd ref='-50079' />
    <nd ref='-50081' />
    <nd ref='-50083' />
    <nd ref='-50085' />
    <nd ref='-50087' />
    <nd ref='-50089' />
    <nd ref='-50091' />
    <nd ref='-50093' />
    <nd ref='-50095' />
    <nd ref='-50097' />
    <nd ref='-50099' />
    <nd ref='-50101' />
    <nd ref='-50103' />
    <nd ref='-50105' />
    <nd ref='-50107' />
    <nd ref='-50109' />
    <nd ref='-50111' />
    <nd ref='-50113' />
    <nd ref='-50115' />
    <nd ref='-50117' />
    <nd ref='-50119' />
    <nd ref='-50121' />
    <nd ref='-50123' />
    <nd ref='-50125' />
    <nd ref='-50127' />
    <nd ref='-50129' />
    <nd ref='-50131' />
    <nd ref='-50133' />
    <nd ref='-50135' />
    <nd ref='-50137' />
    <nd ref='-50139' />
    <nd ref='-50141' />
    <nd ref='-50143' />
    <nd ref='-50145' />
    <nd ref='-50147' />
    <nd ref='-50149' />
    <nd ref='-50151' />
    <nd ref='-50153' />
    <nd ref='-50155' />
    <nd ref='-50157' />
    <nd ref='-50159' />
    <nd ref='-50161' />
    <nd ref='-50163' />
    <nd ref='-50165' />
    <nd ref='-50167' />
    <nd ref='-50169' />
    <nd ref='-50171' />
    <nd ref='-50173' />
    <nd ref='-50175' />
    <nd ref='-50177' />
    <nd ref='-50179' />
    <nd ref='-50181' />
    <nd ref='-50183' />
    <nd ref='-50185' />
    <nd ref='-50187' />
    <nd ref='-50189' />
    <nd ref='-50191' />
    <nd ref='-50193' />
    <nd ref='-50195' />
    <nd ref='-50197' />
    <nd ref='-50199' />
    <nd ref='-50201' />
    <nd ref='-50203' />
    <nd ref='-50205' />
    <nd ref='-50207' />
    <nd ref='-50209' />
    <nd ref='-50211' />
    <nd ref='-50213' />
    <nd ref='-50215' />
    <nd ref='-50217' />
    <nd ref='-50219' />
    <nd ref='-50221' />
    <nd ref='-50223' />
    <nd ref='-50225' />
    <nd ref='-50227' />
    <nd ref='-50229' />
    <nd ref='-50231' />
    <nd ref='-50233' />
    <nd ref='-50235' />
    <nd ref='-50237' />
    <nd ref='-50239' />
    <nd ref='-50241' />
    <nd ref='-50243' />
    <nd ref='-50245' />
    <nd ref='-50247' />
    <nd ref='-50249' />
    <nd ref='-50251' />
    <nd ref='-50253' />
    <nd ref='-50255' />
    <nd ref='-50257' />
    <nd ref='-50259' />
    <nd ref='-50261' />
    <nd ref='-50263' />
    <nd ref='-50265' />
    <nd ref='-50267' />
    <nd ref='-50269' />
    <nd ref='-50271' />
    <nd ref='-50273' />
    <nd ref='-50275' />
    <nd ref='-50277' />
    <nd ref='-50279' />
    <nd ref='-50281' />
    <nd ref='-50283' />
    <nd ref='-50285' />
    <nd ref='-50287' />
    <nd ref='-50289' />
    <nd ref='-50291' />
    <nd ref='-50293' />
    <nd ref='-50295' />
    <nd ref='-50297' />
    <nd ref='-50299' />
    <nd ref='-50301' />
    <nd ref='-50303' />
    <nd ref='-50305' />
    <nd ref='-50307' />
    <nd ref='-50309' />
    <nd ref='-50311' />
    <nd ref='-50313' />
    <nd ref='-50315' />
    <nd ref='-50317' />
    <nd ref='-50319' />
    <nd ref='-50321' />
    <nd ref='-50323' />
    <nd ref='-50325' />
    <nd ref='-50327' />
    <nd ref='-50329' />
    <nd ref='-50331' />
    <nd ref='-50333' />
    <nd ref='-50335' />
    <nd ref='-50337' />
    <nd ref='-50339' />
    <nd ref='-50341' />
    <nd ref='-50343' />
    <nd ref='-50345' />
    <nd ref='-50347' />
    <nd ref='-50349' />
    <nd ref='-50351' />
    <nd ref='-50353' />
    <nd ref='-50355' />
    <nd ref='-50357' />
    <nd ref='-50359' />
    <nd ref='-50361' />
    <nd ref='-50363' />
    <nd ref='-50365' />
    <nd ref='-50367' />
    <nd ref='-50369' />
    <nd ref='-50371' />
    <nd ref='-50373' />
    <nd ref='-50375' />
    <nd ref='-50377' />
    <nd ref='-50379' />
    <nd ref='-50381' />
    <nd ref='-50383' />
    <nd ref='-50385' />
    <nd ref='-50387' />
    <nd ref='-50389' />
    <nd ref='-50391' />
    <nd ref='-50393' />
    <nd ref='-50395' />
    <nd ref='-50397' />
    <nd ref='-50399' />
    <nd ref='-50401' />
    <nd ref='-50403' />
    <nd ref='-50405' />
    <nd ref='-50407' />
    <nd ref='-50409' />
    <nd ref='-50411' />
    <nd ref='-50413' />
    <nd ref='-50415' />
    <nd ref='-50417' />
    <nd ref='-50419' />
    <nd ref='-50421' />
    <nd ref='-50423' />
    <nd ref='-50425' />
    <nd ref='-50427' />
    <nd ref='-50429' />
    <nd ref='-50431' />
    <nd ref='-50433' />
    <nd ref='-50435' />
    <tag k='name' v='11km Walking Track' />
    <tag k='park' v='Dharug National Park' />
    <tag k='photo' v='136319147@N08/30300643193' />
    <tag k='role' v='primary' />
    <tag k='style' v='loop' />
    <tag k='transport' v='car' />
  </way>
</osm>
