<?xml version='1.0' encoding='UTF-8'?>
<osm version='0.6' upload='false' generator='JOSM'>
  <node id='-179160' visible='true' lat='-33.7096169' lon='150.3763989' />
  <node id='-179161' visible='true' lat='-33.7094938' lon='150.3763659' />
  <node id='-179162' visible='true' lat='-33.7095114' lon='150.3761792' />
  <node id='-179163' visible='true' lat='-33.7095364' lon='150.3759223' />
  <node id='-179164' visible='true' lat='-33.7100804' lon='150.375959' />
  <node id='-179165' visible='true' lat='-33.7103449' lon='150.3759401' />
  <node id='-179166' visible='true' lat='-33.7104686' lon='150.375658' />
  <node id='-179167' visible='true' lat='-33.7105651' lon='150.3755735' />
  <node id='-179168' visible='true' lat='-33.7099402' lon='150.374514' />
  <node id='-179169' visible='true' lat='-33.7099297' lon='150.3744962' />
  <node id='-179170' visible='true' lat='-33.7100139' lon='150.3743709' />
  <node id='-179171' visible='true' lat='-33.7101027' lon='150.3742005' />
  <node id='-179172' visible='true' lat='-33.7104056' lon='150.3737577' />
  <node id='-179173' visible='true' lat='-33.7106829' lon='150.3734831' />
  <node id='-179174' visible='true' lat='-33.7107219' lon='150.3734636' />
  <node id='-179175' visible='true' lat='-33.7109105' lon='150.373585' />
  <node id='-179176' visible='true' lat='-33.7110979' lon='150.3736655' />
  <node id='-179177' visible='true' lat='-33.7112809' lon='150.3737084' />
  <node id='-179178' visible='true' lat='-33.711385' lon='150.3737001' />
  <node id='-179179' visible='true' lat='-33.7114941' lon='150.3737936' />
  <node id='-179180' visible='true' lat='-33.7115544' lon='150.3738243' />
  <node id='-179181' visible='true' lat='-33.7116038' lon='150.3738617' />
  <node id='-179182' visible='true' lat='-33.7117468' lon='150.3739251' />
  <node id='-179183' visible='true' lat='-33.7118038' lon='150.3739901' />
  <node id='-179184' visible='true' lat='-33.711854' lon='150.3740297' />
  <node id='-179185' visible='true' lat='-33.7119965' lon='150.3740637' />
  <node id='-179186' visible='true' lat='-33.7120187' lon='150.3740992' />
  <node id='-179187' visible='true' lat='-33.7120111' lon='150.3741746' />
  <node id='-179188' visible='true' lat='-33.712019' lon='150.374221' />
  <node id='-179189' visible='true' lat='-33.7120531' lon='150.3742701' />
  <node id='-179190' visible='true' lat='-33.7121079' lon='150.3743174' />
  <node id='-179191' visible='true' lat='-33.7122015' lon='150.3743178' />
  <node id='-179192' visible='true' lat='-33.7122888' lon='150.3743459' />
  <node id='-179193' visible='true' lat='-33.712413' lon='150.3744085' />
  <node id='-179194' visible='true' lat='-33.7124905' lon='150.3744382' />
  <node id='-179195' visible='true' lat='-33.7125546' lon='150.3744008' />
  <node id='-179196' visible='true' lat='-33.7126003' lon='150.3743755' />
  <node id='-179197' visible='true' lat='-33.7126441' lon='150.3743854' />
  <node id='-179198' visible='true' lat='-33.712708' lon='150.3743591' />
  <node id='-179199' visible='true' lat='-33.712809' lon='150.3743695' />
  <node id='-179200' visible='true' lat='-33.7128496' lon='150.3743777' />
  <node id='-179201' visible='true' lat='-33.7128752' lon='150.3743788' />
  <node id='-179202' visible='true' lat='-33.7129309' lon='150.3744162' />
  <node id='-179203' visible='true' lat='-33.7129519' lon='150.3744469' />
  <node id='-179204' visible='true' lat='-33.7129984' lon='150.3744441' />
  <node id='-179205' visible='true' lat='-33.7129922' lon='150.3743946' />
  <node id='-179206' visible='true' lat='-33.7130776' lon='150.3744053' />
  <node id='-179207' visible='true' lat='-33.7131484' lon='150.3744548' />
  <node id='-179208' visible='true' lat='-33.7131959' lon='150.3745482' />
  <node id='-179209' visible='true' lat='-33.7132439' lon='150.3746126' />
  <node id='-179210' visible='true' lat='-33.7133562' lon='150.374675' />
  <node id='-179211' visible='true' lat='-33.7134237' lon='150.3747347' />
  <node id='-179212' visible='true' lat='-33.7134785' lon='150.374765' />
  <node id='-179213' visible='true' lat='-33.7135125' lon='150.3747783' />
  <node id='-179214' visible='true' lat='-33.71355' lon='150.3748076' />
  <node id='-179215' visible='true' lat='-33.7136509' lon='150.3747733' />
  <node id='-179216' visible='true' lat='-33.7137341' lon='150.3746876' />
  <node id='-179217' visible='true' lat='-33.713859' lon='150.3746183' />
  <node id='-179218' visible='true' lat='-33.7139341' lon='150.3747155' />
  <node id='-179219' visible='true' lat='-33.7140483' lon='150.3750025' />
  <node id='-179220' visible='true' lat='-33.714094' lon='150.3750641' />
  <node id='-179221' visible='true' lat='-33.7141912' lon='150.3751263' />
  <node id='-179222' visible='true' lat='-33.7142297' lon='150.3751237' />
  <node id='-179223' visible='true' lat='-33.7142691' lon='150.375101' />
  <node id='-179224' visible='true' lat='-33.7143223' lon='150.3750852' />
  <node id='-179225' visible='true' lat='-33.7143476' lon='150.3750978' />
  <node id='-179226' visible='true' lat='-33.714406' lon='150.3750856' />
  <node id='-179227' visible='true' lat='-33.7144409' lon='150.3750595' />
  <node id='-179228' visible='true' lat='-33.714445' lon='150.3749768' />
  <node id='-179229' visible='true' lat='-33.7145003' lon='150.3749509' />
  <node id='-179230' visible='true' lat='-33.7145914' lon='150.3749498' />
  <node id='-179231' visible='true' lat='-33.7146804' lon='150.3749901' />
  <node id='-179232' visible='true' lat='-33.7147381' lon='150.3749935' />
  <node id='-179233' visible='true' lat='-33.7148188' lon='150.3750474' />
  <node id='-179234' visible='true' lat='-33.7148633' lon='150.3750378' />
  <node id='-179235' visible='true' lat='-33.7149965' lon='150.375077' />
  <node id='-179236' visible='true' lat='-33.715157' lon='150.3750752' />
  <node id='-179237' visible='true' lat='-33.7152492' lon='150.3750241' />
  <node id='-179238' visible='true' lat='-33.7153092' lon='150.3749179' />
  <node id='-179239' visible='true' lat='-33.7153534' lon='150.3748583' />
  <node id='-179240' visible='true' lat='-33.7154166' lon='150.374844' />
  <node id='-179241' visible='true' lat='-33.7155144' lon='150.3748468' />
  <node id='-179242' visible='true' lat='-33.7155587' lon='150.3748716' />
  <node id='-179243' visible='true' lat='-33.7156241' lon='150.3748959' />
  <node id='-179244' visible='true' lat='-33.7157461' lon='150.3750057' />
  <node id='-179245' visible='true' lat='-33.7157853' lon='150.3750577' />
  <node id='-179246' visible='true' lat='-33.7158246' lon='150.3750909' />
  <node id='-179247' visible='true' lat='-33.7159182' lon='150.375128' />
  <node id='-179248' visible='true' lat='-33.7159781' lon='150.3751338' />
  <node id='-179249' visible='true' lat='-33.7159958' lon='150.3751629' />
  <node id='-179250' visible='true' lat='-33.7161001' lon='150.3751587' />
  <node id='-179251' visible='true' lat='-33.716162' lon='150.3751758' />
  <node id='-179252' visible='true' lat='-33.7161818' lon='150.3751734' />
  <node id='-179253' visible='true' lat='-33.7162202' lon='150.3751904' />
  <node id='-179254' visible='true' lat='-33.7162649' lon='150.375223' />
  <node id='-179255' visible='true' lat='-33.716286' lon='150.375233' />
  <node id='-179256' visible='true' lat='-33.7162986' lon='150.37523' />
  <node id='-179257' visible='true' lat='-33.7163475' lon='150.3752414' />
  <node id='-179258' visible='true' lat='-33.7164558' lon='150.3753265' />
  <node id='-179259' visible='true' lat='-33.7164821' lon='150.3753561' />
  <node id='-179260' visible='true' lat='-33.716527' lon='150.3754327' />
  <node id='-179261' visible='true' lat='-33.7165423' lon='150.3755199' />
  <node id='-179262' visible='true' lat='-33.7165755' lon='150.3756049' />
  <node id='-179263' visible='true' lat='-33.7166002' lon='150.3756244' />
  <node id='-179264' visible='true' lat='-33.7167132' lon='150.3756524' />
  <node id='-179265' visible='true' lat='-33.7167359' lon='150.3756826' />
  <node id='-179266' visible='true' lat='-33.7167618' lon='150.3756992' />
  <node id='-179267' visible='true' lat='-33.7167925' lon='150.3756972' />
  <node id='-179268' visible='true' lat='-33.7168176' lon='150.3756841' />
  <node id='-179269' visible='true' lat='-33.7168302' lon='150.3756478' />
  <node id='-179270' visible='true' lat='-33.7168648' lon='150.3756135' />
  <node id='-179271' visible='true' lat='-33.7170129' lon='150.3756399' />
  <node id='-179272' visible='true' lat='-33.7170594' lon='150.3756367' />
  <node id='-179273' visible='true' lat='-33.7171279' lon='150.37564' />
  <node id='-179274' visible='true' lat='-33.7171309' lon='150.3756369' />
  <node id='-179275' visible='true' lat='-33.7171378' lon='150.3756265' />
  <node id='-179276' visible='true' lat='-33.717139' lon='150.3756049' />
  <node id='-179277' visible='true' lat='-33.7171538' lon='150.3755991' />
  <node id='-179278' visible='true' lat='-33.7171611' lon='150.3755967' />
  <node id='-179279' visible='true' lat='-33.7172145' lon='150.3755394' />
  <node id='-179280' visible='true' lat='-33.7172239' lon='150.3755264' />
  <node id='-179281' visible='true' lat='-33.7172575' lon='150.3755191' />
  <node id='-179282' visible='true' lat='-33.7173532' lon='150.3755274' />
  <node id='-179283' visible='true' lat='-33.7174463' lon='150.3755427' />
  <node id='-179284' visible='true' lat='-33.7174939' lon='150.3755483' />
  <node id='-179285' visible='true' lat='-33.7175667' lon='150.3755483' />
  <node id='-179286' visible='true' lat='-33.717603' lon='150.3755624' />
  <node id='-179287' visible='true' lat='-33.717635' lon='150.3755833' />
  <node id='-179288' visible='true' lat='-33.7176721' lon='150.3756343' />
  <node id='-179289' visible='true' lat='-33.717696' lon='150.3756581' />
  <node id='-179290' visible='true' lat='-33.717734' lon='150.3756683' />
  <node id='-179291' visible='true' lat='-33.717751' lon='150.3756814' />
  <node id='-179292' visible='true' lat='-33.7177551' lon='150.3756944' />
  <node id='-179293' visible='true' lat='-33.7177691' lon='150.3757528' />
  <node id='-179294' visible='true' lat='-33.7178168' lon='150.3757655' />
  <node id='-179295' visible='true' lat='-33.7178953' lon='150.375809' />
  <node id='-179296' visible='true' lat='-33.7179603' lon='150.3758833' />
  <node id='-179297' visible='true' lat='-33.7179839' lon='150.3759444' />
  <node id='-179298' visible='true' lat='-33.718021' lon='150.3761023' />
  <node id='-179299' visible='true' lat='-33.7180428' lon='150.3761756' />
  <node id='-179300' visible='true' lat='-33.7181382' lon='150.376327' />
  <node id='-179301' visible='true' lat='-33.7182389' lon='150.3763502' />
  <node id='-179302' visible='true' lat='-33.7182497' lon='150.3763515' />
  <node id='-179303' visible='true' lat='-33.718255' lon='150.3763943' />
  <node id='-179304' visible='true' lat='-33.7182756' lon='150.3764263' />
  <node id='-179305' visible='true' lat='-33.718275' lon='150.3764664' />
  <node id='-179306' visible='true' lat='-33.7182829' lon='150.3765019' />
  <node id='-179307' visible='true' lat='-33.7182962' lon='150.3765354' />
  <node id='-179308' visible='true' lat='-33.718318' lon='150.3765641' />
  <node id='-179309' visible='true' lat='-33.7183221' lon='150.3765986' />
  <node id='-179310' visible='true' lat='-33.7183383' lon='150.3766324' />
  <node id='-179311' visible='true' lat='-33.7184345' lon='150.376712' />
  <node id='-179312' visible='true' lat='-33.7184955' lon='150.3767363' />
  <node id='-179313' visible='true' lat='-33.7185351' lon='150.3767397' />
  <node id='-179314' visible='true' lat='-33.7185492' lon='150.3767626' />
  <node id='-179315' visible='true' lat='-33.7185837' lon='150.3768242' />
  <node id='-179316' visible='true' lat='-33.7185938' lon='150.3768335' />
  <node id='-179317' visible='true' lat='-33.7186172' lon='150.3768287' />
  <node id='-179318' visible='true' lat='-33.7186669' lon='150.3768634' />
  <node id='-179319' visible='true' lat='-33.7187251' lon='150.3768785' />
  <node id='-179320' visible='true' lat='-33.7187611' lon='150.3769066' />
  <node id='-179321' visible='true' lat='-33.7188086' lon='150.3769568' />
  <node id='-179322' visible='true' lat='-33.7188338' lon='150.3769732' />
  <node id='-179323' visible='true' lat='-33.7188714' lon='150.3770182' />
  <node id='-179324' visible='true' lat='-33.7188937' lon='150.3770267' />
  <node id='-179325' visible='true' lat='-33.7189029' lon='150.3770529' />
  <node id='-179326' visible='true' lat='-33.7188953' lon='150.377074' />
  <node id='-179327' visible='true' lat='-33.718905' lon='150.3771102' />
  <node id='-179328' visible='true' lat='-33.7189205' lon='150.3771208' />
  <node id='-179329' visible='true' lat='-33.7189341' lon='150.3771159' />
  <node id='-179330' visible='true' lat='-33.7189875' lon='150.3771031' />
  <node id='-179331' visible='true' lat='-33.7190096' lon='150.3771029' />
  <node id='-179332' visible='true' lat='-33.7190317' lon='150.3771158' />
  <node id='-179333' visible='true' lat='-33.719054' lon='150.3772309' />
  <node id='-179334' visible='true' lat='-33.7190208' lon='150.3773129' />
  <node id='-179335' visible='true' lat='-33.719037' lon='150.3773247' />
  <node id='-179336' visible='true' lat='-33.7190699' lon='150.3774331' />
  <node id='-179337' visible='true' lat='-33.7190688' lon='150.3774762' />
  <node id='-179338' visible='true' lat='-33.7190626' lon='150.3774914' />
  <node id='-179339' visible='true' lat='-33.7191297' lon='150.3775215' />
  <node id='-179340' visible='true' lat='-33.7191653' lon='150.3775565' />
  <node id='-179341' visible='true' lat='-33.7192197' lon='150.3775691' />
  <node id='-179342' visible='true' lat='-33.7193196' lon='150.377539' />
  <node id='-179343' visible='true' lat='-33.7193763' lon='150.3775191' />
  <node id='-179344' visible='true' lat='-33.7193859' lon='150.3774546' />
  <node id='-179345' visible='true' lat='-33.7194619' lon='150.3774335' />
  <node id='-179346' visible='true' lat='-33.7194902' lon='150.3774083' />
  <node id='-179347' visible='true' lat='-33.7195478' lon='150.3773845' />
  <node id='-179348' visible='true' lat='-33.7195847' lon='150.3773751' />
  <node id='-179349' visible='true' lat='-33.7196587' lon='150.3773589' />
  <node id='-179350' visible='true' lat='-33.719722' lon='150.3773304' />
  <node id='-179351' visible='true' lat='-33.7197537' lon='150.377301' />
  <node id='-179352' visible='true' lat='-33.7197825' lon='150.3772914' />
  <node id='-179353' visible='true' lat='-33.7198241' lon='150.3772727' />
  <node id='-179354' visible='true' lat='-33.7198324' lon='150.3772596' />
  <node id='-179355' visible='true' lat='-33.7198411' lon='150.3772431' />
  <node id='-179356' visible='true' lat='-33.7198609' lon='150.3772241' />
  <node id='-179357' visible='true' lat='-33.7198948' lon='150.3772086' />
  <node id='-179358' visible='true' lat='-33.7199301' lon='150.3772049' />
  <node id='-179359' visible='true' lat='-33.7199862' lon='150.3771998' />
  <node id='-179360' visible='true' lat='-33.7200059' lon='150.3771838' />
  <node id='-179361' visible='true' lat='-33.720028' lon='150.3771634' />
  <node id='-179362' visible='true' lat='-33.7200525' lon='150.3771417' />
  <node id='-179363' visible='true' lat='-33.7201194' lon='150.3771469' />
  <node id='-179364' visible='true' lat='-33.7202468' lon='150.3771675' />
  <node id='-179365' visible='true' lat='-33.7203802' lon='150.3772248' />
  <node id='-179366' visible='true' lat='-33.7204752' lon='150.3772654' />
  <node id='-179367' visible='true' lat='-33.7205238' lon='150.3773113' />
  <node id='-179368' visible='true' lat='-33.7205364' lon='150.3773169' />
  <node id='-179369' visible='true' lat='-33.7205654' lon='150.3773366' />
  <node id='-179370' visible='true' lat='-33.7206813' lon='150.3774369' />
  <node id='-179371' visible='true' lat='-33.7207091' lon='150.3774818' />
  <node id='-179372' visible='true' lat='-33.7207581' lon='150.377573' />
  <node id='-179373' visible='true' lat='-33.7208592' lon='150.3776712' />
  <node id='-179374' visible='true' lat='-33.7208923' lon='150.3777343' />
  <node id='-179375' visible='true' lat='-33.7209514' lon='150.3777917' />
  <node id='-179376' visible='true' lat='-33.721042' lon='150.377819' />
  <node id='-179377' visible='true' lat='-33.7210967' lon='150.3777935' />
  <node id='-179378' visible='true' lat='-33.7211305' lon='150.377808' />
  <node id='-179379' visible='true' lat='-33.7211702' lon='150.3778765' />
  <node id='-179380' visible='true' lat='-33.7213104' lon='150.3779578' />
  <node id='-179381' visible='true' lat='-33.7213021' lon='150.3779972' />
  <node id='-179382' visible='true' lat='-33.7214193' lon='150.3782028' />
  <node id='-179383' visible='true' lat='-33.7214234' lon='150.3782725' />
  <node id='-179384' visible='true' lat='-33.7213927' lon='150.378331' />
  <node id='-179385' visible='true' lat='-33.7213895' lon='150.3783632' />
  <node id='-179386' visible='true' lat='-33.7214226' lon='150.3784506' />
  <node id='-179387' visible='true' lat='-33.7215677' lon='150.3786466' />
  <node id='-179388' visible='true' lat='-33.7216182' lon='150.3786892' />
  <node id='-179389' visible='true' lat='-33.7216603' lon='150.3787055' />
  <node id='-179390' visible='true' lat='-33.7217443' lon='150.3787042' />
  <node id='-179391' visible='true' lat='-33.7217912' lon='150.3786926' />
  <node id='-179392' visible='true' lat='-33.7219569' lon='150.3787045' />
  <node id='-179393' visible='true' lat='-33.7220537' lon='150.3786514' />
  <node id='-179394' visible='true' lat='-33.7221961' lon='150.3785021' />
  <node id='-179395' visible='true' lat='-33.7222762' lon='150.3784418' />
  <node id='-179396' visible='true' lat='-33.7223724' lon='150.3783289' />
  <node id='-179397' visible='true' lat='-33.7224586' lon='150.3780711' />
  <node id='-179398' visible='true' lat='-33.7224729' lon='150.3779912' />
  <node id='-179399' visible='true' lat='-33.7225178' lon='150.3779093' />
  <node id='-179400' visible='true' lat='-33.7226513' lon='150.3777434' />
  <node id='-179401' visible='true' lat='-33.7227166' lon='150.377722' />
  <node id='-179402' visible='true' lat='-33.7228415' lon='150.3777405' />
  <node id='-179403' visible='true' lat='-33.7229134' lon='150.377769' />
  <node id='-179404' visible='true' lat='-33.7229495' lon='150.3777324' />
  <node id='-179405' visible='true' lat='-33.7229932' lon='150.3777206' />
  <node id='-179406' visible='true' lat='-33.7230199' lon='150.3776978' />
  <node id='-179407' visible='true' lat='-33.7231238' lon='150.3776844' />
  <node id='-179408' visible='true' lat='-33.7232361' lon='150.3777098' />
  <node id='-179409' visible='true' lat='-33.7233803' lon='150.3776366' />
  <node id='-179410' visible='true' lat='-33.7234254' lon='150.3776153' />
  <node id='-179411' visible='true' lat='-33.7234725' lon='150.3775681' />
  <node id='-179412' visible='true' lat='-33.7235193' lon='150.3775487' />
  <node id='-179413' visible='true' lat='-33.7235902' lon='150.3775301' />
  <node id='-179414' visible='true' lat='-33.7236058' lon='150.3775341' />
  <node id='-179415' visible='true' lat='-33.7236459' lon='150.3775125' />
  <node id='-179416' visible='true' lat='-33.7236679' lon='150.3774869' />
  <node id='-179417' visible='true' lat='-33.7236885' lon='150.3774556' />
  <node id='-179418' visible='true' lat='-33.7237872' lon='150.3774242' />
  <node id='-179419' visible='true' lat='-33.7238243' lon='150.3774205' />
  <node id='-179420' visible='true' lat='-33.723933' lon='150.3774637' />
  <node id='-179421' visible='true' lat='-33.7239741' lon='150.3774508' />
  <node id='-179422' visible='true' lat='-33.7240606' lon='150.3773917' />
  <node id='-179423' visible='true' lat='-33.7241124' lon='150.3773772' />
  <node id='-179424' visible='true' lat='-33.724143' lon='150.3774007' />
  <node id='-179425' visible='true' lat='-33.7241741' lon='150.3773979' />
  <node id='-179426' visible='true' lat='-33.7242761' lon='150.377344' />
  <node id='-179427' visible='true' lat='-33.7243879' lon='150.3771374' />
  <node id='-179428' visible='true' lat='-33.7244885' lon='150.3769866' />
  <node id='-179429' visible='true' lat='-33.7245342' lon='150.3769106' />
  <node id='-179430' visible='true' lat='-33.724569' lon='150.3768766' />
  <node id='-179431' visible='true' lat='-33.7245907' lon='150.376849' />
  <node id='-179432' visible='true' lat='-33.7246828' lon='150.3767313' />
  <node id='-179433' visible='true' lat='-33.7247436' lon='150.3765994' />
  <node id='-179434' visible='true' lat='-33.7247937' lon='150.3765738' />
  <node id='-179435' visible='true' lat='-33.7248543' lon='150.3765698' />
  <node id='-179436' visible='true' lat='-33.7249343' lon='150.3765107' />
  <node id='-179437' visible='true' lat='-33.7250094' lon='150.3765233' />
  <node id='-179438' visible='true' lat='-33.7250672' lon='150.3764907' />
  <node id='-179439' visible='true' lat='-33.7251061' lon='150.3764648' />
  <node id='-179440' visible='true' lat='-33.7251591' lon='150.3764183' />
  <node id='-179441' visible='true' lat='-33.7252011' lon='150.376373' />
  <node id='-179442' visible='true' lat='-33.7253926' lon='150.3763574' />
  <node id='-179443' visible='true' lat='-33.725475' lon='150.3763458' />
  <node id='-179444' visible='true' lat='-33.7255991' lon='150.3762627' />
  <node id='-179445' visible='true' lat='-33.7258418' lon='150.3762169' />
  <node id='-179446' visible='true' lat='-33.7260282' lon='150.3760709' />
  <node id='-179447' visible='true' lat='-33.7260591' lon='150.376075' />
  <node id='-179448' visible='true' lat='-33.7262397' lon='150.375873' />
  <node id='-179449' visible='true' lat='-33.7262479' lon='150.3758288' />
  <node id='-179450' visible='true' lat='-33.7262896' lon='150.375798' />
  <node id='-179451' visible='true' lat='-33.7263997' lon='150.3758372' />
  <node id='-179452' visible='true' lat='-33.72652' lon='150.3758257' />
  <node id='-179453' visible='true' lat='-33.726658' lon='150.3757542' />
  <node id='-179454' visible='true' lat='-33.7267668' lon='150.375718' />
  <node id='-179455' visible='true' lat='-33.7269843' lon='150.3756202' />
  <node id='-179456' visible='true' lat='-33.7271178' lon='150.3754659' />
  <node id='-179457' visible='true' lat='-33.7271608' lon='150.3753996' />
  <node id='-179458' visible='true' lat='-33.7271739' lon='150.3753432' />
  <node id='-179459' visible='true' lat='-33.7271835' lon='150.3752957' />
  <node id='-179460' visible='true' lat='-33.7272265' lon='150.3750841' />
  <node id='-179461' visible='true' lat='-33.7272843' lon='150.3749641' />
  <node id='-179462' visible='true' lat='-33.7274697' lon='150.3749544' />
  <node id='-179463' visible='true' lat='-33.7276561' lon='150.3748416' />
  <node id='-179464' visible='true' lat='-33.7277803' lon='150.3748668' />
  <node id='-179701' visible='true' lat='-33.72715261869' lon='150.37539465187' />
  <node id='-179702' visible='true' lat='-33.72711111781' lon='150.37545864043' />
  <node id='-179703' visible='true' lat='-33.72697941401' lon='150.37561086436' />
  <node id='-179704' visible='true' lat='-33.72676404146' lon='150.37570770773' />
  <node id='-179705' visible='true' lat='-33.72665502303' lon='150.37574398041' />
  <node id='-179706' visible='true' lat='-33.7265178109' lon='150.3758150722' />
  <node id='-179707' visible='true' lat='-33.7264006524' lon='150.37582627189' />
  <node id='-179708' visible='true' lat='-33.72628831424' lon='150.37578627502' />
  <node id='-179709' visible='true' lat='-33.72623996577' lon='150.37582198563' />
  <node id='-179710' visible='true' lat='-33.72623154662' lon='150.37586736688' />
  <node id='-179711' visible='true' lat='-33.72605600529' lon='150.37606370878' />
  <node id='-179712' visible='true' lat='-33.72602600552' lon='150.37605972823' />
  <node id='-179713' visible='true' lat='-33.72583850692' lon='150.37620658872' />
  <node id='-179714' visible='true' lat='-33.72559612935' lon='150.37625232787' />
  <node id='-179715' visible='true' lat='-33.72547218517' lon='150.37633532353' />
  <node id='-179716' visible='true' lat='-33.72539182044' lon='150.37634663701' />
  <node id='-179717' visible='true' lat='-33.7251974042' lon='150.37636247457' />
  <node id='-179718' visible='true' lat='-33.7251534346' lon='150.37640989892' />
  <node id='-179719' visible='true' lat='-33.7251012533' lon='150.37645568062' />
  <node id='-179720' visible='true' lat='-33.72506312201' lon='150.37648106881' />
  <node id='-179721' visible='true' lat='-33.72500800188' lon='150.37651215732' />
  <node id='-179722' visible='true' lat='-33.72493234872' lon='150.37649946452' />
  <node id='-179723' visible='true' lat='-33.72485153425' lon='150.3765591662' />
  <node id='-179724' visible='true' lat='-33.72479163266' lon='150.3765631201' />
  <node id='-179725' visible='true' lat='-33.72473724308' lon='150.37659091198' />
  <node id='-179726' visible='true' lat='-33.72467549076' lon='150.37672487795' />
  <node id='-179727' visible='true' lat='-33.72458403766' lon='150.37684175123' />
  <node id='-179728' visible='true' lat='-33.72456284847' lon='150.37686870152' />
  <node id='-179729' visible='true' lat='-33.72452760546' lon='150.37690313435' />
  <node id='-179730' visible='true' lat='-33.72448138305' lon='150.37698000312' />
  <node id='-179731' visible='true' lat='-33.72438062237' lon='150.37713104397' />
  <node id='-179732' visible='true' lat='-33.72427003223' lon='150.37733540822' />
  <node id='-179733' visible='true' lat='-33.72417191929' lon='150.37738725417' />
  <node id='-179734' visible='true' lat='-33.72414530326' lon='150.37738965047' />
  <node id='-179735' visible='true' lat='-33.72411404663' lon='150.37736564619' />
  <node id='-179736' visible='true' lat='-33.72405729738' lon='150.3773815316' />
  <node id='-179737' visible='true' lat='-33.72397070339' lon='150.37744069581' />
  <node id='-179738' visible='true' lat='-33.72393328857' lon='150.37745243915' />
  <node id='-179739' visible='true' lat='-33.72382538532' lon='150.3774095558' />
  <node id='-179740' visible='true' lat='-33.72378565427' lon='150.3774135182' />
  <node id='-179741' visible='true' lat='-33.72368330366' lon='150.37744607958' />
  <node id='-179742' visible='true' lat='-33.72366117632' lon='150.37747970026' />
  <node id='-179743' visible='true' lat='-33.7236408102' lon='150.37750339901' />
  <node id='-179744' visible='true' lat='-33.72360478806' lon='150.37752280246' />
  <node id='-179745' visible='true' lat='-33.72359016762' lon='150.37751905363' />
  <node id='-179746' visible='true' lat='-33.72351689647' lon='150.37753827568' />
  <node id='-179747' visible='true' lat='-33.72346800111' lon='150.37755854427' />
  <node id='-179748' visible='true' lat='-33.72342074009' lon='150.37760590563' />
  <node id='-179749' visible='true' lat='-33.72337664246' lon='150.37762673222' />
  <node id='-179750' visible='true' lat='-33.72323509947' lon='150.37769858345' />
  <node id='-179751' visible='true' lat='-33.72312415221' lon='150.37767348941' />
  <node id='-179752' visible='true' lat='-33.72301662796' lon='150.37768735683' />
  <node id='-179753' visible='true' lat='-33.72298948494' lon='150.37771053514' />
  <node id='-179754' visible='true' lat='-33.72294538086' lon='150.37772244425' />
  <node id='-179755' visible='true' lat='-33.72291144234' lon='150.37775685284' />
  <node id='-179756' visible='true' lat='-33.72284347153' lon='150.37772991031' />
  <node id='-179757' visible='true' lat='-33.72271594015' lon='150.37771102055' />
  <node id='-179758' visible='true' lat='-33.72264655901' lon='150.37773375801' />
  <node id='-179759' visible='true' lat='-33.72251075989' lon='150.37790251511' />
  <node id='-179760' visible='true' lat='-33.72246446783' lon='150.37798695429' />
  <node id='-179761' visible='true' lat='-33.72244997218' lon='150.37806794749' />
  <node id='-179762' visible='true' lat='-33.72236477179' lon='150.37832275789' />
  <node id='-179763' visible='true' lat='-33.72227060584' lon='150.37843327073' />
  <node id='-179764' visible='true' lat='-33.72219071393' lon='150.37849341407' />
  <node id='-179765' visible='true' lat='-33.72204878057' lon='150.37864222481' />
  <node id='-179766' visible='true' lat='-33.72195520386' lon='150.37869355667' />
  <node id='-179767' visible='true' lat='-33.7217905362' lon='150.37868173081' />
  <node id='-179768' visible='true' lat='-33.72174328927' lon='150.37869341662' />
  <node id='-179769' visible='true' lat='-33.72166164848' lon='150.3786946801' />
  <node id='-179770' visible='true' lat='-33.72162225208' lon='150.37867942686' />
  <node id='-179771' visible='true' lat='-33.72157372285' lon='150.37863848933' />
  <node id='-179772' visible='true' lat='-33.72143021607' lon='150.37844464143' />
  <node id='-179773' visible='true' lat='-33.72139872053' lon='150.37836147797' />
  <node id='-179774' visible='true' lat='-33.72140138141' lon='150.37833470281' />
  <node id='-179775' visible='true' lat='-33.72143256811' lon='150.3782752754' />
  <node id='-179776' visible='true' lat='-33.72142808793' lon='150.37819911239' />
  <node id='-179777' visible='true' lat='-33.72131180004' lon='150.37799511244' />
  <node id='-179778' visible='true' lat='-33.72132090367' lon='150.3779518976' />
  <node id='-179779' visible='true' lat='-33.72117622353' lon='150.37786799962' />
  <node id='-179780' visible='true' lat='-33.72113623184' lon='150.37779899632' />
  <node id='-179781' visible='true' lat='-33.72109656003' lon='150.37778197735' />
  <node id='-179782' visible='true' lat='-33.72104141733' lon='150.37780768373' />
  <node id='-179783' visible='true' lat='-33.72095549433' lon='150.37778179302' />
  <node id='-179784' visible='true' lat='-33.72089910965' lon='150.37772703024' />
  <node id='-179785' visible='true' lat='-33.72086600785' lon='150.3776639268' />
  <node id='-179786' visible='true' lat='-33.7207648646' lon='150.37756568478' />
  <node id='-179787' visible='true' lat='-33.72071646865' lon='150.37747560905' />
  <node id='-179788' visible='true' lat='-33.72068767536' lon='150.37742910477' />
  <node id='-179789' visible='true' lat='-33.7205702459' lon='150.37732748117' />
  <node id='-179790' visible='true' lat='-33.72054029783' lon='150.37730713713' />
  <node id='-179791' visible='true' lat='-33.72052827504' lon='150.37730179367' />
  <node id='-179792' visible='true' lat='-33.72047959614' lon='150.37725581915' />
  <node id='-179793' visible='true' lat='-33.7203844295' lon='150.37721514793' />
  <node id='-179794' visible='true' lat='-33.72024892965' lon='150.37715694597' />
  <node id='-179795' visible='true' lat='-33.72012026006' lon='150.37713614068' />
  <node id='-179796' visible='true' lat='-33.72004979522' lon='150.37713066359' />
  <node id='-179797' visible='true' lat='-33.72002301155' lon='150.37715438627' />
  <node id='-179798' visible='true' lat='-33.72000062398' lon='150.37717505172' />
  <node id='-179799' visible='true' lat='-33.71998313678' lon='150.37718925452' />
  <node id='-179800' visible='true' lat='-33.71992876793' lon='150.37719419714' />
  <node id='-179801' visible='true' lat='-33.71989278404' lon='150.37719796883' />
  <node id='-179802' visible='true' lat='-33.71985640884' lon='150.37721460055' />
  <node id='-179803' visible='true' lat='-33.71983431037' lon='150.37723580615' />
  <node id='-179804' visible='true' lat='-33.71982510167' lon='150.37725327092' />
  <node id='-179805' visible='true' lat='-33.71981849905' lon='150.37726369192' />
  <node id='-179806' visible='true' lat='-33.71977973942' lon='150.37728111512' />
  <node id='-179807' visible='true' lat='-33.71974959147' lon='150.37729116444' />
  <node id='-179808' visible='true' lat='-33.71971757025' lon='150.37732086235' />
  <node id='-179809' visible='true' lat='-33.71965631793' lon='150.37734844041' />
  <node id='-179810' visible='true' lat='-33.71958318958' lon='150.37736444959' />
  <node id='-179811' visible='true' lat='-33.71954534257' lon='150.37737409083' />
  <node id='-179812' visible='true' lat='-33.71948597451' lon='150.37739862138' />
  <node id='-179813' visible='true' lat='-33.7194580572' lon='150.37742348061' />
  <node id='-179814' visible='true' lat='-33.71937810735' lon='150.37744567721' />
  <node id='-179815' visible='true' lat='-33.71936844466' lon='150.37751059843' />
  <node id='-179816' visible='true' lat='-33.71931720951' lon='150.37752858044' />
  <node id='-179817' visible='true' lat='-33.71921944742' lon='150.37755803628' />
  <node id='-179818' visible='true' lat='-33.71916922306' lon='150.37754640343' />
  <node id='-179819' visible='true' lat='-33.71913423755' lon='150.37751200756' />
  <node id='-179820' visible='true' lat='-33.71907504645' lon='150.37748545536' />
  <node id='-179821' visible='true' lat='-33.71907771999' lon='150.37747890087' />
  <node id='-179822' visible='true' lat='-33.7190789336' lon='150.37743134957' />
  <node id='-179823' visible='true' lat='-33.71904435922' lon='150.37731743276' />
  <node id='-179824' visible='true' lat='-33.71903246393' lon='150.37730876829' />
  <node id='-179825' visible='true' lat='-33.71906347302' lon='150.37723217956' />
  <node id='-179826' visible='true' lat='-33.7190394791' lon='150.37710833649' />
  <node id='-179827' visible='true' lat='-33.71901160811' lon='150.3770920679' />
  <node id='-179828' visible='true' lat='-33.71898663811' lon='150.37709229387' />
  <node id='-179829' visible='true' lat='-33.71893185338' lon='150.37710542579' />
  <node id='-179830' visible='true' lat='-33.7189216094' lon='150.37710911663' />
  <node id='-179831' visible='true' lat='-33.7189124814' lon='150.37710287425' />
  <node id='-179832' visible='true' lat='-33.71890489102' lon='150.37707454728' />
  <node id='-179833' visible='true' lat='-33.71891267431' lon='150.37705293842' />
  <node id='-179834' visible='true' lat='-33.71890037633' lon='150.37701791591' />
  <node id='-179835' visible='true' lat='-33.71887619131' lon='150.37700869741' />
  <node id='-179836' visible='true' lat='-33.71883918918' lon='150.37696441294' />
  <node id='-179837' visible='true' lat='-33.71881373771' lon='150.37694784928' />
  <node id='-179838' visible='true' lat='-33.71876656329' lon='150.37689799337' />
  <node id='-179839' visible='true' lat='-33.71872859245' lon='150.37686835502' />
  <node id='-179840' visible='true' lat='-33.71867018453' lon='150.37685320107' />
  <node id='-179841' visible='true' lat='-33.71861890477' lon='150.3768173981' />
  <node id='-179842' visible='true' lat='-33.71859615274' lon='150.37682206518' />
  <node id='-179843' visible='true' lat='-33.7185903314' lon='150.37681670494' />
  <node id='-179844' visible='true' lat='-33.71855639963' lon='150.37675611951' />
  <node id='-179845' visible='true' lat='-33.71853987555' lon='150.37672928252' />
  <node id='-179846' visible='true' lat='-33.71849725958' lon='150.37672562358' />
  <node id='-179847' visible='true' lat='-33.71843853803' lon='150.37670223122' />
  <node id='-179848' visible='true' lat='-33.71834506278' lon='150.37662488579' />
  <node id='-179849' visible='true' lat='-33.71833074689' lon='150.37659501684' />
  <node id='-179850' visible='true' lat='-33.71832649893' lon='150.37655927182' />
  <node id='-179851' visible='true' lat='-33.71830372681' lon='150.376529292' />
  <node id='-179852' visible='true' lat='-33.71829137536' lon='150.3764981812' />
  <node id='-179853' visible='true' lat='-33.71828400356' lon='150.37646505474' />
  <node id='-179854' visible='true' lat='-33.71828463729' lon='150.3764227004' />
  <node id='-179855' visible='true' lat='-33.7182635431' lon='150.37638993273' />
  <node id='-179856' visible='true' lat='-33.71825755585' lon='150.3763415829' />
  <node id='-179857' visible='true' lat='-33.71824012748' lon='150.37633948504' />
  <node id='-179858' visible='true' lat='-33.71814327772' lon='150.37631717208' />
  <node id='-179859' visible='true' lat='-33.71805078879' lon='150.37617039194' />
  <node id='-179860' visible='true' lat='-33.71802958561' lon='150.37609909865' />
  <node id='-179861' visible='true' lat='-33.71799235795' lon='150.37594065532' />
  <node id='-179862' visible='true' lat='-33.71796772437' lon='150.3758768794' />
  <node id='-179863' visible='true' lat='-33.7179004179' lon='150.37579994292' />
  <node id='-179864' visible='true' lat='-33.71781968615' lon='150.37575520622' />
  <node id='-179865' visible='true' lat='-33.71777624597' lon='150.37574364038' />
  <node id='-179866' visible='true' lat='-33.71776358674' lon='150.37569083332' />
  <node id='-179867' visible='true' lat='-33.71775835869' lon='150.37567425657' />
  <node id='-179868' visible='true' lat='-33.71773747581' lon='150.37565816447' />
  <node id='-179869' visible='true' lat='-33.71770005316' lon='150.37564811944' />
  <node id='-179870' visible='true' lat='-33.71767840803' lon='150.37562656487' />
  <node id='-179871' visible='true' lat='-33.71764070355' lon='150.3755747339' />
  <node id='-179872' visible='true' lat='-33.71760659879' lon='150.37555245924' />
  <node id='-179873' visible='true' lat='-33.71756808641' lon='150.37553749988' />
  <node id='-179874' visible='true' lat='-33.71749435116' lon='150.37553749988' />
  <node id='-179875' visible='true' lat='-33.7174473086' lon='150.37553196546' />
  <node id='-179876' visible='true' lat='-33.71735412434' lon='150.37551665162' />
  <node id='-179877' visible='true' lat='-33.71725702567' lon='150.37550823031' />
  <node id='-179878' visible='true' lat='-33.71721920566' lon='150.37551644716' />
  <node id='-179879' visible='true' lat='-33.71720815797' lon='150.37553172588' />
  <node id='-179880' visible='true' lat='-33.71715668408' lon='150.3755869591' />
  <node id='-179881' visible='true' lat='-33.71715097447' lon='150.37558883623' />
  <node id='-179882' visible='true' lat='-33.71713042321' lon='150.3755968901' />
  <node id='-179883' visible='true' lat='-33.71712900046' lon='150.37562249961' />
  <node id='-179884' visible='true' lat='-33.71712426071' lon='150.37562964357' />
  <node id='-179885' visible='true' lat='-33.71712484406' lon='150.37562904079' />
  <node id='-179886' visible='true' lat='-33.71705928274' lon='150.37562588236' />
  <node id='-179887' visible='true' lat='-33.71701327457' lon='150.37562904851' />
  <node id='-179888' visible='true' lat='-33.71686216659' lon='150.37560211232' />
  <node id='-179889' visible='true' lat='-33.71682277268' lon='150.37564116466' />
  <node id='-179890' visible='true' lat='-33.71681071444' lon='150.37567590388' />
  <node id='-179891' visible='true' lat='-33.7167903729' lon='150.37568652038' />
  <node id='-179892' visible='true' lat='-33.71676379551' lon='150.3756882518' />
  <node id='-179893' visible='true' lat='-33.71674152817' lon='150.37567398007' />
  <node id='-179894' visible='true' lat='-33.7167178922' lon='150.37564253486' />
  <node id='-179895' visible='true' lat='-33.71660369629' lon='150.37561423853' />
  <node id='-179896' visible='true' lat='-33.71658255785' lon='150.37559755028' />
  <node id='-179897' visible='true' lat='-33.71655086912' lon='150.37551641949' />
  <node id='-179898' visible='true' lat='-33.71653540597' lon='150.37542828962' />
  <node id='-179899' visible='true' lat='-33.71648892342' lon='150.37534898978' />
  <node id='-179900' visible='true' lat='-33.71646136053' lon='150.37531796842' />
  <node id='-179901' visible='true' lat='-33.71635093557' lon='150.37523119866' />
  <node id='-179902' visible='true' lat='-33.71629856669' lon='150.37521898997' />
  <node id='-179903' visible='true' lat='-33.71628680507' lon='150.37522179035' />
  <node id='-179904' visible='true' lat='-33.71626898844' lon='150.37521334645' />
  <node id='-179905' visible='true' lat='-33.71622412963' lon='150.37518063064' />
  <node id='-179906' visible='true' lat='-33.71618293155' lon='150.3751623919' />
  <node id='-179907' visible='true' lat='-33.71616253719' lon='150.37516486394' />
  <node id='-179908' visible='true' lat='-33.71610096733' lon='150.37514785514' />
  <node id='-179909' visible='true' lat='-33.71600024903' lon='150.37515191092' />
  <node id='-179910' visible='true' lat='-33.71598292678' lon='150.37512343197' />
  <node id='-179911' visible='true' lat='-33.71591999276' lon='150.37511733819' />
  <node id='-179912' visible='true' lat='-33.71582867911' lon='150.37508114443' />
  <node id='-179913' visible='true' lat='-33.71579129555' lon='150.3750495634' />
  <node id='-179914' visible='true' lat='-33.71575218933' lon='150.3749976878' />
  <node id='-179915' visible='true' lat='-33.71562823824' lon='150.37488613181' />
  <node id='-179916' visible='true' lat='-33.71556193432' lon='150.37486149595' />
  <node id='-179917' visible='true' lat='-33.71551649015' lon='150.37483605542' />
  <node id='-179918' visible='true' lat='-33.71541584375' lon='150.37483317393' />
  <node id='-179919' visible='true' lat='-33.71534873559' lon='150.37484835821' />
  <node id='-179920' visible='true' lat='-33.71530210236' lon='150.37491123921' />
  <node id='-179921' visible='true' lat='-33.71524317045' lon='150.37501554868' />
  <node id='-179922' visible='true' lat='-33.71515499071' lon='150.37506442053' />
  <node id='-179923' visible='true' lat='-33.7149975458' lon='150.37506618627' />
  <node id='-179924' visible='true' lat='-33.71486359878' lon='150.37502676643' />
  <node id='-179925' visible='true' lat='-33.71482036936' lon='150.37503609232' />
  <node id='-179926' visible='true' lat='-33.71474064265' lon='150.37498284239' />
  <node id='-179927' visible='true' lat='-33.71468226472' lon='150.37497940244' />
  <node id='-179928' visible='true' lat='-33.71459299516' lon='150.37493898038' />
  <node id='-179929' visible='true' lat='-33.71449856514' lon='150.37494012059' />
  <node id='-179930' visible='true' lat='-33.71443636858' lon='150.37496925063' />
  <node id='-179931' visible='true' lat='-33.71443220223' lon='150.3750532889' />
  <node id='-179932' visible='true' lat='-33.71440276178' lon='150.37507530598' />
  <node id='-179933' visible='true' lat='-33.7143486095' lon='150.37508661861' />
  <node id='-179934' visible='true' lat='-33.71432299989' lon='150.37507386441' />
  <node id='-179935' visible='true' lat='-33.71426603531' lon='150.37509078247' />
  <node id='-179936' visible='true' lat='-33.71422741702' lon='150.37511303209' />
  <node id='-179937' visible='true' lat='-33.71419319532' lon='150.37511534316' />
  <node id='-179938' visible='true' lat='-33.71409964567' lon='150.37505547909' />
  <node id='-179939' visible='true' lat='-33.71405585201' lon='150.37499644867' />
  <node id='-179940' visible='true' lat='-33.71394161562' lon='150.3747093572' />
  <node id='-179941' visible='true' lat='-33.71386114918' lon='150.37460521154' />
  <node id='-179942' visible='true' lat='-33.7137292048' lon='150.37467842007' />
  <node id='-179943' visible='true' lat='-33.71364655691' lon='150.37476355137' />
  <node id='-179944' visible='true' lat='-33.71355147867' lon='150.37479587231' />
  <node id='-179945' visible='true' lat='-33.71351641463' lon='150.37476847561' />
  <node id='-179946' visible='true' lat='-33.71348180155' lon='150.37475493579' />
  <node id='-179947' visible='true' lat='-33.71342827269' lon='150.37472533862' />
  <node id='-179948' visible='true' lat='-33.71336078655' lon='150.37466565088' />
  <node id='-179949' visible='true' lat='-33.71324934618' lon='150.37460372853' />
  <node id='-179950' visible='true' lat='-33.71320314144' lon='150.37454173717' />
  <node id='-179951' visible='true' lat='-33.7131548708' lon='150.37444682184' />
  <node id='-179952' visible='true' lat='-33.71308045762' lon='150.37439479567' />
  <node id='-179953' visible='true' lat='-33.71298158744' lon='150.37438240796' />
  <node id='-179954' visible='true' lat='-33.71298803791' lon='150.37443390768' />
  <node id='-179955' visible='true' lat='-33.71295597968' lon='150.37443583807' />
  <node id='-179956' visible='true' lat='-33.71293678813' lon='150.37440778185' />
  <node id='-179957' visible='true' lat='-33.71287769172' lon='150.37436810132' />
  <node id='-179958' visible='true' lat='-33.71285055161' lon='150.37436693514' />
  <node id='-179959' visible='true' lat='-33.7128101582' lon='150.37435877686' />
  <node id='-179960' visible='true' lat='-33.71270688846' lon='150.37434814315' />
  <node id='-179961' visible='true' lat='-33.71264342607' lon='150.37437426304' />
  <node id='-179962' visible='true' lat='-33.7125991372' lon='150.37436425254' />
  <node id='-179963' visible='true' lat='-33.71255064474' lon='150.37439109847' />
  <node id='-179964' visible='true' lat='-33.71248980598' lon='150.37442659566' />
  <node id='-179965' visible='true' lat='-33.71241609913' lon='150.37439834929' />
  <node id='-179966' visible='true' lat='-33.71229173292' lon='150.37433566551' />
  <node id='-179967' visible='true' lat='-33.71220269555' lon='150.37430700629' />
  <node id='-179968' visible='true' lat='-33.71211080473' lon='150.37430661359' />
  <node id='-179969' visible='true' lat='-33.71205925601' lon='150.3742621199' />
  <node id='-179970' visible='true' lat='-33.71202735831' lon='150.37421619095' />
  <node id='-179971' visible='true' lat='-33.71202019665' lon='150.37417412753' />
  <node id='-179972' visible='true' lat='-33.71202805382' lon='150.37409617613' />
  <node id='-179973' visible='true' lat='-33.71200162288' lon='150.37405391042' />
  <node id='-179974' visible='true' lat='-33.71185745101' lon='150.37401951152' />
  <node id='-179975' visible='true' lat='-33.71180943615' lon='150.37398163525' />
  <node id='-179976' visible='true' lat='-33.71175164841' lon='150.37391573696' />
  <node id='-179977' visible='true' lat='-33.71160778209' lon='150.37385195286' />
  <node id='-179978' visible='true' lat='-33.71155856096' lon='150.37381468828' />
  <node id='-179979' visible='true' lat='-33.7114985086' lon='150.37378411436' />
  <node id='-179980' visible='true' lat='-33.71138759947' lon='150.37368906391' />
  <node id='-179981' visible='true' lat='-33.71128145507' lon='150.37369752691' />
  <node id='-179982' visible='true' lat='-33.71110028491' lon='150.37365505587' />
  <node id='-179983' visible='true' lat='-33.71091416513' lon='150.3735751058' />
  <node id='-179984' visible='true' lat='-33.71072237884' lon='150.37345165481' />
  <node id='-179985' visible='true' lat='-33.71067823262' lon='150.37347372792' />
  <node id='-179986' visible='true' lat='-33.7103992129' lon='150.37375003089' />
  <node id='-179987' visible='true' lat='-33.71009539852' lon='150.37419416754' />
  <node id='-179988' visible='true' lat='-33.71000657867' lon='150.37436460562' />
  <node id='-179989' visible='true' lat='-33.70991842736' lon='150.37449578565' />
  <node id='-179990' visible='true' lat='-33.7099328704' lon='150.37452024732' />
  <node id='-179991' visible='true' lat='-33.71055263903' lon='150.37557104737' />
  <node id='-179992' visible='true' lat='-33.71046162512' lon='150.37565074348' />
  <node id='-179993' visible='true' lat='-33.7103393119' lon='150.3759296809' />
  <node id='-179994' visible='true' lat='-33.71008039536' lon='150.37594818193' />
  <node id='-179995' visible='true' lat='-33.70952845708' lon='150.37591094639' />
  <node id='-179996' visible='true' lat='-33.70950250842' lon='150.37617759482' />
  <node id='-179997' visible='true' lat='-33.70948396241' lon='150.37637432999' />
  <node id='-179998' visible='true' lat='-33.70961494436' lon='150.3764094422' />
  <node id='-181435' action='modify' visible='true' lat='-33.72709414333' lon='150.3751471683' />
  <node id='-181437' action='modify' visible='true' lat='-33.72707379672' lon='150.37497102655' />
  <node id='-181439' action='modify' visible='true' lat='-33.72714704452' lon='150.37475818861' />
  <node id='-181441' action='modify' visible='true' lat='-33.7273250771' lon='150.37467256415' />
  <node id='-181443' action='modify' visible='true' lat='-33.7274369831' lon='150.3744413781' />
  <node id='-181445' action='modify' visible='true' lat='-33.72746852022' lon='150.37432395027' />
  <node id='-181447' action='modify' visible='true' lat='-33.7275387157' lon='150.37417227265' />
  <node id='-181449' action='modify' visible='true' lat='-33.72754329367' lon='150.37417655387' />
  <node id='-181451' action='modify' visible='true' lat='-33.72747258953' lon='150.37432884309' />
  <node id='-181453' action='modify' visible='true' lat='-33.72744206973' lon='150.3744419897' />
  <node id='-181455' action='modify' visible='true' lat='-33.72749191872' lon='150.37459366732' />
  <node id='-181457' action='modify' visible='true' lat='-33.7275224385' lon='150.37473127806' />
  <node id='-181459' action='modify' visible='true' lat='-33.72763485291' lon='150.37483280421' />
  <node id='-181461' action='modify' visible='true' lat='-33.72765876002' lon='150.37483341581' />
  <node id='-181463' action='modify' visible='true' lat='-33.72777219158' lon='150.37485115231' />
  <node id='-181465' action='modify' visible='true' lat='-33.72778948606' lon='150.37472516203' />
  <node id='-181467' action='modify' visible='true' lat='-33.72786680253' lon='150.37472699684' />
  <node id='-181469' action='modify' visible='true' lat='-33.72791868592' lon='150.37476613945' />
  <node id='-181471' action='modify' visible='true' lat='-33.72794208429' lon='150.37474412173' />
  <node id='-181473' action='modify' visible='true' lat='-33.72804178166' lon='150.37473066646' />
  <node id='-181475' action='modify' visible='true' lat='-33.72811706327' lon='150.37467317575' />
  <node id='-181477' action='modify' visible='true' lat='-33.72817708505' lon='150.3745349534' />
  <node id='-181479' action='modify' visible='true' lat='-33.72819107317' lon='150.37454626806' />
  <node id='-181481' action='modify' visible='true' lat='-33.72819081884' lon='150.37451477049' />
  <node id='-181483' action='modify' visible='true' lat='-33.7282104022' lon='150.37454168104' />
  <node id='-181485' action='modify' visible='true' lat='-33.72821243683' lon='150.37451691111' />
  <node id='-181487' action='modify' visible='true' lat='-33.72825592714' lon='150.37448724835' />
  <node id='-181489' action='modify' visible='true' lat='-33.72826457434' lon='150.37436278708' />
  <node id='-181491' action='modify' visible='true' lat='-33.72845176043' lon='150.37420866305' />
  <node id='-181493' action='modify' visible='true' lat='-33.72847617598' lon='150.3741071369' />
  <node id='-181495' action='modify' visible='true' lat='-33.72860740943' lon='150.37405576222' />
  <node id='-181497' action='modify' visible='true' lat='-33.72864504999' lon='150.37394567363' />
  <node id='-181499' action='modify' visible='true' lat='-33.72867862129' lon='150.37376341585' />
  <node id='-181501' action='modify' visible='true' lat='-33.7286542058' lon='150.37359828296' />
  <node id='-181503' action='modify' visible='true' lat='-33.72855349183' lon='150.37355180111' />
  <node id='-181505' action='modify' visible='true' lat='-33.72855756109' lon='150.37354354446' />
  <node id='-181507' action='modify' visible='true' lat='-33.72865827505' lon='150.37359033211' />
  <node id='-181509' action='modify' visible='true' lat='-33.72875695428' lon='150.37365883168' />
  <node id='-181511' action='modify' visible='true' lat='-33.72886631514' lon='150.37369246986' />
  <node id='-181513' action='modify' visible='true' lat='-33.72895176911' lon='150.37363987198' />
  <node id='-181515' action='modify' visible='true' lat='-33.72909012298' lon='150.3734955336' />
  <node id='-181517' action='modify' visible='true' lat='-33.72912674603' lon='150.37348085512' />
  <node id='-181519' action='modify' visible='true' lat='-33.72910029605' lon='150.37363620236' />
  <node id='-181521' action='modify' visible='true' lat='-33.72889073057' lon='150.37394934325' />
  <node id='-181523' action='modify' visible='true' lat='-33.72885309011' lon='150.37411325293' />
  <node id='-181525' action='modify' visible='true' lat='-33.72894363064' lon='150.37451446469' />
  <node id='-181527' action='modify' visible='true' lat='-33.72891718061' lon='150.37461109801' />
  <node id='-181529' action='modify' visible='true' lat='-33.72887343631' lon='150.374646571' />
  <node id='-181531' action='modify' visible='true' lat='-33.7286089354' lon='150.37465391024' />
  <node id='-181533' action='modify' visible='true' lat='-33.72848685778' lon='150.37462333008' />
  <node id='-181535' action='modify' visible='true' lat='-33.72826355702' lon='150.37449367018' />
  <node id='-181537' action='modify' visible='true' lat='-33.72821498013' lon='150.37452195683' />
  <node id='-181539' action='modify' visible='true' lat='-33.72821205534' lon='150.37454672677' />
  <node id='-181541' action='modify' visible='true' lat='-33.72819336213' lon='150.37452180393' />
  <node id='-181543' action='modify' visible='true' lat='-33.72819259914' lon='150.37455177249' />
  <node id='-181545' action='modify' visible='true' lat='-33.72817772087' lon='150.37453923463' />
  <node id='-181547' action='modify' visible='true' lat='-33.72816322409' lon='150.37459856015' />
  <node id='-181549' action='modify' visible='true' lat='-33.72811973373' lon='150.37468051499' />
  <node id='-181551' action='modify' visible='true' lat='-33.72804394347' lon='150.37474045211' />
  <node id='-181553' action='modify' visible='true' lat='-33.72794526342' lon='150.37475207257' />
  <node id='-181555' action='modify' visible='true' lat='-33.7279198304' lon='150.3747753135' />
  <node id='-181557' action='modify' visible='true' lat='-33.72786235175' lon='150.37473372447' />
  <node id='-181559' action='modify' visible='true' lat='-33.72781295222' lon='150.37473626888' />
  <way id='-179159' action='modify' visible='true'>
    <nd ref='-179160' />
    <nd ref='-179161' />
    <nd ref='-179162' />
    <nd ref='-179163' />
    <nd ref='-179164' />
    <nd ref='-179165' />
    <nd ref='-179166' />
    <nd ref='-179167' />
    <nd ref='-179168' />
    <nd ref='-179169' />
    <nd ref='-179170' />
    <nd ref='-179171' />
    <nd ref='-179172' />
    <nd ref='-179173' />
    <nd ref='-179174' />
    <nd ref='-179175' />
    <nd ref='-179176' />
    <nd ref='-179177' />
    <nd ref='-179178' />
    <nd ref='-179179' />
    <nd ref='-179180' />
    <nd ref='-179181' />
    <nd ref='-179182' />
    <nd ref='-179183' />
    <nd ref='-179184' />
    <nd ref='-179185' />
    <nd ref='-179186' />
    <nd ref='-179187' />
    <nd ref='-179188' />
    <nd ref='-179189' />
    <nd ref='-179190' />
    <nd ref='-179191' />
    <nd ref='-179192' />
    <nd ref='-179193' />
    <nd ref='-179194' />
    <nd ref='-179195' />
    <nd ref='-179196' />
    <nd ref='-179197' />
    <nd ref='-179198' />
    <nd ref='-179199' />
    <nd ref='-179200' />
    <nd ref='-179201' />
    <nd ref='-179202' />
    <nd ref='-179203' />
    <nd ref='-179204' />
    <nd ref='-179205' />
    <nd ref='-179206' />
    <nd ref='-179207' />
    <nd ref='-179208' />
    <nd ref='-179209' />
    <nd ref='-179210' />
    <nd ref='-179211' />
    <nd ref='-179212' />
    <nd ref='-179213' />
    <nd ref='-179214' />
    <nd ref='-179215' />
    <nd ref='-179216' />
    <nd ref='-179217' />
    <nd ref='-179218' />
    <nd ref='-179219' />
    <nd ref='-179220' />
    <nd ref='-179221' />
    <nd ref='-179222' />
    <nd ref='-179223' />
    <nd ref='-179224' />
    <nd ref='-179225' />
    <nd ref='-179226' />
    <nd ref='-179227' />
    <nd ref='-179228' />
    <nd ref='-179229' />
    <nd ref='-179230' />
    <nd ref='-179231' />
    <nd ref='-179232' />
    <nd ref='-179233' />
    <nd ref='-179234' />
    <nd ref='-179235' />
    <nd ref='-179236' />
    <nd ref='-179237' />
    <nd ref='-179238' />
    <nd ref='-179239' />
    <nd ref='-179240' />
    <nd ref='-179241' />
    <nd ref='-179242' />
    <nd ref='-179243' />
    <nd ref='-179244' />
    <nd ref='-179245' />
    <nd ref='-179246' />
    <nd ref='-179247' />
    <nd ref='-179248' />
    <nd ref='-179249' />
    <nd ref='-179250' />
    <nd ref='-179251' />
    <nd ref='-179252' />
    <nd ref='-179253' />
    <nd ref='-179254' />
    <nd ref='-179255' />
    <nd ref='-179256' />
    <nd ref='-179257' />
    <nd ref='-179258' />
    <nd ref='-179259' />
    <nd ref='-179260' />
    <nd ref='-179261' />
    <nd ref='-179262' />
    <nd ref='-179263' />
    <nd ref='-179264' />
    <nd ref='-179265' />
    <nd ref='-179266' />
    <nd ref='-179267' />
    <nd ref='-179268' />
    <nd ref='-179269' />
    <nd ref='-179270' />
    <nd ref='-179271' />
    <nd ref='-179272' />
    <nd ref='-179273' />
    <nd ref='-179274' />
    <nd ref='-179275' />
    <nd ref='-179276' />
    <nd ref='-179277' />
    <nd ref='-179278' />
    <nd ref='-179279' />
    <nd ref='-179280' />
    <nd ref='-179281' />
    <nd ref='-179282' />
    <nd ref='-179283' />
    <nd ref='-179284' />
    <nd ref='-179285' />
    <nd ref='-179286' />
    <nd ref='-179287' />
    <nd ref='-179288' />
    <nd ref='-179289' />
    <nd ref='-179290' />
    <nd ref='-179291' />
    <nd ref='-179292' />
    <nd ref='-179293' />
    <nd ref='-179294' />
    <nd ref='-179295' />
    <nd ref='-179296' />
    <nd ref='-179297' />
    <nd ref='-179298' />
    <nd ref='-179299' />
    <nd ref='-179300' />
    <nd ref='-179301' />
    <nd ref='-179302' />
    <nd ref='-179303' />
    <nd ref='-179304' />
    <nd ref='-179305' />
    <nd ref='-179306' />
    <nd ref='-179307' />
    <nd ref='-179308' />
    <nd ref='-179309' />
    <nd ref='-179310' />
    <nd ref='-179311' />
    <nd ref='-179312' />
    <nd ref='-179313' />
    <nd ref='-179314' />
    <nd ref='-179315' />
    <nd ref='-179316' />
    <nd ref='-179317' />
    <nd ref='-179318' />
    <nd ref='-179319' />
    <nd ref='-179320' />
    <nd ref='-179321' />
    <nd ref='-179322' />
    <nd ref='-179323' />
    <nd ref='-179324' />
    <nd ref='-179325' />
    <nd ref='-179326' />
    <nd ref='-179327' />
    <nd ref='-179328' />
    <nd ref='-179329' />
    <nd ref='-179330' />
    <nd ref='-179331' />
    <nd ref='-179332' />
    <nd ref='-179333' />
    <nd ref='-179334' />
    <nd ref='-179335' />
    <nd ref='-179336' />
    <nd ref='-179337' />
    <nd ref='-179338' />
    <nd ref='-179339' />
    <nd ref='-179340' />
    <nd ref='-179341' />
    <nd ref='-179342' />
    <nd ref='-179343' />
    <nd ref='-179344' />
    <nd ref='-179345' />
    <nd ref='-179346' />
    <nd ref='-179347' />
    <nd ref='-179348' />
    <nd ref='-179349' />
    <nd ref='-179350' />
    <nd ref='-179351' />
    <nd ref='-179352' />
    <nd ref='-179353' />
    <nd ref='-179354' />
    <nd ref='-179355' />
    <nd ref='-179356' />
    <nd ref='-179357' />
    <nd ref='-179358' />
    <nd ref='-179359' />
    <nd ref='-179360' />
    <nd ref='-179361' />
    <nd ref='-179362' />
    <nd ref='-179363' />
    <nd ref='-179364' />
    <nd ref='-179365' />
    <nd ref='-179366' />
    <nd ref='-179367' />
    <nd ref='-179368' />
    <nd ref='-179369' />
    <nd ref='-179370' />
    <nd ref='-179371' />
    <nd ref='-179372' />
    <nd ref='-179373' />
    <nd ref='-179374' />
    <nd ref='-179375' />
    <nd ref='-179376' />
    <nd ref='-179377' />
    <nd ref='-179378' />
    <nd ref='-179379' />
    <nd ref='-179380' />
    <nd ref='-179381' />
    <nd ref='-179382' />
    <nd ref='-179383' />
    <nd ref='-179384' />
    <nd ref='-179385' />
    <nd ref='-179386' />
    <nd ref='-179387' />
    <nd ref='-179388' />
    <nd ref='-179389' />
    <nd ref='-179390' />
    <nd ref='-179391' />
    <nd ref='-179392' />
    <nd ref='-179393' />
    <nd ref='-179394' />
    <nd ref='-179395' />
    <nd ref='-179396' />
    <nd ref='-179397' />
    <nd ref='-179398' />
    <nd ref='-179399' />
    <nd ref='-179400' />
    <nd ref='-179401' />
    <nd ref='-179402' />
    <nd ref='-179403' />
    <nd ref='-179404' />
    <nd ref='-179405' />
    <nd ref='-179406' />
    <nd ref='-179407' />
    <nd ref='-179408' />
    <nd ref='-179409' />
    <nd ref='-179410' />
    <nd ref='-179411' />
    <nd ref='-179412' />
    <nd ref='-179413' />
    <nd ref='-179414' />
    <nd ref='-179415' />
    <nd ref='-179416' />
    <nd ref='-179417' />
    <nd ref='-179418' />
    <nd ref='-179419' />
    <nd ref='-179420' />
    <nd ref='-179421' />
    <nd ref='-179422' />
    <nd ref='-179423' />
    <nd ref='-179424' />
    <nd ref='-179425' />
    <nd ref='-179426' />
    <nd ref='-179427' />
    <nd ref='-179428' />
    <nd ref='-179429' />
    <nd ref='-179430' />
    <nd ref='-179431' />
    <nd ref='-179432' />
    <nd ref='-179433' />
    <nd ref='-179434' />
    <nd ref='-179435' />
    <nd ref='-179436' />
    <nd ref='-179437' />
    <nd ref='-179438' />
    <nd ref='-179439' />
    <nd ref='-179440' />
    <nd ref='-179441' />
    <nd ref='-179442' />
    <nd ref='-179443' />
    <nd ref='-179444' />
    <nd ref='-179445' />
    <nd ref='-179446' />
    <nd ref='-179447' />
    <nd ref='-179448' />
    <nd ref='-179449' />
    <nd ref='-179450' />
    <nd ref='-179451' />
    <nd ref='-179452' />
    <nd ref='-179453' />
    <nd ref='-179454' />
    <nd ref='-179455' />
    <nd ref='-179456' />
    <nd ref='-179457' />
    <nd ref='-179458' />
    <nd ref='-179459' />
    <nd ref='-179460' />
    <nd ref='-179461' />
    <nd ref='-179462' />
    <nd ref='-179463' />
    <nd ref='-179464' />
    <nd ref='-181559' />
    <nd ref='-181557' />
    <nd ref='-181555' />
    <nd ref='-181553' />
    <nd ref='-181551' />
    <nd ref='-181549' />
    <nd ref='-181547' />
    <nd ref='-181545' />
    <nd ref='-181543' />
    <nd ref='-181541' />
    <nd ref='-181539' />
    <nd ref='-181537' />
    <nd ref='-181535' />
    <nd ref='-181533' />
    <nd ref='-181531' />
    <nd ref='-181529' />
    <nd ref='-181527' />
    <nd ref='-181525' />
    <nd ref='-181523' />
    <nd ref='-181521' />
    <nd ref='-181519' />
    <nd ref='-181517' />
    <nd ref='-181515' />
    <nd ref='-181513' />
    <nd ref='-181511' />
    <nd ref='-181509' />
    <nd ref='-181507' />
    <nd ref='-181505' />
    <nd ref='-181503' />
    <nd ref='-181501' />
    <nd ref='-181499' />
    <nd ref='-181497' />
    <nd ref='-181495' />
    <nd ref='-181493' />
    <nd ref='-181491' />
    <nd ref='-181489' />
    <nd ref='-181487' />
    <nd ref='-181485' />
    <nd ref='-181483' />
    <nd ref='-181481' />
    <nd ref='-181479' />
    <nd ref='-181477' />
    <nd ref='-181475' />
    <nd ref='-181473' />
    <nd ref='-181471' />
    <nd ref='-181469' />
    <nd ref='-181467' />
    <nd ref='-181465' />
    <nd ref='-181463' />
    <nd ref='-181461' />
    <nd ref='-181459' />
    <nd ref='-181457' />
    <nd ref='-181455' />
    <nd ref='-181453' />
    <nd ref='-181451' />
    <nd ref='-181449' />
    <nd ref='-181447' />
    <nd ref='-181445' />
    <nd ref='-181443' />
    <nd ref='-181441' />
    <nd ref='-181439' />
    <nd ref='-181437' />
    <nd ref='-181435' />
    <nd ref='-179701' />
    <nd ref='-179702' />
    <nd ref='-179703' />
    <nd ref='-179704' />
    <nd ref='-179705' />
    <nd ref='-179706' />
    <nd ref='-179707' />
    <nd ref='-179708' />
    <nd ref='-179709' />
    <nd ref='-179710' />
    <nd ref='-179711' />
    <nd ref='-179712' />
    <nd ref='-179713' />
    <nd ref='-179714' />
    <nd ref='-179715' />
    <nd ref='-179716' />
    <nd ref='-179717' />
    <nd ref='-179718' />
    <nd ref='-179719' />
    <nd ref='-179720' />
    <nd ref='-179721' />
    <nd ref='-179722' />
    <nd ref='-179723' />
    <nd ref='-179724' />
    <nd ref='-179725' />
    <nd ref='-179726' />
    <nd ref='-179727' />
    <nd ref='-179728' />
    <nd ref='-179729' />
    <nd ref='-179730' />
    <nd ref='-179731' />
    <nd ref='-179732' />
    <nd ref='-179733' />
    <nd ref='-179734' />
    <nd ref='-179735' />
    <nd ref='-179736' />
    <nd ref='-179737' />
    <nd ref='-179738' />
    <nd ref='-179739' />
    <nd ref='-179740' />
    <nd ref='-179741' />
    <nd ref='-179742' />
    <nd ref='-179743' />
    <nd ref='-179744' />
    <nd ref='-179745' />
    <nd ref='-179746' />
    <nd ref='-179747' />
    <nd ref='-179748' />
    <nd ref='-179749' />
    <nd ref='-179750' />
    <nd ref='-179751' />
    <nd ref='-179752' />
    <nd ref='-179753' />
    <nd ref='-179754' />
    <nd ref='-179755' />
    <nd ref='-179756' />
    <nd ref='-179757' />
    <nd ref='-179758' />
    <nd ref='-179759' />
    <nd ref='-179760' />
    <nd ref='-179761' />
    <nd ref='-179762' />
    <nd ref='-179763' />
    <nd ref='-179764' />
    <nd ref='-179765' />
    <nd ref='-179766' />
    <nd ref='-179767' />
    <nd ref='-179768' />
    <nd ref='-179769' />
    <nd ref='-179770' />
    <nd ref='-179771' />
    <nd ref='-179772' />
    <nd ref='-179773' />
    <nd ref='-179774' />
    <nd ref='-179775' />
    <nd ref='-179776' />
    <nd ref='-179777' />
    <nd ref='-179778' />
    <nd ref='-179779' />
    <nd ref='-179780' />
    <nd ref='-179781' />
    <nd ref='-179782' />
    <nd ref='-179783' />
    <nd ref='-179784' />
    <nd ref='-179785' />
    <nd ref='-179786' />
    <nd ref='-179787' />
    <nd ref='-179788' />
    <nd ref='-179789' />
    <nd ref='-179790' />
    <nd ref='-179791' />
    <nd ref='-179792' />
    <nd ref='-179793' />
    <nd ref='-179794' />
    <nd ref='-179795' />
    <nd ref='-179796' />
    <nd ref='-179797' />
    <nd ref='-179798' />
    <nd ref='-179799' />
    <nd ref='-179800' />
    <nd ref='-179801' />
    <nd ref='-179802' />
    <nd ref='-179803' />
    <nd ref='-179804' />
    <nd ref='-179805' />
    <nd ref='-179806' />
    <nd ref='-179807' />
    <nd ref='-179808' />
    <nd ref='-179809' />
    <nd ref='-179810' />
    <nd ref='-179811' />
    <nd ref='-179812' />
    <nd ref='-179813' />
    <nd ref='-179814' />
    <nd ref='-179815' />
    <nd ref='-179816' />
    <nd ref='-179817' />
    <nd ref='-179818' />
    <nd ref='-179819' />
    <nd ref='-179820' />
    <nd ref='-179821' />
    <nd ref='-179822' />
    <nd ref='-179823' />
    <nd ref='-179824' />
    <nd ref='-179825' />
    <nd ref='-179826' />
    <nd ref='-179827' />
    <nd ref='-179828' />
    <nd ref='-179829' />
    <nd ref='-179830' />
    <nd ref='-179831' />
    <nd ref='-179832' />
    <nd ref='-179833' />
    <nd ref='-179834' />
    <nd ref='-179835' />
    <nd ref='-179836' />
    <nd ref='-179837' />
    <nd ref='-179838' />
    <nd ref='-179839' />
    <nd ref='-179840' />
    <nd ref='-179841' />
    <nd ref='-179842' />
    <nd ref='-179843' />
    <nd ref='-179844' />
    <nd ref='-179845' />
    <nd ref='-179846' />
    <nd ref='-179847' />
    <nd ref='-179848' />
    <nd ref='-179849' />
    <nd ref='-179850' />
    <nd ref='-179851' />
    <nd ref='-179852' />
    <nd ref='-179853' />
    <nd ref='-179854' />
    <nd ref='-179855' />
    <nd ref='-179856' />
    <nd ref='-179857' />
    <nd ref='-179858' />
    <nd ref='-179859' />
    <nd ref='-179860' />
    <nd ref='-179861' />
    <nd ref='-179862' />
    <nd ref='-179863' />
    <nd ref='-179864' />
    <nd ref='-179865' />
    <nd ref='-179866' />
    <nd ref='-179867' />
    <nd ref='-179868' />
    <nd ref='-179869' />
    <nd ref='-179870' />
    <nd ref='-179871' />
    <nd ref='-179872' />
    <nd ref='-179873' />
    <nd ref='-179874' />
    <nd ref='-179875' />
    <nd ref='-179876' />
    <nd ref='-179877' />
    <nd ref='-179878' />
    <nd ref='-179879' />
    <nd ref='-179880' />
    <nd ref='-179881' />
    <nd ref='-179882' />
    <nd ref='-179883' />
    <nd ref='-179884' />
    <nd ref='-179885' />
    <nd ref='-179886' />
    <nd ref='-179887' />
    <nd ref='-179888' />
    <nd ref='-179889' />
    <nd ref='-179890' />
    <nd ref='-179891' />
    <nd ref='-179892' />
    <nd ref='-179893' />
    <nd ref='-179894' />
    <nd ref='-179895' />
    <nd ref='-179896' />
    <nd ref='-179897' />
    <nd ref='-179898' />
    <nd ref='-179899' />
    <nd ref='-179900' />
    <nd ref='-179901' />
    <nd ref='-179902' />
    <nd ref='-179903' />
    <nd ref='-179904' />
    <nd ref='-179905' />
    <nd ref='-179906' />
    <nd ref='-179907' />
    <nd ref='-179908' />
    <nd ref='-179909' />
    <nd ref='-179910' />
    <nd ref='-179911' />
    <nd ref='-179912' />
    <nd ref='-179913' />
    <nd ref='-179914' />
    <nd ref='-179915' />
    <nd ref='-179916' />
    <nd ref='-179917' />
    <nd ref='-179918' />
    <nd ref='-179919' />
    <nd ref='-179920' />
    <nd ref='-179921' />
    <nd ref='-179922' />
    <nd ref='-179923' />
    <nd ref='-179924' />
    <nd ref='-179925' />
    <nd ref='-179926' />
    <nd ref='-179927' />
    <nd ref='-179928' />
    <nd ref='-179929' />
    <nd ref='-179930' />
    <nd ref='-179931' />
    <nd ref='-179932' />
    <nd ref='-179933' />
    <nd ref='-179934' />
    <nd ref='-179935' />
    <nd ref='-179936' />
    <nd ref='-179937' />
    <nd ref='-179938' />
    <nd ref='-179939' />
    <nd ref='-179940' />
    <nd ref='-179941' />
    <nd ref='-179942' />
    <nd ref='-179943' />
    <nd ref='-179944' />
    <nd ref='-179945' />
    <nd ref='-179946' />
    <nd ref='-179947' />
    <nd ref='-179948' />
    <nd ref='-179949' />
    <nd ref='-179950' />
    <nd ref='-179951' />
    <nd ref='-179952' />
    <nd ref='-179953' />
    <nd ref='-179954' />
    <nd ref='-179955' />
    <nd ref='-179956' />
    <nd ref='-179957' />
    <nd ref='-179958' />
    <nd ref='-179959' />
    <nd ref='-179960' />
    <nd ref='-179961' />
    <nd ref='-179962' />
    <nd ref='-179963' />
    <nd ref='-179964' />
    <nd ref='-179965' />
    <nd ref='-179966' />
    <nd ref='-179967' />
    <nd ref='-179968' />
    <nd ref='-179969' />
    <nd ref='-179970' />
    <nd ref='-179971' />
    <nd ref='-179972' />
    <nd ref='-179973' />
    <nd ref='-179974' />
    <nd ref='-179975' />
    <nd ref='-179976' />
    <nd ref='-179977' />
    <nd ref='-179978' />
    <nd ref='-179979' />
    <nd ref='-179980' />
    <nd ref='-179981' />
    <nd ref='-179982' />
    <nd ref='-179983' />
    <nd ref='-179984' />
    <nd ref='-179985' />
    <nd ref='-179986' />
    <nd ref='-179987' />
    <nd ref='-179988' />
    <nd ref='-179989' />
    <nd ref='-179990' />
    <nd ref='-179991' />
    <nd ref='-179992' />
    <nd ref='-179993' />
    <nd ref='-179994' />
    <nd ref='-179995' />
    <nd ref='-179996' />
    <nd ref='-179997' />
    <nd ref='-179998' />
    <tag k='name' v='Wentworth Falls Lookouts via Charles Darwin Walk' />
    <tag k='park' v='Blue Mountains National Park' />
    <tag k='role' v='primary' />
    <tag k='photo' v='136319147@N08/31717340235' />
    <tag k='style' v='loop' />
    <tag k='transport' v='car;train' />
  </way>
</osm>
