<?xml version='1.0' encoding='UTF-8'?>
<osm version='0.6' upload='false' generator='JOSM'>
  <node id='-214602' lat='-35.6293222' lon='148.6630478' />
  <node id='-214603' lat='-35.6291209' lon='148.66306' />
  <node id='-214604' lat='-35.6289596' lon='148.6632478' />
  <node id='-214605' lat='-35.6285322' lon='148.6634677' />
  <node id='-214606' lat='-35.6283753' lon='148.6636286' />
  <node id='-214607' lat='-35.6278913' lon='148.6640202' />
  <node id='-214608' lat='-35.6274073' lon='148.6649' />
  <node id='-214609' lat='-35.6271675' lon='148.6651199' />
  <node id='-214610' lat='-35.6270846' lon='148.6657637' />
  <node id='-214611' lat='-35.6266927' lon='148.666384' />
  <node id='-214612' lat='-35.6263259' lon='148.6665576' />
  <node id='-214613' lat='-35.6262867' lon='148.6666756' />
  <node id='-214614' lat='-35.6262082' lon='148.6667507' />
  <node id='-214615' lat='-35.6260251' lon='148.6667024' />
  <node id='-214616' lat='-35.6258681' lon='148.6667829' />
  <node id='-214617' lat='-35.6258463' lon='148.6668902' />
  <node id='-214618' lat='-35.6256239' lon='148.6671852' />
  <node id='-214619' lat='-35.6254233' lon='148.6671691' />
  <node id='-214620' lat='-35.6248695' lon='148.6673247' />
  <node id='-214621' lat='-35.6245643' lon='148.6675393' />
  <node id='-214622' lat='-35.6238448' lon='148.6684137' />
  <node id='-214623' lat='-35.6237794' lon='148.6685317' />
  <node id='-214624' lat='-35.6233216' lon='148.6687999' />
  <node id='-214625' lat='-35.6232231' lon='148.6689525' />
  <node id='-214626' lat='-35.6310446' lon='148.6694598' />
  <node id='-214627' lat='-35.631222' lon='148.6691712' />
  <node id='-214628' lat='-35.631453' lon='148.6692902' />
  <node id='-214629' lat='-35.6320708' lon='148.6689928' />
  <node id='-214630' lat='-35.632189' lon='148.6688804' />
  <node id='-214631' lat='-35.6322373' lon='148.6687416' />
  <node id='-214632' lat='-35.6322534' lon='148.6686028' />
  <node id='-214633' lat='-35.6323662' lon='148.6685103' />
  <node id='-214634' lat='-35.6325435' lon='148.6683847' />
  <node id='-214635' lat='-35.6327691' lon='148.6682657' />
  <node id='-214636' lat='-35.6330055' lon='148.6682063' />
  <node id='-214637' lat='-35.6331559' lon='148.6681269' />
  <node id='-214638' lat='-35.6332902' lon='148.668041' />
  <node id='-214639' lat='-35.6333815' lon='148.6678229' />
  <node id='-214640' lat='-35.6335695' lon='148.6676511' />
  <node id='-214641' lat='-35.6337199' lon='148.6675321' />
  <node id='-214642' lat='-35.6339401' lon='148.6674462' />
  <node id='-214643' lat='-35.6340906' lon='148.6674462' />
  <node id='-214644' lat='-35.6343914' lon='148.6672017' />
  <node id='-214645' lat='-35.6347083' lon='148.6668712' />
  <node id='-214646' lat='-35.6350306' lon='148.6666267' />
  <node id='-214647' lat='-35.6352293' lon='148.6664152' />
  <node id='-214648' lat='-35.6354496' lon='148.6662169' />
  <node id='-214649' lat='-35.6356537' lon='148.6660252' />
  <node id='-214650' lat='-35.6358632' lon='148.6657873' />
  <node id='-214651' lat='-35.6361479' lon='148.6655692' />
  <node id='-214652' lat='-35.6362177' lon='148.6654436' />
  <node id='-214653' lat='-35.6361318' lon='148.665318' />
  <node id='-214654' lat='-35.6359599' lon='148.6652718' />
  <node id='-214655' lat='-35.6358524' lon='148.6652652' />
  <node id='-214656' lat='-35.6355731' lon='148.6652123' />
  <node id='-214657' lat='-35.6352455' lon='148.6651197' />
  <node id='-214658' lat='-35.6347674' lon='148.6649743' />
  <node id='-214659' lat='-35.6344558' lon='148.6648488' />
  <node id='-214660' lat='-35.6339025' lon='148.6645844' />
  <node id='-214661' lat='-35.6337682' lon='148.6644654' />
  <node id='-214662' lat='-35.6336286' lon='148.6645051' />
  <node id='-214663' lat='-35.6328389' lon='148.6644456' />
  <node id='-214664' lat='-35.6325865' lon='148.6643861' />
  <node id='-214665' lat='-35.6323985' lon='148.6642936' />
  <node id='-214666' lat='-35.6321084' lon='148.66432' />
  <node id='-214667' lat='-35.6317861' lon='148.6643068' />
  <node id='-214668' lat='-35.6316088' lon='148.6643134' />
  <node id='-214669' lat='-35.6314208' lon='148.6640887' />
  <node id='-214670' lat='-35.6312489' lon='148.6637913' />
  <node id='-214671' lat='-35.6311629' lon='148.6635534' />
  <node id='-214672' lat='-35.6311038' lon='148.6634013' />
  <node id='-214673' lat='-35.6308675' lon='148.6629585' />
  <node id='-214674' lat='-35.6306204' lon='148.6626545' />
  <node id='-214675' lat='-35.6304753' lon='148.6624694' />
  <node id='-214676' lat='-35.6303625' lon='148.6623174' />
  <node id='-214677' lat='-35.6302766' lon='148.6622976' />
  <node id='-214678' lat='-35.6301476' lon='148.6624496' />
  <node id='-214679' lat='-35.629965' lon='148.6627603' />
  <node id='-214680' lat='-35.6297233' lon='148.6629717' />
  <node id='-214681' lat='-35.6295836' lon='148.663137' />
  <node id='-214682' lat='-35.6295245' lon='148.6632163' />
  <node id='-214683' lat='-35.6294332' lon='148.6632295' />
  <node id='-214684' lat='-35.625927' lon='148.6828356' />
  <node id='-214685' lat='-35.6260926' lon='148.6827394' />
  <node id='-214686' lat='-35.6261428' lon='148.6825221' />
  <node id='-214687' lat='-35.6261232' lon='148.6824014' />
  <node id='-214688' lat='-35.6261166' lon='148.6820487' />
  <node id='-214689' lat='-35.6260861' lon='148.6818234' />
  <node id='-214690' lat='-35.6260817' lon='148.6816034' />
  <node id='-214691' lat='-35.6260948' lon='148.6810616' />
  <node id='-214692' lat='-35.6259597' lon='148.6805037' />
  <node id='-214693' lat='-35.626012' lon='148.680257' />
  <node id='-214694' lat='-35.6258027' lon='148.6798386' />
  <node id='-214695' lat='-35.6258899' lon='148.679506' />
  <node id='-214696' lat='-35.6261559' lon='148.6793021' />
  <node id='-214697' lat='-35.6264524' lon='148.6794201' />
  <node id='-214698' lat='-35.6267096' lon='148.6793665' />
  <node id='-214699' lat='-35.6268535' lon='148.6794201' />
  <node id='-214700' lat='-35.6270061' lon='148.6788944' />
  <node id='-214701' lat='-35.6269756' lon='148.678771' />
  <node id='-214702' lat='-35.6270454' lon='148.6783258' />
  <node id='-214703' lat='-35.6271762' lon='148.6781219' />
  <node id='-214704' lat='-35.6274422' lon='148.6781058' />
  <node id='-214705' lat='-35.6276776' lon='148.6779771' />
  <node id='-214706' lat='-35.6278259' lon='148.6779664' />
  <node id='-214707' lat='-35.6280483' lon='148.6781166' />
  <node id='-214708' lat='-35.6283927' lon='148.6782453' />
  <node id='-214709' lat='-35.6285497' lon='148.6780951' />
  <node id='-214710' lat='-35.6288723' lon='148.6779825' />
  <node id='-214711' lat='-35.6289683' lon='148.6778645' />
  <node id='-214712' lat='-35.6291514' lon='148.6777035' />
  <node id='-214713' lat='-35.6293302' lon='148.6776338' />
  <node id='-214714' lat='-35.6294043' lon='148.6775426' />
  <node id='-214715' lat='-35.6296703' lon='148.6773709' />
  <node id='-214716' lat='-35.6297706' lon='148.6772475' />
  <node id='-214717' lat='-35.6301673' lon='148.6771349' />
  <node id='-214718' lat='-35.6303374' lon='148.6771027' />
  <node id='-214719' lat='-35.6304682' lon='148.6771671' />
  <node id='-214720' lat='-35.6305641' lon='148.6771027' />
  <node id='-214721' lat='-35.6306644' lon='148.6771242' />
  <node id='-214722' lat='-35.6308606' lon='148.6770437' />
  <node id='-214723' lat='-35.6311789' lon='148.6770491' />
  <node id='-214724' lat='-35.6313402' lon='148.677033' />
  <node id='-214725' lat='-35.631519' lon='148.6768559' />
  <node id='-214726' lat='-35.6318067' lon='148.6764375' />
  <node id='-214727' lat='-35.6319637' lon='148.6763088' />
  <node id='-214728' lat='-35.6321468' lon='148.6760727' />
  <node id='-214729' lat='-35.6323692' lon='148.6758743' />
  <node id='-214730' lat='-35.6324389' lon='148.6756329' />
  <node id='-214731' lat='-35.632343' lon='148.674973' />
  <node id='-214732' lat='-35.6323343' lon='148.6745707' />
  <node id='-214733' lat='-35.6323953' lon='148.6744527' />
  <node id='-214734' lat='-35.6324215' lon='148.6741415' />
  <node id='-214735' lat='-35.6323743' lon='148.6740166' />
  <node id='-214736' lat='-35.6324565' lon='148.6737335' />
  <node id='-214737' lat='-35.6323541' lon='148.673532' />
  <node id='-214738' lat='-35.6323561' lon='148.6734334' />
  <node id='-214739' lat='-35.6322384' lon='148.6733583' />
  <node id='-214740' lat='-35.6321337' lon='148.6732135' />
  <node id='-214741' lat='-35.632125' lon='148.6730794' />
  <node id='-214742' lat='-35.6318547' lon='148.6728702' />
  <node id='-214743' lat='-35.6318242' lon='148.6727575' />
  <node id='-214744' lat='-35.6319506' lon='148.6724088' />
  <node id='-214745' lat='-35.6316629' lon='148.6720119' />
  <node id='-214746' lat='-35.6316236' lon='148.6717705' />
  <node id='-214747' lat='-35.6312966' lon='148.6713574' />
  <node id='-214748' lat='-35.6310612' lon='148.6711911' />
  <node id='-214749' lat='-35.6308519' lon='148.6706922' />
  <node id='-214750' lat='-35.6307952' lon='148.6702094' />
  <node id='-214751' lat='-35.6308606' lon='148.6698768' />
  <node id='-214752' lat='-35.6308388' lon='148.6697052' />
  <node id='-214753' lat='-35.6253927' lon='148.6827639' />
  <node id='-214754' lat='-35.625073' lon='148.6827206' />
  <node id='-214755' lat='-35.624978' lon='148.6827138' />
  <node id='-214756' lat='-35.6243966' lon='148.6826797' />
  <node id='-214757' lat='-35.6243487' lon='148.6830482' />
  <node id='-214758' lat='-35.6244869' lon='148.6833961' />
  <node id='-214759' lat='-35.6245816' lon='148.6838672' />
  <node id='-214760' lat='-35.6245312' lon='148.6839481' />
  <node id='-214761' lat='-35.6246476' lon='148.6840555' />
  <node id='-214762' lat='-35.6247116' lon='148.6841987' />
  <node id='-214763' lat='-35.6247' lon='148.6842989' />
  <node id='-214764' lat='-35.6245952' lon='148.6844064' />
  <node id='-214765' lat='-35.624537' lon='148.6845496' />
  <node id='-214766' lat='-35.6244904' lon='148.6847' />
  <node id='-214767' lat='-35.6244322' lon='148.6848002' />
  <node id='-214768' lat='-35.6243333' lon='148.6848647' />
  <node id='-214769' lat='-35.6242052' lon='148.6849076' />
  <node id='-214770' lat='-35.6241004' lon='148.6849506' />
  <node id='-214771' lat='-35.6239957' lon='148.6849935' />
  <node id='-214772' lat='-35.6238793' lon='148.685058' />
  <node id='-214773' lat='-35.6237803' lon='148.6851153' />
  <node id='-214774' lat='-35.623629' lon='148.6851726' />
  <node id='-214775' lat='-35.6235242' lon='148.6851869' />
  <node id='-214776' lat='-35.6234194' lon='148.6852155' />
  <node id='-214777' lat='-35.6233088' lon='148.6853015' />
  <node id='-214778' lat='-35.6230811' lon='148.685413' />
  <node id='-214779' lat='-35.6230048' lon='148.685412' />
  <node id='-214780' lat='-35.6229841' lon='148.6854209' />
  <node id='-214787' lat='-35.6229619' lon='148.6853733' />
  <node id='-214788' lat='-35.6229266' lon='148.6853097' />
  <node id='-214789' lat='-35.6228926' lon='148.6852507' />
  <node id='-214790' lat='-35.6228825' lon='148.6851887' />
  <node id='-214791' lat='-35.6228737' lon='148.685136' />
  <node id='-214792' lat='-35.6228825' lon='148.6850693' />
  <node id='-214793' lat='-35.6228863' lon='148.6850026' />
  <node id='-214794' lat='-35.6229002' lon='148.6849033' />
  <node id='-214795' lat='-35.6229002' lon='148.6848289' />
  <node id='-214796' lat='-35.622914' lon='148.684742' />
  <node id='-214797' lat='-35.6229355' lon='148.6846521' />
  <node id='-214798' lat='-35.6229518' lon='148.6845978' />
  <node id='-214799' lat='-35.6230023' lon='148.6845699' />
  <node id='-214800' lat='-35.6230414' lon='148.6845233' />
  <node id='-214801' lat='-35.6230804' lon='148.6844644' />
  <node id='-214802' lat='-35.6231214' lon='148.6843947' />
  <node id='-214803' lat='-35.6231419' lon='148.684321' />
  <node id='-214804' lat='-35.6231419' lon='148.6842686' />
  <node id='-214805' lat='-35.6231561' lon='148.6842318' />
  <node id='-214806' lat='-35.6231624' lon='148.6841775' />
  <node id='-214807' lat='-35.6231728' lon='148.6841025' />
  <node id='-214808' lat='-35.6232006' lon='148.6839858' />
  <node id='-214809' lat='-35.6232104' lon='148.683865' />
  <node id='-214810' lat='-35.6232055' lon='148.6837865' />
  <node id='-214811' lat='-35.6231924' lon='148.683704' />
  <node id='-214812' lat='-35.6231517' lon='148.6836187' />
  <node id='-214813' lat='-35.6229665' lon='148.6827865' />
  <node id='-214814' lat='-35.6231517' lon='148.6833895' />
  <node id='-214815' lat='-35.6214451' lon='148.6804042' />
  <node id='-214816' lat='-35.6216113' lon='148.6807858' />
  <node id='-214817' lat='-35.6222076' lon='148.6809192' />
  <node id='-214879' lat='-35.6231272' lon='148.669504' />
  <node id='-214880' lat='-35.6230056' lon='148.6703545' />
  <node id='-214881' lat='-35.6228537' lon='148.6711958' />
  <node id='-214882' lat='-35.6227701' lon='148.6714575' />
  <node id='-214883' lat='-35.6227701' lon='148.6718781' />
  <node id='-214884' lat='-35.6225802' lon='148.6728408' />
  <node id='-214885' lat='-35.6223218' lon='148.673682' />
  <node id='-214886' lat='-35.6222686' lon='148.6737942' />
  <node id='-214887' lat='-35.6221699' lon='148.6747663' />
  <node id='-214888' lat='-35.6222914' lon='148.6757477' />
  <node id='-214889' lat='-35.6222762' lon='148.6765515' />
  <node id='-214890' lat='-35.6220483' lon='148.6785517' />
  <node id='-214891' lat='-35.621752' lon='148.6796173' />
  <node id='-214892' lat='-35.621638' lon='148.6800753' />
  <node id='-214905' action='modify' lat='-35.62144902595' lon='148.68040151571' />
  <node id='-217775' action='modify' lat='-35.6229754' lon='148.6854263' />
  <node id='-217776' action='modify' lat='-35.622947' lon='148.6856861' />
  <node id='-217777' action='modify' lat='-35.6228089' lon='148.6860663' />
  <node id='-217778' action='modify' lat='-35.622859' lon='148.6865277' />
  <node id='-217779' action='modify' lat='-35.6227587' lon='148.6869139' />
  <node id='-217780' action='modify' lat='-35.6225756' lon='148.6875308' />
  <node id='-217781' action='modify' lat='-35.6225647' lon='148.6878554' />
  <node id='-217782' action='modify' lat='-35.6226781' lon='148.6880726' />
  <node id='-217783' action='modify' lat='-35.6229092' lon='148.6885232' />
  <node id='-217784' action='modify' lat='-35.6230704' lon='148.6889167' />
  <node id='-217785' action='modify' lat='-35.6231555' lon='148.6891428' />
  <node id='-217786' action='modify' lat='-35.6232602' lon='148.6891911' />
  <node id='-217787' action='modify' lat='-35.6234128' lon='148.6895747' />
  <node id='-217788' action='modify' lat='-35.6235371' lon='148.6898241' />
  <node id='-217789' action='modify' lat='-35.6238598' lon='148.6901406' />
  <node id='-217790' action='modify' lat='-35.6237355' lon='148.6907575' />
  <node id='-217791' action='modify' lat='-35.6238641' lon='148.6916507' />
  <node id='-217792' action='modify' lat='-35.6237726' lon='148.6921711' />
  <node id='-217793' action='modify' lat='-35.623766' lon='148.6929891' />
  <node id='-217794' action='modify' lat='-35.6239579' lon='148.6930159' />
  <node id='-217795' action='modify' lat='-35.6241367' lon='148.6933244' />
  <node id='-217796' action='modify' lat='-35.6242588' lon='148.6935738' />
  <node id='-217797' action='modify' lat='-35.6245814' lon='148.6940137' />
  <node id='-217798' action='modify' lat='-35.624854' lon='148.6944697' />
  <node id='-217799' action='modify' lat='-35.6249259' lon='148.6946601' />
  <node id='-217800' action='modify' lat='-35.6248322' lon='148.6949954' />
  <node id='-217801' action='modify' lat='-35.6249063' lon='148.695159' />
  <node id='-217802' action='modify' lat='-35.6247929' lon='148.6954863' />
  <node id='-217803' action='modify' lat='-35.624455' lon='148.6957196' />
  <node id='-217804' action='modify' lat='-35.6245073' lon='148.695894' />
  <node id='-217805' action='modify' lat='-35.6244593' lon='148.6960656' />
  <node id='-217806' action='modify' lat='-35.6243133' lon='148.6962426' />
  <node id='-217807' action='modify' lat='-35.6242173' lon='148.6966798' />
  <node id='-217808' action='modify' lat='-35.6241454' lon='148.6969722' />
  <node id='-217809' action='modify' lat='-35.6239208' lon='148.6973102' />
  <node id='-217810' action='modify' lat='-35.6236853' lon='148.6977098' />
  <node id='-217811' action='modify' lat='-35.6236832' lon='148.6979324' />
  <node id='-217812' action='modify' lat='-35.6234521' lon='148.6981256' />
  <node id='-217813' action='modify' lat='-35.6233038' lon='148.6983911' />
  <node id='-217814' action='modify' lat='-35.6229419' lon='148.6990885' />
  <node id='-217815' action='modify' lat='-35.6228983' lon='148.699346' />
  <node id='-217816' action='modify' lat='-35.6227457' lon='148.6995847' />
  <node id='-217817' action='modify' lat='-35.6227696' lon='148.6998422' />
  <node id='-217818' action='modify' lat='-35.6229659' lon='148.7002257' />
  <node id='-217819' action='modify' lat='-35.6229833' lon='148.7005798' />
  <node id='-217820' action='modify' lat='-35.6230465' lon='148.700848' />
  <node id='-217821' action='modify' lat='-35.623197' lon='148.7011243' />
  <node id='-217822' action='modify' lat='-35.6231272' lon='148.7013657' />
  <node id='-217823' action='modify' lat='-35.6232646' lon='148.7015185' />
  <node id='-217824' action='modify' lat='-35.6232696' lon='148.7017545' />
  <node id='-217825' action='modify' lat='-35.6231468' lon='148.7018243' />
  <node id='-217826' action='modify' lat='-35.6230509' lon='148.7018431' />
  <node id='-217827' action='modify' lat='-35.6229135' lon='148.7022427' />
  <node id='-217828' action='modify' lat='-35.6229484' lon='148.7024466' />
  <node id='-217829' action='modify' lat='-35.6228721' lon='148.7031332' />
  <node id='-217830' action='modify' lat='-35.6228852' lon='148.7033022' />
  <way id='-214906' action='modify'>
    <nd ref='-214905' />
    <nd ref='-214892' />
    <nd ref='-214891' />
    <nd ref='-214890' />
    <nd ref='-214889' />
    <nd ref='-214888' />
    <nd ref='-214887' />
    <nd ref='-214886' />
    <nd ref='-214885' />
    <nd ref='-214884' />
    <nd ref='-214883' />
    <nd ref='-214882' />
    <nd ref='-214881' />
    <nd ref='-214880' />
    <nd ref='-214879' />
    <nd ref='-214625' />
    <nd ref='-214624' />
    <nd ref='-214623' />
    <nd ref='-214622' />
    <nd ref='-214621' />
    <nd ref='-214620' />
    <nd ref='-214619' />
    <nd ref='-214618' />
    <nd ref='-214617' />
    <nd ref='-214616' />
    <nd ref='-214615' />
    <nd ref='-214614' />
    <nd ref='-214613' />
    <nd ref='-214612' />
    <nd ref='-214611' />
    <nd ref='-214610' />
    <nd ref='-214609' />
    <nd ref='-214608' />
    <nd ref='-214607' />
    <nd ref='-214606' />
    <nd ref='-214605' />
    <nd ref='-214604' />
    <nd ref='-214603' />
    <nd ref='-214602' />
    <nd ref='-214683' />
    <nd ref='-214682' />
    <nd ref='-214681' />
    <nd ref='-214680' />
    <nd ref='-214679' />
    <nd ref='-214678' />
    <nd ref='-214677' />
    <nd ref='-214676' />
    <nd ref='-214675' />
    <nd ref='-214674' />
    <nd ref='-214673' />
    <nd ref='-214672' />
    <nd ref='-214671' />
    <nd ref='-214670' />
    <nd ref='-214669' />
    <nd ref='-214668' />
    <nd ref='-214667' />
    <nd ref='-214666' />
    <nd ref='-214665' />
    <nd ref='-214664' />
    <nd ref='-214663' />
    <nd ref='-214662' />
    <nd ref='-214661' />
    <nd ref='-214660' />
    <nd ref='-214659' />
    <nd ref='-214658' />
    <nd ref='-214657' />
    <nd ref='-214656' />
    <nd ref='-214655' />
    <nd ref='-214654' />
    <nd ref='-214653' />
    <nd ref='-214652' />
    <nd ref='-214651' />
    <nd ref='-214650' />
    <nd ref='-214649' />
    <nd ref='-214648' />
    <nd ref='-214647' />
    <nd ref='-214646' />
    <nd ref='-214645' />
    <nd ref='-214644' />
    <nd ref='-214643' />
    <nd ref='-214642' />
    <nd ref='-214641' />
    <nd ref='-214640' />
    <nd ref='-214639' />
    <nd ref='-214638' />
    <nd ref='-214637' />
    <nd ref='-214636' />
    <nd ref='-214635' />
    <nd ref='-214634' />
    <nd ref='-214633' />
    <nd ref='-214632' />
    <nd ref='-214631' />
    <nd ref='-214630' />
    <nd ref='-214629' />
    <nd ref='-214628' />
    <nd ref='-214627' />
    <nd ref='-214626' />
    <nd ref='-214752' />
    <nd ref='-214751' />
    <nd ref='-214750' />
    <nd ref='-214749' />
    <nd ref='-214748' />
    <nd ref='-214747' />
    <nd ref='-214746' />
    <nd ref='-214745' />
    <nd ref='-214744' />
    <nd ref='-214743' />
    <nd ref='-214742' />
    <nd ref='-214741' />
    <nd ref='-214740' />
    <nd ref='-214739' />
    <nd ref='-214738' />
    <nd ref='-214737' />
    <nd ref='-214736' />
    <nd ref='-214735' />
    <nd ref='-214734' />
    <nd ref='-214733' />
    <nd ref='-214732' />
    <nd ref='-214731' />
    <nd ref='-214730' />
    <nd ref='-214729' />
    <nd ref='-214728' />
    <nd ref='-214727' />
    <nd ref='-214726' />
    <nd ref='-214725' />
    <nd ref='-214724' />
    <nd ref='-214723' />
    <nd ref='-214722' />
    <nd ref='-214721' />
    <nd ref='-214720' />
    <nd ref='-214719' />
    <nd ref='-214718' />
    <nd ref='-214717' />
    <nd ref='-214716' />
    <nd ref='-214715' />
    <nd ref='-214714' />
    <nd ref='-214713' />
    <nd ref='-214712' />
    <nd ref='-214711' />
    <nd ref='-214710' />
    <nd ref='-214709' />
    <nd ref='-214708' />
    <nd ref='-214707' />
    <nd ref='-214706' />
    <nd ref='-214705' />
    <nd ref='-214704' />
    <nd ref='-214703' />
    <nd ref='-214702' />
    <nd ref='-214701' />
    <nd ref='-214700' />
    <nd ref='-214699' />
    <nd ref='-214698' />
    <nd ref='-214697' />
    <nd ref='-214696' />
    <nd ref='-214695' />
    <nd ref='-214694' />
    <nd ref='-214693' />
    <nd ref='-214692' />
    <nd ref='-214691' />
    <nd ref='-214690' />
    <nd ref='-214689' />
    <nd ref='-214688' />
    <nd ref='-214687' />
    <nd ref='-214686' />
    <nd ref='-214685' />
    <nd ref='-214684' />
    <nd ref='-214753' />
    <nd ref='-214754' />
    <nd ref='-214755' />
    <nd ref='-214756' />
    <nd ref='-214757' />
    <nd ref='-214758' />
    <nd ref='-214759' />
    <nd ref='-214760' />
    <nd ref='-214761' />
    <nd ref='-214762' />
    <nd ref='-214763' />
    <nd ref='-214764' />
    <nd ref='-214765' />
    <nd ref='-214766' />
    <nd ref='-214767' />
    <nd ref='-214768' />
    <nd ref='-214769' />
    <nd ref='-214770' />
    <nd ref='-214771' />
    <nd ref='-214772' />
    <nd ref='-214773' />
    <nd ref='-214774' />
    <nd ref='-214775' />
    <nd ref='-214776' />
    <nd ref='-214777' />
    <nd ref='-214778' />
    <nd ref='-214779' />
    <nd ref='-214780' />
    <nd ref='-214787' />
    <nd ref='-214788' />
    <nd ref='-214789' />
    <nd ref='-214790' />
    <nd ref='-214791' />
    <nd ref='-214792' />
    <nd ref='-214793' />
    <nd ref='-214794' />
    <nd ref='-214795' />
    <nd ref='-214796' />
    <nd ref='-214797' />
    <nd ref='-214798' />
    <nd ref='-214799' />
    <nd ref='-214800' />
    <nd ref='-214801' />
    <nd ref='-214802' />
    <nd ref='-214803' />
    <nd ref='-214804' />
    <nd ref='-214805' />
    <nd ref='-214806' />
    <nd ref='-214807' />
    <nd ref='-214808' />
    <nd ref='-214809' />
    <nd ref='-214810' />
    <nd ref='-214811' />
    <nd ref='-214812' />
    <nd ref='-214814' />
    <nd ref='-214813' />
    <nd ref='-214817' />
    <nd ref='-214816' />
    <nd ref='-214815' />
    <tag k='name' v='Nichols Gorge Walk' />
    <tag k='park' v='Kosciuszko National Park' />
    <tag k='role' v='primary' />
    <tag k='style' v='loop' />
    <tag k='transport' v='car' />
  </way>
  <way id='-217774' action='modify'>
    <nd ref='-217775' />
    <nd ref='-217776' />
    <nd ref='-217777' />
    <nd ref='-217778' />
    <nd ref='-217779' />
    <nd ref='-217780' />
    <nd ref='-217781' />
    <nd ref='-217782' />
    <nd ref='-217783' />
    <nd ref='-217784' />
    <nd ref='-217785' />
    <nd ref='-217786' />
    <nd ref='-217787' />
    <nd ref='-217788' />
    <nd ref='-217789' />
    <nd ref='-217790' />
    <nd ref='-217791' />
    <nd ref='-217792' />
    <nd ref='-217793' />
    <nd ref='-217794' />
    <nd ref='-217795' />
    <nd ref='-217796' />
    <nd ref='-217797' />
    <nd ref='-217798' />
    <nd ref='-217799' />
    <nd ref='-217800' />
    <nd ref='-217801' />
    <nd ref='-217802' />
    <nd ref='-217803' />
    <nd ref='-217804' />
    <nd ref='-217805' />
    <nd ref='-217806' />
    <nd ref='-217807' />
    <nd ref='-217808' />
    <nd ref='-217809' />
    <nd ref='-217810' />
    <nd ref='-217811' />
    <nd ref='-217812' />
    <nd ref='-217813' />
    <nd ref='-217814' />
    <nd ref='-217815' />
    <nd ref='-217816' />
    <nd ref='-217817' />
    <nd ref='-217818' />
    <nd ref='-217819' />
    <nd ref='-217820' />
    <nd ref='-217821' />
    <nd ref='-217822' />
    <nd ref='-217823' />
    <nd ref='-217824' />
    <nd ref='-217825' />
    <nd ref='-217826' />
    <nd ref='-217827' />
    <nd ref='-217828' />
    <nd ref='-217829' />
    <nd ref='-217830' />
    <tag k='name' v='Cooleman Falls' />
    <tag k='role' v='sidetrack' />
    <tag k='style' v='return' />
  </way>
</osm>
