<?xml version='1.0' encoding='UTF-8'?>
<osm version='0.6' upload='false' generator='JOSM'>
  <node id='-143221' action='modify' lat='-33.40230048404' lon='151.17221731888' />
  <node id='-143223' action='modify' lat='-33.38735269088' lon='151.18774512979' />
  <node id='-143225' action='modify' lat='-33.38748370518' lon='151.18802273842' />
  <node id='-143227' action='modify' lat='-33.3870307532' lon='151.18690978932' />
  <node id='-143229' action='modify' lat='-33.3870234746' lon='151.18698204132' />
  <node id='-143231' action='modify' lat='-33.38705706815' lon='151.1870638487' />
  <node id='-143233' action='modify' lat='-33.3871466509' lon='151.18717784258' />
  <node id='-143235' action='modify' lat='-33.38720599943' lon='151.18722746345' />
  <node id='-143237' action='modify' lat='-33.38724743139' lon='151.18726501437' />
  <node id='-143239' action='modify' lat='-33.38725526987' lon='151.18732670518' />
  <node id='-143241' action='modify' lat='-33.38726086878' lon='151.18745813342' />
  <node id='-143243' action='modify' lat='-33.38744115355' lon='151.18810320469' />
  <node id='-143245' action='modify' lat='-33.38739412277' lon='151.1881957409' />
  <node id='-143247' action='modify' lat='-33.38735549033' lon='151.18828593018' />
  <node id='-143249' action='modify' lat='-33.3873151782' lon='151.18840595903' />
  <node id='-143251' action='modify' lat='-33.38737844584' lon='151.1885608566' />
  <node id='-143253' action='modify' lat='-33.38740252113' lon='151.18886193456' />
  <node id='-143255' action='modify' lat='-33.38739356288' lon='151.18895849409' />
  <node id='-143269' action='modify' lat='-33.41306410171' lon='151.1777027716' />
  <node id='-143271' action='modify' lat='-33.41289730352' lon='151.17763571637' />
  <node id='-143273' action='modify' lat='-33.41274169955' lon='151.17751099365' />
  <node id='-143275' action='modify' lat='-33.412644307' lon='151.17749892371' />
  <node id='-143277' action='modify' lat='-33.41251221117' lon='151.17766522067' />
  <node id='-143279' action='modify' lat='-33.41235884543' lon='151.17785431641' />
  <node id='-143281' action='modify' lat='-33.41218980696' lon='151.17793344157' />
  <node id='-143283' action='modify' lat='-33.41202076817' lon='151.17792271274' />
  <node id='-143285' action='modify' lat='-33.41190546337' lon='151.17793008881' />
  <node id='-143287' action='modify' lat='-33.41180695041' lon='151.1779864152' />
  <node id='-143289' action='modify' lat='-33.41124273767' lon='151.17783084708' />
  <node id='-143291' action='modify' lat='-33.4107109862' lon='151.17743522125' />
  <node id='-143293' action='modify' lat='-33.41050612109' lon='151.17721796232' />
  <node id='-143295' action='modify' lat='-33.41011877916' lon='151.1767673512' />
  <node id='-143297' action='modify' lat='-33.40990271774' lon='151.17640122967' />
  <node id='-143299' action='modify' lat='-33.409805322' lon='151.17629796462' />
  <node id='-143301' action='modify' lat='-33.40951201463' lon='151.17613032656' />
  <node id='-143303' action='modify' lat='-33.40932953665' lon='151.1760538836' />
  <node id='-143305' action='modify' lat='-33.40916497029' lon='151.17596805292' />
  <node id='-143307' action='modify' lat='-33.40906757372' lon='151.17596939402' />
  <node id='-143309' action='modify' lat='-33.40893435295' lon='151.17602035599' />
  <node id='-143311' action='modify' lat='-33.40883695613' lon='151.17610886889' />
  <node id='-143313' action='modify' lat='-33.40880337099' lon='151.17623493271' />
  <node id='-143315' action='modify' lat='-33.40882464158' lon='151.17641732293' />
  <node id='-143317' action='modify' lat='-33.40880896852' lon='151.17660373645' />
  <node id='-143319' action='modify' lat='-33.40882464158' lon='151.17690816718' />
  <node id='-143321' action='modify' lat='-33.40884815117' lon='151.17720723348' />
  <node id='-143323' action='modify' lat='-33.40890636537' lon='151.17736682492' />
  <node id='-143325' action='modify' lat='-33.40897689406' lon='151.17755592065' />
  <node id='-143327' action='modify' lat='-33.4089970451' lon='151.17765382128' />
  <node id='-143329' action='modify' lat='-33.40884927068' lon='151.17782145935' />
  <node id='-143331' action='modify' lat='-33.40865111821' lon='151.17807358699' />
  <node id='-143333' action='modify' lat='-33.40853692844' lon='151.17819294529' />
  <node id='-143335' action='modify' lat='-33.40833093869' lon='151.17826134162' />
  <node id='-143337' action='modify' lat='-33.4080421044' lon='151.17815137105' />
  <node id='-143339' action='modify' lat='-33.40776670337' lon='151.17811784344' />
  <node id='-143341' action='modify' lat='-33.40744092298' lon='151.1779877563' />
  <node id='-143343' action='modify' lat='-33.40727635304' lon='151.17795959311' />
  <node id='-143345' action='modify' lat='-33.40716104194' lon='151.17798239189' />
  <node id='-143347' action='modify' lat='-33.40708043604' lon='151.17804408269' />
  <node id='-143349' action='modify' lat='-33.4066606124' lon='151.17822244959' />
  <node id='-143351' action='modify' lat='-33.40633146925' lon='151.17836862998' />
  <node id='-143353' action='modify' lat='-33.40616689721' lon='151.17849737602' />
  <node id='-143355' action='modify' lat='-33.40587245801' lon='151.17870658832' />
  <node id='-143357' action='modify' lat='-33.40564519057' lon='151.17873206931' />
  <node id='-143359' action='modify' lat='-33.40535746691' lon='151.17877230244' />
  <node id='-143361' action='modify' lat='-33.4052275991' lon='151.17875352698' />
  <node id='-143363' action='modify' lat='-33.40504735123' lon='151.17864892083' />
  <node id='-143365' action='modify' lat='-33.40484695097' lon='151.17860734659' />
  <node id='-143367' action='modify' lat='-33.40477641893' lon='151.17859393554' />
  <node id='-143369' action='modify' lat='-33.40434426898' lon='151.17825061279' />
  <node id='-143371' action='modify' lat='-33.40417185622' lon='151.17807224589' />
  <node id='-143373' action='modify' lat='-33.40401623662' lon='151.1780172606' />
  <node id='-143375' action='modify' lat='-33.40390875817' lon='151.1780159195' />
  <node id='-143377' action='modify' lat='-33.40377105121' lon='151.17809236246' />
  <node id='-143379' action='modify' lat='-33.40369492044' lon='151.17818758088' />
  <node id='-143381' action='modify' lat='-33.40361207218' lon='151.17794215875' />
  <node id='-143383' action='modify' lat='-33.40358632202' lon='151.17779597836' />
  <node id='-143385' action='modify' lat='-33.40364677889' lon='151.17768198448' />
  <node id='-143387' action='modify' lat='-33.40373634455' lon='151.17764711576' />
  <node id='-143389' action='modify' lat='-33.40381695355' lon='151.17760151821' />
  <node id='-143391' action='modify' lat='-33.40392331255' lon='151.17751702862' />
  <node id='-143393' action='modify' lat='-33.40398712788' lon='151.17746472555' />
  <node id='-143395' action='modify' lat='-33.40412371493' lon='151.17746204334' />
  <node id='-143397' action='modify' lat='-33.4041942475' lon='151.17743388014' />
  <node id='-143399' action='modify' lat='-33.40423679093' lon='151.1773628016' />
  <node id='-143401' action='modify' lat='-33.40425246482' lon='151.17728367644' />
  <node id='-143403' action='modify' lat='-33.40423455181' lon='151.17721528011' />
  <node id='-143405' action='modify' lat='-33.40419312794' lon='151.17711335617' />
  <node id='-143407' action='modify' lat='-33.40413714971' lon='151.17692962485' />
  <node id='-143409' action='modify' lat='-33.40401511705' lon='151.17677271562' />
  <node id='-143411' action='modify' lat='-33.40398824745' lon='151.17666006284' />
  <node id='-143413' action='modify' lat='-33.40403638881' lon='151.17652058797' />
  <node id='-143415' action='modify' lat='-33.40408676928' lon='151.17637172537' />
  <node id='-143417' action='modify' lat='-33.4041628997' lon='151.17622822719' />
  <node id='-143419' action='modify' lat='-33.40425582351' lon='151.17612093883' />
  <node id='-143421' action='modify' lat='-33.40434202985' lon='151.17598682838' />
  <node id='-143423' action='modify' lat='-33.40436442109' lon='151.17588088112' />
  <node id='-143425' action='modify' lat='-33.40436106241' lon='151.17572933631' />
  <node id='-143427' action='modify' lat='-33.40432187773' lon='151.17557913261' />
  <node id='-143429' action='modify' lat='-33.40435658416' lon='151.17546111541' />
  <node id='-143431' action='modify' lat='-33.4043935297' lon='151.17533639269' />
  <node id='-143433' action='modify' lat='-33.40444390996' lon='151.17524251538' />
  <node id='-143435' action='modify' lat='-33.40457601805' lon='151.17508962946' />
  <node id='-143437' action='modify' lat='-33.40478649494' lon='151.17479726868' />
  <node id='-143439' action='modify' lat='-33.4048055274' lon='151.17462024289' />
  <node id='-143441' action='modify' lat='-33.40487382031' lon='151.17449283796' />
  <node id='-143443' action='modify' lat='-33.40487382031' lon='151.17431178885' />
  <node id='-143445' action='modify' lat='-33.40486262475' lon='151.17420450049' />
  <node id='-143447' action='modify' lat='-33.40490628741' lon='151.17409989434' />
  <node id='-143449' action='modify' lat='-33.40500480819' lon='151.17396712499' />
  <node id='-143451' action='modify' lat='-33.40506302497' lon='151.17385179' />
  <node id='-143453' action='modify' lat='-33.40506862273' lon='151.173761936' />
  <node id='-143455' action='modify' lat='-33.40504959033' lon='151.17369488078' />
  <node id='-143457' action='modify' lat='-33.4047797776' lon='151.17357015806' />
  <node id='-143459' action='modify' lat='-33.40469804993' lon='151.1735232194' />
  <node id='-143461' action='modify' lat='-33.39271571733' lon='151.17053725021' />
  <node id='-143463' action='modify' lat='-33.39261494319' lon='151.17049165266' />
  <node id='-143465' action='modify' lat='-33.39253768293' lon='151.17042593854' />
  <node id='-143467' action='modify' lat='-33.39233613411' lon='151.17022074955' />
  <node id='-143469' action='modify' lat='-33.39219392994' lon='151.17018051641' />
  <node id='-143471' action='modify' lat='-33.39187704894' lon='151.17016442316' />
  <node id='-143473' action='modify' lat='-33.39180538665' lon='151.17021136182' />
  <node id='-143475' action='modify' lat='-33.39155344842' lon='151.17039643424' />
  <node id='-143477' action='modify' lat='-33.39147730695' lon='151.1705037226' />
  <node id='-143479' action='modify' lat='-33.39131158704' lon='151.17072634595' />
  <node id='-143481' action='modify' lat='-33.39105404872' lon='151.17116086381' />
  <node id='-143483' action='modify' lat='-33.39097902655' lon='151.1713057031' />
  <node id='-143485' action='modify' lat='-33.39096111079' lon='151.17150418656' />
  <node id='-143487' action='modify' lat='-33.39094879371' lon='151.17218814986' />
  <node id='-143489' action='modify' lat='-33.39094767398' lon='151.17244564193' />
  <node id='-143491' action='modify' lat='-33.39092192007' lon='151.17252074378' />
  <node id='-143493' action='modify' lat='-33.39082450305' lon='151.17262132662' />
  <node id='-143495' action='modify' lat='-33.39074500173' lon='151.17271386283' />
  <node id='-143497' action='modify' lat='-33.39071364908' lon='151.17283322113' />
  <node id='-143499' action='modify' lat='-33.39071252934' lon='151.17296599048' />
  <node id='-143501' action='modify' lat='-33.39075619911' lon='151.1730612089' />
  <node id='-143503' action='modify' lat='-33.39095999106' lon='151.17334820526' />
  <node id='-143505' action='modify' lat='-33.39106412632' lon='151.17342733043' />
  <node id='-143507' action='modify' lat='-33.39114250762' lon='151.17348231571' />
  <node id='-143509' action='modify' lat='-33.39134853813' lon='151.17354266541' />
  <node id='-143511' action='modify' lat='-33.39141460216' lon='151.17358021634' />
  <node id='-143513' action='modify' lat='-33.3914672294' lon='151.17362581389' />
  <node id='-143515' action='modify' lat='-33.39147618722' lon='151.17367007034' />
  <node id='-143517' action='modify' lat='-33.3914672294' lon='151.17382429736' />
  <node id='-143519' action='modify' lat='-33.39151089878' lon='151.17400936978' />
  <node id='-143521' action='modify' lat='-33.39153329333' lon='151.17423065203' />
  <node id='-143523' action='modify' lat='-33.39153665252' lon='151.17442779439' />
  <node id='-143525' action='modify' lat='-33.39154561033' lon='151.17482342022' />
  <node id='-143527' action='modify' lat='-33.39131718569' lon='151.17555465745' />
  <node id='-143529' action='modify' lat='-33.39084017936' lon='151.17654036926' />
  <node id='-143531' action='modify' lat='-33.38996006222' lon='151.17805313515' />
  <node id='-143533' action='modify' lat='-33.38958942498' lon='151.17854129719' />
  <node id='-143535' action='modify' lat='-33.38941922246' lon='151.17870759415' />
  <node id='-143537' action='modify' lat='-33.38919975029' lon='151.17902945923' />
  <node id='-143539' action='modify' lat='-33.38901387037' lon='151.17924671816' />
  <node id='-143541' action='modify' lat='-33.38877424145' lon='151.17941837954' />
  <node id='-143543' action='modify' lat='-33.38870929518' lon='151.1795256679' />
  <node id='-143545' action='modify' lat='-33.38864210933' lon='151.17982607531' />
  <node id='-143547' action='modify' lat='-33.38866450462' lon='151.17991458821' />
  <node id='-143549' action='modify' lat='-33.38878991813' lon='151.180271322' />
  <node id='-143551' action='modify' lat='-33.38879215765' lon='151.18057709383' />
  <node id='-143553' action='modify' lat='-33.3887966367' lon='151.18075948405' />
  <node id='-143555' action='modify' lat='-33.38885934338' lon='151.18095796751' />
  <node id='-143557' action='modify' lat='-33.38877424145' lon='151.18114572214' />
  <node id='-143559' action='modify' lat='-33.38864882792' lon='151.18169557499' />
  <node id='-143561' action='modify' lat='-33.38850101888' lon='151.18177067684' />
  <node id='-143563' action='modify' lat='-33.38848310262' lon='151.18187260079' />
  <node id='-143565' action='modify' lat='-33.38849877935' lon='151.18213545727' />
  <node id='-143567' action='modify' lat='-33.38854804906' lon='151.1822937076' />
  <node id='-143569' action='modify' lat='-33.38851445608' lon='151.18239294934' />
  <node id='-143571' action='modify' lat='-33.38841143753' lon='151.18251633095' />
  <node id='-143573' action='modify' lat='-33.38832633515' lon='151.18263971256' />
  <node id='-143575' action='modify' lat='-33.38828826301' lon='151.18285428929' />
  <node id='-143577' action='modify' lat='-33.38823675362' lon='151.18290793347' />
  <node id='-143579' action='modify' lat='-33.38811357885' lon='151.18303936171' />
  <node id='-143581' action='modify' lat='-33.38789858249' lon='151.18320834088' />
  <node id='-143583' action='modify' lat='-33.38789858249' lon='151.18329953598' />
  <node id='-143585' action='modify' lat='-33.38795681072' lon='151.18357580351' />
  <node id='-143587' action='modify' lat='-33.3879366548' lon='151.18379038023' />
  <node id='-143589' action='modify' lat='-33.38781795871' lon='151.18396472382' />
  <node id='-143591' action='modify' lat='-33.38770598112' lon='151.18426781344' />
  <node id='-143593' action='modify' lat='-33.38766566915' lon='151.18460308956' />
  <node id='-143595' action='modify' lat='-33.38750890021' lon='151.1850000565' />
  <node id='-143597' action='modify' lat='-33.38748426507' lon='151.18512612032' />
  <node id='-143599' action='modify' lat='-33.38735661012' lon='151.18534069704' />
  <node id='-143601' action='modify' lat='-33.38724911106' lon='151.18542384552' />
  <node id='-143603' action='modify' lat='-33.38710801835' lon='151.18573766398' />
  <node id='-143605' action='modify' lat='-33.38705202912' lon='151.185981745' />
  <node id='-143607' action='modify' lat='-33.38695796712' lon='151.18606757569' />
  <node id='-143609' action='modify' lat='-33.38690421737' lon='151.18624460148' />
  <node id='-143611' action='modify' lat='-33.38687734248' lon='151.18655305552' />
  <node id='-143613' action='modify' lat='-33.38689189971' lon='151.18670862364' />
  <node id='-143615' action='modify' lat='-33.40211631152' lon='151.17239937382' />
  <node id='-143617' action='modify' lat='-33.40214598068' lon='151.17236886369' />
  <node id='-143619' action='modify' lat='-33.40223778706' lon='151.17226492809' />
  <node id='-143621' action='modify' lat='-33.40226073864' lon='151.17222737717' />
  <node id='-143623' action='modify' lat='-33.40233015314' lon='151.17220524894' />
  <node id='-143625' action='modify' lat='-33.40239508923' lon='151.17214355814' />
  <node id='-143627' action='modify' lat='-33.40241916035' lon='151.17209125506' />
  <node id='-143629' action='modify' lat='-33.40251096644' lon='151.17201615321' />
  <node id='-143631' action='modify' lat='-33.40256974468' lon='151.1720148121' />
  <node id='-143633' action='modify' lat='-33.40262516413' lon='151.17198061394' />
  <node id='-143635' action='modify' lat='-33.40265819186' lon='151.17189344215' />
  <node id='-143637' action='modify' lat='-33.40268114333' lon='151.17182504582' />
  <node id='-143639' action='modify' lat='-33.39060167522' lon='151.17292408096' />
  <node id='-143641' action='modify' lat='-33.39053113161' lon='151.17288787114' />
  <node id='-143643' action='modify' lat='-33.3904975394' lon='151.17279667603' />
  <node id='-143645' action='modify' lat='-33.3904975394' lon='151.17273632633' />
  <node id='-143647' action='modify' lat='-33.39054456849' lon='151.17262367355' />
  <node id='-143649' action='modify' lat='-33.39054792771' lon='151.17253516065' />
  <node id='-143651' action='modify' lat='-33.39057592121' lon='151.17244798886' />
  <node id='-143653' action='modify' lat='-33.39061623183' lon='151.17231924283' />
  <node id='-143655' action='modify' lat='-33.39061399235' lon='151.17215160476' />
  <node id='-143657' action='modify' lat='-33.39059943574' lon='151.17202688204' />
  <node id='-143659' action='modify' lat='-33.39053449083' lon='151.17186058509' />
  <node id='-143661' action='modify' lat='-33.39051657499' lon='151.17172647464' />
  <node id='-143663' action='modify' lat='-33.39045274976' lon='151.17134962427' />
  <node id='-143665' action='modify' lat='-33.39041803778' lon='151.17130536782' />
  <node id='-143667' action='modify' lat='-33.39030494379' lon='151.17122490155' />
  <node id='-143669' action='modify' lat='-33.39024671713' lon='151.17109749662' />
  <node id='-143671' action='modify' lat='-33.39024783687' lon='151.17099557268' />
  <node id='-143673' action='modify' lat='-33.39028030944' lon='151.17090571868' />
  <node id='-143675' action='modify' lat='-33.39031390174' lon='151.1708239113' />
  <node id='-143677' action='modify' lat='-33.39035421248' lon='151.17067638981' />
  <node id='-143679' action='modify' lat='-33.39044939054' lon='151.17051948058' />
  <node id='-143681' action='modify' lat='-33.39052889213' lon='151.1703478192' />
  <node id='-143683' action='modify' lat='-33.39061959104' lon='151.17028478729' />
  <node id='-143685' action='modify' lat='-33.39070581091' lon='151.17014531242' />
  <node id='-143687' action='modify' lat='-33.39075955832' lon='151.17006350505' />
  <node id='-143689' action='modify' lat='-33.39090288457' lon='151.16995621669' />
  <node id='-143691' action='modify' lat='-33.39103613299' lon='151.16988111483' />
  <node id='-143693' action='modify' lat='-33.39109323939' lon='151.16983015286' />
  <node id='-143695' action='modify' lat='-33.39112123271' lon='151.16974163996' />
  <node id='-143697' action='modify' lat='-33.39117162066' lon='151.16958607184' />
  <node id='-143699' action='modify' lat='-33.39123096643' lon='151.16949353563' />
  <node id='-143701' action='modify' lat='-33.39134517894' lon='151.16932187425' />
  <node id='-143703' action='modify' lat='-33.39142244026' lon='151.16921860921' />
  <node id='-143705' action='modify' lat='-33.39143811646' lon='151.16917167055' />
  <node id='-143707' action='modify' lat='-33.39144483483' lon='151.1689503883' />
  <node id='-143709' action='modify' lat='-33.39153329333' lon='151.16884175884' />
  <node id='-143711' action='modify' lat='-33.39168333666' lon='151.1686231588' />
  <node id='-143713' action='modify' lat='-33.39170573117' lon='151.16853598701' />
  <node id='-143715' action='modify' lat='-33.39170573117' lon='151.1683844422' />
  <node id='-143717' action='modify' lat='-33.39172924539' lon='151.16820205199' />
  <node id='-143719' action='modify' lat='-33.39175163989' lon='151.16804648387' />
  <node id='-143721' action='modify' lat='-33.39185465448' lon='151.16791237342' />
  <node id='-143723' action='modify' lat='-33.39190728145' lon='151.16766426908' />
  <node id='-143725' action='modify' lat='-33.3919755845' lon='151.16757307398' />
  <node id='-143727' action='modify' lat='-33.39201589447' lon='151.16750065433' />
  <node id='-143729' action='modify' lat='-33.40454243127' lon='151.17348969179' />
  <node id='-143731' action='modify' lat='-33.40430620385' lon='151.1735527237' />
  <node id='-143733' action='modify' lat='-33.40422895399' lon='151.17355540591' />
  <node id='-143735' action='modify' lat='-33.40406213883' lon='151.17352590161' />
  <node id='-143737' action='modify' lat='-33.40390539946' lon='151.17355942922' />
  <node id='-143739' action='modify' lat='-33.40377329035' lon='151.17359295683' />
  <node id='-143741' action='modify' lat='-33.40362998532' lon='151.17370560961' />
  <node id='-143743' action='modify' lat='-33.40353706084' lon='151.17368549304' />
  <node id='-143745' action='modify' lat='-33.40349115835' lon='151.1736439188' />
  <node id='-143747' action='modify' lat='-33.40338255968' lon='151.17365330654' />
  <node id='-143749' action='modify' lat='-33.40331538517' lon='151.17353663044' />
  <node id='-143751' action='modify' lat='-33.40324261273' lon='151.17350712614' />
  <node id='-143753' action='modify' lat='-33.40314744868' lon='151.1735245605' />
  <node id='-143755' action='modify' lat='-33.40308923062' lon='151.17356345253' />
  <node id='-143757' action='modify' lat='-33.40304220832' lon='151.17354870038' />
  <node id='-143759' action='modify' lat='-33.40279925933' lon='151.17344275313' />
  <node id='-143761' action='modify' lat='-33.40272312771' lon='151.17335826354' />
  <node id='-143763' action='modify' lat='-33.40267834437' lon='151.17327779727' />
  <node id='-143765' action='modify' lat='-33.40254847256' lon='151.173197331' />
  <node id='-143767' action='modify' lat='-33.40252272209' lon='151.17320403653' />
  <node id='-143769' action='modify' lat='-33.4023335119' lon='151.17308065491' />
  <node id='-143771' action='modify' lat='-33.40219356327' lon='151.17293313342' />
  <node id='-143773' action='modify' lat='-33.40210175684' lon='151.17270782786' />
  <node id='-143775' action='modify' lat='-33.40207824542' lon='151.17261395054' />
  <node id='-143777' action='modify' lat='-33.40209839807' lon='151.17249995666' />
  <node id='-143779' action='modify' lat='-33.40210500485' lon='151.17246286002' />
  <node id='-143781' action='modify' lat='-33.40210847439' lon='151.17236718731' />
  <node id='-143783' action='modify' lat='-33.40194725313' lon='151.17237255173' />
  <node id='-143785' action='modify' lat='-33.40190470858' lon='151.17234438854' />
  <node id='-143787' action='modify' lat='-33.40184201131' lon='151.17221832471' />
  <node id='-143789' action='modify' lat='-33.40180282549' lon='151.17213651734' />
  <node id='-143791' action='modify' lat='-33.40174124774' lon='151.17209896641' />
  <node id='-143793' action='modify' lat='-33.40167071318' lon='151.17216199832' />
  <node id='-143795' action='modify' lat='-33.40161921172' lon='151.17218747931' />
  <node id='-143797' action='modify' lat='-33.40157442781' lon='151.17216602164' />
  <node id='-143799' action='modify' lat='-33.40155203585' lon='151.17208153205' />
  <node id='-143801' action='modify' lat='-33.40154195946' lon='151.17202520566' />
  <node id='-143803' action='modify' lat='-33.40148262073' lon='151.17195010381' />
  <node id='-143805' action='modify' lat='-33.40147030514' lon='151.17190182405' />
  <node id='-143807' action='modify' lat='-33.40148150113' lon='151.17183476882' />
  <node id='-143809' action='modify' lat='-33.40145351115' lon='151.17175027924' />
  <node id='-143811' action='modify' lat='-33.40134602953' lon='151.17175832587' />
  <node id='-143813' action='modify' lat='-33.40130908269' lon='151.17173016267' />
  <node id='-143815' action='modify' lat='-33.40126989663' lon='151.17172613936' />
  <node id='-143817' action='modify' lat='-33.401251983' lon='151.17170602279' />
  <node id='-143819' action='modify' lat='-33.40122511255' lon='151.17167517739' />
  <node id='-143821' action='modify' lat='-33.40119712248' lon='151.17168322401' />
  <node id='-143823' action='modify' lat='-33.4011668932' lon='151.17173552709' />
  <node id='-143825' action='modify' lat='-33.40114562074' lon='151.17176503139' />
  <node id='-143827' action='modify' lat='-33.40111763065' lon='151.17176100808' />
  <node id='-143829' action='modify' lat='-33.40109076015' lon='151.171708705' />
  <node id='-143831' action='modify' lat='-33.40104149755' lon='151.1716483553' />
  <node id='-143833' action='modify' lat='-33.40099895256' lon='151.17165640192' />
  <node id='-143835' action='modify' lat='-33.40091946054' lon='151.17163494425' />
  <node id='-143837' action='modify' lat='-33.4008634802' lon='151.17157727676' />
  <node id='-143839' action='modify' lat='-33.40078006944' lon='151.17156084823' />
  <node id='-143841' action='modify' lat='-33.40064515654' lon='151.17156956541' />
  <node id='-143843' action='modify' lat='-33.40059925253' lon='151.1715823059' />
  <node id='-143845' action='modify' lat='-33.40054047295' lon='151.17154944884' />
  <node id='-143847' action='modify' lat='-33.40050800422' lon='151.1715078746' />
  <node id='-143849' action='modify' lat='-33.40048785121' lon='151.17145288932' />
  <node id='-143851' action='modify' lat='-33.40041171756' lon='151.1713435893' />
  <node id='-143853' action='modify' lat='-33.4003803684' lon='151.17128391015' />
  <node id='-143855' action='modify' lat='-33.40035125844' lon='151.171269158' />
  <node id='-143857' action='modify' lat='-33.40031431118' lon='151.17125977027' />
  <node id='-143859' action='modify' lat='-33.40026672757' lon='151.17125977027' />
  <node id='-143861' action='modify' lat='-33.40019283296' lon='151.17122221934' />
  <node id='-143863' action='modify' lat='-33.40010942155' lon='151.17120411443' />
  <node id='-143865' action='modify' lat='-33.40008199093' lon='151.17118936228' />
  <node id='-143867' action='modify' lat='-33.40004336413' lon='151.17114175307' />
  <node id='-143869' action='modify' lat='-33.39996499086' lon='151.1710921322' />
  <node id='-143871' action='modify' lat='-33.39995603391' lon='151.17103379416' />
  <node id='-143873' action='modify' lat='-33.39993923962' lon='151.17097813832' />
  <node id='-143875' action='modify' lat='-33.39986254569' lon='151.17093656408' />
  <node id='-143877' action='modify' lat='-33.39978305263' lon='151.17088962542' />
  <node id='-143879' action='modify' lat='-33.39973826778' lon='151.1708379929' />
  <node id='-143881' action='modify' lat='-33.39967724838' lon='151.17075819718' />
  <node id='-143883' action='modify' lat='-33.39960223365' lon='151.17072399902' />
  <node id='-143885' action='modify' lat='-33.39954737208' lon='151.17067035484' />
  <node id='-143887' action='modify' lat='-33.3994572423' lon='151.17060531127' />
  <node id='-143889' action='modify' lat='-33.39934751896' lon='151.17058720636' />
  <node id='-143891' action='modify' lat='-33.3992870591' lon='151.17057379531' />
  <node id='-143893' action='modify' lat='-33.39917117758' lon='151.17056574868' />
  <node id='-143895' action='modify' lat='-33.39900043401' lon='151.17061268734' />
  <node id='-143897' action='modify' lat='-33.39893941409' lon='151.17058452415' />
  <node id='-143899' action='modify' lat='-33.39887783431' lon='151.17056910145' />
  <node id='-143901' action='modify' lat='-33.39876978969' lon='151.17057848918' />
  <node id='-143903' action='modify' lat='-33.39865950567' lon='151.1706442033' />
  <node id='-143905' action='modify' lat='-33.39863711295' lon='151.17071528184' />
  <node id='-143907' action='modify' lat='-33.39863319423' lon='151.17076557326' />
  <node id='-143909' action='modify' lat='-33.39862647641' lon='151.17079172479' />
  <node id='-143911' action='modify' lat='-33.39860688278' lon='151.17081117081' />
  <node id='-143913' action='modify' lat='-33.39855985805' lon='151.17082122909' />
  <node id='-143915' action='modify' lat='-33.39851283329' lon='151.17083262848' />
  <node id='-143917' action='modify' lat='-33.39849659855' lon='151.17087554383' />
  <node id='-143919' action='modify' lat='-33.39849100036' lon='151.17092181193' />
  <node id='-143921' action='modify' lat='-33.39848988072' lon='151.17097411501' />
  <node id='-143923' action='modify' lat='-33.39849603873' lon='151.17105256962' />
  <node id='-143925' action='modify' lat='-33.39849044054' lon='151.17112096595' />
  <node id='-143927' action='modify' lat='-33.39847364597' lon='151.17119338559' />
  <node id='-143929' action='modify' lat='-33.39843165954' lon='151.17124635922' />
  <node id='-143931' action='modify' lat='-33.39833705004' lon='151.17129195677' />
  <node id='-143933' action='modify' lat='-33.39831969563' lon='151.171359012' />
  <node id='-143935' action='modify' lat='-33.39831465725' lon='151.17143009054' />
  <node id='-143937' action='modify' lat='-33.39831073851' lon='151.17146495926' />
  <node id='-143939' action='modify' lat='-33.39828050822' lon='151.17156487154' />
  <node id='-143941' action='modify' lat='-33.3982194878' lon='151.17167014825' />
  <node id='-143943' action='modify' lat='-33.39819429587' lon='151.17175061452' />
  <node id='-143945' action='modify' lat='-33.39819317623' lon='151.17178145992' />
  <node id='-143947' action='modify' lat='-33.39816182626' lon='151.17190014767' />
  <node id='-143949' action='modify' lat='-33.39814559145' lon='151.17195379185' />
  <node id='-143951' action='modify' lat='-33.39812207896' lon='151.1719698851' />
  <node id='-143953' action='modify' lat='-33.39810024593' lon='151.1719698851' />
  <node id='-143955' action='modify' lat='-33.39805546021' lon='151.17195647406' />
  <node id='-143957' action='modify' lat='-33.398008995' lon='151.17194239246' />
  <node id='-143959' action='modify' lat='-33.3978763171' lon='151.17200005995' />
  <node id='-143961' action='modify' lat='-33.3977604337' lon='151.17203761088' />
  <node id='-143963' action='modify' lat='-33.39771004957' lon='151.17203761088' />
  <node id='-143965' action='modify' lat='-33.39763111437' lon='151.17202151763' />
  <node id='-143967' action='modify' lat='-33.39750123502' lon='151.17197256731' />
  <node id='-143969' action='modify' lat='-33.39742845771' lon='151.17196787345' />
  <node id='-143971' action='modify' lat='-33.39724483469' lon='151.17198463725' />
  <node id='-143973' action='modify' lat='-33.39716757855' lon='151.1720429753' />
  <node id='-143975' action='modify' lat='-33.3970976001' lon='151.17213349985' />
  <node id='-143977' action='modify' lat='-33.39706457025' lon='151.17214556979' />
  <node id='-143979' action='modify' lat='-33.39702538228' lon='151.17213953482' />
  <node id='-143981' action='modify' lat='-33.39697555755' lon='151.17209661948' />
  <node id='-143983' action='modify' lat='-33.39691565587' lon='151.17197860228' />
  <node id='-143985' action='modify' lat='-33.3968624721' lon='151.17192764031' />
  <node id='-143987' action='modify' lat='-33.39678129681' lon='151.17189947712' />
  <node id='-143989' action='modify' lat='-33.39674042922' lon='151.17189210104' />
  <node id='-143991' action='modify' lat='-33.39657807834' lon='151.17193032252' />
  <node id='-143993' action='modify' lat='-33.39641292799' lon='151.17200408327' />
  <node id='-143995' action='modify' lat='-33.39630264097' lon='151.17201145934' />
  <node id='-143997' action='modify' lat='-33.39612909258' lon='151.17207784402' />
  <node id='-143999' action='modify' lat='-33.39598353561' lon='151.17211941826' />
  <node id='-144001' action='modify' lat='-33.39591635538' lon='151.17215227532' />
  <node id='-144003' action='modify' lat='-33.39576967838' lon='151.1722059195' />
  <node id='-144005' action='modify' lat='-33.39551719181' lon='151.1723098551' />
  <node id='-144007' action='modify' lat='-33.39544777187' lon='151.17234338271' />
  <node id='-144009' action='modify' lat='-33.39538618962' lon='151.17231790172' />
  <node id='-144011' action='modify' lat='-33.39527534146' lon='151.1722508465' />
  <node id='-144013' action='modify' lat='-33.3951152272' lon='151.17218513238' />
  <node id='-144015' action='modify' lat='-33.39488121352' lon='151.17213014709' />
  <node id='-144017' action='modify' lat='-33.39478380094' lon='151.17205370414' />
  <node id='-144019' action='modify' lat='-33.3947322954' lon='151.1720724796' />
  <node id='-144021' action='modify' lat='-33.39468862763' lon='151.17207918512' />
  <node id='-144023' action='modify' lat='-33.39464495984' lon='151.17202017652' />
  <node id='-144025' action='modify' lat='-33.39458561639' lon='151.17193836915' />
  <node id='-144027' action='modify' lat='-33.39443669776' lon='151.17179889428' />
  <node id='-144029' action='modify' lat='-33.39423963212' lon='151.1716875826' />
  <node id='-144031' action='modify' lat='-33.39415341576' lon='151.1715963875' />
  <node id='-144033' action='modify' lat='-33.39406495992' lon='151.17154140221' />
  <node id='-144035' action='modify' lat='-33.39403024938' lon='151.17149982797' />
  <node id='-144037' action='modify' lat='-33.39397202521' lon='151.17140058624' />
  <node id='-144039' action='modify' lat='-33.39388580858' lon='151.17131877887' />
  <node id='-144041' action='modify' lat='-33.3938376616' lon='151.17126379358' />
  <node id='-144043' action='modify' lat='-33.39378615549' lon='151.17113638865' />
  <node id='-144045' action='modify' lat='-33.39369993868' lon='151.17094058739' />
  <node id='-144047' action='modify' lat='-33.39365291129' lon='151.17077026712' />
  <node id='-144049' action='modify' lat='-33.39357901106' lon='151.17073137509' />
  <node id='-144051' action='modify' lat='-33.39353198361' lon='151.17066566097' />
  <node id='-144053' action='modify' lat='-33.39349391375' lon='151.17062006342' />
  <node id='-144055' action='modify' lat='-33.39340209813' lon='151.17063347446' />
  <node id='-144057' action='modify' lat='-33.3933069233' lon='151.17060128795' />
  <node id='-144059' action='modify' lat='-33.39316528057' lon='151.1705473085' />
  <node id='-144061' action='modify' lat='-33.39298444782' lon='151.1705037226' />
  <node id='-144063' action='modify' lat='-33.39289375137' lon='151.17052518027' />
  <node id='-144065' action='modify' lat='-33.39279745628' lon='151.17052518027' />
  <node id='-144067' action='modify' lat='-33.40368596388' lon='151.17826938825' />
  <node id='-144069' action='modify' lat='-33.4036926813' lon='151.17840618091' />
  <node id='-144071' action='modify' lat='-33.40366357246' lon='151.17853492694' />
  <node id='-144073' action='modify' lat='-33.40356952844' lon='151.17864757972' />
  <node id='-144075' action='modify' lat='-33.40326612384' lon='151.17886886197' />
  <node id='-144077' action='modify' lat='-33.40321350374' lon='151.17899224358' />
  <node id='-144079' action='modify' lat='-33.4030903502' lon='151.17926180559' />
  <node id='-144081' action='modify' lat='-33.40303549084' lon='151.17934763627' />
  <node id='-144083' action='modify' lat='-33.40283396637' lon='151.17947235899' />
  <node id='-144085' action='modify' lat='-33.40276343269' lon='151.17955818968' />
  <node id='-144087' action='modify' lat='-33.40265259394' lon='151.17973923879' />
  <node id='-144089' action='modify' lat='-33.40248689534' lon='151.17992833453' />
  <node id='-144091' action='modify' lat='-33.40239508923' lon='151.1799511333' />
  <node id='-144093' action='modify' lat='-33.40221707465' lon='151.17990955906' />
  <node id='-144095' action='modify' lat='-33.40200883073' lon='151.17989614802' />
  <node id='-144097' action='modify' lat='-33.40193717679' lon='151.17992833453' />
  <node id='-144099' action='modify' lat='-33.40188679507' lon='151.17998197871' />
  <node id='-144101' action='modify' lat='-33.40181066265' lon='151.18012279468' />
  <node id='-144103' action='modify' lat='-33.40172221461' lon='151.18026629286' />
  <node id='-144105' action='modify' lat='-33.40160689614' lon='151.18031323152' />
  <node id='-144107' action='modify' lat='-33.40146022874' lon='151.18032261925' />
  <node id='-144109' action='modify' lat='-33.40126765743' lon='151.18029445606' />
  <node id='-144111' action='modify' lat='-33.40095080952' lon='151.18019454377' />
  <node id='-144113' action='modify' lat='-33.40066978796' lon='151.18016906279' />
  <node id='-144115' action='modify' lat='-33.40025329219' lon='151.18016235726' />
  <node id='-144117' action='modify' lat='-33.40010438327' lon='151.18020124929' />
  <node id='-144119' action='modify' lat='-33.39993308172' lon='151.18014894622' />
  <node id='-144121' action='modify' lat='-33.39986590455' lon='151.18016772168' />
  <node id='-144123' action='modify' lat='-33.3998188805' lon='151.180261599' />
  <node id='-144125' action='modify' lat='-33.39971811459' lon='151.18048690455' />
  <node id='-144127' action='modify' lat='-33.39954121415' lon='151.18058480518' />
  <node id='-144129' action='modify' lat='-33.39919412997' lon='151.18071757453' />
  <node id='-144131' action='modify' lat='-33.39912023445' lon='151.1807671954' />
  <node id='-144133' action='modify' lat='-33.39899819475' lon='151.18091471689' />
  <node id='-144135' action='modify' lat='-33.39876195225' lon='151.18114806908' />
  <node id='-144137' action='modify' lat='-33.39861639969' lon='151.18131973045' />
  <node id='-144139' action='modify' lat='-33.39854250368' lon='151.18146188753' />
  <node id='-144141' action='modify' lat='-33.39847644507' lon='151.18153028386' />
  <node id='-144143' action='modify' lat='-33.39836000265' lon='151.18158929246' />
  <node id='-144145' action='modify' lat='-33.39816070662' lon='151.18160404461' />
  <node id='-144147' action='modify' lat='-33.39805881914' lon='151.18160002129' />
  <node id='-144149' action='modify' lat='-33.39793006007' lon='151.18154905932' />
  <node id='-144151' action='modify' lat='-33.39783265091' lon='151.18148468631' />
  <node id='-144153' action='modify' lat='-33.3977889847' lon='151.18140556114' />
  <node id='-144155' action='modify' lat='-33.39774083988' lon='151.18129290836' />
  <node id='-144157' action='modify' lat='-33.39771284869' lon='151.18124999302' />
  <node id='-144159' action='modify' lat='-33.3976456698' lon='151.18120707767' />
  <node id='-144161' action='modify' lat='-33.39757737121' lon='151.18119500773' />
  <node id='-144163' action='modify' lat='-33.39751914942' lon='151.18121914761' />
  <node id='-144165' action='modify' lat='-33.39732768903' lon='151.1813344826' />
  <node id='-144167' action='modify' lat='-33.39715750166' lon='151.18156649368' />
  <node id='-144169' action='modify' lat='-33.39689102339' lon='151.18182935017' />
  <node id='-144171' action='modify' lat='-33.39673315143' lon='151.18204258578' />
  <node id='-144173' action='modify' lat='-33.39648906514' lon='151.18223034041' />
  <node id='-144175' action='modify' lat='-33.39637373972' lon='151.18239529627' />
  <node id='-144177' action='modify' lat='-33.39605687396' lon='151.18262194293' />
  <node id='-144179' action='modify' lat='-33.39601096752' lon='151.18272520798' />
  <node id='-144181' action='modify' lat='-33.39591803489' lon='151.18289552825' />
  <node id='-144183' action='modify' lat='-33.39580382839' lon='151.18297197121' />
  <node id='-144185' action='modify' lat='-33.39567954468' lon='151.18300549882' />
  <node id='-144187' action='modify' lat='-33.39548919991' lon='151.18310876387' />
  <node id='-144189' action='modify' lat='-33.39528317921' lon='151.18316643136' />
  <node id='-144191' action='modify' lat='-33.39521040005' lon='151.18321471112' />
  <node id='-144193' action='modify' lat='-33.39514433891' lon='151.18337698477' />
  <node id='-144195' action='modify' lat='-33.39508947453' lon='151.18347220319' />
  <node id='-144197' action='modify' lat='-33.39502229361' lon='151.18351243632' />
  <node id='-144199' action='modify' lat='-33.39487449542' lon='151.18355803388' />
  <node id='-144201' action='modify' lat='-33.39460912984' lon='151.18363715904' />
  <node id='-144203' action='modify' lat='-33.3945374698' lon='151.183713602' />
  <node id='-144205' action='modify' lat='-33.39452627291' lon='151.1837726106' />
  <node id='-144207' action='modify' lat='-33.39450499882' lon='151.18388258117' />
  <node id='-144209' action='modify' lat='-33.39446804908' lon='151.18402607935' />
  <node id='-144211' action='modify' lat='-33.39431017271' lon='151.18426479595' />
  <node id='-144213' action='modify' lat='-33.39425530781' lon='151.18433051007' />
  <node id='-144215' action='modify' lat='-33.39413662035' lon='151.184278207' />
  <node id='-144217' action='modify' lat='-33.39408399473' lon='151.18426881926' />
  <node id='-144219' action='modify' lat='-33.39399441912' lon='151.18429295915' />
  <node id='-144221' action='modify' lat='-33.39383206311' lon='151.18426747816' />
  <node id='-144223' action='modify' lat='-33.39354318062' lon='151.18426479595' />
  <node id='-144225' action='modify' lat='-33.39337858436' lon='151.18428491252' />
  <node id='-144227' action='modify' lat='-33.39332035975' lon='151.1843103935' />
  <node id='-144229' action='modify' lat='-33.39323190307' lon='151.18447669046' />
  <node id='-144231' action='modify' lat='-33.39314120688' lon='151.18461616533' />
  <node id='-144233' action='modify' lat='-33.39304379235' lon='151.18482135432' />
  <node id='-144235' action='modify' lat='-33.39299340549' lon='151.18497289913' />
  <node id='-144237' action='modify' lat='-33.39291278644' lon='151.18504129546' />
  <node id='-144239' action='modify' lat='-33.3928097731' lon='151.18511069762' />
  <node id='-144241' action='modify' lat='-33.39267204855' lon='151.18520055162' />
  <node id='-144243' action='modify' lat='-33.39258471092' lon='151.18530918109' />
  <node id='-144245' action='modify' lat='-33.39252648579' lon='151.18543792712' />
  <node id='-144247' action='modify' lat='-33.39230030316' lon='151.18573297011' />
  <node id='-144249' action='modify' lat='-33.39208867631' lon='151.18592206585' />
  <node id='-144251' action='modify' lat='-33.39202597196' lon='151.18595022904' />
  <node id='-144253' action='modify' lat='-33.39189272506' lon='151.18599448549' />
  <node id='-144255' action='modify' lat='-33.39184233752' lon='151.18605483519' />
  <node id='-144257' action='modify' lat='-33.39175499906' lon='151.18633378493' />
  <node id='-144259' action='modify' lat='-33.39170685089' lon='151.18645984875' />
  <node id='-144261' action='modify' lat='-33.39135077759' lon='151.18681926476' />
  <node id='-144263' action='modify' lat='-33.39130150947' lon='151.1869493519' />
  <node id='-144265' action='modify' lat='-33.39120409288' lon='151.18709016787' />
  <node id='-144267' action='modify' lat='-33.39102381591' lon='151.18736911761' />
  <node id='-144269' action='modify' lat='-33.3908536162' lon='151.18760917532' />
  <node id='-144271' action='modify' lat='-33.39083570042' lon='151.1876936649' />
  <node id='-144273' action='modify' lat='-33.39078755174' lon='151.18788812505' />
  <node id='-144275' action='modify' lat='-33.39066997929' lon='151.18805844533' />
  <node id='-144277' action='modify' lat='-33.39060727391' lon='151.18807051527' />
  <node id='-144279' action='modify' lat='-33.39038780474' lon='151.18811745393' />
  <node id='-144281' action='modify' lat='-33.39006419868' lon='151.18814293491' />
  <node id='-144283' action='modify' lat='-33.38986712312' lon='151.18821937787' />
  <node id='-144285' action='modify' lat='-33.38981897391' lon='151.18824083554' />
  <node id='-144287' action='modify' lat='-33.38971371741' lon='151.1883789693' />
  <node id='-144289' action='modify' lat='-33.38955471265' lon='151.18843395459' />
  <node id='-144291' action='modify' lat='-33.3893934681' lon='151.18840377974' />
  <node id='-144293' action='modify' lat='-33.38923670228' lon='151.18843328404' />
  <node id='-144295' action='modify' lat='-33.38906649906' lon='151.18850033926' />
  <node id='-144297' action='modify' lat='-33.38899931349' lon='151.18849497484' />
  <node id='-144299' action='modify' lat='-33.3887238521' lon='151.18831258463' />
  <node id='-144301' action='modify' lat='-33.3885334921' lon='151.18802022385' />
  <node id='-144303' action='modify' lat='-33.38802063778' lon='151.18748646425' />
  <node id='-144305' action='modify' lat='-33.38778100612' lon='151.18734430718' />
  <node id='-144307' action='modify' lat='-33.38760632095' lon='151.18722092556' />
  <node id='-144309' action='modify' lat='-33.38740252113' lon='151.18716459917' />
  <node id='-144311' action='modify' lat='-33.38672617106' lon='151.18681725311' />
  <node id='-144313' action='modify' lat='-33.38668249927' lon='151.18693929362' />
  <node id='-144315' action='modify' lat='-33.38663994725' lon='151.18705731081' />
  <node id='-144317' action='modify' lat='-33.38653580668' lon='151.18717935132' />
  <node id='-144319' action='modify' lat='-33.38644510351' lon='151.18730273294' />
  <node id='-144321' action='modify' lat='-33.38635663983' lon='151.18741806792' />
  <node id='-144323' action='modify' lat='-33.38619314975' lon='151.18749451088' />
  <node id='-144325' action='modify' lat='-33.38611700358' lon='151.18756827163' />
  <node id='-144327' action='modify' lat='-33.38599830501' lon='151.18772249865' />
  <node id='-144329' action='modify' lat='-33.38596247145' lon='151.18776541399' />
  <node id='-144331' action='modify' lat='-33.38555374383' lon='151.18804168152' />
  <node id='-144333' action='modify' lat='-33.38543168507' lon='151.18808593797' />
  <node id='-144335' action='modify' lat='-33.38521388255' lon='151.18807252692' />
  <node id='-144337' action='modify' lat='-33.38497648278' lon='151.18806850361' />
  <node id='-144339' action='modify' lat='-33.38486450153' lon='151.18801016556' />
  <node id='-144341' action='modify' lat='-33.38473628282' lon='151.18794981586' />
  <node id='-144343' action='modify' lat='-33.38469876901' lon='151.18795115697' />
  <node id='-144345' action='modify' lat='-33.3845723' lon='151.1880208' />
  <node id='-144347' action='modify' lat='-33.38688111775' lon='151.18668502963' />
  <node id='-144349' action='modify' lat='-33.3845629177' lon='151.18799636303' />
  <node id='-144351' action='modify' lat='-33.38670858459' lon='151.1867981192' />
  <node id='-144353' action='modify' lat='-33.38666186931' lon='151.1869286647' />
  <node id='-144355' action='modify' lat='-33.38662108162' lon='151.18704178853' />
  <node id='-144357' action='modify' lat='-33.38651950291' lon='151.18716082682' />
  <node id='-144359' action='modify' lat='-33.38642840421' lon='151.18728474644' />
  <node id='-144361' action='modify' lat='-33.38634362273' lon='151.18739528071' />
  <node id='-144363' action='modify' lat='-33.38618173607' lon='151.18747097395' />
  <node id='-144365' action='modify' lat='-33.38610160343' lon='151.18754859627' />
  <node id='-144367' action='modify' lat='-33.38598210152' lon='151.18770386706' />
  <node id='-144369' action='modify' lat='-33.3859487609' lon='151.18774379677' />
  <node id='-144371' action='modify' lat='-33.385544864' lon='151.18801679908' />
  <node id='-144373' action='modify' lat='-33.38542892641' lon='151.18805883609' />
  <node id='-144375' action='modify' lat='-33.38521461826' lon='151.18804564021' />
  <node id='-144377' action='modify' lat='-33.38498130776' lon='151.1880416862' />
  <node id='-144379' action='modify' lat='-33.38487309093' lon='151.18798530927' />
  <node id='-144381' action='modify' lat='-33.38474021363' lon='151.18792276687' />
  <node id='-144383' action='modify' lat='-33.38469353507' lon='151.18792443561' />
  <node id='-144385' action='modify' lat='-33.40267280838' lon='151.1718210326' />
  <node id='-144387' action='modify' lat='-33.40213996633' lon='151.17236086667' />
  <node id='-144389' action='modify' lat='-33.40223102215' lon='151.1722577808' />
  <node id='-144391' action='modify' lat='-33.40225552015' lon='151.17221769978' />
  <node id='-144393' action='modify' lat='-33.40229810276' lon='151.1722069235' />
  <node id='-144395' action='modify' lat='-33.40232579054' lon='151.17219565959' />
  <node id='-144397' action='modify' lat='-33.40238809344' lon='151.17213647038' />
  <node id='-144399' action='modify' lat='-33.40241232675' lon='151.1720838149' />
  <node id='-144401' action='modify' lat='-33.40250811454' lon='151.17200545583' />
  <node id='-144403' action='modify' lat='-33.40256748651' lon='151.17200410118' />
  <node id='-144405' action='modify' lat='-33.40261827448' lon='151.171972761' />
  <node id='-144407' action='modify' lat='-33.40264993038' lon='151.17188920998' />
  <node id='-144409' action='modify' lat='-33.40277072169' lon='151.17181848315' />
  <node id='-144411' action='modify' lat='-33.40283453787' lon='151.17177959111' />
  <node id='-144413' action='modify' lat='-33.40289219631' lon='151.17174673405' />
  <node id='-144415' action='modify' lat='-33.40293977848' lon='151.17173868743' />
  <node id='-144417' action='modify' lat='-33.40293809911' lon='151.17172862914' />
  <node id='-144419' action='modify' lat='-33.40288883756' lon='151.17173734632' />
  <node id='-144421' action='modify' lat='-33.40276624336' lon='151.1718064132' />
  <node id='-144423' action='modify' lat='-33.3874837' lon='151.1880227' />
  <node id='-144425' action='modify' lat='-33.3875811' lon='151.1879875' />
  <node id='-144427' action='modify' lat='-33.3876506' lon='151.1879339' />
  <node id='-144429' action='modify' lat='-33.3876875' lon='151.1879258' />
  <node id='-144431' action='modify' lat='-33.3877984' lon='151.1879661' />
  <node id='-144433' action='modify' lat='-33.3878879' lon='151.188127' />
  <node id='-144435' action='modify' lat='-33.3878208' lon='151.1886179' />
  <node id='-144437' action='modify' lat='-33.3878577' lon='151.1890148' />
  <node id='-144439' action='modify' lat='-33.3879204' lon='151.1892455' />
  <node id='-144441' action='modify' lat='-33.3879977' lon='151.1892733' />
  <node id='-144443' action='modify' lat='-33.3880442' lon='151.1892706' />
  <node id='-144445' action='modify' lat='-33.3885083' lon='151.1894493' />
  <node id='-144447' action='modify' lat='-33.3886651' lon='151.1898275' />
  <node id='-144449' action='modify' lat='-33.3888364' lon='151.1898701' />
  <node id='-144451' action='modify' lat='-33.3889618' lon='151.1898098' />
  <node id='-144453' action='modify' lat='-33.3893061' lon='151.1899576' />
  <node id='-144455' action='modify' lat='-33.3898039' lon='151.1906902' />
  <node id='-144457' action='modify' lat='-33.3900692' lon='151.1912008' />
  <node id='-144459' action='modify' lat='-33.3901599' lon='151.1913168' />
  <node id='-144461' action='modify' lat='-33.3902294' lon='151.191341' />
  <node id='-144463' action='modify' lat='-33.390329' lon='151.1913597' />
  <node id='-144465' action='modify' lat='-33.3904052' lon='151.1913973' />
  <node id='-144467' action='modify' lat='-33.3904802' lon='151.1914496' />
  <node id='-144469' action='modify' lat='-33.3905339' lon='151.1915569' />
  <node id='-144471' action='modify' lat='-33.3910121' lon='151.1921463' />
  <node id='-144473' action='modify' lat='-33.3911408' lon='151.1922952' />
  <node id='-144475' action='modify' lat='-33.3912237' lon='151.1923823' />
  <node id='-144477' action='modify' lat='-33.3912282' lon='151.1924346' />
  <node id='-144479' action='modify' lat='-33.3912472' lon='151.1926345' />
  <node id='-144481' action='modify' lat='-33.3913267' lon='151.1928826' />
  <node id='-144483' action='modify' lat='-33.391414' lon='151.1930287' />
  <node id='-144485' action='modify' lat='-33.3916996' lon='151.1933466' />
  <node id='-144487' action='modify' lat='-33.3917152' lon='151.1934284' />
  <node id='-144489' action='modify' lat='-33.3918059' lon='151.1935276' />
  <node id='-144491' action='modify' lat='-33.3918675' lon='151.1935799' />
  <node id='-144493' action='modify' lat='-33.3919123' lon='151.1936537' />
  <node id='-144495' action='modify' lat='-33.391947' lon='151.1936591' />
  <node id='-144497' action='modify' lat='-33.3920153' lon='151.1936309' />
  <node id='-144499' action='modify' lat='-33.3920948' lon='151.1936121' />
  <node id='-144501' action='modify' lat='-33.3921833' lon='151.1936403' />
  <node id='-144503' action='modify' lat='-33.3923132' lon='151.1937063' />
  <node id='-144505' action='modify' lat='-33.3924862' lon='151.1936815' />
  <node id='-144507' action='modify' lat='-33.3927706' lon='151.1936252' />
  <node id='-144509' action='modify' lat='-33.392887' lon='151.1936105' />
  <node id='-144511' action='modify' lat='-33.3929621' lon='151.1936078' />
  <node id='-144513' action='modify' lat='-33.393018' lon='151.1935662' />
  <node id='-144515' action='modify' lat='-33.3930942' lon='151.1935608' />
  <node id='-144517' action='modify' lat='-33.3932241' lon='151.1936681' />
  <node id='-144519' action='modify' lat='-33.3933148' lon='151.1935944' />
  <node id='-144521' action='modify' lat='-33.3933898' lon='151.1935528' />
  <node id='-144523' action='modify' lat='-33.3934794' lon='151.1934187' />
  <node id='-144525' action='modify' lat='-33.3936496' lon='151.1934254' />
  <node id='-144527' action='modify' lat='-33.3936932' lon='151.1934522' />
  <node id='-144529' action='modify' lat='-33.3937716' lon='151.1934294' />
  <node id='-144531' action='modify' lat='-33.3937884' lon='151.1933972' />
  <node id='-144533' action='modify' lat='-33.3939653' lon='151.1933784' />
  <node id='-144535' action='modify' lat='-33.3943706' lon='151.1934046' />
  <node id='-144537' action='modify' lat='-33.3945207' lon='151.193253' />
  <node id='-144539' action='modify' lat='-33.3946259' lon='151.193237' />
  <node id='-144541' action='modify' lat='-33.3946763' lon='151.1931484' />
  <node id='-144543' action='modify' lat='-33.394851' lon='151.1930532' />
  <node id='-144545' action='modify' lat='-33.3949182' lon='151.1930116' />
  <node id='-144547' action='modify' lat='-33.395029' lon='151.1929486' />
  <node id='-144549' action='modify' lat='-33.3951421' lon='151.1929245' />
  <node id='-144551' action='modify' lat='-33.3952115' lon='151.1929218' />
  <node id='-144553' action='modify' lat='-33.3957042' lon='151.1927461' />
  <node id='-144555' action='modify' lat='-33.3959304' lon='151.1926187' />
  <node id='-144557' action='modify' lat='-33.3960289' lon='151.1924692' />
  <node id='-144559' action='modify' lat='-33.3964891' lon='151.1919354' />
  <node id='-144561' action='modify' lat='-33.3965641' lon='151.1918415' />
  <node id='-144563' action='modify' lat='-33.3967208' lon='151.1917651' />
  <node id='-144565' action='modify' lat='-33.3973893' lon='151.1913889' />
  <node id='-144567' action='modify' lat='-33.397471' lon='151.1913581' />
  <node id='-144569' action='modify' lat='-33.3975852' lon='151.1913379' />
  <node id='-144571' action='modify' lat='-33.3977543' lon='151.1911918' />
  <node id='-144573' action='modify' lat='-33.398182' lon='151.1909624' />
  <node id='-144575' action='modify' lat='-33.3982536' lon='151.1909329' />
  <node id='-144577' action='modify' lat='-33.3984843' lon='151.1909396' />
  <node id='-144579' action='modify' lat='-33.3985951' lon='151.190886' />
  <node id='-144581' action='modify' lat='-33.3987026' lon='151.1907881' />
  <node id='-144583' action='modify' lat='-33.3988135' lon='151.1907666' />
  <node id='-144585' action='modify' lat='-33.3989501' lon='151.1907653' />
  <node id='-144587' action='modify' lat='-33.3990475' lon='151.1907331' />
  <node id='-144589' action='modify' lat='-33.3992008' lon='151.1907586' />
  <node id='-144591' action='modify' lat='-33.3992557' lon='151.1908069' />
  <node id='-144593' action='modify' lat='-33.399427' lon='151.1908793' />
  <node id='-144595' action='modify' lat='-33.3996577' lon='151.1908739' />
  <node id='-144597' action='modify' lat='-33.399717' lon='151.1908324' />
  <node id='-144599' action='modify' lat='-33.3997864' lon='151.1907117' />
  <node id='-144601' action='modify' lat='-33.3998625' lon='151.19065' />
  <node id='-144603' action='modify' lat='-33.4000842' lon='151.1905762' />
  <node id='-144605' action='modify' lat='-33.4002141' lon='151.1904877' />
  <node id='-144607' action='modify' lat='-33.4002858' lon='151.1904461' />
  <node id='-144609' action='modify' lat='-33.4003193' lon='151.1903563' />
  <node id='-144611' action='modify' lat='-33.4003597' lon='151.1902061' />
  <node id='-144613' action='modify' lat='-33.4005578' lon='151.1900679' />
  <node id='-144615' action='modify' lat='-33.4007' lon='151.1898869' />
  <node id='-144617' action='modify' lat='-33.4007974' lon='151.18973' />
  <node id='-144619' action='modify' lat='-33.4007851' lon='151.1896066' />
  <node id='-144621' action='modify' lat='-33.4007224' lon='151.1895167' />
  <node id='-144623' action='modify' lat='-33.400672' lon='151.1894349' />
  <node id='-144625' action='modify' lat='-33.4006295' lon='151.1892646' />
  <node id='-144627' action='modify' lat='-33.4006989' lon='151.1892163' />
  <node id='-144629' action='modify' lat='-33.4008299' lon='151.1891238' />
  <node id='-144631' action='modify' lat='-33.4009161' lon='151.1890433' />
  <node id='-144633' action='modify' lat='-33.4011311' lon='151.1889709' />
  <node id='-144635' action='modify' lat='-33.4012733' lon='151.1889374' />
  <node id='-144637' action='modify' lat='-33.4014054' lon='151.1889347' />
  <node id='-144639' action='modify' lat='-33.401477' lon='151.189223' />
  <node id='-144696' action='modify' lat='-33.41313131883' lon='151.17773763768' />
  <node id='-144698' action='modify' lat='-33.4131906496' lon='151.17772221498' />
  <node id='-144700' action='modify' lat='-33.41323542752' lon='151.17767929964' />
  <node id='-144702' action='modify' lat='-33.41329755685' lon='151.17764040761' />
  <node id='-144704' action='modify' lat='-33.41335352917' lon='151.17761090331' />
  <node id='-144706' action='modify' lat='-33.41336304446' lon='151.17760620944' />
  <node id='-144708' action='modify' lat='-33.41337871671' lon='151.17753244869' />
  <way id='-144709' action='modify'>
    <nd ref='-143227' />
    <nd ref='-143229' />
    <nd ref='-143231' />
    <nd ref='-143233' />
    <nd ref='-143235' />
    <nd ref='-143237' />
    <nd ref='-143239' />
    <nd ref='-143241' />
    <nd ref='-143223' />
    <nd ref='-143225' />
    <nd ref='-143243' />
    <nd ref='-143245' />
    <nd ref='-143247' />
    <nd ref='-143249' />
    <nd ref='-143251' />
    <nd ref='-143253' />
    <nd ref='-143255' />
    <tag k='name' v='Mount Olive' />
    <tag k='photo' v='136319147@N08/40219348333' />
    <tag k='role' v='sidetrack' />
    <tag k='style' v='return' />
  </way>
  <way id='-144710' action='modify'>
    <nd ref='-143379' />
    <nd ref='-143377' />
    <nd ref='-143375' />
    <nd ref='-143373' />
    <nd ref='-143371' />
    <nd ref='-143369' />
    <nd ref='-143367' />
    <nd ref='-143365' />
    <nd ref='-143363' />
    <nd ref='-143361' />
    <nd ref='-143359' />
    <nd ref='-143357' />
    <nd ref='-143355' />
    <nd ref='-143353' />
    <nd ref='-143351' />
    <nd ref='-143349' />
    <nd ref='-143347' />
    <nd ref='-143345' />
    <nd ref='-143343' />
    <nd ref='-143341' />
    <nd ref='-143339' />
    <nd ref='-143337' />
    <nd ref='-143335' />
    <nd ref='-143333' />
    <nd ref='-143331' />
    <nd ref='-143329' />
    <nd ref='-143327' />
    <nd ref='-143325' />
    <nd ref='-143323' />
    <nd ref='-143321' />
    <nd ref='-143319' />
    <nd ref='-143317' />
    <nd ref='-143315' />
    <nd ref='-143313' />
    <nd ref='-143311' />
    <nd ref='-143309' />
    <nd ref='-143307' />
    <nd ref='-143305' />
    <nd ref='-143303' />
    <nd ref='-143301' />
    <nd ref='-143299' />
    <nd ref='-143297' />
    <nd ref='-143295' />
    <nd ref='-143293' />
    <nd ref='-143291' />
    <nd ref='-143289' />
    <nd ref='-143287' />
    <nd ref='-143285' />
    <nd ref='-143283' />
    <nd ref='-143281' />
    <nd ref='-143279' />
    <nd ref='-143277' />
    <nd ref='-143275' />
    <nd ref='-143273' />
    <nd ref='-143271' />
    <nd ref='-143269' />
    <nd ref='-144696' />
    <nd ref='-144698' />
    <nd ref='-144700' />
    <nd ref='-144702' />
    <nd ref='-144704' />
    <nd ref='-144706' />
    <nd ref='-144708' />
    <tag k='name' v='Southern Lookout' />
    <tag k='photo' v='136319147@N08/46269864995' />
    <tag k='role' v='sidetrack' />
    <tag k='style' v='return' />
  </way>
  <way id='-144711' action='modify'>
    <nd ref='-143499' />
    <nd ref='-143639' />
    <nd ref='-143641' />
    <nd ref='-143643' />
    <nd ref='-143645' />
    <nd ref='-143647' />
    <nd ref='-143649' />
    <nd ref='-143651' />
    <nd ref='-143653' />
    <nd ref='-143655' />
    <nd ref='-143657' />
    <nd ref='-143659' />
    <nd ref='-143661' />
    <nd ref='-143663' />
    <nd ref='-143665' />
    <nd ref='-143667' />
    <nd ref='-143669' />
    <nd ref='-143671' />
    <nd ref='-143673' />
    <nd ref='-143675' />
    <nd ref='-143677' />
    <nd ref='-143679' />
    <nd ref='-143681' />
    <nd ref='-143683' />
    <nd ref='-143685' />
    <nd ref='-143687' />
    <nd ref='-143689' />
    <nd ref='-143691' />
    <nd ref='-143693' />
    <nd ref='-143695' />
    <nd ref='-143697' />
    <nd ref='-143699' />
    <nd ref='-143701' />
    <nd ref='-143703' />
    <nd ref='-143705' />
    <nd ref='-143707' />
    <nd ref='-143709' />
    <nd ref='-143711' />
    <nd ref='-143713' />
    <nd ref='-143715' />
    <nd ref='-143717' />
    <nd ref='-143719' />
    <nd ref='-143721' />
    <nd ref='-143723' />
    <nd ref='-143725' />
    <nd ref='-143727' />
    <tag k='name' v='248 Trail' />
    <tag k='photo' v='136319147@N08/47132326822' />
    <tag k='role' v='sidetrack' />
    <tag k='style' v='return' />
  </way>
  <way id='-144712' action='modify'>
    <nd ref='-144349' />
    <nd ref='-144383' />
    <nd ref='-144381' />
    <nd ref='-144379' />
    <nd ref='-144377' />
    <nd ref='-144375' />
    <nd ref='-144373' />
    <nd ref='-144371' />
    <nd ref='-144369' />
    <nd ref='-144367' />
    <nd ref='-144365' />
    <nd ref='-144363' />
    <nd ref='-144361' />
    <nd ref='-144359' />
    <nd ref='-144357' />
    <nd ref='-144355' />
    <nd ref='-144353' />
    <nd ref='-144351' />
    <nd ref='-144347' />
    <nd ref='-143611' />
    <nd ref='-143609' />
    <nd ref='-143607' />
    <nd ref='-143605' />
    <nd ref='-143603' />
    <nd ref='-143601' />
    <nd ref='-143599' />
    <nd ref='-143597' />
    <nd ref='-143595' />
    <nd ref='-143593' />
    <nd ref='-143591' />
    <nd ref='-143589' />
    <nd ref='-143587' />
    <nd ref='-143585' />
    <nd ref='-143583' />
    <nd ref='-143581' />
    <nd ref='-143579' />
    <nd ref='-143577' />
    <nd ref='-143575' />
    <nd ref='-143573' />
    <nd ref='-143571' />
    <nd ref='-143569' />
    <nd ref='-143567' />
    <nd ref='-143565' />
    <nd ref='-143563' />
    <nd ref='-143561' />
    <nd ref='-143559' />
    <nd ref='-143557' />
    <nd ref='-143555' />
    <nd ref='-143553' />
    <nd ref='-143551' />
    <nd ref='-143549' />
    <nd ref='-143547' />
    <nd ref='-143545' />
    <nd ref='-143543' />
    <nd ref='-143541' />
    <nd ref='-143539' />
    <nd ref='-143537' />
    <nd ref='-143535' />
    <nd ref='-143533' />
    <nd ref='-143531' />
    <nd ref='-143529' />
    <nd ref='-143527' />
    <nd ref='-143525' />
    <nd ref='-143523' />
    <nd ref='-143521' />
    <nd ref='-143519' />
    <nd ref='-143517' />
    <nd ref='-143515' />
    <nd ref='-143513' />
    <nd ref='-143511' />
    <nd ref='-143509' />
    <nd ref='-143507' />
    <nd ref='-143505' />
    <nd ref='-143503' />
    <nd ref='-143501' />
    <nd ref='-143499' />
    <nd ref='-143497' />
    <nd ref='-143495' />
    <nd ref='-143493' />
    <nd ref='-143491' />
    <nd ref='-143489' />
    <nd ref='-143487' />
    <nd ref='-143485' />
    <nd ref='-143483' />
    <nd ref='-143481' />
    <nd ref='-143479' />
    <nd ref='-143477' />
    <nd ref='-143475' />
    <nd ref='-143473' />
    <nd ref='-143471' />
    <nd ref='-143469' />
    <nd ref='-143467' />
    <nd ref='-143465' />
    <nd ref='-143463' />
    <nd ref='-143461' />
    <nd ref='-144065' />
    <nd ref='-144063' />
    <nd ref='-144061' />
    <nd ref='-144059' />
    <nd ref='-144057' />
    <nd ref='-144055' />
    <nd ref='-144053' />
    <nd ref='-144051' />
    <nd ref='-144049' />
    <nd ref='-144047' />
    <nd ref='-144045' />
    <nd ref='-144043' />
    <nd ref='-144041' />
    <nd ref='-144039' />
    <nd ref='-144037' />
    <nd ref='-144035' />
    <nd ref='-144033' />
    <nd ref='-144031' />
    <nd ref='-144029' />
    <nd ref='-144027' />
    <nd ref='-144025' />
    <nd ref='-144023' />
    <nd ref='-144021' />
    <nd ref='-144019' />
    <nd ref='-144017' />
    <nd ref='-144015' />
    <nd ref='-144013' />
    <nd ref='-144011' />
    <nd ref='-144009' />
    <nd ref='-144007' />
    <nd ref='-144005' />
    <nd ref='-144003' />
    <nd ref='-144001' />
    <nd ref='-143999' />
    <nd ref='-143997' />
    <nd ref='-143995' />
    <nd ref='-143993' />
    <nd ref='-143991' />
    <nd ref='-143989' />
    <nd ref='-143987' />
    <nd ref='-143985' />
    <nd ref='-143983' />
    <nd ref='-143981' />
    <nd ref='-143979' />
    <nd ref='-143977' />
    <nd ref='-143975' />
    <nd ref='-143973' />
    <nd ref='-143971' />
    <nd ref='-143969' />
    <nd ref='-143967' />
    <nd ref='-143965' />
    <nd ref='-143963' />
    <nd ref='-143961' />
    <nd ref='-143959' />
    <nd ref='-143957' />
    <nd ref='-143955' />
    <nd ref='-143953' />
    <nd ref='-143951' />
    <nd ref='-143949' />
    <nd ref='-143947' />
    <nd ref='-143945' />
    <nd ref='-143943' />
    <nd ref='-143941' />
    <nd ref='-143939' />
    <nd ref='-143937' />
    <nd ref='-143935' />
    <nd ref='-143933' />
    <nd ref='-143931' />
    <nd ref='-143929' />
    <nd ref='-143927' />
    <nd ref='-143925' />
    <nd ref='-143923' />
    <nd ref='-143921' />
    <nd ref='-143919' />
    <nd ref='-143917' />
    <nd ref='-143915' />
    <nd ref='-143913' />
    <nd ref='-143911' />
    <nd ref='-143909' />
    <nd ref='-143907' />
    <nd ref='-143905' />
    <nd ref='-143903' />
    <nd ref='-143901' />
    <nd ref='-143899' />
    <nd ref='-143897' />
    <nd ref='-143895' />
    <nd ref='-143893' />
    <nd ref='-143891' />
    <nd ref='-143889' />
    <nd ref='-143887' />
    <nd ref='-143885' />
    <nd ref='-143883' />
    <nd ref='-143881' />
    <nd ref='-143879' />
    <nd ref='-143877' />
    <nd ref='-143875' />
    <nd ref='-143873' />
    <nd ref='-143871' />
    <nd ref='-143869' />
    <nd ref='-143867' />
    <nd ref='-143865' />
    <nd ref='-143863' />
    <nd ref='-143861' />
    <nd ref='-143859' />
    <nd ref='-143857' />
    <nd ref='-143855' />
    <nd ref='-143853' />
    <nd ref='-143851' />
    <nd ref='-143849' />
    <nd ref='-143847' />
    <nd ref='-143845' />
    <nd ref='-143843' />
    <nd ref='-143841' />
    <nd ref='-143839' />
    <nd ref='-143837' />
    <nd ref='-143835' />
    <nd ref='-143833' />
    <nd ref='-143831' />
    <nd ref='-143829' />
    <nd ref='-143827' />
    <nd ref='-143825' />
    <nd ref='-143823' />
    <nd ref='-143821' />
    <nd ref='-143819' />
    <nd ref='-143817' />
    <nd ref='-143815' />
    <nd ref='-143813' />
    <nd ref='-143811' />
    <nd ref='-143809' />
    <nd ref='-143807' />
    <nd ref='-143805' />
    <nd ref='-143803' />
    <nd ref='-143801' />
    <nd ref='-143799' />
    <nd ref='-143797' />
    <nd ref='-143795' />
    <nd ref='-143793' />
    <nd ref='-143791' />
    <nd ref='-143789' />
    <nd ref='-143787' />
    <nd ref='-143785' />
    <nd ref='-143783' />
    <nd ref='-143781' />
    <nd ref='-144387' />
    <nd ref='-144389' />
    <nd ref='-144391' />
    <nd ref='-144393' />
    <nd ref='-144395' />
    <nd ref='-144397' />
    <nd ref='-144399' />
    <nd ref='-144401' />
    <nd ref='-144403' />
    <nd ref='-144405' />
    <nd ref='-144407' />
    <nd ref='-144385' />
    <nd ref='-144421' />
    <nd ref='-144419' />
    <nd ref='-144417' />
    <nd ref='-144415' />
    <nd ref='-144413' />
    <nd ref='-144411' />
    <nd ref='-144409' />
    <nd ref='-143637' />
    <nd ref='-143635' />
    <nd ref='-143633' />
    <nd ref='-143631' />
    <nd ref='-143629' />
    <nd ref='-143627' />
    <nd ref='-143625' />
    <nd ref='-143623' />
    <nd ref='-143221' />
    <nd ref='-143621' />
    <nd ref='-143619' />
    <nd ref='-143617' />
    <nd ref='-143615' />
    <nd ref='-143779' />
    <nd ref='-143777' />
    <nd ref='-143775' />
    <nd ref='-143773' />
    <nd ref='-143771' />
    <nd ref='-143769' />
    <nd ref='-143767' />
    <nd ref='-143765' />
    <nd ref='-143763' />
    <nd ref='-143761' />
    <nd ref='-143759' />
    <nd ref='-143757' />
    <nd ref='-143755' />
    <nd ref='-143753' />
    <nd ref='-143751' />
    <nd ref='-143749' />
    <nd ref='-143747' />
    <nd ref='-143745' />
    <nd ref='-143743' />
    <nd ref='-143741' />
    <nd ref='-143739' />
    <nd ref='-143737' />
    <nd ref='-143735' />
    <nd ref='-143733' />
    <nd ref='-143731' />
    <nd ref='-143729' />
    <nd ref='-143459' />
    <nd ref='-143457' />
    <nd ref='-143455' />
    <nd ref='-143453' />
    <nd ref='-143451' />
    <nd ref='-143449' />
    <nd ref='-143447' />
    <nd ref='-143445' />
    <nd ref='-143443' />
    <nd ref='-143441' />
    <nd ref='-143439' />
    <nd ref='-143437' />
    <nd ref='-143435' />
    <nd ref='-143433' />
    <nd ref='-143431' />
    <nd ref='-143429' />
    <nd ref='-143427' />
    <nd ref='-143425' />
    <nd ref='-143423' />
    <nd ref='-143421' />
    <nd ref='-143419' />
    <nd ref='-143417' />
    <nd ref='-143415' />
    <nd ref='-143413' />
    <nd ref='-143411' />
    <nd ref='-143409' />
    <nd ref='-143407' />
    <nd ref='-143405' />
    <nd ref='-143403' />
    <nd ref='-143401' />
    <nd ref='-143399' />
    <nd ref='-143397' />
    <nd ref='-143395' />
    <nd ref='-143393' />
    <nd ref='-143391' />
    <nd ref='-143389' />
    <nd ref='-143387' />
    <nd ref='-143385' />
    <nd ref='-143383' />
    <nd ref='-143381' />
    <nd ref='-143379' />
    <nd ref='-144067' />
    <nd ref='-144069' />
    <nd ref='-144071' />
    <nd ref='-144073' />
    <nd ref='-144075' />
    <nd ref='-144077' />
    <nd ref='-144079' />
    <nd ref='-144081' />
    <nd ref='-144083' />
    <nd ref='-144085' />
    <nd ref='-144087' />
    <nd ref='-144089' />
    <nd ref='-144091' />
    <nd ref='-144093' />
    <nd ref='-144095' />
    <nd ref='-144097' />
    <nd ref='-144099' />
    <nd ref='-144101' />
    <nd ref='-144103' />
    <nd ref='-144105' />
    <nd ref='-144107' />
    <nd ref='-144109' />
    <nd ref='-144111' />
    <nd ref='-144113' />
    <nd ref='-144115' />
    <nd ref='-144117' />
    <nd ref='-144119' />
    <nd ref='-144121' />
    <nd ref='-144123' />
    <nd ref='-144125' />
    <nd ref='-144127' />
    <nd ref='-144129' />
    <nd ref='-144131' />
    <nd ref='-144133' />
    <nd ref='-144135' />
    <nd ref='-144137' />
    <nd ref='-144139' />
    <nd ref='-144141' />
    <nd ref='-144143' />
    <nd ref='-144145' />
    <nd ref='-144147' />
    <nd ref='-144149' />
    <nd ref='-144151' />
    <nd ref='-144153' />
    <nd ref='-144155' />
    <nd ref='-144157' />
    <nd ref='-144159' />
    <nd ref='-144161' />
    <nd ref='-144163' />
    <nd ref='-144165' />
    <nd ref='-144167' />
    <nd ref='-144169' />
    <nd ref='-144171' />
    <nd ref='-144173' />
    <nd ref='-144175' />
    <nd ref='-144177' />
    <nd ref='-144179' />
    <nd ref='-144181' />
    <nd ref='-144183' />
    <nd ref='-144185' />
    <nd ref='-144187' />
    <nd ref='-144189' />
    <nd ref='-144191' />
    <nd ref='-144193' />
    <nd ref='-144195' />
    <nd ref='-144197' />
    <nd ref='-144199' />
    <nd ref='-144201' />
    <nd ref='-144203' />
    <nd ref='-144205' />
    <nd ref='-144207' />
    <nd ref='-144209' />
    <nd ref='-144211' />
    <nd ref='-144213' />
    <nd ref='-144215' />
    <nd ref='-144217' />
    <nd ref='-144219' />
    <nd ref='-144221' />
    <nd ref='-144223' />
    <nd ref='-144225' />
    <nd ref='-144227' />
    <nd ref='-144229' />
    <nd ref='-144231' />
    <nd ref='-144233' />
    <nd ref='-144235' />
    <nd ref='-144237' />
    <nd ref='-144239' />
    <nd ref='-144241' />
    <nd ref='-144243' />
    <nd ref='-144245' />
    <nd ref='-144247' />
    <nd ref='-144249' />
    <nd ref='-144251' />
    <nd ref='-144253' />
    <nd ref='-144255' />
    <nd ref='-144257' />
    <nd ref='-144259' />
    <nd ref='-144261' />
    <nd ref='-144263' />
    <nd ref='-144265' />
    <nd ref='-144267' />
    <nd ref='-144269' />
    <nd ref='-144271' />
    <nd ref='-144273' />
    <nd ref='-144275' />
    <nd ref='-144277' />
    <nd ref='-144279' />
    <nd ref='-144281' />
    <nd ref='-144283' />
    <nd ref='-144285' />
    <nd ref='-144287' />
    <nd ref='-144289' />
    <nd ref='-144291' />
    <nd ref='-144293' />
    <nd ref='-144295' />
    <nd ref='-144297' />
    <nd ref='-144299' />
    <nd ref='-144301' />
    <nd ref='-144303' />
    <nd ref='-144305' />
    <nd ref='-144307' />
    <nd ref='-144309' />
    <nd ref='-143227' />
    <nd ref='-143613' />
    <nd ref='-144311' />
    <nd ref='-144313' />
    <nd ref='-144315' />
    <nd ref='-144317' />
    <nd ref='-144319' />
    <nd ref='-144321' />
    <nd ref='-144323' />
    <nd ref='-144325' />
    <nd ref='-144327' />
    <nd ref='-144329' />
    <nd ref='-144331' />
    <nd ref='-144333' />
    <nd ref='-144335' />
    <nd ref='-144337' />
    <nd ref='-144339' />
    <nd ref='-144341' />
    <nd ref='-144343' />
    <nd ref='-144345' />
    <tag k='name' v='Hominy Creek Trail' />
    <tag k='park' v='Popran National Park' />
    <tag k='photo' v='136319147@N08/40219384133' />
    <tag k='role' v='primary' />
    <tag k='style' v='loop' />
    <tag k='transport' v='car' />
  </way>
  <way id='-144713' action='modify'>
    <nd ref='-144423' />
    <nd ref='-144425' />
    <nd ref='-144427' />
    <nd ref='-144429' />
    <nd ref='-144431' />
    <nd ref='-144433' />
    <nd ref='-144435' />
    <nd ref='-144437' />
    <nd ref='-144439' />
    <nd ref='-144441' />
    <nd ref='-144443' />
    <nd ref='-144445' />
    <nd ref='-144447' />
    <nd ref='-144449' />
    <nd ref='-144451' />
    <nd ref='-144453' />
    <nd ref='-144455' />
    <nd ref='-144457' />
    <nd ref='-144459' />
    <nd ref='-144461' />
    <nd ref='-144463' />
    <nd ref='-144465' />
    <nd ref='-144467' />
    <nd ref='-144469' />
    <nd ref='-144471' />
    <nd ref='-144473' />
    <nd ref='-144475' />
    <nd ref='-144477' />
    <nd ref='-144479' />
    <nd ref='-144481' />
    <nd ref='-144483' />
    <nd ref='-144485' />
    <nd ref='-144487' />
    <nd ref='-144489' />
    <nd ref='-144491' />
    <nd ref='-144493' />
    <nd ref='-144495' />
    <nd ref='-144497' />
    <nd ref='-144499' />
    <nd ref='-144501' />
    <nd ref='-144503' />
    <nd ref='-144505' />
    <nd ref='-144507' />
    <nd ref='-144509' />
    <nd ref='-144511' />
    <nd ref='-144513' />
    <nd ref='-144515' />
    <nd ref='-144517' />
    <nd ref='-144519' />
    <nd ref='-144521' />
    <nd ref='-144523' />
    <nd ref='-144525' />
    <nd ref='-144527' />
    <nd ref='-144529' />
    <nd ref='-144531' />
    <nd ref='-144533' />
    <nd ref='-144535' />
    <nd ref='-144537' />
    <nd ref='-144539' />
    <nd ref='-144541' />
    <nd ref='-144543' />
    <nd ref='-144545' />
    <nd ref='-144547' />
    <nd ref='-144549' />
    <nd ref='-144551' />
    <nd ref='-144553' />
    <nd ref='-144555' />
    <nd ref='-144557' />
    <nd ref='-144559' />
    <nd ref='-144561' />
    <nd ref='-144563' />
    <nd ref='-144565' />
    <nd ref='-144567' />
    <nd ref='-144569' />
    <nd ref='-144571' />
    <nd ref='-144573' />
    <nd ref='-144575' />
    <nd ref='-144577' />
    <nd ref='-144579' />
    <nd ref='-144581' />
    <nd ref='-144583' />
    <nd ref='-144585' />
    <nd ref='-144587' />
    <nd ref='-144589' />
    <nd ref='-144591' />
    <nd ref='-144593' />
    <nd ref='-144595' />
    <nd ref='-144597' />
    <nd ref='-144599' />
    <nd ref='-144601' />
    <nd ref='-144603' />
    <nd ref='-144605' />
    <nd ref='-144607' />
    <nd ref='-144609' />
    <nd ref='-144611' />
    <nd ref='-144613' />
    <nd ref='-144615' />
    <nd ref='-144617' />
    <nd ref='-144619' />
    <nd ref='-144621' />
    <nd ref='-144623' />
    <nd ref='-144625' />
    <nd ref='-144627' />
    <nd ref='-144629' />
    <nd ref='-144631' />
    <nd ref='-144633' />
    <nd ref='-144635' />
    <nd ref='-144637' />
    <nd ref='-144639' />
    <tag k='name' v='Mailmans Walking Track' />
    <tag k='role' v='sidetrack' />
    <tag k='style' v='return' />
  </way>
</osm>
