<?xml version='1.0' encoding='UTF-8'?>
<osm version='0.6' upload='false' generator='JOSM'>
  <node id='-8753' action='modify' visible='true' lat='-35.2146207' lon='150.52977' />
  <node id='-8754' action='modify' visible='true' lat='-35.2148995' lon='150.5301948' />
  <node id='-8755' action='modify' visible='true' lat='-35.2152478' lon='150.5308342' />
  <node id='-8756' action='modify' visible='true' lat='-35.215905' lon='150.5314186' />
  <node id='-8757' action='modify' visible='true' lat='-35.2163151' lon='150.5318999' />
  <node id='-8758' action='modify' visible='true' lat='-35.2166016' lon='150.5320924' />
  <node id='-8759' action='modify' visible='true' lat='-35.2171408' lon='150.5327594' />
  <node id='-8760' action='modify' visible='true' lat='-35.2175958' lon='150.5330138' />
  <node id='-8761' action='modify' visible='true' lat='-35.2180508' lon='150.5333576' />
  <node id='-8762' action='modify' visible='true' lat='-35.2182699' lon='150.5337701' />
  <node id='-8763' action='modify' visible='true' lat='-35.2183597' lon='150.5341276' />
  <node id='-8764' action='modify' visible='true' lat='-35.2184608' lon='150.5343201' />
  <node id='-8765' action='modify' visible='true' lat='-35.218899' lon='150.5347671' />
  <node id='-8766' action='modify' visible='true' lat='-35.2189776' lon='150.5349252' />
  <node id='-8767' action='modify' visible='true' lat='-35.2189383' lon='150.5351108' />
  <node id='-8768' action='modify' visible='true' lat='-35.2187866' lon='150.5353171' />
  <node id='-8769' action='modify' visible='true' lat='-35.2186968' lon='150.5356678' />
  <node id='-8770' action='modify' visible='true' lat='-35.2186631' lon='150.5358878' />
  <node id='-8771' action='modify' visible='true' lat='-35.2190057' lon='150.5363691' />
  <node id='-8772' action='modify' visible='true' lat='-35.2190113' lon='150.5364997' />
  <node id='-8773' action='modify' visible='true' lat='-35.2189439' lon='150.5368641' />
  <node id='-8774' action='modify' visible='true' lat='-35.2188765' lon='150.5370154' />
  <node id='-8775' action='modify' visible='true' lat='-35.2187642' lon='150.5371392' />
  <node id='-8776' action='modify' visible='true' lat='-35.2186294' lon='150.5374073' />
  <node id='-8777' action='modify' visible='true' lat='-35.2184608' lon='150.5376961' />
  <node id='-8778' action='modify' visible='true' lat='-35.2182923' lon='150.5378198' />
  <node id='-8779' action='modify' visible='true' lat='-35.2180676' lon='150.5378473' />
  <node id='-8780' action='modify' visible='true' lat='-35.2178654' lon='150.5379024' />
  <node id='-8781' action='modify' visible='true' lat='-35.2177306' lon='150.538088' />
  <node id='-8782' action='modify' visible='true' lat='-35.2175958' lon='150.5383149' />
  <node id='-8783' action='modify' visible='true' lat='-35.2174441' lon='150.5385005' />
  <node id='-8784' action='modify' visible='true' lat='-35.21727' lon='150.5385624' />
  <node id='-8785' action='modify' visible='true' lat='-35.2171157' lon='150.5386816' />
  <node id='-8786' action='modify' visible='true' lat='-35.2171345' lon='150.538784' />
  <node id='-8787' action='modify' visible='true' lat='-35.207968' lon='150.5481937'>
    
  </node>
  <node id='-8788' action='modify' visible='true' lat='-35.2073202' lon='150.5484175'>
    
  </node>
  <node id='-8789' action='modify' visible='true' lat='-35.2070728' lon='150.5487237'>
    
  </node>
  <node id='-8790' action='modify' visible='true' lat='-35.2062602' lon='150.549772'>
    
  </node>
  <node id='-8791' action='modify' visible='true' lat='-35.2061071' lon='150.5499369'>
    
  </node>
  <node id='-8796' action='modify' visible='true' lat='-35.2024165' lon='150.5151762' />
  <node id='-8797' action='modify' visible='true' lat='-35.20236862239' lon='150.51602498734' />
  <node id='-8798' action='modify' visible='true' lat='-35.20177028895' lon='150.51671431506' />
  <node id='-8799' action='modify' visible='true' lat='-35.20198074724' lon='150.51727561164' />
  <node id='-8800' action='modify' visible='true' lat='-35.2020815' lon='150.5182756' />
  <node id='-8801' action='modify' visible='true' lat='-35.2020746' lon='150.5183398' />
  <node id='-8802' action='modify' visible='true' lat='-35.20132920124' lon='150.5195856177' />
  <node id='-8803' action='modify' visible='true' lat='-35.20079003693' lon='150.52130223147' />
  <node id='-8804' action='modify' visible='true' lat='-35.20035607282' lon='150.5218172156' />
  <node id='-8805' action='modify' visible='true' lat='-35.20040977052' lon='150.52254409424' />
  <node id='-8806' action='modify' visible='true' lat='-35.20043168794' lon='150.52297324769' />
  <node id='-8807' action='modify' visible='true' lat='-35.20060264362' lon='150.52353651158' />
  <node id='-8808' action='modify' visible='true' lat='-35.2009566084' lon='150.52382350794' />
  <node id='-8809' action='modify' visible='true' lat='-35.20106627462' lon='150.52422775184' />
  <node id='-8810' action='modify' visible='true' lat='-35.20093578698' lon='150.52463085286' />
  <node id='-8811' action='modify' visible='true' lat='-35.20047113929' lon='150.52517265908' />
  <node id='-8812' action='modify' visible='true' lat='-35.19996155797' lon='150.5255669438' />
  <node id='-8813' action='modify' visible='true' lat='-35.19976101219' lon='150.52584321133' />
  <node id='-8814' action='modify' visible='true' lat='-35.19973909459' lon='150.52608729235' />
  <node id='-8815' action='modify' visible='true' lat='-35.20005689924' lon='150.52629114024' />
  <node id='-8816' action='modify' visible='true' lat='-35.20053689148' lon='150.52628309361' />
  <node id='-8817' action='modify' visible='true' lat='-35.2014398829' lon='150.52703411213' />
  <node id='-8818' action='modify' visible='true' lat='-35.20143111604' lon='150.52755177847' />
  <node id='-8819' action='modify' visible='true' lat='-35.20158672764' lon='150.52820891968' />
  <node id='-8820' action='modify' visible='true' lat='-35.2016437121' lon='150.52828133933' />
  <node id='-8821' action='modify' visible='true' lat='-35.201726997' lon='150.52830011479' />
  <node id='-8822' action='modify' visible='true' lat='-35.20250066582' lon='150.52798629633' />
  <node id='-8823' action='modify' visible='true' lat='-35.20279873455' lon='150.52797824971' />
  <node id='-8824' action='modify' visible='true' lat='-35.20322391895' lon='150.52809894911' />
  <node id='-8825' action='modify' visible='true' lat='-35.20346828939' lon='150.52856297127' />
  <node id='-8826' action='modify' visible='true' lat='-35.20363814285' lon='150.52884460322' />
  <node id='-8827' action='modify' visible='true' lat='-35.20385073313' lon='150.5290484511' />
  <node id='-8828' action='modify' visible='true' lat='-35.20420797121' lon='150.52921743027' />
  <node id='-8829' action='modify' visible='true' lat='-35.204646298' lon='150.52924425236' />
  <node id='-8830' action='modify' visible='true' lat='-35.20481286156' lon='150.5294641935' />
  <node id='-8831' action='modify' visible='true' lat='-35.20534761594' lon='150.53012401692' />
  <node id='-8832' action='modify' visible='true' lat='-35.20537391524' lon='150.53033054701' />
  <node id='-8833' action='modify' visible='true' lat='-35.20548568719' lon='150.53049684397' />
  <node id='-8834' action='modify' visible='true' lat='-35.20548349559' lon='150.53069264523' />
  <node id='-8835' action='modify' visible='true' lat='-35.20570265584' lon='150.5309823238' />
  <node id='-8836' action='modify' visible='true' lat='-35.20599413805' lon='150.53132296435' />
  <node id='-8837' action='modify' visible='true' lat='-35.20604673623' lon='150.53152681223' />
  <node id='-8838' action='modify' visible='true' lat='-35.20600290441' lon='150.53174943558' />
  <node id='-8839' action='modify' visible='true' lat='-35.20562375821' lon='150.5319023215' />
  <node id='-8840' action='modify' visible='true' lat='-35.20532789145' lon='150.53255141608' />
  <node id='-8841' action='modify' visible='true' lat='-35.20537062783' lon='150.53368330828' />
  <node id='-8842' action='modify' visible='true' lat='-35.20512845473' lon='150.53534896008' />
  <node id='-8843' action='modify' visible='true' lat='-35.20497942477' lon='150.535861262' />
  <node id='-8844' action='modify' visible='true' lat='-35.20502544876' lon='150.53623677126' />
  <node id='-8845' action='modify' visible='true' lat='-35.20487422699' lon='150.53673297993' />
  <node id='-8846' action='modify' visible='true' lat='-35.2049268259' lon='150.53722650639' />
  <node id='-8847' action='modify' visible='true' lat='-35.20510665925' lon='150.53747848895' />
  <node id='-8848' action='modify' visible='true' lat='-35.20522777484' lon='150.5375977086' />
  <node id='-8849' action='modify' visible='true' lat='-35.20538996469' lon='150.53768889325' />
  <node id='-8850' action='modify' visible='true' lat='-35.20558869258' lon='150.53806067339' />
  <node id='-8851' action='modify' visible='true' lat='-35.2058349' lon='150.538118' />
  <node id='-8852' action='modify' visible='true' lat='-35.2059493' lon='150.5385447' />
  <node id='-8853' action='modify' visible='true' lat='-35.2060146' lon='150.538692' />
  <node id='-8854' action='modify' visible='true' lat='-35.2061066' lon='150.5388315' />
  <node id='-8855' action='modify' visible='true' lat='-35.2061461' lon='150.5390139' />
  <node id='-8856' action='modify' visible='true' lat='-35.2061373' lon='150.5392017' />
  <node id='-8857' action='modify' visible='true' lat='-35.2061505' lon='150.5394377' />
  <node id='-8858' action='modify' visible='true' lat='-35.2059664' lon='150.5397917' />
  <node id='-8859' action='modify' visible='true' lat='-35.2058305' lon='150.5400278' />
  <node id='-8860' action='modify' visible='true' lat='-35.2057165' lon='150.5402209' />
  <node id='-8861' action='modify' visible='true' lat='-35.2055105' lon='150.5406232' />
  <node id='-8862' action='modify' visible='true' lat='-35.2052958' lon='150.5410256' />
  <node id='-8863' action='modify' visible='true' lat='-35.2052081' lon='150.541326' />
  <node id='-8864' action='modify' visible='true' lat='-35.2051292' lon='150.5415674' />
  <node id='-8865' action='modify' visible='true' lat='-35.2050415' lon='150.5418785' />
  <node id='-8866' action='modify' visible='true' lat='-35.2048443' lon='150.5422808' />
  <node id='-8867' action='modify' visible='true' lat='-35.2047522' lon='150.5425383' />
  <node id='-8868' action='modify' visible='true' lat='-35.2046207' lon='150.5428387' />
  <node id='-8869' action='modify' visible='true' lat='-35.2046032' lon='150.5430855' />
  <node id='-8870' action='modify' visible='true' lat='-35.2046821' lon='150.5434127' />
  <node id='-8871' action='modify' visible='true' lat='-35.2046646' lon='150.5436488' />
  <node id='-8872' action='modify' visible='true' lat='-35.2047172' lon='150.5441155' />
  <node id='-8873' action='modify' visible='true' lat='-35.2047435' lon='150.5444159' />
  <node id='-8874' action='modify' visible='true' lat='-35.2048005' lon='150.5449309' />
  <node id='-8875' action='modify' visible='true' lat='-35.2048443' lon='150.5451615' />
  <node id='-8876' action='modify' visible='true' lat='-35.2048355' lon='150.54536' />
  <node id='-8877' action='modify' visible='true' lat='-35.2048092' lon='150.545596' />
  <node id='-8879' action='modify' visible='true' lat='-35.213865' lon='150.5272687' />
  <node id='-8880' action='modify' visible='true' lat='-35.2128709' lon='150.5268083' />
  <node id='-8881' action='modify' visible='true' lat='-35.2122246' lon='150.5262946' />
  <node id='-8882' action='modify' visible='true' lat='-35.2118448' lon='150.5252344' />
  <node id='-8883' action='modify' visible='true' lat='-35.2109254' lon='150.524264' />
  <node id='-8884' action='modify' visible='true' lat='-35.2105656' lon='150.5235301' />
  <node id='-8885' action='modify' visible='true' lat='-35.2102524' lon='150.5232936' />
  <node id='-8886' action='modify' visible='true' lat='-35.2094462' lon='150.5228858' />
  <node id='-8887' action='modify' visible='true' lat='-35.2088799' lon='150.522421' />
  <node id='-8888' action='modify' visible='true' lat='-35.2086067' lon='150.5222334' />
  <node id='-8889' action='modify' visible='true' lat='-35.2082869' lon='150.52163' />
  <node id='-8890' action='modify' visible='true' lat='-35.208107' lon='150.52163' />
  <node id='-8891' action='modify' visible='true' lat='-35.2075139' lon='150.521002' />
  <node id='-8892' action='modify' visible='true' lat='-35.2073274' lon='150.520945' />
  <node id='-8893' action='modify' visible='true' lat='-35.2071008' lon='150.5206269' />
  <node id='-8894' action='modify' visible='true' lat='-35.2060347' lon='150.5201702' />
  <node id='-8895' action='modify' visible='true' lat='-35.2059281' lon='150.5199093' />
  <node id='-8896' action='modify' visible='true' lat='-35.2056816' lon='150.5198685' />
  <node id='-8897' action='modify' visible='true' lat='-35.2056816' lon='150.5197462' />
  <node id='-8898' action='modify' visible='true' lat='-35.2058148' lon='150.5196973' />
  <node id='-8899' action='modify' visible='true' lat='-35.2057549' lon='150.5195749' />
  <node id='-8900' action='modify' visible='true' lat='-35.2055083' lon='150.519526' />
  <node id='-8901' action='modify' visible='true' lat='-35.205455' lon='150.5193792' />
  <node id='-8902' action='modify' visible='true' lat='-35.2048353' lon='150.5187839' />
  <node id='-8903' action='modify' visible='true' lat='-35.2045555' lon='150.5179195' />
  <node id='-8904' action='modify' visible='true' lat='-35.2045355' lon='150.5176585' />
  <node id='-8905' action='modify' visible='true' lat='-35.2043756' lon='150.5174384' />
  <node id='-8906' action='modify' visible='true' lat='-35.2041024' lon='150.5167126' />
  <node id='-8907' action='modify' visible='true' lat='-35.2040091' lon='150.5164435' />
  <node id='-8908' action='modify' visible='true' lat='-35.2036226' lon='150.5160602' />
  <node id='-8909' action='modify' visible='true' lat='-35.2031228' lon='150.5156361' />
  <node id='-8910' action='modify' visible='true' lat='-35.2027364' lon='150.5154159' />
  <node id='-8911' action='modify' visible='true' lat='-35.2025165' lon='150.5152773' />
  <node id='-8913' action='modify' visible='true' lat='-35.2144238' lon='150.5279523' />
  <node id='-8914' action='modify' visible='true' lat='-35.21435' lon='150.5291325' />
  <node id='-8915' action='modify' visible='true' lat='-35.2094894' lon='150.5479796'>
    <tag k='name' v='Usually you can cross here in ankle deep water, but after heavy rain or high seas it may be uncrossable.' />
    <tag k='role' v='warn' />
    <tag k='warn' v='hazard' />
  </node>
  <node id='-8916' action='modify' visible='true' lat='-35.2088504' lon='150.5478421' />
  <node id='-8917' action='modify' visible='true' lat='-35.2047644' lon='150.5461797'>
    
  </node>
  <node id='-8918' action='modify' visible='true' lat='-35.2051059' lon='150.5471102'>
    
  </node>
  <node id='-8919' action='modify' visible='true' lat='-35.2052002' lon='150.547334'>
    
  </node>
  <node id='-8920' action='modify' visible='true' lat='-35.2051884' lon='150.547758'>
    
  </node>
  <node id='-8921' action='modify' visible='true' lat='-35.2051295' lon='150.5481584'>
    
  </node>
  <node id='-8922' action='modify' visible='true' lat='-35.2051059' lon='150.5484057'>
    
  </node>
  <node id='-8923' action='modify' visible='true' lat='-35.2051413' lon='150.5487826'>
    
  </node>
  <node id='-8924' action='modify' visible='true' lat='-35.2052944' lon='150.5490182'>
    
  </node>
  <node id='-8925' action='modify' visible='true' lat='-35.2053919' lon='150.5491459'>
    
  </node>
  <node id='-8955' action='modify' visible='true' lat='-35.2104456995' lon='150.5473521918' />
  <node id='-8957' action='modify' visible='true' lat='-35.2112258596' lon='150.54633295237' />
  <node id='-8959' action='modify' visible='true' lat='-35.2126897353' lon='150.54418718516' />
  <node id='-8961' action='modify' visible='true' lat='-35.21434642506' lon='150.54212724863' />
  <node id='-8963' action='modify' visible='true' lat='-35.2155560502' lon='150.54074322878' />
  <node id='-8965' action='modify' visible='true' lat='-35.21714256019' lon='150.53954696356' />
  <node id='-8990' action='modify' visible='true' lat='-35.2047376' lon='150.5456751' />
  <way id='-8747' action='modify' visible='true'>
    <nd ref='-8990' />
    <nd ref='-8877' />
    <nd ref='-8876' />
    <nd ref='-8875' />
    <nd ref='-8874' />
    <nd ref='-8873' />
    <nd ref='-8872' />
    <nd ref='-8871' />
    <nd ref='-8870' />
    <nd ref='-8869' />
    <nd ref='-8868' />
    <nd ref='-8867' />
    <nd ref='-8866' />
    <nd ref='-8865' />
    <nd ref='-8864' />
    <nd ref='-8863' />
    <nd ref='-8862' />
    <nd ref='-8861' />
    <nd ref='-8860' />
    <nd ref='-8859' />
    <nd ref='-8858' />
    <nd ref='-8857' />
    <nd ref='-8856' />
    <nd ref='-8855' />
    <nd ref='-8854' />
    <nd ref='-8853' />
    <nd ref='-8852' />
    <nd ref='-8851' />
    <nd ref='-8850' />
    <nd ref='-8849' />
    <nd ref='-8848' />
    <nd ref='-8847' />
    <nd ref='-8846' />
    <nd ref='-8845' />
    <nd ref='-8844' />
    <nd ref='-8843' />
    <nd ref='-8842' />
    <nd ref='-8841' />
    <nd ref='-8840' />
    <nd ref='-8839' />
    <nd ref='-8838' />
    <nd ref='-8837' />
    <nd ref='-8836' />
    <nd ref='-8835' />
    <nd ref='-8834' />
    <nd ref='-8833' />
    <nd ref='-8832' />
    <nd ref='-8831' />
    <nd ref='-8830' />
    <nd ref='-8829' />
    <nd ref='-8828' />
    <nd ref='-8827' />
    <nd ref='-8826' />
    <nd ref='-8825' />
    <nd ref='-8824' />
    <nd ref='-8823' />
    <nd ref='-8822' />
    <nd ref='-8821' />
    <nd ref='-8820' />
    <nd ref='-8819' />
    <nd ref='-8818' />
    <nd ref='-8817' />
    <nd ref='-8816' />
    <nd ref='-8815' />
    <nd ref='-8814' />
    <nd ref='-8813' />
    <nd ref='-8812' />
    <nd ref='-8811' />
    <nd ref='-8810' />
    <nd ref='-8809' />
    <nd ref='-8808' />
    <nd ref='-8807' />
    <nd ref='-8806' />
    <nd ref='-8805' />
    <nd ref='-8804' />
    <nd ref='-8803' />
    <nd ref='-8802' />
    <nd ref='-8801' />
    <nd ref='-8800' />
    <nd ref='-8799' />
    <nd ref='-8798' />
    <nd ref='-8797' />
    <nd ref='-8796' />
    <nd ref='-8911' />
    <nd ref='-8910' />
    <nd ref='-8909' />
    <nd ref='-8908' />
    <nd ref='-8907' />
    <nd ref='-8906' />
    <nd ref='-8905' />
    <nd ref='-8904' />
    <nd ref='-8903' />
    <nd ref='-8902' />
    <nd ref='-8901' />
    <nd ref='-8900' />
    <nd ref='-8899' />
    <nd ref='-8898' />
    <nd ref='-8897' />
    <nd ref='-8896' />
    <nd ref='-8895' />
    <nd ref='-8894' />
    <nd ref='-8893' />
    <nd ref='-8892' />
    <nd ref='-8891' />
    <nd ref='-8890' />
    <nd ref='-8889' />
    <nd ref='-8888' />
    <nd ref='-8887' />
    <nd ref='-8886' />
    <nd ref='-8885' />
    <nd ref='-8884' />
    <nd ref='-8883' />
    <nd ref='-8882' />
    <nd ref='-8881' />
    <nd ref='-8880' />
    <nd ref='-8879' />
    <nd ref='-8913' />
    <nd ref='-8914' />
    <nd ref='-8753' />
    <nd ref='-8754' />
    <nd ref='-8755' />
    <nd ref='-8756' />
    <nd ref='-8757' />
    <nd ref='-8758' />
    <nd ref='-8759' />
    <nd ref='-8760' />
    <nd ref='-8761' />
    <nd ref='-8762' />
    <nd ref='-8763' />
    <nd ref='-8764' />
    <nd ref='-8765' />
    <nd ref='-8766' />
    <nd ref='-8767' />
    <nd ref='-8768' />
    <nd ref='-8769' />
    <nd ref='-8770' />
    <nd ref='-8771' />
    <nd ref='-8772' />
    <nd ref='-8773' />
    <nd ref='-8774' />
    <nd ref='-8775' />
    <nd ref='-8776' />
    <nd ref='-8777' />
    <nd ref='-8778' />
    <nd ref='-8779' />
    <nd ref='-8780' />
    <nd ref='-8781' />
    <nd ref='-8782' />
    <nd ref='-8783' />
    <nd ref='-8784' />
    <nd ref='-8785' />
    <nd ref='-8786' />
    <nd ref='-8965' />
    <nd ref='-8963' />
    <nd ref='-8961' />
    <nd ref='-8959' />
    <nd ref='-8957' />
    <nd ref='-8955' />
    <nd ref='-8915' />
    <nd ref='-8916' />
    <nd ref='-8787' />
    <nd ref='-8788' />
    <nd ref='-8789' />
    <nd ref='-8790' />
    <nd ref='-8791' />
    <nd ref='-8925' />
    <nd ref='-8924' />
    <nd ref='-8923' />
    <nd ref='-8922' />
    <nd ref='-8921' />
    <nd ref='-8920' />
    <nd ref='-8919' />
    <nd ref='-8918' />
    <nd ref='-8917' />
    <nd ref='-8990' />
    <tag k='name' v='Berrara Creek Loop' />
    <tag k='park' v='Conjola National Park' />
    <tag k='role' v='primary' />
    <tag k='photo' v='136319147@N08/22607247803' />
    <tag k='style' v='loop' />
    <tag k='transport' v='car' />
  </way>
</osm>
