<?xml version='1.0' encoding='UTF-8'?>
<osm version='0.6' upload='false' generator='JOSM'>
  <node id='-44621' action='modify' lat='-35.9435115' lon='149.7341868' />
  <node id='-44623' action='modify' lat='-35.9431476' lon='149.7333745' />
  <node id='-44625' action='modify' lat='-35.9430076' lon='149.7324817' />
  <node id='-44627' action='modify' lat='-35.9431466' lon='149.7315805' />
  <node id='-44629' action='modify' lat='-35.9429912' lon='149.7311631' />
  <node id='-44631' action='modify' lat='-35.9427189' lon='149.7311694' />
  <node id='-44633' action='modify' lat='-35.9424343' lon='149.7311728' />
  <node id='-44635' action='modify' lat='-35.9421737' lon='149.7308724' />
  <node id='-44637' action='modify' lat='-35.9419734' lon='149.7303193' />
  <node id='-44639' action='modify' lat='-35.9418784' lon='149.730057' />
  <node id='-44641' action='modify' lat='-35.9416178' lon='149.7298639' />
  <node id='-44643' action='modify' lat='-35.940975' lon='149.7297995' />
  <node id='-44645' action='modify' lat='-35.9404017' lon='149.7296064' />
  <node id='-44647' action='modify' lat='-35.9400022' lon='149.7290485' />
  <node id='-44649' action='modify' lat='-35.939481' lon='149.7280185' />
  <node id='-44651' action='modify' lat='-35.9393718' lon='149.7277319' />
  <node id='-44653' action='modify' lat='-35.939203' lon='149.7272889' />
  <node id='-44655' action='modify' lat='-35.938925' lon='149.7269885' />
  <node id='-44657' action='modify' lat='-35.9387009' lon='149.7269397' />
  <node id='-44659' action='modify' lat='-35.9383343' lon='149.7268598' />
  <node id='-44661' action='modify' lat='-35.937959' lon='149.7265626' />
  <node id='-44663' action='modify' lat='-35.9376568' lon='149.7263233' />
  <node id='-44665' action='modify' lat='-35.9371877' lon='149.7258298' />
  <node id='-44667' action='modify' lat='-35.9361105' lon='149.7253792' />
  <node id='-44669' action='modify' lat='-35.9357152' lon='149.7249626' />
  <node id='-44671' action='modify' lat='-35.9354911' lon='149.7243932' />
  <node id='-44673' action='modify' lat='-35.9353524' lon='149.7237562' />
  <node id='-44675' action='modify' lat='-35.9352661' lon='149.7233597' />
  <node id='-44677' action='modify' lat='-35.9352054' lon='149.7229975' />
  <node id='-44679' action='modify' lat='-35.9351127' lon='149.7224445' />
  <node id='-44681' action='modify' lat='-35.9349262' lon='149.7216837' />
  <node id='-44683' action='modify' lat='-35.9346312' lon='149.7211736' />
  <node id='-44685' action='modify' lat='-35.9341306' lon='149.7211835' />
  <node id='-44687' action='modify' lat='-35.9340388' lon='149.7211853' />
  <node id='-44689' action='modify' lat='-35.9331666' lon='149.7207394' />
  <node id='-44691' action='modify' lat='-35.9321549' lon='149.7208361' />
  <node id='-44693' action='modify' lat='-35.9317678' lon='149.7206058' />
  <node id='-44695' action='modify' lat='-35.9317378' lon='149.7204894' />
  <node id='-44697' action='modify' lat='-35.9316498' lon='149.7201482' />
  <node id='-44699' action='modify' lat='-35.9311471' lon='149.7190172' />
  <node id='-44701' action='modify' lat='-35.9309917' lon='149.7184108' />
  <node id='-44703' action='modify' lat='-35.9306538' lon='149.7173936' />
  <node id='-44705' action='modify' lat='-35.9304461' lon='149.7158517' />
  <node id='-44707' action='modify' lat='-35.9296389' lon='149.7136743' />
  <node id='-44709' action='modify' lat='-35.9288146' lon='149.7126875' />
  <node id='-44711' action='modify' lat='-35.9282509' lon='149.7114968' />
  <node id='-44713' action='modify' lat='-35.9278576' lon='149.7102945' />
  <node id='-44715' action='modify' lat='-35.9278699' lon='149.7093794' />
  <node id='-44717' action='modify' lat='-35.9277338' lon='149.7088465' />
  <node id='-44719' action='modify' lat='-35.9273217' lon='149.7082079' />
  <node id='-44721' action='modify' lat='-35.9270166' lon='149.707232' />
  <node id='-44723' action='modify' lat='-35.927026' lon='149.7069639' />
  <node id='-44725' action='modify' lat='-35.9271086' lon='149.7068361' />
  <way id='-44727' action='modify'>
    <nd ref='-44621' />
    <nd ref='-44623' />
    <nd ref='-44625' />
    <nd ref='-44627' />
    <nd ref='-44629' />
    <nd ref='-44631' />
    <nd ref='-44633' />
    <nd ref='-44635' />
    <nd ref='-44637' />
    <nd ref='-44639' />
    <nd ref='-44641' />
    <nd ref='-44643' />
    <nd ref='-44645' />
    <nd ref='-44647' />
    <nd ref='-44649' />
    <nd ref='-44651' />
    <nd ref='-44653' />
    <nd ref='-44655' />
    <nd ref='-44657' />
    <nd ref='-44659' />
    <nd ref='-44661' />
    <nd ref='-44663' />
    <nd ref='-44665' />
    <nd ref='-44667' />
    <nd ref='-44669' />
    <nd ref='-44671' />
    <nd ref='-44673' />
    <nd ref='-44675' />
    <nd ref='-44677' />
    <nd ref='-44679' />
    <nd ref='-44681' />
    <nd ref='-44683' />
    <nd ref='-44685' />
    <nd ref='-44687' />
    <nd ref='-44689' />
    <nd ref='-44691' />
    <nd ref='-44693' />
    <nd ref='-44695' />
    <nd ref='-44697' />
    <nd ref='-44699' />
    <nd ref='-44701' />
    <nd ref='-44703' />
    <nd ref='-44705' />
    <nd ref='-44707' />
    <nd ref='-44709' />
    <nd ref='-44711' />
    <nd ref='-44713' />
    <nd ref='-44715' />
    <nd ref='-44717' />
    <nd ref='-44719' />
    <nd ref='-44721' />
    <nd ref='-44723' />
    <nd ref='-44725' />
    <tag k='name' v='Bendethera Caves' />
    <tag k='park' v='Deua National Park' />
    <tag k='role' v='primary' />
    <tag k='style' v='return' />
    <tag k='transport' v='car' />
  </way>
</osm>
