<?xml version='1.0' encoding='UTF-8'?>
<osm version='0.6' upload='false' generator='JOSM'>
  <node id='-33048' action='modify' visible='true' lat='-33.43381669795' lon='151.2744363387' />
  <node id='-33050' action='modify' visible='true' lat='-33.43379766927' lon='151.27444089907' />
  <node id='-33052' action='modify' visible='true' lat='-33.42970577318' lon='151.27500267382' />
  <node id='-33054' action='modify' visible='true' lat='-33.42966644538' lon='151.27498443232' />
  <node id='-33056' action='modify' visible='true' lat='-33.42966402353' lon='151.27498339959' />
  <node id='-33058' action='modify' visible='true' lat='-33.42964646431' lon='151.27500609409' />
  <node id='-33060' action='modify' visible='true' lat='-33.42957193172' lon='151.27494604919' />
  <node id='-33062' action='modify' visible='true' lat='-33.4313451784' lon='151.27675656848' />
  <node id='-33064' action='modify' visible='true' lat='-33.43193560759' lon='151.27655743221' />
  <node id='-33066' action='modify' visible='true' lat='-33.43387976446' lon='151.27529045318' />
  <node id='-33068' visible='true' lat='-33.4772776' lon='151.2518686' />
  <node id='-33070' visible='true' lat='-33.4775264' lon='151.2517671' />
  <node id='-33072' visible='true' lat='-33.4776315' lon='151.251722' />
  <node id='-33074' visible='true' lat='-33.4778834' lon='151.2518136' />
  <node id='-33076' visible='true' lat='-33.4784239' lon='151.2515893' />
  <node id='-33078' visible='true' lat='-33.4788701' lon='151.2513404' />
  <node id='-33080' visible='true' lat='-33.4791691' lon='151.2511218' />
  <node id='-33082' visible='true' lat='-33.4795564' lon='151.250966' />
  <node id='-33084' visible='true' lat='-33.4797041' lon='151.2510144' />
  <node id='-33086' visible='true' lat='-33.4800104' lon='151.2511735' />
  <node id='-33088' visible='true' lat='-33.4810078' lon='151.2513401' />
  <node id='-33090' visible='true' lat='-33.4812239' lon='151.2513957' />
  <node id='-33092' visible='true' lat='-33.4814967' lon='151.2515964' />
  <node id='-33094' visible='true' lat='-33.4816583' lon='151.2518275' />
  <node id='-33096' visible='true' lat='-33.4818138' lon='151.2520285' />
  <node id='-33098' visible='true' lat='-33.4822191' lon='151.2521338' />
  <node id='-33100' visible='true' lat='-33.4825254' lon='151.2522253' />
  <node id='-33102' visible='true' lat='-33.4829973' lon='151.2523318' />
  <node id='-33104' visible='true' lat='-33.4831987' lon='151.2524217' />
  <node id='-33106' visible='true' lat='-33.4834122' lon='151.2523459' />
  <node id='-33108' visible='true' lat='-33.483653' lon='151.2520146' />
  <node id='-33110' visible='true' lat='-33.4838362' lon='151.2519441' />
  <node id='-33112' visible='true' lat='-33.4841749' lon='151.2519584' />
  <node id='-33114' visible='true' lat='-33.4843851' lon='151.2518907' />
  <node id='-33116' visible='true' lat='-33.4845878' lon='151.2518797' />
  <node id='-33118' visible='true' lat='-33.4851963' lon='151.2521157' />
  <node id='-33120' visible='true' lat='-33.4858764' lon='151.2525234' />
  <node id='-33122' visible='true' lat='-33.4865027' lon='151.2526951' />
  <node id='-33124' visible='true' lat='-33.487172' lon='151.2527066' />
  <node id='-33126' visible='true' lat='-33.4875131' lon='151.2528308' />
  <node id='-33128' visible='true' lat='-33.4878986' lon='151.2529097' />
  <node id='-33130' visible='true' lat='-33.4882616' lon='151.2529557' />
  <node id='-33132' visible='true' lat='-33.4883632' lon='151.2530148' />
  <node id='-33134' visible='true' lat='-33.4884271' lon='151.2531949' />
  <node id='-33136' visible='true' lat='-33.4884534' lon='151.2533603' />
  <node id='-33138' visible='true' lat='-33.4883344' lon='151.2535551' />
  <node id='-33140' visible='true' lat='-33.4883824' lon='151.2536892' />
  <node id='-33142' visible='true' lat='-33.4884713' lon='151.2540469' />
  <node id='-33144' visible='true' lat='-33.4886576' lon='151.2544393' />
  <node id='-33146' visible='true' lat='-33.4886892' lon='151.2546874' />
  <node id='-33148' visible='true' lat='-33.4886026' lon='151.2549064' />
  <node id='-33150' visible='true' lat='-33.4887084' lon='151.2551242' />
  <node id='-33152' visible='true' lat='-33.4887978' lon='151.2553216' />
  <node id='-33154' visible='true' lat='-33.4889645' lon='151.2553829' />
  <node id='-33156' visible='true' lat='-33.4890624' lon='151.2555527' />
  <node id='-33158' visible='true' lat='-33.4891705' lon='151.2556851' />
  <node id='-33160' visible='true' lat='-33.4893156' lon='151.2557124' />
  <node id='-33162' visible='true' lat='-33.4893938' lon='151.2557143' />
  <node id='-33164' visible='true' lat='-33.4895111' lon='151.2557679' />
  <node id='-33166' visible='true' lat='-33.4896615' lon='151.2558346' />
  <node id='-33168' visible='true' lat='-33.4897439' lon='151.2559062' />
  <node id='-33170' visible='true' lat='-33.4898911' lon='151.2558832' />
  <node id='-33172' visible='true' lat='-33.4901188' lon='151.2560474' />
  <node id='-33174' visible='true' lat='-33.4903001' lon='151.2561591' />
  <node id='-33176' visible='true' lat='-33.4905034' lon='151.2562306' />
  <node id='-33178' visible='true' lat='-33.4907679' lon='151.2561944' />
  <node id='-33180' visible='true' lat='-33.4909012' lon='151.2561212' />
  <node id='-33182' visible='true' lat='-33.4909732' lon='151.2560471' />
  <node id='-33184' visible='true' lat='-33.4911249' lon='151.2559749' />
  <node id='-33186' visible='true' lat='-33.4913887' lon='151.2559285' />
  <node id='-33188' visible='true' lat='-33.4914891' lon='151.2559889' />
  <node id='-33190' visible='true' lat='-33.4916423' lon='151.2560039' />
  <node id='-33192' visible='true' lat='-33.4917562' lon='151.2560958' />
  <node id='-33194' visible='true' lat='-33.4920322' lon='151.2562147' />
  <node id='-33196' visible='true' lat='-33.4921878' lon='151.2562496' />
  <node id='-33198' visible='true' lat='-33.4922288' lon='151.2563014' />
  <node id='-33200' visible='true' lat='-33.4922356' lon='151.2563732' />
  <node id='-33202' visible='true' lat='-33.4922663' lon='151.2565111' />
  <node id='-33204' visible='true' lat='-33.4923516' lon='151.2565912' />
  <node id='-33206' visible='true' lat='-33.492271' lon='151.2567066' />
  <node id='-33208' visible='true' lat='-33.4922184' lon='151.2568375' />
  <node id='-33210' visible='true' lat='-33.4921766' lon='151.2569403' />
  <node id='-33212' visible='true' lat='-33.4697404' lon='151.252831' />
  <node id='-33214' visible='true' lat='-33.4698083' lon='151.2525492' />
  <node id='-33216' visible='true' lat='-33.4698265' lon='151.2523569' />
  <node id='-33218' visible='true' lat='-33.46989' lon='151.2522036' />
  <node id='-33220' visible='true' lat='-33.469985' lon='151.2521196' />
  <node id='-33222' visible='true' lat='-33.4701539' lon='151.2520826' />
  <node id='-33224' visible='true' lat='-33.4703314' lon='151.2519172' />
  <node id='-33226' visible='true' lat='-33.4705475' lon='151.2518584' />
  <node id='-33228' visible='true' lat='-33.4706852' lon='151.2518883' />
  <node id='-33230' visible='true' lat='-33.4708601' lon='151.2518594' />
  <node id='-33232' visible='true' lat='-33.4710975' lon='151.2518029' />
  <node id='-33234' visible='true' lat='-33.4713333' lon='151.2516878' />
  <node id='-33236' visible='true' lat='-33.4716314' lon='151.2515422' />
  <node id='-33238' visible='true' lat='-33.4717848' lon='151.2513751' />
  <node id='-33240' visible='true' lat='-33.4718823' lon='151.2511637' />
  <node id='-33242' visible='true' lat='-33.4718986' lon='151.2509988' />
  <node id='-33244' visible='true' lat='-33.4720206' lon='151.2508258' />
  <node id='-33246' visible='true' lat='-33.4720975' lon='151.2508488' />
  <node id='-33248' visible='true' lat='-33.4721658' lon='151.2508965' />
  <node id='-33250' visible='true' lat='-33.4722136' lon='151.2509884' />
  <node id='-33252' visible='true' lat='-33.4723929' lon='151.2510684' />
  <node id='-33254' visible='true' lat='-33.4725844' lon='151.2511493' />
  <node id='-33256' visible='true' lat='-33.4727509' lon='151.251142' />
  <node id='-33258' visible='true' lat='-33.4729039' lon='151.2511032' />
  <node id='-33260' visible='true' lat='-33.47302' lon='151.250984' />
  <node id='-33262' visible='true' lat='-33.4730645' lon='151.2508461' />
  <node id='-33264' visible='true' lat='-33.473149' lon='151.2507854' />
  <node id='-33266' visible='true' lat='-33.4732558' lon='151.2507906' />
  <node id='-33268' visible='true' lat='-33.4733775' lon='151.2508701' />
  <node id='-33270' visible='true' lat='-33.4734936' lon='151.2509776' />
  <node id='-33272' visible='true' lat='-33.4736022' lon='151.25097' />
  <node id='-33274' visible='true' lat='-33.4738219' lon='151.2507515' />
  <node id='-33276' visible='true' lat='-33.4739843' lon='151.2505112' />
  <node id='-33278' visible='true' lat='-33.4741099' lon='151.2502288' />
  <node id='-33280' visible='true' lat='-33.474194' lon='151.2499878' />
  <node id='-33282' visible='true' lat='-33.4744068' lon='151.2498024' />
  <node id='-33284' visible='true' lat='-33.4746829' lon='151.2497071' />
  <node id='-33286' visible='true' lat='-33.4748379' lon='151.2497473' />
  <node id='-33288' visible='true' lat='-33.4751403' lon='151.2499476' />
  <node id='-33290' visible='true' lat='-33.4755341' lon='151.2501365' />
  <node id='-33292' visible='true' lat='-33.4756415' lon='151.2502738' />
  <node id='-33294' visible='true' lat='-33.4756866' lon='151.2503695' />
  <node id='-33296' visible='true' lat='-33.4756977' lon='151.2507316' />
  <node id='-33298' visible='true' lat='-33.475761' lon='151.2507746' />
  <node id='-33300' visible='true' lat='-33.475846' lon='151.2507875' />
  <node id='-33302' visible='true' lat='-33.4760925' lon='151.2509089' />
  <node id='-33304' visible='true' lat='-33.4763932' lon='151.2510806' />
  <node id='-33306' action='modify' visible='true' lat='-33.476622' lon='151.2511527' />
  <node id='-33308' visible='true' lat='-33.4768371' lon='151.2515355' />
  <node id='-33310' visible='true' lat='-33.4768781' lon='151.2516719' />
  <node id='-33312' visible='true' lat='-33.4770043' lon='151.2517977' />
  <node id='-33314' visible='true' lat='-33.4770919' lon='151.2517974' />
  <node id='-33316' visible='true' lat='-33.4332481' lon='151.2755149' />
  <node id='-33318' visible='true' lat='-33.4331407' lon='151.2755256' />
  <node id='-33320' visible='true' lat='-33.4329348' lon='151.2755685' />
  <node id='-33322' visible='true' lat='-33.4327826' lon='151.2756436' />
  <node id='-33324' visible='true' lat='-33.4326393' lon='151.2757187' />
  <node id='-33326' visible='true' lat='-33.432505' lon='151.2757509' />
  <node id='-33328' visible='true' lat='-33.4324065' lon='151.2758582' />
  <node id='-33330' visible='true' lat='-33.4324334' lon='151.276062' />
  <node id='-33332' visible='true' lat='-33.432395' lon='151.2762016' />
  <node id='-33334' visible='true' lat='-33.4323528' lon='151.2763088' />
  <node id='-33336' visible='true' lat='-33.4323241' lon='151.2763735' />
  <node id='-33338' action='modify' visible='true' lat='-33.43222351875' lon='151.27645827739' />
  <node id='-33340' visible='true' lat='-33.4312231' lon='151.276625' />
  <node id='-33342' visible='true' lat='-33.431153' lon='151.276577' />
  <node id='-33344' visible='true' lat='-33.4310635' lon='151.2766843' />
  <node id='-33346' visible='true' lat='-33.4309918' lon='151.276738' />
  <node id='-33348' visible='true' lat='-33.4308128' lon='151.2767487' />
  <node id='-33350' visible='true' lat='-33.43058' lon='151.2767594' />
  <node id='-33352' visible='true' lat='-33.4304277' lon='151.2767272' />
  <node id='-33354' visible='true' lat='-33.430374' lon='151.2766307' />
  <node id='-33356' visible='true' lat='-33.4303113' lon='151.2765341' />
  <node id='-33358' visible='true' lat='-33.4302576' lon='151.2763517' />
  <node id='-33360' visible='true' lat='-33.430186' lon='151.2762337' />
  <node id='-33362' visible='true' lat='-33.4300517' lon='151.2760728' />
  <node id='-33364' visible='true' lat='-33.4299263' lon='151.2759762' />
  <node id='-33366' visible='true' lat='-33.4298368' lon='151.2757724' />
  <node id='-33368' visible='true' lat='-33.4297562' lon='151.2756114' />
  <node id='-33370' visible='true' lat='-33.4297293' lon='151.2754505' />
  <node id='-33372' visible='true' lat='-33.4297365' lon='151.2752578' />
  <node id='-33374' action='modify' visible='true' lat='-33.429722' lon='151.2751409' />
  <node id='-33376' visible='true' lat='-33.4296845' lon='151.2750412' />
  <node id='-33378' visible='true' lat='-33.4297082' lon='151.2749976' />
  <node id='-33380' visible='true' lat='-33.4299278' lon='151.2750581' />
  <node id='-33382' visible='true' lat='-33.4300764' lon='151.2751966' />
  <node id='-33384' visible='true' lat='-33.430177' lon='151.2752788' />
  <node id='-33386' visible='true' lat='-33.4303919' lon='151.2753218' />
  <node id='-33388' visible='true' lat='-33.4304957' lon='151.2753168' />
  <node id='-33390' visible='true' lat='-33.4306158' lon='151.275311' />
  <node id='-33392' visible='true' lat='-33.430759' lon='151.2752681' />
  <node id='-33394' visible='true' lat='-33.4309023' lon='151.2751823' />
  <node id='-33396' visible='true' lat='-33.4311619' lon='151.275075' />
  <node id='-33398' visible='true' lat='-33.431226' lon='151.2750573' />
  <node id='-33400' visible='true' lat='-33.4313947' lon='151.2750106' />
  <node id='-33402' visible='true' lat='-33.4316007' lon='151.2750857' />
  <node id='-33404' visible='true' lat='-33.4318514' lon='151.2751608' />
  <node id='-33406' visible='true' lat='-33.4320394' lon='151.2751716' />
  <node id='-33408' visible='true' lat='-33.4321827' lon='151.2751716' />
  <node id='-33410' visible='true' lat='-33.4324781' lon='151.2751823' />
  <node id='-33412' visible='true' lat='-33.432702' lon='151.2751716' />
  <node id='-33414' visible='true' lat='-33.4328184' lon='151.2751179' />
  <node id='-33416' visible='true' lat='-33.4329974' lon='151.2751286' />
  <node id='-33418' visible='true' lat='-33.4332213' lon='151.2750965' />
  <node id='-33420' visible='true' lat='-33.4333645' lon='151.2750428' />
  <node id='-33422' visible='true' lat='-33.4336526' lon='151.2751813' />
  <node id='-33424' visible='true' lat='-33.4335104' lon='151.2753058' />
  <node id='-33426' visible='true' lat='-33.4334029' lon='151.2754236' />
  <node id='-33428' visible='true' lat='-33.4333683' lon='151.2754612' />
  <node id='-33430' visible='true' lat='-33.4335495' lon='151.2761921' />
  <node id='-33432' visible='true' lat='-33.4334888' lon='151.2763799' />
  <node id='-33434' visible='true' lat='-33.433448' lon='151.2765123' />
  <node id='-33436' visible='true' lat='-33.4334553' lon='151.276641' />
  <node id='-33438' visible='true' lat='-33.4334614' lon='151.2767812' />
  <node id='-33440' visible='true' lat='-33.433338' lon='151.2769774' />
  <node id='-33442' visible='true' lat='-33.4331663' lon='151.276979' />
  <node id='-33444' visible='true' lat='-33.4330762' lon='151.2770485' />
  <node id='-33446' visible='true' lat='-33.4329721' lon='151.2771771' />
  <node id='-33448' visible='true' lat='-33.4328398' lon='151.2773541' />
  <node id='-33450' visible='true' lat='-33.4329079' lon='151.2775104' />
  <node id='-33452' visible='true' lat='-33.4327199' lon='151.2776928' />
  <node id='-33454' visible='true' lat='-33.432489' lon='151.2778795' />
  <node id='-33456' visible='true' lat='-33.4323153' lon='151.2779986' />
  <node id='-33458' visible='true' lat='-33.4321916' lon='151.2780683' />
  <node id='-33460' visible='true' lat='-33.4321091' lon='151.278073' />
  <node id='-33462' visible='true' lat='-33.4319573' lon='151.2780151' />
  <node id='-33464' visible='true' lat='-33.4319002' lon='151.2778912' />
  <node id='-33466' visible='true' lat='-33.431858' lon='151.2779429' />
  <node id='-33468' visible='true' lat='-33.4317543' lon='151.2779196' />
  <node id='-33470' visible='true' lat='-33.4316919' lon='151.2778388' />
  <node id='-33472' visible='true' lat='-33.4317516' lon='151.2776848' />
  <node id='-33474' visible='true' lat='-33.4316233' lon='151.2776038' />
  <node id='-33476' visible='true' lat='-33.4316069' lon='151.2774595' />
  <node id='-33478' visible='true' lat='-33.4317538' lon='151.2773227' />
  <node id='-33480' visible='true' lat='-33.4318184' lon='151.2771541' />
  <node id='-33482' action='modify' visible='true' lat='-33.4317430199' lon='151.27679082907' />
  <node id='-33484' visible='true' lat='-33.4335916' lon='151.2761241' />
  <node id='-33486' visible='true' lat='-33.433725' lon='151.2761841' />
  <node id='-33488' visible='true' lat='-33.4338173' lon='151.2762416' />
  <node id='-33490' visible='true' lat='-33.4338513' lon='151.2762186' />
  <node id='-33492' visible='true' lat='-33.4338869' lon='151.2760821' />
  <node id='-33494' visible='true' lat='-33.4340418' lon='151.275744' />
  <node id='-33496' visible='true' lat='-33.4340305' lon='151.2753931' />
  <node id='-33498' visible='true' lat='-33.4339805' lon='151.2751387' />
  <node id='-33500' visible='true' lat='-33.4334291' lon='151.2750222' />
  <node id='-33502' visible='true' lat='-33.4332872' lon='151.2749399' />
  <node id='-33504' visible='true' lat='-33.4333564' lon='151.2747044' />
  <node id='-33506' visible='true' lat='-33.4335568' lon='151.2745699' />
  <node id='-33508' visible='true' lat='-33.4336986' lon='151.2744625' />
  <node id='-33510' action='modify' visible='true' lat='-33.43385261171' lon='151.27451452571' />
  <node id='-33512' visible='true' lat='-33.433889' lon='151.2744139' />
  <node id='-33514' visible='true' lat='-33.4340935' lon='151.2742829' />
  <node id='-33516' visible='true' lat='-33.4342819' lon='151.2741283' />
  <node id='-33518' visible='true' lat='-33.4344236' lon='151.2738921' />
  <node id='-33520' visible='true' lat='-33.4346221' lon='151.2737985' />
  <node id='-33522' visible='true' lat='-33.4349759' lon='151.2733693' />
  <node id='-33524' visible='true' lat='-33.4349928' lon='151.2731824' />
  <node id='-33526' visible='true' lat='-33.4350593' lon='151.2729822' />
  <node id='-33528' visible='true' lat='-33.4352265' lon='151.2727441' />
  <node id='-33530' visible='true' lat='-33.435288' lon='151.2726355' />
  <node id='-33532' visible='true' lat='-33.4353895' lon='151.2724836' />
  <node id='-33534' visible='true' lat='-33.4355446' lon='151.2723683' />
  <node id='-33536' visible='true' lat='-33.4357461' lon='151.2722996' />
  <node id='-33538' visible='true' lat='-33.435818' lon='151.2721138' />
  <node id='-33540' visible='true' lat='-33.4358226' lon='151.2718741' />
  <node id='-33542' visible='true' lat='-33.4358332' lon='151.2714757' />
  <node id='-33544' visible='true' lat='-33.4358861' lon='151.2711991' />
  <node id='-33546' visible='true' lat='-33.435917' lon='151.2706875' />
  <node id='-33548' visible='true' lat='-33.4359888' lon='151.2702223' />
  <node id='-33550' visible='true' lat='-33.4359719' lon='151.2697879' />
  <node id='-33552' visible='true' lat='-33.4359479' lon='151.2695422' />
  <node id='-33554' visible='true' lat='-33.4360276' lon='151.2693732' />
  <node id='-33556' visible='true' lat='-33.4361216' lon='151.2690894' />
  <node id='-33558' visible='true' lat='-33.4361497' lon='151.268681' />
  <node id='-33560' visible='true' lat='-33.4361888' lon='151.2683312' />
  <node id='-33562' visible='true' lat='-33.4362489' lon='151.26815' />
  <node id='-33564' visible='true' lat='-33.4363587' lon='151.2680744' />
  <node id='-33566' visible='true' lat='-33.4364548' lon='151.2678762' />
  <node id='-33568' visible='true' lat='-33.4366114' lon='151.2676605' />
  <node id='-33570' visible='true' lat='-33.4368251' lon='151.2675956' />
  <node id='-33572' visible='true' lat='-33.4371622' lon='151.2672907' />
  <node id='-33574' visible='true' lat='-33.4372348' lon='151.2668224' />
  <node id='-33576' visible='true' lat='-33.4373317' lon='151.2665843' />
  <node id='-33578' visible='true' lat='-33.4373691' lon='151.2664967' />
  <node id='-33580' visible='true' lat='-33.4374201' lon='151.2663167' />
  <node id='-33582' visible='true' lat='-33.4380962' lon='151.2660977' />
  <node id='-33584' visible='true' lat='-33.4383933' lon='151.2660813' />
  <node id='-33586' visible='true' lat='-33.4385842' lon='151.2659583' />
  <node id='-33588' visible='true' lat='-33.439073' lon='151.2659144' />
  <node id='-33590' visible='true' lat='-33.4393562' lon='151.2658615' />
  <node id='-33592' visible='true' lat='-33.4395895' lon='151.2657097' />
  <node id='-33594' visible='true' lat='-33.4398736' lon='151.2655996' />
  <node id='-33596' visible='true' lat='-33.4401765' lon='151.2654954' />
  <node id='-33598' visible='true' lat='-33.4402969' lon='151.265375' />
  <node id='-33600' visible='true' lat='-33.4405187' lon='151.2654179' />
  <node id='-33602' visible='true' lat='-33.4406213' lon='151.26545' />
  <node id='-33604' visible='true' lat='-33.4408671' lon='151.2654997' />
  <node id='-33606' visible='true' lat='-33.4411696' lon='151.2655295' />
  <node id='-33608' visible='true' lat='-33.4413937' lon='151.2657939' />
  <node id='-33610' visible='true' lat='-33.4415262' lon='151.2658429' />
  <node id='-33612' visible='true' lat='-33.4416904' lon='151.2659107' />
  <node id='-33614' visible='true' lat='-33.4419463' lon='151.2658795' />
  <node id='-33616' visible='true' lat='-33.4422751' lon='151.2658972' />
  <node id='-33618' visible='true' lat='-33.4424186' lon='151.2658355' />
  <node id='-33620' visible='true' lat='-33.4427105' lon='151.26573' />
  <node id='-33622' visible='true' lat='-33.442922' lon='151.2659068' />
  <node id='-33624' visible='true' lat='-33.4429759' lon='151.2660823' />
  <node id='-33626' visible='true' lat='-33.443028' lon='151.2661615' />
  <node id='-33628' visible='true' lat='-33.4430589' lon='151.2662404' />
  <node id='-33630' visible='true' lat='-33.4429975' lon='151.2664601' />
  <node id='-33632' visible='true' lat='-33.4429677' lon='151.2665441' />
  <node id='-33634' visible='true' lat='-33.4428979' lon='151.2667073' />
  <node id='-33636' visible='true' lat='-33.4429036' lon='151.2668442' />
  <node id='-33638' visible='true' lat='-33.4695576' lon='151.2531969' />
  <node id='-33640' visible='true' lat='-33.469414' lon='151.2532322' />
  <node id='-33642' visible='true' lat='-33.4692304' lon='151.2533468' />
  <node id='-33644' visible='true' lat='-33.4691321' lon='151.2534057' />
  <node id='-33646' visible='true' lat='-33.4687129' lon='151.2534627' />
  <node id='-33648' visible='true' lat='-33.4686021' lon='151.2533176' />
  <node id='-33650' visible='true' lat='-33.468476' lon='151.2532905' />
  <node id='-33652' visible='true' lat='-33.4683668' lon='151.2531627' />
  <node id='-33654' visible='true' lat='-33.4682708' lon='151.2530017' />
  <node id='-33656' visible='true' lat='-33.46819' lon='151.2529687' />
  <node id='-33658' visible='true' lat='-33.4679816' lon='151.253107' />
  <node id='-33660' visible='true' lat='-33.4678775' lon='151.2533269' />
  <node id='-33662' visible='true' lat='-33.4676698' lon='151.2534499' />
  <node id='-33664' visible='true' lat='-33.4674955' lon='151.253671' />
  <node id='-33666' visible='true' lat='-33.4673466' lon='151.2540798' />
  <node id='-33668' visible='true' lat='-33.4672695' lon='151.2543511' />
  <node id='-33670' visible='true' lat='-33.4670739' lon='151.2546831' />
  <node id='-33672' visible='true' lat='-33.4668506' lon='151.2547216' />
  <node id='-33674' visible='true' lat='-33.4667609' lon='151.2547494' />
  <node id='-33676' visible='true' lat='-33.4665014' lon='151.2545248' />
  <node id='-33678' visible='true' lat='-33.466406' lon='151.2543945' />
  <node id='-33680' visible='true' lat='-33.4662414' lon='151.2543265' />
  <node id='-33682' visible='true' lat='-33.466019' lon='151.2541864' />
  <node id='-33684' visible='true' lat='-33.4656791' lon='151.2541962' />
  <node id='-33686' visible='true' lat='-33.4649909' lon='151.2541128' />
  <node id='-33688' visible='true' lat='-33.4643762' lon='151.2539122' />
  <node id='-33690' visible='true' lat='-33.4639082' lon='151.2536906' />
  <node id='-33692' visible='true' lat='-33.463741' lon='151.2535437' />
  <node id='-33694' visible='true' lat='-33.4634291' lon='151.2534' />
  <node id='-33696' visible='true' lat='-33.4628052' lon='151.2529963' />
  <node id='-33698' visible='true' lat='-33.4624102' lon='151.2527232' />
  <node id='-33700' visible='true' lat='-33.4623291' lon='151.2527444' />
  <node id='-33702' visible='true' lat='-33.4622104' lon='151.2526315' />
  <node id='-33704' visible='true' lat='-33.4621493' lon='151.2527426' />
  <node id='-33706' visible='true' lat='-33.4621041' lon='151.2529147' />
  <node id='-33708' visible='true' lat='-33.4620473' lon='151.2529761' />
  <node id='-33710' visible='true' lat='-33.4619569' lon='151.252934' />
  <node id='-33712' visible='true' lat='-33.4618408' lon='151.2526546' />
  <node id='-33714' visible='true' lat='-33.4617087' lon='151.2524962' />
  <node id='-33716' visible='true' lat='-33.4614723' lon='151.2523387' />
  <node id='-33718' visible='true' lat='-33.4613575' lon='151.2523115' />
  <node id='-33720' visible='true' lat='-33.4611791' lon='151.2524755' />
  <node id='-33722' visible='true' lat='-33.4611071' lon='151.2526074' />
  <node id='-33724' visible='true' lat='-33.4611024' lon='151.2526787' />
  <node id='-33726' visible='true' lat='-33.4610338' lon='151.252787' />
  <node id='-33728' visible='true' lat='-33.4608965' lon='151.2529129' />
  <node id='-33730' visible='true' lat='-33.4605942' lon='151.2531982' />
  <node id='-33732' visible='true' lat='-33.46035' lon='151.2536029' />
  <node id='-33734' visible='true' lat='-33.4602924' lon='151.2536856' />
  <node id='-33736' visible='true' lat='-33.4600713' lon='151.2538855' />
  <node id='-33738' visible='true' lat='-33.4599627' lon='151.2540548' />
  <node id='-33740' visible='true' lat='-33.4598348' lon='151.2541192' />
  <node id='-33742' visible='true' lat='-33.4596437' lon='151.2540987' />
  <node id='-33744' visible='true' lat='-33.4594847' lon='151.2540023' />
  <node id='-33746' visible='true' lat='-33.4592609' lon='151.2537169' />
  <node id='-33748' visible='true' lat='-33.4590552' lon='151.2535186' />
  <node id='-33750' visible='true' lat='-33.4589645' lon='151.2532564' />
  <node id='-33752' visible='true' lat='-33.4587407' lon='151.2531778' />
  <node id='-33754' visible='true' lat='-33.4584762' lon='151.2531805' />
  <node id='-33756' visible='true' lat='-33.4581368' lon='151.253042' />
  <node id='-33758' visible='true' lat='-33.4580065' lon='151.2530276' />
  <node id='-33760' visible='true' lat='-33.4578489' lon='151.2530186' />
  <node id='-33762' visible='true' lat='-33.4575665' lon='151.2530367' />
  <node id='-33764' visible='true' lat='-33.4575344' lon='151.2531245' />
  <node id='-33766' visible='true' lat='-33.4573552' lon='151.2532142' />
  <node id='-33768' visible='true' lat='-33.4571708' lon='151.2532878' />
  <node id='-33770' visible='true' lat='-33.4569045' lon='151.2532928' />
  <node id='-33772' visible='true' lat='-33.4565359' lon='151.2535628' />
  <node id='-33774' visible='true' lat='-33.4564053' lon='151.2536582' />
  <node id='-33776' visible='true' lat='-33.4561863' lon='151.2540225' />
  <node id='-33778' visible='true' lat='-33.456077' lon='151.2542631' />
  <node id='-33780' visible='true' lat='-33.455828' lon='151.2543027' />
  <node id='-33782' visible='true' lat='-33.4556551' lon='151.2545105' />
  <node id='-33784' visible='true' lat='-33.4555074' lon='151.2547735' />
  <node id='-33786' visible='true' lat='-33.4554174' lon='151.2552178' />
  <node id='-33788' visible='true' lat='-33.4552627' lon='151.256366' />
  <node id='-33790' visible='true' lat='-33.4553163' lon='151.2567868' />
  <node id='-33792' visible='true' lat='-33.4553249' lon='151.2570003' />
  <node id='-33794' visible='true' lat='-33.4552929' lon='151.2571865' />
  <node id='-33796' visible='true' lat='-33.4552147' lon='151.2574613' />
  <node id='-33798' visible='true' lat='-33.4551358' lon='151.2576544' />
  <node id='-33800' visible='true' lat='-33.454909' lon='151.2579236' />
  <node id='-33802' visible='true' lat='-33.4546408' lon='151.2581395' />
  <node id='-33804' visible='true' lat='-33.4544916' lon='151.258149' />
  <node id='-33806' visible='true' lat='-33.4542786' lon='151.2582177' />
  <node id='-33808' visible='true' lat='-33.4540787' lon='151.2582402' />
  <node id='-33810' visible='true' lat='-33.4538648' lon='151.2582079' />
  <node id='-33812' visible='true' lat='-33.4535713' lon='151.258253' />
  <node id='-33814' visible='true' lat='-33.4533076' lon='151.2582521' />
  <node id='-33816' visible='true' lat='-33.4532322' lon='151.2582846' />
  <node id='-33818' visible='true' lat='-33.4530954' lon='151.2583273' />
  <node id='-33820' visible='true' lat='-33.4529881' lon='151.2583307' />
  <node id='-33822' visible='true' lat='-33.4528763' lon='151.2583185' />
  <node id='-33824' visible='true' lat='-33.4527601' lon='151.2582838' />
  <node id='-33826' visible='true' lat='-33.4524227' lon='151.2584583' />
  <node id='-33828' visible='true' lat='-33.4522039' lon='151.2585786' />
  <node id='-33830' action='modify' visible='true' lat='-33.4521835' lon='151.2586532' />
  <node id='-33832' visible='true' lat='-33.4521065' lon='151.2586292' />
  <node id='-33834' visible='true' lat='-33.4520296' lon='151.2585328' />
  <node id='-33836' visible='true' lat='-33.4518533' lon='151.2584681' />
  <node id='-33838' visible='true' lat='-33.4517174' lon='151.2585943' />
  <node id='-33840' visible='true' lat='-33.4516255' lon='151.2587032' />
  <node id='-33842' visible='true' lat='-33.4515534' lon='151.258799' />
  <node id='-33844' visible='true' lat='-33.4515136' lon='151.2588674' />
  <node id='-33846' visible='true' lat='-33.4514149' lon='151.2589641' />
  <node id='-33848' visible='true' lat='-33.4513366' lon='151.2590026' />
  <node id='-33850' visible='true' lat='-33.4512149' lon='151.2590434' />
  <node id='-33852' visible='true' lat='-33.4510927' lon='151.2591029' />
  <node id='-33854' visible='true' lat='-33.4509684' lon='151.2592194' />
  <node id='-33856' visible='true' lat='-33.4508759' lon='151.2593176' />
  <node id='-33858' visible='true' lat='-33.450784' lon='151.259406' />
  <node id='-33860' visible='true' lat='-33.4507119' lon='151.2594989' />
  <node id='-33862' visible='true' lat='-33.4506398' lon='151.2596053' />
  <node id='-33864' visible='true' lat='-33.4503874' lon='151.2597059' />
  <node id='-33866' visible='true' lat='-33.4502383' lon='151.2598733' />
  <node id='-33868' visible='true' lat='-33.4501154' lon='151.2601131' />
  <node id='-33870' visible='true' lat='-33.4500143' lon='151.2602626' />
  <node id='-33872' action='modify' visible='true' lat='-33.449956' lon='151.260267' />
  <node id='-33874' visible='true' lat='-33.4499506' lon='151.2605062' />
  <node id='-33876' visible='true' lat='-33.4498644' lon='151.2606237' />
  <node id='-33878' visible='true' lat='-33.4496457' lon='151.2607321' />
  <node id='-33880' visible='true' lat='-33.4496034' lon='151.2608812' />
  <node id='-33882' visible='true' lat='-33.449335' lon='151.2609495' />
  <node id='-33884' visible='true' lat='-33.4489994' lon='151.2610928' />
  <node id='-33886' visible='true' lat='-33.4486004' lon='151.2616241' />
  <node id='-33888' visible='true' lat='-33.4483622' lon='151.2620035' />
  <node id='-33890' visible='true' lat='-33.4482374' lon='151.2623585' />
  <node id='-33892' visible='true' lat='-33.4481878' lon='151.2628772' />
  <node id='-33894' visible='true' lat='-33.4481032' lon='151.2632182' />
  <node id='-33896' visible='true' lat='-33.44803' lon='151.2640006' />
  <node id='-33898' visible='true' lat='-33.4482407' lon='151.2649636' />
  <node id='-33900' visible='true' lat='-33.4481006' lon='151.2652703' />
  <node id='-33902' visible='true' lat='-33.4479078' lon='151.2652829' />
  <node id='-33904' visible='true' lat='-33.4476069' lon='151.2653233' />
  <node id='-33906' visible='true' lat='-33.447385' lon='151.2654187' />
  <node id='-33908' visible='true' lat='-33.4474102' lon='151.2655414' />
  <node id='-33910' visible='true' lat='-33.4472146' lon='151.2657623' />
  <node id='-33912' visible='true' lat='-33.4470629' lon='151.2658504' />
  <node id='-33914' visible='true' lat='-33.4468076' lon='151.2660779' />
  <node id='-33916' visible='true' lat='-33.446518' lon='151.2661837' />
  <node id='-33918' visible='true' lat='-33.4462331' lon='151.2664872' />
  <node id='-33920' visible='true' lat='-33.4459893' lon='151.2665389' />
  <node id='-33922' visible='true' lat='-33.4442626' lon='151.2660528' />
  <node id='-33924' visible='true' lat='-33.4439107' lon='151.2661677' />
  <node id='-33926' visible='true' lat='-33.4435826' lon='151.2665881' />
  <node id='-33928' visible='true' lat='-33.4434266' lon='151.267176' />
  <node id='-33930' visible='true' lat='-33.4432216' lon='151.2671668' />
  <node id='-33932' visible='true' lat='-33.4430377' lon='151.2670807' />
  <way id='-33934' action='modify' visible='true'>
    <nd ref='-33482' />
    <nd ref='-33480' />
    <nd ref='-33478' />
    <nd ref='-33476' />
    <nd ref='-33474' />
    <nd ref='-33472' />
    <nd ref='-33470' />
    <nd ref='-33468' />
    <nd ref='-33466' />
    <nd ref='-33464' />
    <nd ref='-33462' />
    <nd ref='-33460' />
    <nd ref='-33458' />
    <nd ref='-33456' />
    <nd ref='-33454' />
    <nd ref='-33452' />
    <nd ref='-33450' />
    <nd ref='-33448' />
    <nd ref='-33446' />
    <nd ref='-33444' />
    <nd ref='-33442' />
    <nd ref='-33440' />
    <nd ref='-33438' />
    <nd ref='-33436' />
    <nd ref='-33434' />
    <nd ref='-33432' />
    <nd ref='-33430' />
    <nd ref='-33484' />
    <nd ref='-33486' />
    <nd ref='-33488' />
    <nd ref='-33490' />
    <nd ref='-33492' />
    <nd ref='-33494' />
    <nd ref='-33496' />
    <nd ref='-33498' />
    <nd ref='-33066' />
    <nd ref='-33422' />
    <nd ref='-33424' />
    <nd ref='-33426' />
    <nd ref='-33428' />
    <nd ref='-33316' />
    <nd ref='-33318' />
    <nd ref='-33320' />
    <nd ref='-33322' />
    <nd ref='-33324' />
    <nd ref='-33326' />
    <nd ref='-33328' />
    <nd ref='-33330' />
    <nd ref='-33332' />
    <nd ref='-33334' />
    <nd ref='-33336' />
    <nd ref='-33338' />
    <nd ref='-33064' />
    <nd ref='-33062' />
    <nd ref='-33340' />
    <nd ref='-33342' />
    <nd ref='-33344' />
    <nd ref='-33346' />
    <nd ref='-33348' />
    <nd ref='-33350' />
    <nd ref='-33352' />
    <nd ref='-33354' />
    <nd ref='-33356' />
    <nd ref='-33358' />
    <nd ref='-33360' />
    <nd ref='-33362' />
    <nd ref='-33364' />
    <nd ref='-33366' />
    <nd ref='-33368' />
    <nd ref='-33370' />
    <nd ref='-33372' />
    <nd ref='-33374' />
    <nd ref='-33376' />
    <nd ref='-33052' />
    <nd ref='-33054' />
    <nd ref='-33058' />
    <nd ref='-33056' />
    <nd ref='-33060' />
    <nd ref='-33378' />
    <nd ref='-33380' />
    <nd ref='-33382' />
    <nd ref='-33384' />
    <nd ref='-33386' />
    <nd ref='-33388' />
    <nd ref='-33390' />
    <nd ref='-33392' />
    <nd ref='-33394' />
    <nd ref='-33396' />
    <nd ref='-33398' />
    <nd ref='-33400' />
    <nd ref='-33402' />
    <nd ref='-33404' />
    <nd ref='-33406' />
    <nd ref='-33408' />
    <nd ref='-33410' />
    <nd ref='-33412' />
    <nd ref='-33414' />
    <nd ref='-33416' />
    <nd ref='-33418' />
    <nd ref='-33420' />
    <nd ref='-33500' />
    <nd ref='-33502' />
    <nd ref='-33504' />
    <nd ref='-33506' />
    <nd ref='-33508' />
    <nd ref='-33050' />
    <nd ref='-33510' />
    <nd ref='-33048' />
    <nd ref='-33512' />
    <nd ref='-33514' />
    <nd ref='-33516' />
    <nd ref='-33518' />
    <nd ref='-33520' />
    <nd ref='-33522' />
    <nd ref='-33524' />
    <nd ref='-33526' />
    <nd ref='-33528' />
    <nd ref='-33530' />
    <nd ref='-33532' />
    <nd ref='-33534' />
    <nd ref='-33536' />
    <nd ref='-33538' />
    <nd ref='-33540' />
    <nd ref='-33542' />
    <nd ref='-33544' />
    <nd ref='-33546' />
    <nd ref='-33548' />
    <nd ref='-33550' />
    <nd ref='-33552' />
    <nd ref='-33554' />
    <nd ref='-33556' />
    <nd ref='-33558' />
    <nd ref='-33560' />
    <nd ref='-33562' />
    <nd ref='-33564' />
    <nd ref='-33566' />
    <nd ref='-33568' />
    <nd ref='-33570' />
    <nd ref='-33572' />
    <nd ref='-33574' />
    <nd ref='-33576' />
    <nd ref='-33578' />
    <nd ref='-33580' />
    <nd ref='-33582' />
    <nd ref='-33584' />
    <nd ref='-33586' />
    <nd ref='-33588' />
    <nd ref='-33590' />
    <nd ref='-33592' />
    <nd ref='-33594' />
    <nd ref='-33596' />
    <nd ref='-33598' />
    <nd ref='-33600' />
    <nd ref='-33602' />
    <nd ref='-33604' />
    <nd ref='-33606' />
    <nd ref='-33608' />
    <nd ref='-33610' />
    <nd ref='-33612' />
    <nd ref='-33614' />
    <nd ref='-33616' />
    <nd ref='-33618' />
    <nd ref='-33620' />
    <nd ref='-33622' />
    <nd ref='-33624' />
    <nd ref='-33626' />
    <nd ref='-33628' />
    <nd ref='-33630' />
    <nd ref='-33632' />
    <nd ref='-33634' />
    <nd ref='-33636' />
    <nd ref='-33932' />
    <nd ref='-33930' />
    <nd ref='-33928' />
    <nd ref='-33926' />
    <nd ref='-33924' />
    <nd ref='-33922' />
    <nd ref='-33920' />
    <nd ref='-33918' />
    <nd ref='-33916' />
    <nd ref='-33914' />
    <nd ref='-33912' />
    <nd ref='-33910' />
    <nd ref='-33908' />
    <nd ref='-33906' />
    <nd ref='-33904' />
    <nd ref='-33902' />
    <nd ref='-33900' />
    <nd ref='-33898' />
    <nd ref='-33896' />
    <nd ref='-33894' />
    <nd ref='-33892' />
    <nd ref='-33890' />
    <nd ref='-33888' />
    <nd ref='-33886' />
    <nd ref='-33884' />
    <nd ref='-33882' />
    <nd ref='-33880' />
    <nd ref='-33878' />
    <nd ref='-33876' />
    <nd ref='-33874' />
    <nd ref='-33872' />
    <nd ref='-33870' />
    <nd ref='-33868' />
    <nd ref='-33866' />
    <nd ref='-33864' />
    <nd ref='-33862' />
    <nd ref='-33860' />
    <nd ref='-33858' />
    <nd ref='-33856' />
    <nd ref='-33854' />
    <nd ref='-33852' />
    <nd ref='-33850' />
    <nd ref='-33848' />
    <nd ref='-33846' />
    <nd ref='-33844' />
    <nd ref='-33842' />
    <nd ref='-33840' />
    <nd ref='-33838' />
    <nd ref='-33836' />
    <nd ref='-33834' />
    <nd ref='-33832' />
    <nd ref='-33830' />
    <nd ref='-33828' />
    <nd ref='-33826' />
    <nd ref='-33824' />
    <nd ref='-33822' />
    <nd ref='-33820' />
    <nd ref='-33818' />
    <nd ref='-33816' />
    <nd ref='-33814' />
    <nd ref='-33812' />
    <nd ref='-33810' />
    <nd ref='-33808' />
    <nd ref='-33806' />
    <nd ref='-33804' />
    <nd ref='-33802' />
    <nd ref='-33800' />
    <nd ref='-33798' />
    <nd ref='-33796' />
    <nd ref='-33794' />
    <nd ref='-33792' />
    <nd ref='-33790' />
    <nd ref='-33788' />
    <nd ref='-33786' />
    <nd ref='-33784' />
    <nd ref='-33782' />
    <nd ref='-33780' />
    <nd ref='-33778' />
    <nd ref='-33776' />
    <nd ref='-33774' />
    <nd ref='-33772' />
    <nd ref='-33770' />
    <nd ref='-33768' />
    <nd ref='-33766' />
    <nd ref='-33764' />
    <nd ref='-33762' />
    <nd ref='-33760' />
    <nd ref='-33758' />
    <nd ref='-33756' />
    <nd ref='-33754' />
    <nd ref='-33752' />
    <nd ref='-33750' />
    <nd ref='-33748' />
    <nd ref='-33746' />
    <nd ref='-33744' />
    <nd ref='-33742' />
    <nd ref='-33740' />
    <nd ref='-33738' />
    <nd ref='-33736' />
    <nd ref='-33734' />
    <nd ref='-33732' />
    <nd ref='-33730' />
    <nd ref='-33728' />
    <nd ref='-33726' />
    <nd ref='-33724' />
    <nd ref='-33722' />
    <nd ref='-33720' />
    <nd ref='-33718' />
    <nd ref='-33716' />
    <nd ref='-33714' />
    <nd ref='-33712' />
    <nd ref='-33710' />
    <nd ref='-33708' />
    <nd ref='-33706' />
    <nd ref='-33704' />
    <nd ref='-33702' />
    <nd ref='-33700' />
    <nd ref='-33698' />
    <nd ref='-33696' />
    <nd ref='-33694' />
    <nd ref='-33692' />
    <nd ref='-33690' />
    <nd ref='-33688' />
    <nd ref='-33686' />
    <nd ref='-33684' />
    <nd ref='-33682' />
    <nd ref='-33680' />
    <nd ref='-33678' />
    <nd ref='-33676' />
    <nd ref='-33674' />
    <nd ref='-33672' />
    <nd ref='-33670' />
    <nd ref='-33668' />
    <nd ref='-33666' />
    <nd ref='-33664' />
    <nd ref='-33662' />
    <nd ref='-33660' />
    <nd ref='-33658' />
    <nd ref='-33656' />
    <nd ref='-33654' />
    <nd ref='-33652' />
    <nd ref='-33650' />
    <nd ref='-33648' />
    <nd ref='-33646' />
    <nd ref='-33644' />
    <nd ref='-33642' />
    <nd ref='-33640' />
    <nd ref='-33638' />
    <nd ref='-33212' />
    <nd ref='-33214' />
    <nd ref='-33216' />
    <nd ref='-33218' />
    <nd ref='-33220' />
    <nd ref='-33222' />
    <nd ref='-33224' />
    <nd ref='-33226' />
    <nd ref='-33228' />
    <nd ref='-33230' />
    <nd ref='-33232' />
    <nd ref='-33234' />
    <nd ref='-33236' />
    <nd ref='-33238' />
    <nd ref='-33240' />
    <nd ref='-33242' />
    <nd ref='-33244' />
    <nd ref='-33246' />
    <nd ref='-33248' />
    <nd ref='-33250' />
    <nd ref='-33252' />
    <nd ref='-33254' />
    <nd ref='-33256' />
    <nd ref='-33258' />
    <nd ref='-33260' />
    <nd ref='-33262' />
    <nd ref='-33264' />
    <nd ref='-33266' />
    <nd ref='-33268' />
    <nd ref='-33270' />
    <nd ref='-33272' />
    <nd ref='-33274' />
    <nd ref='-33276' />
    <nd ref='-33278' />
    <nd ref='-33280' />
    <nd ref='-33282' />
    <nd ref='-33284' />
    <nd ref='-33286' />
    <nd ref='-33288' />
    <nd ref='-33290' />
    <nd ref='-33292' />
    <nd ref='-33294' />
    <nd ref='-33296' />
    <nd ref='-33298' />
    <nd ref='-33300' />
    <nd ref='-33302' />
    <nd ref='-33304' />
    <nd ref='-33306' />
    <nd ref='-33308' />
    <nd ref='-33310' />
    <nd ref='-33312' />
    <nd ref='-33314' />
    <nd ref='-33068' />
    <nd ref='-33070' />
    <nd ref='-33072' />
    <nd ref='-33074' />
    <nd ref='-33076' />
    <nd ref='-33078' />
    <nd ref='-33080' />
    <nd ref='-33082' />
    <nd ref='-33084' />
    <nd ref='-33086' />
    <nd ref='-33088' />
    <nd ref='-33090' />
    <nd ref='-33092' />
    <nd ref='-33094' />
    <nd ref='-33096' />
    <nd ref='-33098' />
    <nd ref='-33100' />
    <nd ref='-33102' />
    <nd ref='-33104' />
    <nd ref='-33106' />
    <nd ref='-33108' />
    <nd ref='-33110' />
    <nd ref='-33112' />
    <nd ref='-33114' />
    <nd ref='-33116' />
    <nd ref='-33118' />
    <nd ref='-33120' />
    <nd ref='-33122' />
    <nd ref='-33124' />
    <nd ref='-33126' />
    <nd ref='-33128' />
    <nd ref='-33130' />
    <nd ref='-33132' />
    <nd ref='-33134' />
    <nd ref='-33136' />
    <nd ref='-33138' />
    <nd ref='-33140' />
    <nd ref='-33142' />
    <nd ref='-33144' />
    <nd ref='-33146' />
    <nd ref='-33148' />
    <nd ref='-33150' />
    <nd ref='-33152' />
    <nd ref='-33154' />
    <nd ref='-33156' />
    <nd ref='-33158' />
    <nd ref='-33160' />
    <nd ref='-33162' />
    <nd ref='-33164' />
    <nd ref='-33166' />
    <nd ref='-33168' />
    <nd ref='-33170' />
    <nd ref='-33172' />
    <nd ref='-33174' />
    <nd ref='-33176' />
    <nd ref='-33178' />
    <nd ref='-33180' />
    <nd ref='-33182' />
    <nd ref='-33184' />
    <nd ref='-33186' />
    <nd ref='-33188' />
    <nd ref='-33190' />
    <nd ref='-33192' />
    <nd ref='-33194' />
    <nd ref='-33196' />
    <nd ref='-33198' />
    <nd ref='-33200' />
    <nd ref='-33202' />
    <nd ref='-33204' />
    <nd ref='-33206' />
    <nd ref='-33208' />
    <nd ref='-33210' />
    <tag k='name' v='Girrakool to Wondabyne via Piles Creek' />
    <tag k='park' v='Brisbane Water National Park' />
    <tag k='photo' v='136319147@N08/22936331660' />
    <tag k='role' v='primary' />
    <tag k='style' v='oneway' />
    <tag k='transport' v='taxi+train' />
  </way>
</osm>
