<?xml version='1.0' encoding='UTF-8'?>
<osm version='0.6' upload='false' generator='JOSM'>
  <node id='-190169' action='modify' lat='-43.1396934' lon='148.0053257' />
  <node id='-190171' action='modify' lat='-43.139633' lon='148.0052541' />
  <node id='-190173' action='modify' lat='-43.1395823' lon='148.0051203' />
  <node id='-190175' action='modify' lat='-43.1396497' lon='148.0049353' />
  <node id='-190177' action='modify' lat='-43.1397538' lon='148.0048833' />
  <node id='-190179' action='modify' lat='-43.1399421' lon='148.0047658' />
  <node id='-190181' action='modify' lat='-43.1400279' lon='148.0047369' />
  <node id='-190183' action='modify' lat='-43.140056' lon='148.0047831' />
  <node id='-190185' action='modify' lat='-43.1401672' lon='148.0047776' />
  <node id='-190187' action='modify' lat='-43.1402969' lon='148.0046984' />
  <node id='-190189' action='modify' lat='-43.1403467' lon='148.00463' />
  <node id='-190191' action='modify' lat='-43.1404367' lon='148.004605' />
  <node id='-190193' action='modify' lat='-43.1405421' lon='148.0045025' />
  <node id='-190195' action='modify' lat='-43.140645' lon='148.0044533' />
  <node id='-190197' action='modify' lat='-43.1407579' lon='148.0043508' />
  <node id='-190199' action='modify' lat='-43.1408961' lon='148.0041432' />
  <node id='-190201' action='modify' lat='-43.140986' lon='148.0040615' />
  <node id='-190203' action='modify' lat='-43.1411754' lon='148.0039797' />
  <node id='-190205' action='modify' lat='-43.1413817' lon='148.003945' />
  <node id='-190207' action='modify' lat='-43.1414821' lon='148.0038694' />
  <node id='-190209' action='modify' lat='-43.141537' lon='148.003863' />
  <node id='-190211' action='modify' lat='-43.1415966' lon='148.0038811' />
  <node id='-190213' action='modify' lat='-43.1416733' lon='148.0038474' />
  <node id='-190215' action='modify' lat='-43.1418702' lon='148.0036268' />
  <node id='-190217' action='modify' lat='-43.1419052' lon='148.0034556' />
  <node id='-190219' action='modify' lat='-43.141899' lon='148.0033767' />
  <node id='-190221' action='modify' lat='-43.1419594' lon='148.0032804' />
  <node id='-190223' action='modify' lat='-43.1420733' lon='148.003235' />
  <node id='-190225' action='modify' lat='-43.1421873' lon='148.003139' />
  <node id='-190227' action='modify' lat='-43.1422195' lon='148.0030807' />
  <node id='-190229' action='modify' lat='-43.1422181' lon='148.0029702' />
  <node id='-190231' action='modify' lat='-43.1423757' lon='148.0027447' />
  <node id='-190233' action='modify' lat='-43.1424628' lon='148.0026941' />
  <node id='-190235' action='modify' lat='-43.1425016' lon='148.00265' />
  <node id='-190237' action='modify' lat='-43.1425792' lon='148.0026331' />
  <node id='-190239' action='modify' lat='-43.1426133' lon='148.002602' />
  <node id='-190241' action='modify' lat='-43.1426187' lon='148.002504' />
  <node id='-190243' action='modify' lat='-43.1426271' lon='148.0023884' />
  <node id='-190245' action='modify' lat='-43.1426651' lon='148.0023133' />
  <node id='-190247' action='modify' lat='-43.1427411' lon='148.0023088' />
  <node id='-190249' action='modify' lat='-43.142845' lon='148.0022867' />
  <node id='-190251' action='modify' lat='-43.1428897' lon='148.0022582' />
  <node id='-190253' action='modify' lat='-43.1429957' lon='148.0020804' />
  <node id='-190255' action='modify' lat='-43.1432317' lon='148.0019783' />
  <node id='-190257' action='modify' lat='-43.143311' lon='148.001987' />
  <node id='-190259' action='modify' lat='-43.143495' lon='148.0019533' />
  <node id='-190261' action='modify' lat='-43.1435306' lon='148.0019247' />
  <node id='-190263' action='modify' lat='-43.1435552' lon='148.0018767' />
  <node id='-190265' action='modify' lat='-43.1435912' lon='148.0016938' />
  <node id='-190267' action='modify' lat='-43.1435808' lon='148.0016004' />
  <node id='-190269' action='modify' lat='-43.1436101' lon='148.0015446' />
  <node id='-190271' action='modify' lat='-43.1437057' lon='148.0014668' />
  <node id='-190273' action='modify' lat='-43.1437247' lon='148.0014084' />
  <node id='-190275' action='modify' lat='-43.1437587' lon='148.0011347' />
  <node id='-190277' action='modify' lat='-43.1438316' lon='148.0010283' />
  <node id='-190279' action='modify' lat='-43.1438525' lon='148.0009401' />
  <node id='-190281' action='modify' lat='-43.1439973' lon='148.0005548' />
  <node id='-190283' action='modify' lat='-43.1439867' lon='148.0004417' />
  <node id='-190285' action='modify' lat='-43.143913' lon='148.0003965' />
  <node id='-190287' action='modify' lat='-43.1438761' lon='148.0004069' />
  <node id='-190289' action='modify' lat='-43.1437568' lon='148.0003783' />
  <node id='-190291' action='modify' lat='-43.1436973' lon='148.0002775' />
  <node id='-190293' action='modify' lat='-43.143714' lon='148.0001859' />
  <node id='-190295' action='modify' lat='-43.1438117' lon='148.0000317' />
  <node id='-190297' action='modify' lat='-43.1437975' lon='147.9999547' />
  <node id='-190299' action='modify' lat='-43.1438025' lon='147.9998517' />
  <node id='-190301' action='modify' lat='-43.1437774' lon='147.9997258' />
  <node id='-190303' action='modify' lat='-43.1437073' lon='147.9996411' />
  <node id='-190305' action='modify' lat='-43.143695' lon='147.9993867' />
  <node id='-190307' action='modify' lat='-43.1437204' lon='147.9990623' />
  <node id='-190309' action='modify' lat='-43.1437056' lon='147.9989416' />
  <node id='-190311' action='modify' lat='-43.1437148' lon='147.9988624' />
  <node id='-190313' action='modify' lat='-43.1438167' lon='147.998585' />
  <node id='-190315' action='modify' lat='-43.1438033' lon='147.998425' />
  <node id='-190317' action='modify' lat='-43.1437321' lon='147.9982579' />
  <node id='-190319' action='modify' lat='-43.143703' lon='147.9981313' />
  <node id='-190321' action='modify' lat='-43.1436762' lon='147.9978997' />
  <node id='-190323' action='modify' lat='-43.1436179' lon='147.9977298' />
  <node id='-190325' action='modify' lat='-43.1436069' lon='147.9976498' />
  <node id='-190327' action='modify' lat='-43.1436167' lon='147.9975465' />
  <node id='-190329' action='modify' lat='-43.143655' lon='147.9974867' />
  <node id='-190331' action='modify' lat='-43.1436799' lon='147.9971733' />
  <node id='-190333' action='modify' lat='-43.143827' lon='147.9968518' />
  <node id='-190335' action='modify' lat='-43.1438902' lon='147.9967702' />
  <node id='-190337' action='modify' lat='-43.143957' lon='147.9966385' />
  <node id='-190339' action='modify' lat='-43.1439631' lon='147.9965886' />
  <node id='-190341' action='modify' lat='-43.1440348' lon='147.9965003' />
  <node id='-190343' action='modify' lat='-43.1440733' lon='147.9964' />
  <node id='-190345' action='modify' lat='-43.1440786' lon='147.9961687' />
  <node id='-190347' action='modify' lat='-43.14413' lon='147.9961267' />
  <node id='-190349' action='modify' lat='-43.1441686' lon='147.9960588' />
  <node id='-190351' action='modify' lat='-43.1441746' lon='147.9960088' />
  <node id='-190353' action='modify' lat='-43.1441649' lon='147.9959655' />
  <node id='-190355' action='modify' lat='-43.1442415' lon='147.9957889' />
  <node id='-190357' action='modify' lat='-43.144278' lon='147.9955856' />
  <node id='-190359' action='modify' lat='-43.1443917' lon='147.9953117' />
  <node id='-190361' action='modify' lat='-43.1444287' lon='147.995284' />
  <node id='-190363' action='modify' lat='-43.1444457' lon='147.9952441' />
  <node id='-190365' action='modify' lat='-43.1444138' lon='147.9951793' />
  <node id='-190367' action='modify' lat='-43.1444405' lon='147.9951003' />
  <node id='-190369' action='modify' lat='-43.1446318' lon='147.9950885' />
  <node id='-190371' action='modify' lat='-43.1447551' lon='147.9951127' />
  <node id='-190373' action='modify' lat='-43.1449077' lon='147.9950765' />
  <node id='-190375' action='modify' lat='-43.1448764' lon='147.9949518' />
  <node id='-190377' action='modify' lat='-43.1448386' lon='147.9948414' />
  <node id='-190379' action='modify' lat='-43.1448322' lon='147.9947511' />
  <node id='-190381' action='modify' lat='-43.1448451' lon='147.9946518' />
  <node id='-190383' action='modify' lat='-43.1450418' lon='147.9947077' />
  <node id='-190385' action='modify' lat='-43.145215' lon='147.9946393' />
  <node id='-190387' action='modify' lat='-43.1451064' lon='147.9943684' />
  <node id='-190389' action='modify' lat='-43.1450783' lon='147.9943333' />
  <node id='-190391' action='modify' lat='-43.1450237' lon='147.9943013' />
  <node id='-190393' action='modify' lat='-43.1449368' lon='147.9942043' />
  <node id='-190395' action='modify' lat='-43.14489' lon='147.9940717' />
  <node id='-190397' action='modify' lat='-43.1449046' lon='147.9939154' />
  <node id='-190399' action='modify' lat='-43.1449404' lon='147.9937826' />
  <node id='-190401' action='modify' lat='-43.1450128' lon='147.9936652' />
  <node id='-190403' action='modify' lat='-43.1450224' lon='147.9935346' />
  <node id='-190405' action='modify' lat='-43.1451733' lon='147.9934205' />
  <node id='-190407' action='modify' lat='-43.1453683' lon='147.9933533' />
  <node id='-190409' action='modify' lat='-43.1454182' lon='147.9932353' />
  <node id='-190411' action='modify' lat='-43.1455375' lon='147.9930338' />
  <node id='-190413' action='modify' lat='-43.1455795' lon='147.9929015' />
  <node id='-190415' action='modify' lat='-43.1455779' lon='147.9924597' />
  <node id='-190417' action='modify' lat='-43.1454876' lon='147.9920414' />
  <node id='-190419' action='modify' lat='-43.1454861' lon='147.9918387' />
  <node id='-190421' action='modify' lat='-43.1455312' lon='147.9917384' />
  <node id='-190423' action='modify' lat='-43.145553' lon='147.9916189' />
  <node id='-190425' action='modify' lat='-43.1455904' lon='147.991224' />
  <node id='-190427' action='modify' lat='-43.1455888' lon='147.9909871' />
  <node id='-190429' action='modify' lat='-43.1455702' lon='147.9907716' />
  <node id='-190431' action='modify' lat='-43.1456717' lon='147.9903817' />
  <node id='-190433' action='modify' lat='-43.1457399' lon='147.9900182' />
  <node id='-190435' action='modify' lat='-43.1457041' lon='147.9898091' />
  <node id='-190437' action='modify' lat='-43.1455702' lon='147.989363' />
  <node id='-190439' action='modify' lat='-43.1455233' lon='147.989245' />
  <node id='-190441' action='modify' lat='-43.1455359' lon='147.9891197' />
  <node id='-190443' action='modify' lat='-43.1455063' lon='147.9888017' />
  <node id='-190445' action='modify' lat='-43.1453708' lon='147.988202' />
  <node id='-190447' action='modify' lat='-43.1453662' lon='147.9879523' />
  <node id='-190449' action='modify' lat='-43.1453864' lon='147.987581' />
  <node id='-190451' action='modify' lat='-43.145349' lon='147.9872032' />
  <node id='-190453' action='modify' lat='-43.1452852' lon='147.9868746' />
  <node id='-190455' action='modify' lat='-43.1451902' lon='147.986595' />
  <node id='-190457' action='modify' lat='-43.1450469' lon='147.9862343' />
  <node id='-190459' action='modify' lat='-43.1449582' lon='147.986117' />
  <node id='-190461' action='modify' lat='-43.1447043' lon='147.9859932' />
  <node id='-190463' action='modify' lat='-43.1445922' lon='147.9858544' />
  <node id='-190465' action='modify' lat='-43.1442698' lon='147.9855514' />
  <node id='-190467' action='modify' lat='-43.1439195' lon='147.9853721' />
  <node id='-190469' action='modify' lat='-43.1437497' lon='147.9853294' />
  <node id='-190471' action='modify' lat='-43.1435617' lon='147.9852433' />
  <node id='-190473' action='modify' lat='-43.14346' lon='147.9851683' />
  <node id='-190475' action='modify' lat='-43.1433402' lon='147.9850285' />
  <node id='-190477' action='modify' lat='-43.1430131' lon='147.9848023' />
  <node id='-190479' action='modify' lat='-43.14273' lon='147.9844767' />
  <node id='-190481' action='modify' lat='-43.1426332' lon='147.9844181' />
  <node id='-190483' action='modify' lat='-43.1425382' lon='147.9844053' />
  <node id='-190485' action='modify' lat='-43.1422781' lon='147.9844907' />
  <node id='-190487' action='modify' lat='-43.1421598' lon='147.9844971' />
  <node id='-190489' action='modify' lat='-43.1420317' lon='147.9844617' />
  <node id='-190491' action='modify' lat='-43.1418733' lon='147.9844517' />
  <node id='-190493' action='modify' lat='-43.1417267' lon='147.9843983' />
  <node id='-190495' action='modify' lat='-43.1415567' lon='147.9842783' />
  <node id='-190497' action='modify' lat='-43.1413406' lon='147.9839593' />
  <node id='-190499' action='modify' lat='-43.1412721' lon='147.9838248' />
  <node id='-190501' action='modify' lat='-43.1411257' lon='147.9836797' />
  <node id='-190503' action='modify' lat='-43.1410588' lon='147.9835773' />
  <node id='-190505' action='modify' lat='-43.1409498' lon='147.9834556' />
  <node id='-190507' action='modify' lat='-43.1406627' lon='147.9833017' />
  <node id='-190509' action='modify' lat='-43.1405924' lon='147.9832256' />
  <node id='-190511' action='modify' lat='-43.1403159' lon='147.9828217' />
  <node id='-190513' action='modify' lat='-43.1401266' lon='147.9825763' />
  <node id='-190515' action='modify' lat='-43.1398217' lon='147.9823884' />
  <node id='-190517' action='modify' lat='-43.1397197' lon='147.9823014' />
  <node id='-190519' action='modify' lat='-43.1396631' lon='147.9822159' />
  <node id='-190521' action='modify' lat='-43.1395474' lon='147.981868' />
  <node id='-190523' action='modify' lat='-43.1394534' lon='147.981809' />
  <node id='-190525' action='modify' lat='-43.1393383' lon='147.9817933' />
  <node id='-190527' action='modify' lat='-43.139076' lon='147.981621' />
  <node id='-190529' action='modify' lat='-43.1389717' lon='147.98159' />
  <node id='-190531' action='modify' lat='-43.1388969' lon='147.9815449' />
  <node id='-190533' action='modify' lat='-43.1388425' lon='147.9814455' />
  <node id='-190535' action='modify' lat='-43.1387883' lon='147.9813033' />
  <node id='-190537' action='modify' lat='-43.1386633' lon='147.9811367' />
  <node id='-190539' action='modify' lat='-43.1385648' lon='147.9808739' />
  <node id='-190541' action='modify' lat='-43.1384821' lon='147.9807248' />
  <node id='-190543' action='modify' lat='-43.1384175' lon='147.9805664' />
  <node id='-190545' action='modify' lat='-43.1384073' lon='147.9804499' />
  <node id='-190547' action='modify' lat='-43.1383189' lon='147.9801563' />
  <node id='-190549' action='modify' lat='-43.1382429' lon='147.9800258' />
  <node id='-190551' action='modify' lat='-43.1382078' lon='147.9799233' />
  <node id='-190553' action='modify' lat='-43.138116' lon='147.979782' />
  <node id='-190555' action='modify' lat='-43.138074' lon='147.9796204' />
  <node id='-190557' action='modify' lat='-43.1379958' lon='147.9795334' />
  <node id='-190559' action='modify' lat='-43.1378938' lon='147.9794604' />
  <node id='-190561' action='modify' lat='-43.1377012' lon='147.9794232' />
  <node id='-190563' action='modify' lat='-43.13764' lon='147.9793005' />
  <node id='-190565' action='modify' lat='-43.137528' lon='147.9791607' />
  <node id='-190567' action='modify' lat='-43.1373521' lon='147.9786632' />
  <node id='-190569' action='modify' lat='-43.1372875' lon='147.9783475' />
  <node id='-190571' action='modify' lat='-43.137273' lon='147.9782182' />
  <node id='-190573' action='modify' lat='-43.1370762' lon='147.977573' />
  <node id='-190575' action='modify' lat='-43.1369944' lon='147.9772388' />
  <node id='-190577' action='modify' lat='-43.1370028' lon='147.977114' />
  <node id='-190579' action='modify' lat='-43.1370742' lon='147.9769418' />
  <node id='-190581' action='modify' lat='-43.1371218' lon='147.9769255' />
  <node id='-190583' action='modify' lat='-43.1371873' lon='147.9768058' />
  <node id='-190585' action='modify' lat='-43.137229' lon='147.976678' />
  <node id='-190587' action='modify' lat='-43.137358' lon='147.9765066' />
  <node id='-190589' action='modify' lat='-43.1373818' lon='147.976425' />
  <node id='-190591' action='modify' lat='-43.1372985' lon='147.9762563' />
  <node id='-190593' action='modify' lat='-43.1372131' lon='147.9761394' />
  <node id='-190595' action='modify' lat='-43.1371496' lon='147.9760006' />
  <node id='-190597' action='modify' lat='-43.1370404' lon='147.9756389' />
  <node id='-190599' action='modify' lat='-43.1370047' lon='147.9754376' />
  <node id='-190601' action='modify' lat='-43.1369154' lon='147.9751003' />
  <node id='-190603' action='modify' lat='-43.1368221' lon='147.9749098' />
  <node id='-190605' action='modify' lat='-43.1367209' lon='147.9748065' />
  <node id='-190607' action='modify' lat='-43.1364678' lon='147.9746133' />
  <node id='-190609' action='modify' lat='-43.1363968' lon='147.9745141' />
  <node id='-190611' action='modify' lat='-43.1363265' lon='147.9744538' />
  <node id='-190613' action='modify' lat='-43.136001' lon='147.9742431' />
  <node id='-190615' action='modify' lat='-43.135938' lon='147.9741758' />
  <node id='-190617' action='modify' lat='-43.1359159' lon='147.9741207' />
  <node id='-190619' action='modify' lat='-43.135857' lon='147.973808' />
  <node id='-190621' action='modify' lat='-43.1358096' lon='147.9736931' />
  <node id='-190623' action='modify' lat='-43.1357587' lon='147.9736296' />
  <node id='-190625' action='modify' lat='-43.135678' lon='147.9735655' />
  <node id='-190627' action='modify' lat='-43.1356188' lon='147.9734834' />
  <node id='-190629' action='modify' lat='-43.1355492' lon='147.9733183' />
  <node id='-190631' action='modify' lat='-43.1355725' lon='147.9732191' />
  <node id='-190633' action='modify' lat='-43.1355988' lon='147.9731922' />
  <node id='-190635' action='modify' lat='-43.1356117' lon='147.9731385' />
  <node id='-190637' action='modify' lat='-43.1359461' lon='147.9728179' />
  <node id='-190639' action='modify' lat='-43.1362106' lon='147.9726183' />
  <node id='-190641' action='modify' lat='-43.1363965' lon='147.9724187' />
  <node id='-190643' action='modify' lat='-43.1367127' lon='147.97198' />
  <node id='-190645' action='modify' lat='-43.1369772' lon='147.9715572' />
  <node id='-190647' action='modify' lat='-43.1371037' lon='147.9712498' />
  <node id='-190649' action='modify' lat='-43.1372107' lon='147.9708009' />
  <node id='-190651' action='modify' lat='-43.1373726' lon='147.9706079' />
  <node id='-190653' action='modify' lat='-43.1376019' lon='147.9704292' />
  <node id='-190655' action='modify' lat='-43.1389062' lon='147.9695416' />
  <node id='-190657' action='modify' lat='-43.1392436' lon='147.9691717' />
  <node id='-190659' action='modify' lat='-43.1395809' lon='147.9690608' />
  <node id='-190661' action='modify' lat='-43.1403365' lon='147.9683705' />
  <node id='-190663' action='modify' lat='-43.1406767' lon='147.9681633' />
  <node id='-190665' action='modify' lat='-43.14096' lon='147.96811' />
  <node id='-190667' action='modify' lat='-43.1412067' lon='147.9681117' />
  <node id='-190669' action='modify' lat='-43.14191' lon='147.9673766' />
  <node id='-190671' action='modify' lat='-43.1419219' lon='147.9673542' />
  <way id='-190672' action='modify'>
    <nd ref='-190671' />
    <nd ref='-190669' />
    <nd ref='-190667' />
    <nd ref='-190665' />
    <nd ref='-190663' />
    <nd ref='-190661' />
    <nd ref='-190659' />
    <nd ref='-190657' />
    <nd ref='-190655' />
    <nd ref='-190653' />
    <nd ref='-190651' />
    <nd ref='-190649' />
    <nd ref='-190647' />
    <nd ref='-190645' />
    <nd ref='-190643' />
    <nd ref='-190641' />
    <nd ref='-190639' />
    <nd ref='-190637' />
    <nd ref='-190635' />
    <nd ref='-190633' />
    <nd ref='-190631' />
    <nd ref='-190629' />
    <nd ref='-190627' />
    <nd ref='-190625' />
    <nd ref='-190623' />
    <nd ref='-190621' />
    <nd ref='-190619' />
    <nd ref='-190617' />
    <nd ref='-190615' />
    <nd ref='-190613' />
    <nd ref='-190611' />
    <nd ref='-190609' />
    <nd ref='-190607' />
    <nd ref='-190605' />
    <nd ref='-190603' />
    <nd ref='-190601' />
    <nd ref='-190599' />
    <nd ref='-190597' />
    <nd ref='-190595' />
    <nd ref='-190593' />
    <nd ref='-190591' />
    <nd ref='-190589' />
    <nd ref='-190587' />
    <nd ref='-190585' />
    <nd ref='-190583' />
    <nd ref='-190581' />
    <nd ref='-190579' />
    <nd ref='-190577' />
    <nd ref='-190575' />
    <nd ref='-190573' />
    <nd ref='-190571' />
    <nd ref='-190569' />
    <nd ref='-190567' />
    <nd ref='-190565' />
    <nd ref='-190563' />
    <nd ref='-190561' />
    <nd ref='-190559' />
    <nd ref='-190557' />
    <nd ref='-190555' />
    <nd ref='-190553' />
    <nd ref='-190551' />
    <nd ref='-190549' />
    <nd ref='-190547' />
    <nd ref='-190545' />
    <nd ref='-190543' />
    <nd ref='-190541' />
    <nd ref='-190539' />
    <nd ref='-190537' />
    <nd ref='-190535' />
    <nd ref='-190533' />
    <nd ref='-190531' />
    <nd ref='-190529' />
    <nd ref='-190527' />
    <nd ref='-190525' />
    <nd ref='-190523' />
    <nd ref='-190521' />
    <nd ref='-190519' />
    <nd ref='-190517' />
    <nd ref='-190515' />
    <nd ref='-190513' />
    <nd ref='-190511' />
    <nd ref='-190509' />
    <nd ref='-190507' />
    <nd ref='-190505' />
    <nd ref='-190503' />
    <nd ref='-190501' />
    <nd ref='-190499' />
    <nd ref='-190497' />
    <nd ref='-190495' />
    <nd ref='-190493' />
    <nd ref='-190491' />
    <nd ref='-190489' />
    <nd ref='-190487' />
    <nd ref='-190485' />
    <nd ref='-190483' />
    <nd ref='-190481' />
    <nd ref='-190479' />
    <nd ref='-190477' />
    <nd ref='-190475' />
    <nd ref='-190473' />
    <nd ref='-190471' />
    <nd ref='-190469' />
    <nd ref='-190467' />
    <nd ref='-190465' />
    <nd ref='-190463' />
    <nd ref='-190461' />
    <nd ref='-190459' />
    <nd ref='-190457' />
    <nd ref='-190455' />
    <nd ref='-190453' />
    <nd ref='-190451' />
    <nd ref='-190449' />
    <nd ref='-190447' />
    <nd ref='-190445' />
    <nd ref='-190443' />
    <nd ref='-190441' />
    <nd ref='-190439' />
    <nd ref='-190437' />
    <nd ref='-190435' />
    <nd ref='-190433' />
    <nd ref='-190431' />
    <nd ref='-190429' />
    <nd ref='-190427' />
    <nd ref='-190425' />
    <nd ref='-190423' />
    <nd ref='-190421' />
    <nd ref='-190419' />
    <nd ref='-190417' />
    <nd ref='-190415' />
    <nd ref='-190413' />
    <nd ref='-190411' />
    <nd ref='-190409' />
    <nd ref='-190407' />
    <nd ref='-190405' />
    <nd ref='-190403' />
    <nd ref='-190401' />
    <nd ref='-190399' />
    <nd ref='-190397' />
    <nd ref='-190395' />
    <nd ref='-190393' />
    <nd ref='-190391' />
    <nd ref='-190389' />
    <nd ref='-190387' />
    <nd ref='-190385' />
    <nd ref='-190383' />
    <nd ref='-190381' />
    <nd ref='-190379' />
    <nd ref='-190377' />
    <nd ref='-190375' />
    <nd ref='-190373' />
    <nd ref='-190371' />
    <nd ref='-190369' />
    <nd ref='-190367' />
    <nd ref='-190365' />
    <nd ref='-190363' />
    <nd ref='-190361' />
    <nd ref='-190359' />
    <nd ref='-190357' />
    <nd ref='-190355' />
    <nd ref='-190353' />
    <nd ref='-190351' />
    <nd ref='-190349' />
    <nd ref='-190347' />
    <nd ref='-190345' />
    <nd ref='-190343' />
    <nd ref='-190341' />
    <nd ref='-190339' />
    <nd ref='-190337' />
    <nd ref='-190335' />
    <nd ref='-190333' />
    <nd ref='-190331' />
    <nd ref='-190329' />
    <nd ref='-190327' />
    <nd ref='-190325' />
    <nd ref='-190323' />
    <nd ref='-190321' />
    <nd ref='-190319' />
    <nd ref='-190317' />
    <nd ref='-190315' />
    <nd ref='-190313' />
    <nd ref='-190311' />
    <nd ref='-190309' />
    <nd ref='-190307' />
    <nd ref='-190305' />
    <nd ref='-190303' />
    <nd ref='-190301' />
    <nd ref='-190299' />
    <nd ref='-190297' />
    <nd ref='-190295' />
    <nd ref='-190293' />
    <nd ref='-190291' />
    <nd ref='-190289' />
    <nd ref='-190287' />
    <nd ref='-190285' />
    <nd ref='-190283' />
    <nd ref='-190281' />
    <nd ref='-190279' />
    <nd ref='-190277' />
    <nd ref='-190275' />
    <nd ref='-190273' />
    <nd ref='-190271' />
    <nd ref='-190269' />
    <nd ref='-190267' />
    <nd ref='-190265' />
    <nd ref='-190263' />
    <nd ref='-190261' />
    <nd ref='-190259' />
    <nd ref='-190257' />
    <nd ref='-190255' />
    <nd ref='-190253' />
    <nd ref='-190251' />
    <nd ref='-190249' />
    <nd ref='-190247' />
    <nd ref='-190245' />
    <nd ref='-190243' />
    <nd ref='-190241' />
    <nd ref='-190239' />
    <nd ref='-190237' />
    <nd ref='-190235' />
    <nd ref='-190233' />
    <nd ref='-190231' />
    <nd ref='-190229' />
    <nd ref='-190227' />
    <nd ref='-190225' />
    <nd ref='-190223' />
    <nd ref='-190221' />
    <nd ref='-190219' />
    <nd ref='-190217' />
    <nd ref='-190215' />
    <nd ref='-190213' />
    <nd ref='-190211' />
    <nd ref='-190209' />
    <nd ref='-190207' />
    <nd ref='-190205' />
    <nd ref='-190203' />
    <nd ref='-190201' />
    <nd ref='-190199' />
    <nd ref='-190197' />
    <nd ref='-190195' />
    <nd ref='-190193' />
    <nd ref='-190191' />
    <nd ref='-190189' />
    <nd ref='-190187' />
    <nd ref='-190185' />
    <nd ref='-190183' />
    <nd ref='-190181' />
    <nd ref='-190179' />
    <nd ref='-190177' />
    <nd ref='-190175' />
    <nd ref='-190173' />
    <nd ref='-190171' />
    <nd ref='-190169' />
    <tag k='name' v='Cape Hauy' />
    <tag k='park' v='Tasman National Park' />
    <tag k='photo' v='136319147@N08/47743787772' />
    <tag k='role' v='primary' />
    <tag k='style' v='return' />
    <tag k='transport' v='car' />
  </way>
</osm>
