<?xml version='1.0' encoding='UTF-8'?>
<osm version='0.6' upload='false' generator='JOSM'>
  <node id='-37091' action='modify' visible='true' lat='-33.8119839' lon='151.2049562' />
  <node id='-37092' action='modify' visible='true' lat='-33.8117517' lon='151.2047922' />
  <node id='-37093' action='modify' visible='true' lat='-33.8115749' lon='151.2047499' />
  <node id='-37094' action='modify' visible='true' lat='-33.8115036' lon='151.2047738' />
  <node id='-37095' action='modify' visible='true' lat='-33.8182477' lon='151.2085396' />
  <node id='-37096' action='modify' visible='true' lat='-33.8183181' lon='151.2084872' />
  <node id='-37097' action='modify' visible='true' lat='-33.8183506' lon='151.2084172' />
  <node id='-37098' action='modify' visible='true' lat='-33.8184092' lon='151.2082592' />
  <node id='-37099' action='modify' visible='true' lat='-33.8184429' lon='151.2081814' />
  <node id='-37100' action='modify' visible='true' lat='-33.8185097' lon='151.208058' />
  <node id='-37101' action='modify' visible='true' lat='-33.8185999' lon='151.2079188' />
  <node id='-37102' action='modify' visible='true' lat='-33.8186235' lon='151.207856' />
  <node id='-37104' action='modify' visible='true' lat='-33.8172293' lon='151.2087889' />
  <node id='-37105' action='modify' visible='true' lat='-33.8173333' lon='151.2087692' />
  <node id='-37106' action='modify' visible='true' lat='-33.8180115' lon='151.2086577' />
  <node id='-37107' action='modify' visible='true' lat='-33.8181764' lon='151.2085879' />
  <node id='-37108' action='modify' visible='true' lat='-33.8150288' lon='151.2090498' />
  <node id='-37109' action='modify' visible='true' lat='-33.8150887' lon='151.2090831' />
  <node id='-37110' action='modify' visible='true' lat='-33.8128988' lon='151.2058564'>
  </node>
  <node id='-37111' action='modify' visible='true' lat='-33.8128381' lon='151.2058272' />
  <node id='-37112' action='modify' visible='true' lat='-33.8127139' lon='151.2057594' />
  <node id='-37113' action='modify' visible='true' lat='-33.8126476' lon='151.2057675' />
  <node id='-37114' action='modify' visible='true' lat='-33.8125997' lon='151.2057735' />
  <node id='-37115' action='modify' visible='true' lat='-33.8125657' lon='151.2058064' />
  <node id='-37118' action='modify' visible='true' lat='-33.8191842' lon='151.207748' />
  <node id='-37119' action='modify' visible='true' lat='-33.8191515' lon='151.2077469' />
  <node id='-37120' action='modify' visible='true' lat='-33.818942' lon='151.207763' />
  <node id='-37121' action='modify' visible='true' lat='-33.8186969' lon='151.2078381' />
  <node id='-37133' action='modify' visible='true' lat='-33.8192859' lon='151.2077516' />
  <node id='-37134' action='modify' visible='true' lat='-33.8143557' lon='151.2064593' />
  <node id='-37135' action='modify' visible='true' lat='-33.8145953' lon='151.2065358' />
  <node id='-37136' action='modify' visible='true' lat='-33.8147729' lon='151.2065391' />
  <node id='-37137' action='modify' visible='true' lat='-33.815138' lon='151.2065391' />
  <node id='-37138' action='modify' visible='true' lat='-33.8153385' lon='151.2065106' />
  <node id='-37139' action='modify' visible='true' lat='-33.8154976' lon='151.2064821' />
  <node id='-37141' action='modify' visible='true' lat='-33.8150824' lon='151.2095079' />
  <node id='-37142' action='modify' visible='true' lat='-33.8151164' lon='151.2095826' />
  <node id='-37143' action='modify' visible='true' lat='-33.8152085' lon='151.2096776' />
  <node id='-37144' action='modify' visible='true' lat='-33.8153126' lon='151.2097958' />
  <node id='-37145' action='modify' visible='true' lat='-33.8154855' lon='151.2097712' />
  <node id='-37146' action='modify' visible='true' lat='-33.8155934' lon='151.2097261' />
  <node id='-37147' action='modify' visible='true' lat='-33.8156765' lon='151.2097214' />
  <node id='-37148' action='modify' visible='true' lat='-33.8157211' lon='151.2097167' />
  <node id='-37149' action='modify' visible='true' lat='-33.8157506' lon='151.2097341' />
  <node id='-37150' action='modify' visible='true' lat='-33.8157434' lon='151.2097676' />
  <node id='-37151' action='modify' visible='true' lat='-33.815747' lon='151.2098146' />
  <node id='-37152' action='modify' visible='true' lat='-33.812024' lon='151.2051133' />
  <node id='-37153' action='modify' visible='true' lat='-33.8121042' lon='151.2052857' />
  <node id='-37154' action='modify' visible='true' lat='-33.8122095' lon='151.205464' />
  <node id='-37155' action='modify' visible='true' lat='-33.8123755' lon='151.2055975' />
  <node id='-37156' action='modify' visible='true' lat='-33.8124602' lon='151.2056746' />
  <node id='-37157' action='modify' visible='true' lat='-33.8129194' lon='151.2062997' />
  <node id='-37158' action='modify' visible='true' lat='-33.8129101' lon='151.2064008' />
  <node id='-37159' action='modify' visible='true' lat='-33.8129196' lon='151.20649' />
  <node id='-37160' action='modify' visible='true' lat='-33.8129502' lon='151.2065296' />
  <node id='-37161' action='modify' visible='true' lat='-33.8129719' lon='151.2065443' />
  <node id='-37162' action='modify' visible='true' lat='-33.8130233' lon='151.2065384' />
  <node id='-37163' action='modify' visible='true' lat='-33.8130461' lon='151.2066145' />
  <node id='-37164' action='modify' visible='true' lat='-33.8130243' lon='151.2066395' />
  <node id='-37165' action='modify' visible='true' lat='-33.8130388' lon='151.2066761' />
  <node id='-37166' action='modify' visible='true' lat='-33.8130655' lon='151.2066992' />
  <node id='-37167' action='modify' visible='true' lat='-33.8130783' lon='151.2067022' />
  <node id='-37168' action='modify' visible='true' lat='-33.8131023' lon='151.2066891' />
  <node id='-37169' action='modify' visible='true' lat='-33.8131158' lon='151.2066535' />
  <node id='-37170' action='modify' visible='true' lat='-33.8176542' lon='151.2144954' />
  <node id='-37171' action='modify' visible='true' lat='-33.8178253' lon='151.2135727' />
  <node id='-37172' action='modify' visible='true' lat='-33.8179072' lon='151.2132046' />
  <node id='-37173' action='modify' visible='true' lat='-33.8179579' lon='151.2129658' />
  <node id='-37174' action='modify' visible='true' lat='-33.8180035' lon='151.2128512' />
  <node id='-37175' action='modify' visible='true' lat='-33.8180626' lon='151.2127788' />
  <node id='-37176' action='modify' visible='true' lat='-33.8180715' lon='151.2127674' />
  <node id='-37177' action='modify' visible='true' lat='-33.8180715' lon='151.2127151' />
  <node id='-37180' action='modify' visible='true' lat='-33.8152612' lon='151.2085469' />
  <node id='-37181' action='modify' visible='true' lat='-33.8153136' lon='151.2086828' />
  <node id='-37182' action='modify' visible='true' lat='-33.815536' lon='151.2089269' />
  <node id='-37183' action='modify' visible='true' lat='-33.8155952' lon='151.2091473' />
  <node id='-37184' action='modify' visible='true' lat='-33.8156116' lon='151.2093676' />
  <node id='-37185' action='modify' visible='true' lat='-33.8158384' lon='151.2093083' />
  <node id='-37186' action='modify' visible='true' lat='-33.8160222' lon='151.2093355' />
  <node id='-37187' action='modify' visible='true' lat='-33.8160096' lon='151.2092525' />
  <node id='-37188' action='modify' visible='true' lat='-33.8161839' lon='151.2092163' />
  <node id='-37189' action='modify' visible='true' lat='-33.8163089' lon='151.2092821' />
  <node id='-37190' action='modify' visible='true' lat='-33.8164108' lon='151.2092821' />
  <node id='-37191' action='modify' visible='true' lat='-33.816618' lon='151.2094104' />
  <node id='-37192' action='modify' visible='true' lat='-33.8168713' lon='151.2093939' />
  <node id='-37193' action='modify' visible='true' lat='-33.8169403' lon='151.2093413' />
  <node id='-37194' action='modify' visible='true' lat='-33.8171278' lon='151.2093051' />
  <node id='-37195' action='modify' visible='true' lat='-33.817178' lon='151.2092805' />
  <node id='-37196' action='modify' visible='true' lat='-33.8157523' lon='151.2098726' />
  <node id='-37197' action='modify' visible='true' lat='-33.8158046' lon='151.2099091' />
  <node id='-37198' action='modify' visible='true' lat='-33.8159689' lon='151.2099221' />
  <node id='-37199' action='modify' visible='true' lat='-33.8161682' lon='151.2099574' />
  <node id='-37200' action='modify' visible='true' lat='-33.816353' lon='151.2100621' />
  <node id='-37201' action='modify' visible='true' lat='-33.8165823' lon='151.2102669' />
  <node id='-37202' action='modify' visible='true' lat='-33.8167335' lon='151.2103723' />
  <node id='-37203' action='modify' visible='true' lat='-33.8168324' lon='151.2104274' />
  <node id='-37204' action='modify' visible='true' lat='-33.8169362' lon='151.2105001' />
  <node id='-37205' action='modify' visible='true' lat='-33.8170261' lon='151.2106039' />
  <node id='-37206' action='modify' visible='true' lat='-33.8171532' lon='151.2106293' />
  <node id='-37207' action='modify' visible='true' lat='-33.8172671' lon='151.2107417' />
  <node id='-37208' action='modify' visible='true' lat='-33.8173002' lon='151.2107842' />
  <node id='-37209' action='modify' visible='true' lat='-33.8173465' lon='151.2109511' />
  <node id='-37210' action='modify' visible='true' lat='-33.8173673' lon='151.2111317' />
  <node id='-37211' action='modify' visible='true' lat='-33.8173375' lon='151.2112791' />
  <node id='-37212' action='modify' visible='true' lat='-33.8178211' lon='151.2154823' />
  <node id='-37213' action='modify' visible='true' lat='-33.8177367' lon='151.2150365' />
  <node id='-37214' action='modify' visible='true' lat='-33.8176804' lon='151.2147381' />
  <node id='-37215' action='modify' visible='true' lat='-33.8172498' lon='151.2091705' />
  <node id='-37216' action='modify' visible='true' lat='-33.8172331' lon='151.2089664' />
  <node id='-37221' action='modify' visible='true' lat='-33.8131921' lon='151.2066054' />
  <node id='-37222' action='modify' visible='true' lat='-33.8131619' lon='151.2066464' />
  <node id='-37224' action='modify' visible='true' lat='-33.8130332' lon='151.2065692'>
  </node>
  <node id='-37228' action='modify' visible='true' lat='-33.8128661' lon='151.2062198' />
  <node id='-37229' action='modify' visible='true' lat='-33.8128598' lon='151.2060559'>
  </node>
  <node id='-37230' action='modify' visible='true' lat='-33.812874' lon='151.2059161'>
  </node>
  <node id='-37232' action='modify' visible='true' lat='-33.8170215' lon='151.2125277' />
  <node id='-37233' action='modify' visible='true' lat='-33.8169614' lon='151.2124526' />
  <node id='-37234' action='modify' visible='true' lat='-33.816866' lon='151.2124088' />
  <node id='-37235' action='modify' visible='true' lat='-33.8168519' lon='151.2123626' />
  <node id='-37236' action='modify' visible='true' lat='-33.8168914' lon='151.2121836' />
  <node id='-37237' action='modify' visible='true' lat='-33.8169417' lon='151.2120297' />
  <node id='-37238' action='modify' visible='true' lat='-33.8169487' lon='151.2120191' />
  <node id='-37239' action='modify' visible='true' lat='-33.8170227' lon='151.2119067' />
  <node id='-37240' action='modify' visible='true' lat='-33.8171261' lon='151.2117626' />
  <node id='-37241' action='modify' visible='true' lat='-33.8172353' lon='151.21155' />
  <node id='-37250' action='modify' visible='true' lat='-33.8140652' lon='151.206271' />
  <node id='-37251' action='modify' visible='true' lat='-33.814103' lon='151.2063193' />
  <node id='-37252' action='modify' visible='true' lat='-33.8141713' lon='151.2063845' />
  <node id='-37253' action='modify' visible='true' lat='-33.8142455' lon='151.2064319' />
  <node id='-37265' action='modify' visible='true' lat='-33.8138996' lon='151.2064569' />
  <node id='-37266' action='modify' visible='true' lat='-33.8137837' lon='151.206536' />
  <node id='-37267' action='modify' visible='true' lat='-33.8136801' lon='151.2065521' />
  <node id='-37268' action='modify' visible='true' lat='-33.8135352' lon='151.2065253' />
  <node id='-37269' action='modify' visible='true' lat='-33.8133714' lon='151.2065843' />
  <node id='-37270' action='modify' visible='true' lat='-33.8193807' lon='151.2084171' />
  <node id='-37271' action='modify' visible='true' lat='-33.819384' lon='151.208108' />
  <node id='-37272' action='modify' visible='true' lat='-33.8194432' lon='151.2079961' />
  <node id='-37281' action='modify' visible='true' lat='-33.8174061' lon='151.2161047' />
  <node id='-37282' action='modify' visible='true' lat='-33.8172772' lon='151.2158801' />
  <node id='-37283' action='modify' visible='true' lat='-33.8170225' lon='151.2155295' />
  <node id='-37284' action='modify' visible='true' lat='-33.8167707' lon='151.2152035' />
  <node id='-37285' action='modify' visible='true' lat='-33.8166706' lon='151.2150815' />
  <node id='-37286' action='modify' visible='true' lat='-33.8166416' lon='151.2150186' />
  <node id='-37287' action='modify' visible='true' lat='-33.8166148' lon='151.214929' />
  <node id='-37288' action='modify' visible='true' lat='-33.8166032' lon='151.2148353' />
  <node id='-37289' action='modify' visible='true' lat='-33.8166532' lon='151.2142899' />
  <node id='-37290' action='modify' visible='true' lat='-33.8167624' lon='151.2139948' />
  <node id='-37291' action='modify' visible='true' lat='-33.8168647' lon='151.2137374' />
  <node id='-37292' action='modify' visible='true' lat='-33.8169518' lon='151.2133193' />
  <node id='-37293' action='modify' visible='true' lat='-33.8169948' lon='151.2130647' />
  <node id='-37294' action='modify' visible='true' lat='-33.8170064' lon='151.2126717' />
  <node id='-37295' action='modify' visible='true' lat='-33.8196307' lon='151.2084796' />
  <node id='-37296' action='modify' visible='true' lat='-33.8197472' lon='151.2085372' />
  <node id='-37297' action='modify' visible='true' lat='-33.8155017' lon='151.2065334' />
  <node id='-37298' action='modify' visible='true' lat='-33.8154781' lon='151.2065897' />
  <node id='-37299' action='modify' visible='true' lat='-33.8154998' lon='151.2069075' />
  <node id='-37300' action='modify' visible='true' lat='-33.8156379' lon='151.2072824' />
  <node id='-37301' action='modify' visible='true' lat='-33.8159231' lon='151.207478' />
  <node id='-37302' action='modify' visible='true' lat='-33.8159173' lon='151.2076116' />
  <node id='-37303' action='modify' visible='true' lat='-33.8158254' lon='151.2078942' />
  <node id='-37304' action='modify' visible='true' lat='-33.8158083' lon='151.2079054' />
  <node id='-37305' action='modify' visible='true' lat='-33.815791' lon='151.2078936' />
  <node id='-37306' action='modify' visible='true' lat='-33.8157388' lon='151.2079276' />
  <node id='-37307' action='modify' visible='true' lat='-33.815536' lon='151.2082527' />
  <node id='-37308' action='modify' visible='true' lat='-33.8154274' lon='151.2082461' />
  <node id='-37309' action='modify' visible='true' lat='-33.8153551' lon='151.2081968' />
  <node id='-37310' action='modify' visible='true' lat='-33.8153152' lon='151.2081735' />
  <node id='-37311' action='modify' visible='true' lat='-33.8152794' lon='151.2082198' />
  <node id='-37318' action='modify' visible='true' lat='-33.8194399' lon='151.2085618' />
  <node id='-37319' action='modify' visible='true' lat='-33.8195123' lon='151.2085618' />
  <node id='-37320' action='modify' visible='true' lat='-33.8131991' lon='151.2067707' />
  <node id='-37321' action='modify' visible='true' lat='-33.8132218' lon='151.206809' />
  <node id='-37322' action='modify' visible='true' lat='-33.8132735' lon='151.2068545' />
  <node id='-37323' action='modify' visible='true' lat='-33.8135925' lon='151.2071826' />
  <node id='-37324' action='modify' visible='true' lat='-33.8137549' lon='151.2072564' />
  <node id='-37325' action='modify' visible='true' lat='-33.8138705' lon='151.2076032' />
  <node id='-37326' action='modify' visible='true' lat='-33.8139517' lon='151.2076032' />
  <node id='-37327' action='modify' visible='true' lat='-33.8141361' lon='151.2077041' />
  <node id='-37328' action='modify' visible='true' lat='-33.8142542' lon='151.2079058' />
  <node id='-37329' action='modify' visible='true' lat='-33.8142911' lon='151.2080829' />
  <node id='-37330' action='modify' visible='true' lat='-33.8144609' lon='151.2080189' />
  <node id='-37331' action='modify' visible='true' lat='-33.8145863' lon='151.2077754' />
  <node id='-37332' action='modify' visible='true' lat='-33.8146552' lon='151.2077311' />
  <node id='-37333' action='modify' visible='true' lat='-33.8146675' lon='151.2078049' />
  <node id='-37334' action='modify' visible='true' lat='-33.8146872' lon='151.207982' />
  <node id='-37335' action='modify' visible='true' lat='-33.8148102' lon='151.2080017' />
  <node id='-37336' action='modify' visible='true' lat='-33.814879' lon='151.2080362' />
  <node id='-37337' action='modify' visible='true' lat='-33.8149012' lon='151.2081469' />
  <node id='-37338' action='modify' visible='true' lat='-33.814911' lon='151.2082895' />
  <node id='-37339' action='modify' visible='true' lat='-33.8149061' lon='151.2083756' />
  <node id='-37340' action='modify' visible='true' lat='-33.8149602' lon='151.2086438' />
  <node id='-37341' action='modify' visible='true' lat='-33.8149504' lon='151.2088135' />
  <node id='-37342' action='modify' visible='true' lat='-33.8149282' lon='151.2089488' />
  <node id='-37343' action='modify' visible='true' lat='-33.8149896' lon='151.2090164' />
  <node id='-37344' action='modify' visible='true' lat='-33.8174374' lon='151.215935' />
  <node id='-37345' action='modify' visible='true' lat='-33.81743' lon='151.2158907' />
  <node id='-37346' action='modify' visible='true' lat='-33.8174816' lon='151.2158439' />
  <node id='-37347' action='modify' visible='true' lat='-33.8174521' lon='151.2157726' />
  <node id='-37348' action='modify' visible='true' lat='-33.8174989' lon='151.2157037' />
  <node id='-37349' action='modify' visible='true' lat='-33.8175481' lon='151.2157234' />
  <node id='-37350' action='modify' visible='true' lat='-33.8177621' lon='151.2155684' />
  <node id='-37473' action='modify' visible='true' lat='-33.81319255871' lon='151.20672068047' />
  <node id='-37574' action='modify' visible='true' lat='-33.81826120097' lon='151.21271877038' />
  <node id='-37576' action='modify' visible='true' lat='-33.81848069792' lon='151.2126356219' />
  <node id='-37578' action='modify' visible='true' lat='-33.81855980583' lon='151.21254979121' />
  <node id='-37580' action='modify' visible='true' lat='-33.81872178181' lon='151.21207135218' />
  <node id='-37582' action='modify' visible='true' lat='-33.81861593339' lon='151.21201100247' />
  <node id='-37584' action='modify' visible='true' lat='-33.81868055666' lon='151.21179508465' />
  <node id='-37586' action='modify' visible='true' lat='-33.81876746372' lon='151.21153491037' />
  <node id='-37588' action='modify' visible='true' lat='-33.81896133301' lon='151.21123986738' />
  <node id='-37590' action='modify' visible='true' lat='-33.81941814972' lon='151.21084021824' />
  <node id='-37592' action='modify' visible='true' lat='-33.81929558938' lon='151.20994167822' />
  <node id='-37594' action='modify' visible='true' lat='-33.81933347168' lon='151.20978611009' />
  <node id='-37596' action='modify' visible='true' lat='-33.81942929156' lon='151.20974587696' />
  <node id='-37598' action='modify' visible='true' lat='-33.81965435642' lon='151.2096680929' />
  <node id='-37600' action='modify' visible='true' lat='-33.81975686101' lon='151.20959835546' />
  <node id='-37602' action='modify' visible='true' lat='-33.81971452218' lon='151.20909946459' />
  <node id='-37604' action='modify' visible='true' lat='-33.81975463265' lon='151.208925121' />
  <node id='-37707' action='modify' visible='true' lat='-33.81319074803' lon='151.20660065161' />
  <node id='-37709' action='modify' visible='true' lat='-33.81314673455' lon='151.20649772184' />
  <node id='-37711' action='modify' visible='true' lat='-33.81303865069' lon='151.2064856519' />
  <node id='-37718' action='modify' visible='true' lat='-33.81150118978' lon='151.20476338453' />
  <node id='-37719' action='modify' visible='true' lat='-33.8129264048' lon='151.20629293105' />
  <node id='-37721' action='modify' visible='true' lat='-33.81157455194' lon='151.20473879329' />
  <node id='-37722' action='modify' visible='true' lat='-33.81175493879' lon='151.20478195145' />
  <node id='-37723' action='modify' visible='true' lat='-33.81199146083' lon='151.20494900407' />
  <node id='-37724' action='modify' visible='true' lat='-33.81203230601' lon='151.20510902346' />
  <node id='-37725' action='modify' visible='true' lat='-33.81211180211' lon='151.20527991035' />
  <node id='-37726' action='modify' visible='true' lat='-33.81221586474' lon='151.20545611518' />
  <node id='-37727' action='modify' visible='true' lat='-33.81238070931' lon='151.20558868597' />
  <node id='-37728' action='modify' visible='true' lat='-33.81246618064' lon='151.2056664881' />
  <node id='-37729' action='modify' visible='true' lat='-33.81256647158' lon='151.20579178048' />
  <node id='-37730' action='modify' visible='true' lat='-33.81259613558' lon='151.2057630762' />
  <node id='-37731' action='modify' visible='true' lat='-33.81264668145' lon='151.20575674478' />
  <node id='-37732' action='modify' visible='true' lat='-33.8127154037' lon='151.20574834885' />
  <node id='-37733' action='modify' visible='true' lat='-33.81284162413' lon='151.20581725179' />
  <node id='-37734' action='modify' visible='true' lat='-33.81291120188' lon='151.20585072248'>
  </node>
  <node id='-37735' action='modify' visible='true' lat='-33.81288272854' lon='151.20591926516'>
  </node>
  <node id='-37736' action='modify' visible='true' lat='-33.81286880849' lon='151.20605630905'>
  </node>
  <node id='-37737' action='modify' visible='true' lat='-33.81287493822' lon='151.20621577947' />
  <node id='-37769' action='modify' visible='true' lat='-33.81802464223' lon='151.21268348256' />
  <node id='-37771' action='modify' visible='true' lat='-33.81611822091' lon='151.21216983954' />
  <way id='-37716' action='modify' visible='true'>
    <nd ref='-37094' />
    <nd ref='-37093' />
    <nd ref='-37092' />
    <nd ref='-37091' />
    <nd ref='-37152' />
    <nd ref='-37153' />
    <nd ref='-37154' />
    <nd ref='-37155' />
    <nd ref='-37156' />
    <nd ref='-37115' />
    <nd ref='-37114' />
    <nd ref='-37113' />
    <nd ref='-37112' />
    <nd ref='-37111' />
    <nd ref='-37110' />
    <nd ref='-37230' />
    <nd ref='-37229' />
    <nd ref='-37228' />
    <nd ref='-37157' />
    <nd ref='-37158' />
    <nd ref='-37159' />
    <nd ref='-37160' />
    <nd ref='-37161' />
    <nd ref='-37162' />
    <nd ref='-37224' />
    <nd ref='-37163' />
    <nd ref='-37164' />
    <nd ref='-37165' />
    <nd ref='-37166' />
    <nd ref='-37167' />
    <nd ref='-37168' />
    <nd ref='-37169' />
    <nd ref='-37222' />
    <nd ref='-37221' />
    <nd ref='-37473' />
    <nd ref='-37320' />
    <nd ref='-37321' />
    <nd ref='-37322' />
    <nd ref='-37323' />
    <nd ref='-37324' />
    <nd ref='-37325' />
    <nd ref='-37326' />
    <nd ref='-37327' />
    <nd ref='-37328' />
    <nd ref='-37329' />
    <nd ref='-37330' />
    <nd ref='-37331' />
    <nd ref='-37332' />
    <nd ref='-37333' />
    <nd ref='-37334' />
    <nd ref='-37335' />
    <nd ref='-37336' />
    <nd ref='-37337' />
    <nd ref='-37338' />
    <nd ref='-37339' />
    <nd ref='-37340' />
    <nd ref='-37341' />
    <nd ref='-37342' />
    <nd ref='-37343' />
    <nd ref='-37108' />
    <nd ref='-37109' />
    <nd ref='-37141' />
    <nd ref='-37142' />
    <nd ref='-37143' />
    <nd ref='-37144' />
    <nd ref='-37145' />
    <nd ref='-37146' />
    <nd ref='-37147' />
    <nd ref='-37148' />
    <nd ref='-37149' />
    <nd ref='-37150' />
    <nd ref='-37151' />
    <nd ref='-37196' />
    <nd ref='-37197' />
    <nd ref='-37198' />
    <nd ref='-37199' />
    <nd ref='-37200' />
    <nd ref='-37201' />
    <nd ref='-37202' />
    <nd ref='-37203' />
    <nd ref='-37204' />
    <nd ref='-37205' />
    <nd ref='-37206' />
    <nd ref='-37207' />
    <nd ref='-37208' />
    <nd ref='-37209' />
    <nd ref='-37210' />
    <nd ref='-37211' />
    <nd ref='-37241' />
    <nd ref='-37240' />
    <nd ref='-37239' />
    <nd ref='-37238' />
    <nd ref='-37237' />
    <nd ref='-37236' />
    <nd ref='-37235' />
    <nd ref='-37234' />
    <nd ref='-37233' />
    <nd ref='-37232' />
    <nd ref='-37294' />
    <nd ref='-37293' />
    <nd ref='-37292' />
    <nd ref='-37291' />
    <nd ref='-37290' />
    <nd ref='-37289' />
    <nd ref='-37288' />
    <nd ref='-37287' />
    <nd ref='-37286' />
    <nd ref='-37285' />
    <nd ref='-37284' />
    <nd ref='-37283' />
    <nd ref='-37282' />
    <nd ref='-37281' />
    <nd ref='-37344' />
    <nd ref='-37345' />
    <nd ref='-37346' />
    <nd ref='-37347' />
    <nd ref='-37348' />
    <nd ref='-37349' />
    <nd ref='-37350' />
    <nd ref='-37212' />
    <nd ref='-37213' />
    <nd ref='-37214' />
    <nd ref='-37170' />
    <nd ref='-37171' />
    <nd ref='-37172' />
    <nd ref='-37173' />
    <nd ref='-37174' />
    <nd ref='-37175' />
    <nd ref='-37176' />
    <nd ref='-37177' />
    <nd ref='-37574' />
    <nd ref='-37576' />
    <nd ref='-37578' />
    <nd ref='-37580' />
    <nd ref='-37582' />
    <nd ref='-37584' />
    <nd ref='-37586' />
    <nd ref='-37588' />
    <nd ref='-37590' />
    <nd ref='-37592' />
    <nd ref='-37594' />
    <nd ref='-37596' />
    <nd ref='-37598' />
    <nd ref='-37600' />
    <nd ref='-37602' />
    <nd ref='-37604' />
    <nd ref='-37296' />
    <nd ref='-37295' />
    <nd ref='-37319' />
    <nd ref='-37318' />
    <nd ref='-37270' />
    <nd ref='-37271' />
    <nd ref='-37272' />
    <nd ref='-37133' />
    <nd ref='-37118' />
    <nd ref='-37119' />
    <nd ref='-37120' />
    <nd ref='-37121' />
    <nd ref='-37102' />
    <nd ref='-37101' />
    <nd ref='-37100' />
    <nd ref='-37099' />
    <nd ref='-37098' />
    <nd ref='-37097' />
    <nd ref='-37096' />
    <nd ref='-37095' />
    <nd ref='-37107' />
    <nd ref='-37106' />
    <nd ref='-37105' />
    <nd ref='-37104' />
    <nd ref='-37216' />
    <nd ref='-37215' />
    <nd ref='-37195' />
    <nd ref='-37194' />
    <nd ref='-37193' />
    <nd ref='-37192' />
    <nd ref='-37191' />
    <nd ref='-37190' />
    <nd ref='-37189' />
    <nd ref='-37188' />
    <nd ref='-37187' />
    <nd ref='-37186' />
    <nd ref='-37185' />
    <nd ref='-37184' />
    <nd ref='-37183' />
    <nd ref='-37182' />
    <nd ref='-37181' />
    <nd ref='-37180' />
    <nd ref='-37311' />
    <nd ref='-37310' />
    <nd ref='-37309' />
    <nd ref='-37308' />
    <nd ref='-37307' />
    <nd ref='-37306' />
    <nd ref='-37305' />
    <nd ref='-37304' />
    <nd ref='-37303' />
    <nd ref='-37302' />
    <nd ref='-37301' />
    <nd ref='-37300' />
    <nd ref='-37299' />
    <nd ref='-37298' />
    <nd ref='-37297' />
    <nd ref='-37139' />
    <nd ref='-37138' />
    <nd ref='-37137' />
    <nd ref='-37136' />
    <nd ref='-37135' />
    <nd ref='-37134' />
    <nd ref='-37253' />
    <nd ref='-37252' />
    <nd ref='-37251' />
    <nd ref='-37250' />
    <nd ref='-37265' />
    <nd ref='-37266' />
    <nd ref='-37267' />
    <nd ref='-37268' />
    <nd ref='-37269' />
    <nd ref='-37707' />
    <nd ref='-37709' />
    <nd ref='-37711' />
    <nd ref='-37719' />
    <nd ref='-37737' />
    <nd ref='-37736' />
    <nd ref='-37735' />
    <nd ref='-37734' />
    <nd ref='-37733' />
    <nd ref='-37732' />
    <nd ref='-37731' />
    <nd ref='-37730' />
    <nd ref='-37729' />
    <nd ref='-37728' />
    <nd ref='-37727' />
    <nd ref='-37726' />
    <nd ref='-37725' />
    <nd ref='-37724' />
    <nd ref='-37723' />
    <nd ref='-37722' />
    <nd ref='-37721' />
    <nd ref='-37718' />
    <tag k='name' v='Flat Rock Gully Loop' />
    <tag k='park' v='Flat Rock Gully' />
    <tag k='photo' v='136319147@N08/32793154724' />
    <tag k='role' v='primary' />
    <tag k='style' v='loop' />
    <tag k='transport' v='car;train+bus' />
  </way>
  <way id='-37770' action='modify' visible='true'>
    <nd ref='-37177' />
    <nd ref='-37769' />
    <nd ref='-37771' />
    <tag k='name' v='Long Gully Bridge' />
    <tag k='role' v='sidetrack' />
    <tag k='style' v='return' />
  </way>
</osm>
