<?xml version='1.0' encoding='UTF-8'?>
<osm version='0.6' upload='false' generator='JOSM'>
  <node id='-40811' action='modify' lat='-33.59895831693' lon='151.32419397222' />
  <node id='-40813' action='modify' lat='-33.59872597064' lon='151.3249020754' />
  <node id='-40815' action='modify' lat='-33.59930460109' lon='151.32544119941' />
  <node id='-40817' action='modify' lat='-33.60030099808' lon='151.32685204136' />
  <node id='-40819' action='modify' lat='-33.60034344523' lon='151.3274904071' />
  <node id='-40821' action='modify' lat='-33.60001392075' lon='151.32782702433' />
  <node id='-40823' action='modify' lat='-33.60001280372' lon='151.32799332129' />
  <node id='-40825' action='modify' lat='-33.59994243053' lon='151.32821460354' />
  <node id='-40827' action='modify' lat='-33.6006456' lon='151.3289784' />
  <node id='-40829' action='modify' lat='-33.6006912' lon='151.3290117' />
  <node id='-40831' action='modify' lat='-33.600753' lon='151.3290426' />
  <node id='-40833' action='modify' lat='-33.601223' lon='151.3292105' />
  <node id='-40835' action='modify' lat='-33.6017676' lon='151.3295656' />
  <node id='-40837' action='modify' lat='-33.6018379' lon='151.3296238' />
  <node id='-40839' action='modify' lat='-33.6018855' lon='151.3297288' />
  <node id='-40841' action='modify' lat='-33.6019357' lon='151.3298832' />
  <node id='-40843' action='modify' lat='-33.6019673' lon='151.3301718' />
  <node id='-40845' action='modify' lat='-33.6020753' lon='151.330347' />
  <node id='-40847' action='modify' lat='-33.6022157' lon='151.3304726' />
  <node id='-40849' action='modify' lat='-33.602904' lon='151.3309152' />
  <node id='-40851' action='modify' lat='-33.6029987' lon='151.3311046' />
  <node id='-40853' action='modify' lat='-33.6030638' lon='151.3314172' />
  <node id='-40855' action='modify' lat='-33.6031324' lon='151.3316692' />
  <node id='-40857' action='modify' lat='-33.603195' lon='151.3317896' />
  <node id='-40859' action='modify' lat='-33.603273' lon='151.3319067' />
  <node id='-40861' action='modify' lat='-33.6033824' lon='151.3319889' />
  <node id='-40863' action='modify' lat='-33.6034815' lon='151.3320226' />
  <node id='-40865' action='modify' lat='-33.6036425' lon='151.3320453' />
  <node id='-40867' action='modify' lat='-33.6038511' lon='151.3320754' />
  <node id='-40869' action='modify' lat='-33.6041808' lon='151.3322112' />
  <node id='-40871' action='modify' lat='-33.6042373' lon='151.3322509' />
  <node id='-40873' action='modify' lat='-33.6043277' lon='151.3323607' />
  <node id='-40875' action='modify' lat='-33.6044193' lon='151.3325963' />
  <node id='-40877' action='modify' lat='-33.6045614' lon='151.3333302' />
  <node id='-40879' action='modify' lat='-33.6046561' lon='151.3338511' />
  <node id='-40881' action='modify' lat='-33.6047508' lon='151.3340642' />
  <node id='-40883' action='modify' lat='-33.6049165' lon='151.3342063' />
  <node id='-40885' action='modify' lat='-33.605248' lon='151.334372' />
  <node id='-40887' action='modify' lat='-33.6053807' lon='151.3344738' />
  <node id='-40889' action='modify' lat='-33.6055233' lon='151.3346344' />
  <node id='-40891' action='modify' lat='-33.6058636' lon='151.3349639' />
  <node id='-40893' action='modify' lat='-33.606196' lon='151.3350907' />
  <node id='-40895' action='modify' lat='-33.6064407' lon='151.3351698' />
  <node id='-40897' action='modify' lat='-33.6065963' lon='151.3352013' />
  <node id='-40899' action='modify' lat='-33.6066721' lon='151.3351666' />
  <node id='-40901' action='modify' lat='-33.6067422' lon='151.3350294' />
  <node id='-40903' action='modify' lat='-33.6067831' lon='151.3349131' />
  <node id='-40905' action='modify' lat='-33.6068212' lon='151.3347008' />
  <node id='-40907' action='modify' lat='-33.6068337' lon='151.3344746' />
  <node id='-40909' action='modify' lat='-33.6067736' lon='151.3341549' />
  <node id='-40911' action='modify' lat='-33.6066213' lon='151.3336854' />
  <node id='-40913' action='modify' lat='-33.6065959' lon='151.3332079' />
  <node id='-40915' action='modify' lat='-33.6065846' lon='151.3330128' />
  <node id='-40917' action='modify' lat='-33.6066411' lon='151.332833' />
  <node id='-40919' action='modify' lat='-33.6067841' lon='151.3326005' />
  <node id='-40921' action='modify' lat='-33.6068484' lon='151.3324147' />
  <node id='-40923' action='modify' lat='-33.6068189' lon='151.3322316' />
  <node id='-40925' action='modify' lat='-33.6067763' lon='151.3319157' />
  <node id='-40927' action='modify' lat='-33.6068287' lon='151.3316885' />
  <node id='-40929' action='modify' lat='-33.6069096' lon='151.3315813' />
  <node id='-40931' action='modify' lat='-33.6076275' lon='151.3323758' />
  <node id='-40933' action='modify' lat='-33.60795120081' lon='151.33245517599' />
  <node id='-40935' action='modify' lat='-33.6085275355' lon='151.33228351461' />
  <node id='-40937' action='modify' lat='-33.60984102807' lon='151.33177121269' />
  <node id='-40939' action='modify' lat='-33.61042405152' lon='151.33152444946' />
  <node id='-40941' action='modify' lat='-33.6113175664' lon='151.33143593656' />
  <node id='-40943' action='modify' lat='-33.61198546273' lon='151.33135547029' />
  <node id='-40945' action='modify' lat='-33.61290464937' lon='151.33132596599' />
  <node id='-40947' action='modify' lat='-33.6132575787' lon='151.33147482859' />
  <node id='-40949' action='modify' lat='-33.6134345' lon='151.3314568' />
  <node id='-40951' action='modify' lat='-33.61368677805' lon='151.33141072458' />
  <node id='-40953' action='modify' lat='-33.6137482' lon='151.3300923' />
  <node id='-40955' action='modify' lat='-33.6138722' lon='151.3301603' />
  <node id='-40957' action='modify' lat='-33.6141209' lon='151.3302937' />
  <node id='-40959' action='modify' lat='-33.6144168' lon='151.3305778' />
  <node id='-40961' action='modify' lat='-33.6146417' lon='151.3308619' />
  <node id='-40963' action='modify' lat='-33.6148075' lon='151.3310632' />
  <node id='-40965' action='modify' lat='-33.6148667' lon='151.3311934' />
  <node id='-40967' action='modify' lat='-33.6148903' lon='151.3314065' />
  <node id='-40969' action='modify' lat='-33.6148903' lon='151.3318208' />
  <node id='-40971' action='modify' lat='-33.6149022' lon='151.3320221' />
  <node id='-40973' action='modify' lat='-33.614956' lon='151.3321509' />
  <node id='-40975' action='modify' lat='-33.6150324' lon='151.3321538' />
  <node id='-40977' action='modify' lat='-33.6151385' lon='151.3321085' />
  <node id='-40979' action='modify' lat='-33.6156006' lon='151.3319037' />
  <node id='-40981' action='modify' lat='-33.6158611' lon='151.331809' />
  <node id='-40983' action='modify' lat='-33.6160623' lon='151.331809' />
  <node id='-40985' action='modify' lat='-33.6164057' lon='151.3320458' />
  <node id='-40987' action='modify' lat='-33.6167253' lon='151.3324246' />
  <node id='-40989' action='modify' lat='-33.6169739' lon='151.3328271' />
  <node id='-40991' action='modify' lat='-33.6172225' lon='151.3331941' />
  <node id='-40993' action='modify' lat='-33.6174237' lon='151.3335966' />
  <node id='-40995' action='modify' lat='-33.6175421' lon='151.3340109' />
  <node id='-40997' action='modify' lat='-33.6176842' lon='151.3344845' />
  <node id='-40999' action='modify' lat='-33.6177907' lon='151.3349935' />
  <node id='-41001' action='modify' lat='-33.6178144' lon='151.3353132' />
  <node id='-41003' action='modify' lat='-33.6178585' lon='151.3355337' />
  <node id='-41005' action='modify' lat='-33.6180014' lon='151.3358017' />
  <node id='-41007' action='modify' lat='-33.618177' lon='151.336014' />
  <node id='-41009' action='modify' lat='-33.619063' lon='151.3370998' />
  <node id='-41011' action='modify' lat='-33.6194217' lon='151.3375579' />
  <node id='-41013' action='modify' lat='-33.6197441' lon='151.3379649' />
  <node id='-41015' action='modify' lat='-33.6199377' lon='151.3381516' />
  <node id='-41017' action='modify' lat='-33.6200539' lon='151.3382267' />
  <node id='-41019' action='modify' lat='-33.6204291' lon='151.3382643' />
  <node id='-41021' action='modify' lat='-33.6206748' lon='151.3382804' />
  <node id='-41023' action='modify' lat='-33.621022' lon='151.3381973' />
  <node id='-41025' action='modify' lat='-33.6211414' lon='151.3386281' />
  <node id='-41027' action='modify' lat='-33.6211616' lon='151.338996' />
  <node id='-41029' action='modify' lat='-33.6210137' lon='151.3392122' />
  <node id='-41031' action='modify' lat='-33.6210868' lon='151.3394504' />
  <node id='-41033' action='modify' lat='-33.6212721' lon='151.339579' />
  <node id='-41035' action='modify' lat='-33.6218261' lon='151.3397409' />
  <node id='-41037' action='modify' lat='-33.621922' lon='151.3396605' />
  <node id='-41039' action='modify' lat='-33.6221857' lon='151.3400303' />
  <node id='-41041' action='modify' lat='-33.6223084' lon='151.3402686' />
  <node id='-41043' action='modify' lat='-33.6225067' lon='151.3403563' />
  <node id='-41045' action='modify' lat='-33.622543' lon='151.3404556' />
  <node id='-41047' action='modify' lat='-33.6227926' lon='151.3406338' />
  <node id='-41049' action='modify' lat='-33.6231354' lon='151.3409395' />
  <node id='-41051' action='modify' lat='-33.6233762' lon='151.3411526' />
  <node id='-41053' action='modify' lat='-33.6235522' lon='151.3412267' />
  <node id='-41055' action='modify' lat='-33.6238023' lon='151.3409951' />
  <node id='-41057' action='modify' lat='-33.6241552' lon='151.34046' />
  <node id='-41059' action='modify' lat='-33.6246854' lon='151.3404398' />
  <node id='-41061' action='modify' lat='-33.6248039' lon='151.3402354' />
  <node id='-41063' action='modify' lat='-33.6250127' lon='151.3402892' />
  <node id='-41065' action='modify' lat='-33.6251272' lon='151.3402214' />
  <node id='-41067' action='modify' lat='-33.6254681' lon='151.3402082' />
  <node id='-41069' action='modify' lat='-33.6264146' lon='151.3397075' />
  <node id='-41071' action='modify' lat='-33.6267759' lon='151.3395685' />
  <node id='-41073' action='modify' lat='-33.6281654' lon='151.339059' />
  <node id='-41075' action='modify' lat='-33.6281469' lon='151.3386607' />
  <node id='-41077' action='modify' lat='-33.6281329799' lon='151.33854244419' />
  <node id='-41079' action='modify' lat='-33.62987932215' lon='151.33833459197' />
  <node id='-41081' action='modify' lat='-33.63053144167' lon='151.33844724475' />
  <node id='-41083' action='modify' lat='-33.63131308529' lon='151.33878788529' />
  <node id='-41085' action='modify' lat='-33.63181110023' lon='151.33881202517' />
  <node id='-41087' action='modify' lat='-33.63223988209' lon='151.33851698218' />
  <node id='-41089' action='modify' lat='-33.63262176414' lon='151.33759162007' />
  <node id='-41091' action='modify' lat='-33.6325293' lon='151.3351559' />
  <node id='-41093' action='modify' lat='-33.6329162' lon='151.3349914' />
  <node id='-41095' action='modify' lat='-33.6332489' lon='151.3349986' />
  <node id='-41097' action='modify' lat='-33.63335202509' lon='151.33476188956' />
  <node id='-41099' action='modify' lat='-33.63348601725' lon='151.3342978674' />
  <node id='-41101' action='modify' lat='-33.63446192056' lon='151.33329472123' />
  <node id='-41103' action='modify' lat='-33.63538421717' lon='151.33241227446' />
  <node id='-41105' action='modify' lat='-33.63594027017' lon='151.33207163392' />
  <node id='-41107' action='modify' lat='-33.63662919029' lon='151.33171758233' />
  <node id='-41109' action='modify' lat='-33.63679220785' lon='151.33143595038' />
  <node id='-41111' action='modify' lat='-33.636942943' lon='151.33138901173' />
  <node id='-41113' action='modify' lat='-33.63702780119' lon='151.33105708836' />
  <node id='-41115' action='modify' lat='-33.63709758582' lon='151.33105105339' />
  <node id='-41117' action='modify' lat='-33.6373137' lon='151.3314077' />
  <node id='-41119' action='modify' lat='-33.637541' lon='151.3314969' />
  <node id='-41121' action='modify' lat='-33.6377775' lon='151.3314793' />
  <node id='-41123' action='modify' lat='-33.6382894' lon='151.3311848' />
  <node id='-41125' action='modify' lat='-33.6384558' lon='151.3310987' />
  <node id='-41127' action='modify' lat='-33.6385856' lon='151.3310989' />
  <node id='-41129' action='modify' lat='-33.6388511' lon='151.3312051' />
  <node id='-41131' action='modify' lat='-33.6389987' lon='151.3312598' />
  <node id='-41133' action='modify' lat='-33.6390992' lon='151.3312491' />
  <node id='-41135' action='modify' lat='-33.6392935' lon='151.3312169' />
  <node id='-41137' action='modify' lat='-33.63932568045' lon='151.33121022465' />
  <node id='-41139' action='modify' lat='-33.63944789922' lon='151.33153385101' />
  <node id='-41141' action='modify' lat='-33.63970246613' lon='151.33190936027' />
  <node id='-41143' action='modify' lat='-33.64006645085' lon='151.33215344129' />
  <node id='-41145' action='modify' lat='-33.64057111423' lon='151.33228218733' />
  <node id='-41147' action='modify' lat='-33.64111820172' lon='151.33229559837' />
  <node id='-41149' action='modify' lat='-33.6415313063' lon='151.33206224619' />
  <node id='-41151' action='modify' lat='-33.64160164553' lon='151.33206090508' />
  <node id='-41153' action='modify' lat='-33.64168649913' lon='151.33221244989' />
  <node id='-41155' action='modify' lat='-33.64178586705' lon='151.33229962169' />
  <node id='-41157' action='modify' lat='-33.64195892327' lon='151.33238545237' />
  <node id='-41159' action='modify' lat='-33.64226260819' lon='151.33235863028' />
  <node id='-41161' action='modify' lat='-33.64240886782' lon='151.33233851372' />
  <node id='-41163' action='modify' lat='-33.64254396238' lon='151.33240825115' />
  <node id='-41165' action='modify' lat='-33.64271813356' lon='151.33260807572' />
  <node id='-41167' action='modify' lat='-33.64295817659' lon='151.33302113591' />
  <node id='-41169' action='modify' lat='-33.64307987257' lon='151.33334031878' />
  <node id='-41171' action='modify' lat='-33.64320715075' lon='151.33345028935' />
  <node id='-41173' action='modify' lat='-33.64336457351' lon='151.33344224273' />
  <node id='-41175' action='modify' lat='-33.64346393949' lon='151.33335238872' />
  <node id='-41177' action='modify' lat='-33.64357112065' lon='151.33297151504' />
  <node id='-41179' action='modify' lat='-33.64353762656' lon='151.33253431498' />
  <node id='-41181' action='modify' lat='-33.64293919647' lon='151.33145338474' />
  <node id='-41183' action='modify' lat='-33.6426801732' lon='151.33091694294' />
  <node id='-41185' action='modify' lat='-33.6427270654' lon='151.33043682753' />
  <node id='-41187' action='modify' lat='-33.64304414533' lon='151.32957315622' />
  <node id='-41189' action='modify' lat='-33.64308880438' lon='151.32919496475' />
  <node id='-41191' action='modify' lat='-33.64306870781' lon='151.32898843466' />
  <node id='-41193' action='modify' lat='-33.64286104298' lon='151.3281395155' />
  <node id='-41195' action='modify' lat='-33.64288337255' lon='151.32802686273' />
  <node id='-41197' action='modify' lat='-33.6430117675' lon='151.32788604675' />
  <node id='-41199' action='modify' lat='-33.64319989367' lon='151.32780893324' />
  <node id='-41201' action='modify' lat='-33.64345947361' lon='151.32809257685' />
  <node id='-41203' action='modify' lat='-33.64354265067' lon='151.32826624988' />
  <node id='-41205' action='modify' lat='-33.64367383581' lon='151.32831855296' />
  <node id='-41207' action='modify' lat='-33.64368220932' lon='151.32830983578' />
  <node id='-41209' action='modify' lat='-33.64373245038' lon='151.32832458793' />
  <node id='-41211' action='modify' lat='-33.64373133391' lon='151.32834805726' />
  <node id='-41213' action='modify' lat='-33.64380781191' lon='151.32838493763' />
  <node id='-41215' action='modify' lat='-33.64392783199' lon='151.32848216771' />
  <node id='-41217' action='modify' lat='-33.64420080728' lon='151.32867260455' />
  <node id='-41219' action='modify' lat='-33.64444642847' lon='151.32871015547' />
  <node id='-41221' action='modify' lat='-33.64588915972' lon='151.32712329356' />
  <node id='-41223' action='modify' lat='-33.64589027616' lon='151.32705489723' />
  <node id='-41225' action='modify' lat='-33.64612361173' lon='151.32702539293' />
  <node id='-41227' action='modify' lat='-33.6461124' lon='151.3267604' />
  <node id='-41229' action='modify' lat='-33.6462102' lon='151.3265735' />
  <node id='-41231' action='modify' lat='-33.6462895' lon='151.3263422' />
  <node id='-41233' action='modify' lat='-33.6464319' lon='151.3262003' />
  <node id='-41235' action='modify' lat='-33.6467199' lon='151.3262761' />
  <node id='-41237' action='modify' lat='-33.6467652' lon='151.3262897' />
  <node id='-41239' action='modify' lat='-33.6469416' lon='151.3266299' />
  <node id='-41241' action='modify' lat='-33.6471357' lon='151.3268554' />
  <node id='-41243' action='modify' lat='-33.6473153' lon='151.3270264' />
  <node id='-41245' action='modify' lat='-33.6476002' lon='151.3271461' />
  <node id='-41247' action='modify' lat='-33.647926' lon='151.3271779' />
  <node id='-41249' action='modify' lat='-33.6481443' lon='151.3271561' />
  <node id='-41251' action='modify' lat='-33.648372' lon='151.3270024' />
  <node id='-41253' action='modify' lat='-33.6483995' lon='151.3270211' />
  <node id='-41255' action='modify' lat='-33.6485575' lon='151.327006' />
  <node id='-41257' action='modify' lat='-33.6486484' lon='151.3269659' />
  <node id='-41259' action='modify' lat='-33.6487362' lon='151.3268895' />
  <node id='-41261' action='modify' lat='-33.6487756' lon='151.3267694' />
  <node id='-41263' action='modify' lat='-33.6489726' lon='151.3265692' />
  <node id='-41265' action='modify' lat='-33.6490119' lon='151.3264563' />
  <node id='-41267' action='modify' lat='-33.6490938' lon='151.3263799' />
  <node id='-41269' action='modify' lat='-33.649115' lon='151.3261251' />
  <node id='-41271' action='modify' lat='-33.6490513' lon='151.3260341' />
  <node id='-41273' action='modify' lat='-33.6490483' lon='151.3257284' />
  <node id='-41275' action='modify' lat='-33.649015' lon='151.3256702' />
  <node id='-41277' action='modify' lat='-33.6490453' lon='151.3256046' />
  <node id='-41279' action='modify' lat='-33.6490392' lon='151.3254772' />
  <node id='-41281' action='modify' lat='-33.6491271' lon='151.3254081' />
  <node id='-41283' action='modify' lat='-33.6491816' lon='151.3252552' />
  <node id='-41285' action='modify' lat='-33.6493119' lon='151.3253244' />
  <node id='-41287' action='modify' lat='-33.6498331' lon='151.3246838' />
  <node id='-41289' action='modify' lat='-33.6504693' lon='151.3240322' />
  <node id='-41291' action='modify' lat='-33.6506514' lon='151.3237219' />
  <node id='-41293' action='modify' lat='-33.65118204647' lon='151.32357568299' />
  <node id='-41295' action='modify' lat='-33.65123449578' lon='151.32366725521' />
  <node id='-41297' action='modify' lat='-33.65355986378' lon='151.32293367104' />
  <node id='-41299' action='modify' lat='-33.65403988872' lon='151.32275128083' />
  <node id='-41301' action='modify' lat='-33.65467842937' lon='151.32250719981' />
  <node id='-41303' action='modify' lat='-33.65560497469' lon='151.32237308936' />
  <node id='-41305' action='modify' lat='-33.66144756198' lon='151.32032924609' />
  <node id='-41307' action='modify' lat='-33.66267429863' lon='151.32129215912' />
  <node id='-41309' action='modify' lat='-33.6629377266' lon='151.32116207199' />
  <node id='-41311' action='modify' lat='-33.6630900903' lon='151.32121169285' />
  <node id='-41313' action='modify' lat='-33.66319836323' lon='151.32105478363' />
  <node id='-41315' action='modify' lat='-33.6646416173' lon='151.32065111117' />
  <node id='-41317' action='modify' lat='-33.66470189189' lon='151.32077046947' />
  <node id='-41319' action='modify' lat='-33.66471863482' lon='151.32082009034' />
  <node id='-41321' action='modify' lat='-33.66476997979' lon='151.32083350138' />
  <node id='-41323' action='modify' lat='-33.66482669409' lon='151.32078183228' />
  <node id='-41325' action='modify' lat='-33.664997' lon='151.3208637' />
  <node id='-41327' action='modify' lat='-33.66548769002' lon='151.32061758356' />
  <node id='-41329' action='modify' lat='-33.66655475668' lon='151.3197364779' />
  <node id='-41331' action='modify' lat='-33.66658489331' lon='151.31962114291' />
  <node id='-41333' action='modify' lat='-33.66664293419' lon='151.31934152262' />
  <node id='-41335' action='modify' lat='-33.66641685899' lon='151.31877892854' />
  <node id='-41337' action='modify' lat='-33.66651792301' lon='151.31870382743' />
  <node id='-41339' action='modify' lat='-33.66641467703' lon='151.31843962984' />
  <node id='-41341' action='modify' lat='-33.66641858364' lon='151.31833837645' />
  <node id='-41343' action='modify' lat='-33.6664118866' lon='151.31827065067' />
  <node id='-41345' action='modify' lat='-33.66641858364' lon='151.31825589852' />
  <node id='-41347' action='modify' lat='-33.66625171556' lon='151.31790587024' />
  <node id='-41349' action='modify' lat='-33.66614456264' lon='151.31731779592' />
  <node id='-41351' action='modify' lat='-33.66618697735' lon='151.31725610511' />
  <node id='-41353' action='modify' lat='-33.66687230691' lon='151.31734730022' />
  <node id='-41355' action='modify' lat='-33.66740136866' lon='151.31721855418' />
  <node id='-41357' action='modify' lat='-33.66761009044' lon='151.31711663024' />
  <node id='-41359' action='modify' lat='-33.66786401599' lon='151.31698721366' />
  <node id='-41361' action='modify' lat='-33.66812798615' lon='151.31689199524' />
  <node id='-41363' action='modify' lat='-33.66883450694' lon='151.31670558171' />
  <node id='-41365' action='modify' lat='-33.66919669426' lon='151.31656342463' />
  <node id='-41367' action='modify' lat='-33.66962975444' lon='151.31627776937' />
  <node id='-41369' action='modify' lat='-33.6698118' lon='151.3162718' />
  <node id='-41371' action='modify' lat='-33.6698892' lon='151.3162327' />
  <node id='-41373' action='modify' lat='-33.6699569' lon='151.3161728' />
  <node id='-41375' action='modify' lat='-33.6702473' lon='151.3158461' />
  <node id='-41377' action='modify' lat='-33.6703319' lon='151.3158047' />
  <node id='-41379' action='modify' lat='-33.6704082' lon='151.3158163' />
  <node id='-41381' action='modify' lat='-33.6704605' lon='151.3158562' />
  <node id='-41383' action='modify' lat='-33.6705041' lon='151.3159117' />
  <node id='-41385' action='modify' lat='-33.6707462' lon='151.316579' />
  <node id='-41387' action='modify' lat='-33.6710322' lon='151.317091' />
  <node id='-41389' action='modify' lat='-33.6722962' lon='151.317434' />
  <node id='-41391' action='modify' lat='-33.6725432' lon='151.317613' />
  <node id='-41393' action='modify' lat='-33.6730832' lon='151.318542' />
  <node id='-41395' action='modify' lat='-33.6738475' lon='151.3190012' />
  <node id='-41397' action='modify' lat='-33.6740689' lon='151.3191213' />
  <node id='-41399' action='modify' lat='-33.6742189' lon='151.3192072' />
  <node id='-41401' action='modify' lat='-33.6743547' lon='151.3192501' />
  <node id='-41403' action='modify' lat='-33.6746189' lon='151.3195076' />
  <node id='-41405' action='modify' lat='-33.6747975' lon='151.3196277' />
  <node id='-41407' action='modify' lat='-33.6749189' lon='151.3195848' />
  <node id='-41409' action='modify' lat='-33.6750189' lon='151.3194389' />
  <node id='-41411' action='modify' lat='-33.6751332' lon='151.3192758' />
  <node id='-41413' action='modify' lat='-33.6751332' lon='151.318984' />
  <node id='-41415' action='modify' lat='-33.6752332' lon='151.3188295' />
  <node id='-41417' action='modify' lat='-33.6752332' lon='151.318675' />
  <node id='-41419' action='modify' lat='-33.6751618' lon='151.3185291' />
  <node id='-41421' action='modify' lat='-33.6751118' lon='151.3183832' />
  <node id='-41423' action='modify' lat='-33.6750261' lon='151.3182373' />
  <node id='-41425' action='modify' lat='-33.6748904' lon='151.3181944' />
  <node id='-41427' action='modify' lat='-33.6747404' lon='151.3180656' />
  <node id='-41429' action='modify' lat='-33.6745332' lon='151.3179798' />
  <node id='-41431' action='modify' lat='-33.67424983133' lon='151.31787869483' />
  <node id='-41433' action='modify' lat='-33.67424539318' lon='151.31778315918' />
  <node id='-41435' action='modify' lat='-33.67428612979' lon='151.31771744506' />
  <node id='-41437' action='modify' lat='-33.67442787072' lon='151.31763563769' />
  <node id='-41439' action='modify' lat='-33.67457351766' lon='151.317594734' />
  <node id='-41441' action='modify' lat='-33.67459360687' lon='151.31755383031' />
  <node id='-41443' action='modify' lat='-33.67471581615' lon='151.3175062211' />
  <node id='-41445' action='modify' lat='-33.67475376237' lon='151.31742776649' />
  <node id='-41447' action='modify' lat='-33.67483579313' lon='151.31739155667' />
  <node id='-41449' action='modify' lat='-33.67485588228' lon='151.31737881617' />
  <node id='-41451' action='modify' lat='-33.67485365015' lon='151.3173419358' />
  <node id='-41453' action='modify' lat='-33.67485532425' lon='151.31727890389' />
  <node id='-41455' action='modify' lat='-33.674833561' lon='151.31724537627' />
  <node id='-41457' action='modify' lat='-33.67484137345' lon='151.31720313148' />
  <node id='-41459' action='modify' lat='-33.67484360557' lon='151.31697044985' />
  <node id='-41461' action='modify' lat='-33.67487150717' lon='151.31693155782' />
  <node id='-41463' action='modify' lat='-33.67492898443' lon='151.31687925474' />
  <node id='-41465' action='modify' lat='-33.67495632797' lon='151.31686182039' />
  <node id='-41467' action='modify' lat='-33.6749836715' lon='151.31686182039' />
  <node id='-41469' action='modify' lat='-33.67501826942' lon='151.31686047928' />
  <node id='-41471' action='modify' lat='-33.67503947459' lon='151.31682963388' />
  <node id='-41473' action='modify' lat='-33.67507216984' lon='151.31685855496' />
  <node id='-41475' action='modify' lat='-33.67518935618' lon='151.31687330711' />
  <node id='-41477' action='modify' lat='-33.67530263614' lon='151.31699467706' />
  <node id='-41479' action='modify' lat='-33.67546948666' lon='151.31651590276' />
  <node id='-41481' action='modify' lat='-33.67608331522' lon='151.31588558364' />
  <node id='-41483' action='modify' lat='-33.67687793767' lon='151.31562540936' />
  <node id='-41485' action='modify' lat='-33.67768594512' lon='151.3156656425' />
  <node id='-41487' action='modify' lat='-33.67833547045' lon='151.31588156032' />
  <node id='-41489' action='modify' lat='-33.67846046446' lon='151.31580645847' />
  <node id='-41491' action='modify' lat='-33.67882651728' lon='151.31412739563' />
  <node id='-41493' action='modify' lat='-33.67966129045' lon='151.31341392803' />
  <node id='-41495' action='modify' lat='-33.68200932553' lon='151.31185288238' />
  <node id='-41497' action='modify' lat='-33.6846987736' lon='151.31050909567' />
  <node id='-41499' action='modify' lat='-33.68614055095' lon='151.30979831028' />
  <node id='-41501' action='modify' lat='-33.68674983969' lon='151.30969370413' />
  <node id='-41503' action='modify' lat='-33.68829870808' lon='151.30937452125' />
  <node id='-41505' action='modify' lat='-33.68947038393' lon='151.30890513468' />
  <node id='-41507' action='modify' lat='-33.69150459844' lon='151.30861277389' />
  <node id='-41509' action='modify' lat='-33.69229182541' lon='151.3090157758' />
  <node id='-41511' action='modify' lat='-33.69240229325' lon='151.30906673777' />
  <node id='-41513' action='modify' lat='-33.69246459328' lon='151.30920247732' />
  <node id='-41515' action='modify' lat='-33.6925308788' lon='151.3091853449' />
  <node id='-41517' action='modify' lat='-33.6925504059' lon='151.30919339153' />
  <node id='-41519' action='modify' lat='-33.69258109134' lon='151.30924703571' />
  <node id='-41521' action='modify' lat='-33.69259124708' lon='151.30930976382' />
  <node id='-41523' action='modify' lat='-33.69257067749' lon='151.30937886933' />
  <node id='-41525' action='modify' lat='-33.69253157663' lon='151.30955718834' />
  <node id='-41527' action='modify' lat='-33.69251540371' lon='151.30968928343' />
  <node id='-41529' action='modify' lat='-33.69251540371' lon='151.30992335828' />
  <node id='-41531' action='modify' lat='-33.692596335' lon='151.31003532146' />
  <node id='-41533' action='modify' lat='-33.69282284907' lon='151.3100882644' />
  <node id='-41535' action='modify' lat='-33.69286339682' lon='151.31006913277' />
  <node id='-41537' action='modify' lat='-33.69291096683' lon='151.31006613618' />
  <node id='-41539' action='modify' lat='-33.69301357696' lon='151.3101331914' />
  <node id='-41541' action='modify' lat='-33.69326129126' lon='151.3102123589' />
  <node id='-41543' action='modify' lat='-33.69333944682' lon='151.31021502576' />
  <node id='-41545' action='modify' lat='-33.6934912' lon='151.3103424' />
  <node id='-41547' action='modify' lat='-33.69364850566' lon='151.31045108343' />
  <node id='-41549' action='modify' lat='-33.69383824344' lon='151.31056768466' />
  <node id='-41551' action='modify' lat='-33.69399105305' lon='151.31069508588' />
  <node id='-41553' action='modify' lat='-33.69414285302' lon='151.31070447361' />
  <node id='-41555' action='modify' lat='-33.69436594784' lon='151.31128757363' />
  <node id='-41557' action='modify' lat='-33.69445100077' lon='151.31130842945' />
  <node id='-41559' action='modify' lat='-33.69447687199' lon='151.31133178266' />
  <node id='-41561' action='modify' lat='-33.6944965' lon='151.3114085' />
  <node id='-41563' action='modify' lat='-33.69462818321' lon='151.31147564479' />
  <node id='-41565' action='modify' lat='-33.6947963' lon='151.3114396' />
  <node id='-41567' action='modify' lat='-33.69484917343' lon='151.31170562026' />
  <node id='-41569' action='modify' lat='-33.69491873128' lon='151.31176630052' />
  <node id='-41571' action='modify' lat='-33.6949669' lon='151.3117813' />
  <node id='-41573' action='modify' lat='-33.69507773312' lon='151.31192320975' />
  <node id='-41575' action='modify' lat='-33.69517133765' lon='151.31197349081' />
  <node id='-41577' action='modify' lat='-33.69518510041' lon='151.31200717669' />
  <node id='-41579' action='modify' lat='-33.6952216159' lon='151.31208830675' />
  <node id='-41581' action='modify' lat='-33.69528335808' lon='151.31219323619' />
  <node id='-41583' action='modify' lat='-33.69530108967' lon='151.31233932393' />
  <node id='-41585' action='modify' lat='-33.69531093528' lon='151.31243081781' />
  <node id='-41587' action='modify' lat='-33.6953550093' lon='151.31248245033' />
  <node id='-41589' action='modify' lat='-33.69541937399' lon='151.31250503314' />
  <node id='-41591' action='modify' lat='-33.69545662637' lon='151.31254927239' />
  <node id='-41593' action='modify' lat='-33.6955407' lon='151.312645' />
  <node id='-41595' action='modify' lat='-33.69559897364' lon='151.31279812331' />
  <node id='-41597' action='modify' lat='-33.69563895781' lon='151.31291211043' />
  <node id='-41599' action='modify' lat='-33.6957338218' lon='151.31288746389' />
  <node id='-41601' action='modify' lat='-33.69574614744' lon='151.31284262393' />
  <node id='-41603' action='modify' lat='-33.69572935863' lon='151.31279157492' />
  <node id='-41605' action='modify' lat='-33.69573828497' lon='151.31276542338' />
  <node id='-41607' action='modify' lat='-33.69578055265' lon='151.31273283558' />
  <node id='-41609' action='modify' lat='-33.69580300093' lon='151.31269166263' />
  <node id='-41611' action='modify' lat='-33.6958043' lon='151.3126388' />
  <node id='-41613' action='modify' lat='-33.69585171577' lon='151.31250561779' />
  <node id='-41615' action='modify' lat='-33.69589338003' lon='151.31239058467' />
  <node id='-41617' action='modify' lat='-33.69592467368' lon='151.31235197852' />
  <node id='-41619' action='modify' lat='-33.6960073895' lon='151.31231652515' />
  <node id='-41621' action='modify' lat='-33.69616366845' lon='151.31226984785' />
  <node id='-41623' action='modify' lat='-33.69625076857' lon='151.3122646589' />
  <node id='-41625' action='modify' lat='-33.69629394797' lon='151.31224105152' />
  <node id='-41627' action='modify' lat='-33.69635085302' lon='151.3121753374' />
  <node id='-41629' action='modify' lat='-33.69638488445' lon='151.31215589138' />
  <node id='-41631' action='modify' lat='-33.69644602087' lon='151.31217380061' />
  <node id='-41633' action='modify' lat='-33.69652859987' lon='151.31210222698' />
  <node id='-41635' action='modify' lat='-33.69657577382' lon='151.3120672687' />
  <node id='-41637' action='modify' lat='-33.69662617906' lon='151.31201052945' />
  <node id='-41639' action='modify' lat='-33.69663760924' lon='151.31193058583' />
  <node id='-41641' action='modify' lat='-33.69667610368' lon='151.3118621895' />
  <node id='-41643' action='modify' lat='-33.69668626356' lon='151.31180024416' />
  <node id='-41645' action='modify' lat='-33.69665940584' lon='151.31170502207' />
  <node id='-41647' action='modify' lat='-33.69660404727' lon='151.31161241349' />
  <node id='-41649' action='modify' lat='-33.69653059444' lon='151.31148058282' />
  <node id='-41651' action='modify' lat='-33.6964824208' lon='151.31131790675' />
  <node id='-41653' action='modify' lat='-33.6963978682' lon='151.31113819507' />
  <node id='-41655' action='modify' lat='-33.69637503664' lon='151.31105850245' />
  <node id='-41657' action='modify' lat='-33.69632029438' lon='151.3109581773' />
  <node id='-41659' action='modify' lat='-33.69621776824' lon='151.31076113803' />
  <node id='-41661' action='modify' lat='-33.69606441577' lon='151.31060707913' />
  <node id='-41663' action='modify' lat='-33.69609087476' lon='151.3105251083' />
  <node id='-41665' action='modify' lat='-33.69611207474' lon='151.31051303836' />
  <node id='-41667' action='modify' lat='-33.69626605333' lon='151.31037892791' />
  <node id='-41669' action='modify' lat='-33.6964306316' lon='151.31030114385' />
  <node id='-41671' action='modify' lat='-33.69657162662' lon='151.3102776546' />
  <node id='-41673' action='modify' lat='-33.69680745779' lon='151.31047854602' />
  <node id='-41675' action='modify' lat='-33.69695281682' lon='151.31056735309' />
  <node id='-41677' action='modify' lat='-33.69698098435' lon='151.31055433006' />
  <node id='-41679' action='modify' lat='-33.69700748987' lon='151.3104942629' />
  <node id='-41681' action='modify' lat='-33.69705546824' lon='151.31048889848' />
  <node id='-41683' action='modify' lat='-33.69720944514' lon='151.3105700353' />
  <node id='-41685' action='modify' lat='-33.69726273755' lon='151.31061236071' />
  <node id='-41687' action='modify' lat='-33.69761725848' lon='151.31073899206' />
  <node id='-41689' action='modify' lat='-33.6980981533' lon='151.31044797238' />
  <node id='-41691' action='modify' lat='-33.69870177848' lon='151.31000943121' />
  <node id='-41693' action='modify' lat='-33.69955699988' lon='151.30937575933' />
  <node id='-41695' action='modify' lat='-33.6996652' lon='151.3089761' />
  <node id='-41697' action='modify' lat='-33.6998366' lon='151.3086157' />
  <node id='-41699' action='modify' lat='-33.6998577' lon='151.3084665' />
  <node id='-41701' action='modify' lat='-33.6999572' lon='151.3084214' />
  <node id='-41703' action='modify' lat='-33.7000577' lon='151.3083482' />
  <node id='-41705' action='modify' lat='-33.700175' lon='151.3083174' />
  <node id='-41707' action='modify' lat='-33.7002811' lon='151.3082544' />
  <node id='-41709' action='modify' lat='-33.7004043' lon='151.3082284' />
  <node id='-41711' action='modify' lat='-33.7006022' lon='151.3081269' />
  <node id='-41713' action='modify' lat='-33.7007654' lon='151.30813' />
  <node id='-41715' action='modify' lat='-33.700944' lon='151.3080717' />
  <node id='-41717' action='modify' lat='-33.7009445' lon='151.3082077' />
  <node id='-41719' action='modify' lat='-33.7009455' lon='151.3083087' />
  <node id='-41721' action='modify' lat='-33.7010662' lon='151.3083009' />
  <node id='-41723' action='modify' lat='-33.7012657' lon='151.3083278' />
  <node id='-41725' action='modify' lat='-33.701588' lon='151.3086216' />
  <node id='-41727' action='modify' lat='-33.7016615' lon='151.308662' />
  <node id='-41729' action='modify' lat='-33.7017465' lon='151.3085839' />
  <node id='-41731' action='modify' lat='-33.7018529' lon='151.3084526' />
  <node id='-41733' action='modify' lat='-33.7020536' lon='151.3083453' />
  <node id='-41735' action='modify' lat='-33.7020916' lon='151.3082959' />
  <node id='-41737' action='modify' lat='-33.7021955' lon='151.3082133' />
  <node id='-41739' action='modify' lat='-33.7022026' lon='151.3082016' />
  <node id='-41741' action='modify' lat='-33.702117' lon='151.3081376' />
  <node id='-41743' action='modify' lat='-33.7020474' lon='151.3081098' />
  <node id='-41745' action='modify' lat='-33.7019042' lon='151.3079744' />
  <node id='-41747' action='modify' lat='-33.7016679' lon='151.3078088' />
  <node id='-41749' action='modify' lat='-33.7014599' lon='151.3076064' />
  <node id='-41751' action='modify' lat='-33.7014036' lon='151.3075332' />
  <node id='-41753' action='modify' lat='-33.7013969' lon='151.3074758' />
  <node id='-41755' action='modify' lat='-33.701613' lon='151.3072851' />
  <node id='-41757' action='modify' lat='-33.7016945' lon='151.3072778' />
  <node id='-41759' action='modify' lat='-33.701702' lon='151.3072235' />
  <node id='-41761' action='modify' lat='-33.7015735' lon='151.3069552' />
  <node id='-41763' action='modify' lat='-33.7016275' lon='151.3068907' />
  <node id='-41765' action='modify' lat='-33.7016068' lon='151.3067521' />
  <node id='-41767' action='modify' lat='-33.7016566' lon='151.3067049' />
  <node id='-41769' action='modify' lat='-33.7017015' lon='151.3067781' />
  <node id='-41771' action='modify' lat='-33.70177874391' lon='151.30691456424' />
  <node id='-41773' action='modify' lat='-33.70179544335' lon='151.30684131974' />
  <node id='-41775' action='modify' lat='-33.70183003048' lon='151.30672330255' />
  <node id='-41777' action='modify' lat='-33.70190701469' lon='151.30661601419' />
  <node id='-41779' action='modify' lat='-33.7019259818' lon='151.30651543135' />
  <node id='-41781' action='modify' lat='-33.70190143612' lon='151.30635986323' />
  <node id='-41783' action='modify' lat='-33.70188693186' lon='151.3061721086' />
  <node id='-41785' action='modify' lat='-33.70192375038' lon='151.3059655785' />
  <node id='-41787' action='modify' lat='-33.70205652005' lon='151.30571479196' />
  <node id='-41789' action='modify' lat='-33.70216028109' lon='151.30558872814' />
  <node id='-41791' action='modify' lat='-33.70290780311' lon='151.30520114893' />
  <node id='-41793' action='modify' lat='-33.70324251236' lon='151.30504558081' />
  <node id='-41795' action='modify' lat='-33.70413394828' lon='151.3045963108' />
  <node id='-41797' action='modify' lat='-33.70420981474' lon='151.30474249119' />
  <node id='-41799' action='modify' lat='-33.70413171692' lon='151.30513677592' />
  <node id='-41801' action='modify' lat='-33.70354040249' lon='151.30602726931' />
  <node id='-41803' action='modify' lat='-33.70329718141' lon='151.30648860926' />
  <node id='-41805' action='modify' lat='-33.70306957941' lon='151.30670318598' />
  <node id='-41807' action='modify' lat='-33.70298478635' lon='151.30704114432' />
  <node id='-41809' action='modify' lat='-33.70304057127' lon='151.30728254313' />
  <node id='-41811' action='modify' lat='-33.70319007466' lon='151.30738714928' />
  <node id='-41813' action='modify' lat='-33.70338866832' lon='151.30738714928' />
  <node id='-41815' action='modify' lat='-33.70360511257' lon='151.30725035662' />
  <node id='-41817' action='modify' lat='-33.70397552105' lon='151.306947267' />
  <node id='-41819' action='modify' lat='-33.70489707257' lon='151.30609968895' />
  <node id='-41821' action='modify' lat='-33.70589224785' lon='151.30541639621' />
  <node id='-41823' action='modify' lat='-33.70801197739' lon='151.30417185122' />
  <node id='-41825' action='modify' lat='-33.71029230171' lon='151.3030345946' />
  <node id='-41827' action='modify' lat='-33.71260826384' lon='151.30198853308' />
  <node id='-41829' action='modify' lat='-33.7145047181' lon='151.30123751456' />
  <node id='-41831' action='modify' lat='-33.71647698611' lon='151.3005937844' />
  <node id='-41833' action='modify' lat='-33.71802978062' lon='151.30013244445' />
  <node id='-41835' action='modify' lat='-33.72053739522' lon='151.29984276587' />
  <node id='-41837' action='modify' lat='-33.72203657466' lon='151.29977571065' />
  <node id='-41839' action='modify' lat='-33.72332379564' lon='151.29977571065' />
  <node id='-41841' action='modify' lat='-33.72476269398' lon='151.30000638062' />
  <node id='-41843' action='modify' lat='-33.7257821779' lon='151.30017267758' />
  <node id='-41845' action='modify' lat='-33.72718757351' lon='151.30045967395' />
  <node id='-41847' action='modify' lat='-33.72882940336' lon='151.30087809855' />
  <node id='-41849' action='modify' lat='-33.73024144114' lon='151.30134212071' />
  <node id='-41851' action='modify' lat='-33.7313010119' lon='151.30179809624' />
  <node id='-41853' action='modify' lat='-33.73140473759' lon='151.30147086674' />
  <node id='-41855' action='modify' lat='-33.73152519308' lon='151.30112620289' />
  <node id='-41857' action='modify' lat='-33.73180179394' lon='151.30124422008' />
  <way id='-41859' action='modify'>
    <nd ref='-40811' />
    <nd ref='-40813' />
    <nd ref='-40815' />
    <nd ref='-40817' />
    <nd ref='-40819' />
    <nd ref='-40821' />
    <nd ref='-40823' />
    <nd ref='-40825' />
    <nd ref='-40827' />
    <nd ref='-40829' />
    <nd ref='-40831' />
    <nd ref='-40833' />
    <nd ref='-40835' />
    <nd ref='-40837' />
    <nd ref='-40839' />
    <nd ref='-40841' />
    <nd ref='-40843' />
    <nd ref='-40845' />
    <nd ref='-40847' />
    <nd ref='-40849' />
    <nd ref='-40851' />
    <nd ref='-40853' />
    <nd ref='-40855' />
    <nd ref='-40857' />
    <nd ref='-40859' />
    <nd ref='-40861' />
    <nd ref='-40863' />
    <nd ref='-40865' />
    <nd ref='-40867' />
    <nd ref='-40869' />
    <nd ref='-40871' />
    <nd ref='-40873' />
    <nd ref='-40875' />
    <nd ref='-40877' />
    <nd ref='-40879' />
    <nd ref='-40881' />
    <nd ref='-40883' />
    <nd ref='-40885' />
    <nd ref='-40887' />
    <nd ref='-40889' />
    <nd ref='-40891' />
    <nd ref='-40893' />
    <nd ref='-40895' />
    <nd ref='-40897' />
    <nd ref='-40899' />
    <nd ref='-40901' />
    <nd ref='-40903' />
    <nd ref='-40905' />
    <nd ref='-40907' />
    <nd ref='-40909' />
    <nd ref='-40911' />
    <nd ref='-40913' />
    <nd ref='-40915' />
    <nd ref='-40917' />
    <nd ref='-40919' />
    <nd ref='-40921' />
    <nd ref='-40923' />
    <nd ref='-40925' />
    <nd ref='-40927' />
    <nd ref='-40929' />
    <nd ref='-40931' />
    <nd ref='-40933' />
    <nd ref='-40935' />
    <nd ref='-40937' />
    <nd ref='-40939' />
    <nd ref='-40941' />
    <nd ref='-40943' />
    <nd ref='-40945' />
    <nd ref='-40947' />
    <nd ref='-40949' />
    <nd ref='-40951' />
    <nd ref='-40953' />
    <nd ref='-40955' />
    <nd ref='-40957' />
    <nd ref='-40959' />
    <nd ref='-40961' />
    <nd ref='-40963' />
    <nd ref='-40965' />
    <nd ref='-40967' />
    <nd ref='-40969' />
    <nd ref='-40971' />
    <nd ref='-40973' />
    <nd ref='-40975' />
    <nd ref='-40977' />
    <nd ref='-40979' />
    <nd ref='-40981' />
    <nd ref='-40983' />
    <nd ref='-40985' />
    <nd ref='-40987' />
    <nd ref='-40989' />
    <nd ref='-40991' />
    <nd ref='-40993' />
    <nd ref='-40995' />
    <nd ref='-40997' />
    <nd ref='-40999' />
    <nd ref='-41001' />
    <nd ref='-41003' />
    <nd ref='-41005' />
    <nd ref='-41007' />
    <nd ref='-41009' />
    <nd ref='-41011' />
    <nd ref='-41013' />
    <nd ref='-41015' />
    <nd ref='-41017' />
    <nd ref='-41019' />
    <nd ref='-41021' />
    <nd ref='-41023' />
    <nd ref='-41025' />
    <nd ref='-41027' />
    <nd ref='-41029' />
    <nd ref='-41031' />
    <nd ref='-41033' />
    <nd ref='-41035' />
    <nd ref='-41037' />
    <nd ref='-41039' />
    <nd ref='-41041' />
    <nd ref='-41043' />
    <nd ref='-41045' />
    <nd ref='-41047' />
    <nd ref='-41049' />
    <nd ref='-41051' />
    <nd ref='-41053' />
    <nd ref='-41055' />
    <nd ref='-41057' />
    <nd ref='-41059' />
    <nd ref='-41061' />
    <nd ref='-41063' />
    <nd ref='-41065' />
    <nd ref='-41067' />
    <nd ref='-41069' />
    <nd ref='-41071' />
    <nd ref='-41073' />
    <nd ref='-41075' />
    <nd ref='-41077' />
    <nd ref='-41079' />
    <nd ref='-41081' />
    <nd ref='-41083' />
    <nd ref='-41085' />
    <nd ref='-41087' />
    <nd ref='-41089' />
    <nd ref='-41091' />
    <nd ref='-41093' />
    <nd ref='-41095' />
    <nd ref='-41097' />
    <nd ref='-41099' />
    <nd ref='-41101' />
    <nd ref='-41103' />
    <nd ref='-41105' />
    <nd ref='-41107' />
    <nd ref='-41109' />
    <nd ref='-41111' />
    <nd ref='-41113' />
    <nd ref='-41115' />
    <nd ref='-41117' />
    <nd ref='-41119' />
    <nd ref='-41121' />
    <nd ref='-41123' />
    <nd ref='-41125' />
    <nd ref='-41127' />
    <nd ref='-41129' />
    <nd ref='-41131' />
    <nd ref='-41133' />
    <nd ref='-41135' />
    <nd ref='-41137' />
    <nd ref='-41139' />
    <nd ref='-41141' />
    <nd ref='-41143' />
    <nd ref='-41145' />
    <nd ref='-41147' />
    <nd ref='-41149' />
    <nd ref='-41151' />
    <nd ref='-41153' />
    <nd ref='-41155' />
    <nd ref='-41157' />
    <nd ref='-41159' />
    <nd ref='-41161' />
    <nd ref='-41163' />
    <nd ref='-41165' />
    <nd ref='-41167' />
    <nd ref='-41169' />
    <nd ref='-41171' />
    <nd ref='-41173' />
    <nd ref='-41175' />
    <nd ref='-41177' />
    <nd ref='-41179' />
    <nd ref='-41181' />
    <nd ref='-41183' />
    <nd ref='-41185' />
    <nd ref='-41187' />
    <nd ref='-41189' />
    <nd ref='-41191' />
    <nd ref='-41193' />
    <nd ref='-41195' />
    <nd ref='-41197' />
    <nd ref='-41199' />
    <nd ref='-41201' />
    <nd ref='-41203' />
    <nd ref='-41205' />
    <nd ref='-41207' />
    <nd ref='-41209' />
    <nd ref='-41211' />
    <nd ref='-41213' />
    <nd ref='-41215' />
    <nd ref='-41217' />
    <nd ref='-41219' />
    <nd ref='-41221' />
    <nd ref='-41223' />
    <nd ref='-41225' />
    <nd ref='-41227' />
    <nd ref='-41229' />
    <nd ref='-41231' />
    <nd ref='-41233' />
    <nd ref='-41235' />
    <nd ref='-41237' />
    <nd ref='-41239' />
    <nd ref='-41241' />
    <nd ref='-41243' />
    <nd ref='-41245' />
    <nd ref='-41247' />
    <nd ref='-41249' />
    <nd ref='-41251' />
    <nd ref='-41253' />
    <nd ref='-41255' />
    <nd ref='-41257' />
    <nd ref='-41259' />
    <nd ref='-41261' />
    <nd ref='-41263' />
    <nd ref='-41265' />
    <nd ref='-41267' />
    <nd ref='-41269' />
    <nd ref='-41271' />
    <nd ref='-41273' />
    <nd ref='-41275' />
    <nd ref='-41277' />
    <nd ref='-41279' />
    <nd ref='-41281' />
    <nd ref='-41283' />
    <nd ref='-41285' />
    <nd ref='-41287' />
    <nd ref='-41289' />
    <nd ref='-41291' />
    <nd ref='-41293' />
    <nd ref='-41295' />
    <nd ref='-41297' />
    <nd ref='-41299' />
    <nd ref='-41301' />
    <nd ref='-41303' />
    <nd ref='-41305' />
    <nd ref='-41307' />
    <nd ref='-41309' />
    <nd ref='-41311' />
    <nd ref='-41313' />
    <nd ref='-41315' />
    <nd ref='-41317' />
    <nd ref='-41319' />
    <nd ref='-41321' />
    <nd ref='-41323' />
    <nd ref='-41325' />
    <nd ref='-41327' />
    <nd ref='-41329' />
    <nd ref='-41331' />
    <nd ref='-41333' />
    <nd ref='-41335' />
    <nd ref='-41337' />
    <nd ref='-41339' />
    <nd ref='-41341' />
    <nd ref='-41343' />
    <nd ref='-41345' />
    <nd ref='-41347' />
    <nd ref='-41349' />
    <nd ref='-41351' />
    <nd ref='-41353' />
    <nd ref='-41355' />
    <nd ref='-41357' />
    <nd ref='-41359' />
    <nd ref='-41361' />
    <nd ref='-41363' />
    <nd ref='-41365' />
    <nd ref='-41367' />
    <nd ref='-41369' />
    <nd ref='-41371' />
    <nd ref='-41373' />
    <nd ref='-41375' />
    <nd ref='-41377' />
    <nd ref='-41379' />
    <nd ref='-41381' />
    <nd ref='-41383' />
    <nd ref='-41385' />
    <nd ref='-41387' />
    <nd ref='-41389' />
    <nd ref='-41391' />
    <nd ref='-41393' />
    <nd ref='-41395' />
    <nd ref='-41397' />
    <nd ref='-41399' />
    <nd ref='-41401' />
    <nd ref='-41403' />
    <nd ref='-41405' />
    <nd ref='-41407' />
    <nd ref='-41409' />
    <nd ref='-41411' />
    <nd ref='-41413' />
    <nd ref='-41415' />
    <nd ref='-41417' />
    <nd ref='-41419' />
    <nd ref='-41421' />
    <nd ref='-41423' />
    <nd ref='-41425' />
    <nd ref='-41427' />
    <nd ref='-41429' />
    <nd ref='-41431' />
    <nd ref='-41433' />
    <nd ref='-41435' />
    <nd ref='-41437' />
    <nd ref='-41439' />
    <nd ref='-41441' />
    <nd ref='-41443' />
    <nd ref='-41445' />
    <nd ref='-41447' />
    <nd ref='-41449' />
    <nd ref='-41451' />
    <nd ref='-41453' />
    <nd ref='-41455' />
    <nd ref='-41457' />
    <nd ref='-41459' />
    <nd ref='-41461' />
    <nd ref='-41463' />
    <nd ref='-41465' />
    <nd ref='-41467' />
    <nd ref='-41469' />
    <nd ref='-41471' />
    <nd ref='-41473' />
    <nd ref='-41475' />
    <nd ref='-41477' />
    <nd ref='-41479' />
    <nd ref='-41481' />
    <nd ref='-41483' />
    <nd ref='-41485' />
    <nd ref='-41487' />
    <nd ref='-41489' />
    <nd ref='-41491' />
    <nd ref='-41493' />
    <nd ref='-41495' />
    <nd ref='-41497' />
    <nd ref='-41499' />
    <nd ref='-41501' />
    <nd ref='-41503' />
    <nd ref='-41505' />
    <nd ref='-41507' />
    <nd ref='-41509' />
    <nd ref='-41511' />
    <nd ref='-41513' />
    <nd ref='-41515' />
    <nd ref='-41517' />
    <nd ref='-41519' />
    <nd ref='-41521' />
    <nd ref='-41523' />
    <nd ref='-41525' />
    <nd ref='-41527' />
    <nd ref='-41529' />
    <nd ref='-41531' />
    <nd ref='-41533' />
    <nd ref='-41535' />
    <nd ref='-41537' />
    <nd ref='-41539' />
    <nd ref='-41541' />
    <nd ref='-41543' />
    <nd ref='-41545' />
    <nd ref='-41547' />
    <nd ref='-41549' />
    <nd ref='-41551' />
    <nd ref='-41553' />
    <nd ref='-41555' />
    <nd ref='-41557' />
    <nd ref='-41559' />
    <nd ref='-41561' />
    <nd ref='-41563' />
    <nd ref='-41565' />
    <nd ref='-41567' />
    <nd ref='-41569' />
    <nd ref='-41571' />
    <nd ref='-41573' />
    <nd ref='-41575' />
    <nd ref='-41577' />
    <nd ref='-41579' />
    <nd ref='-41581' />
    <nd ref='-41583' />
    <nd ref='-41585' />
    <nd ref='-41587' />
    <nd ref='-41589' />
    <nd ref='-41591' />
    <nd ref='-41593' />
    <nd ref='-41595' />
    <nd ref='-41597' />
    <nd ref='-41599' />
    <nd ref='-41601' />
    <nd ref='-41603' />
    <nd ref='-41605' />
    <nd ref='-41607' />
    <nd ref='-41609' />
    <nd ref='-41611' />
    <nd ref='-41613' />
    <nd ref='-41615' />
    <nd ref='-41617' />
    <nd ref='-41619' />
    <nd ref='-41621' />
    <nd ref='-41623' />
    <nd ref='-41625' />
    <nd ref='-41627' />
    <nd ref='-41629' />
    <nd ref='-41631' />
    <nd ref='-41633' />
    <nd ref='-41635' />
    <nd ref='-41637' />
    <nd ref='-41639' />
    <nd ref='-41641' />
    <nd ref='-41643' />
    <nd ref='-41645' />
    <nd ref='-41647' />
    <nd ref='-41649' />
    <nd ref='-41651' />
    <nd ref='-41653' />
    <nd ref='-41655' />
    <nd ref='-41657' />
    <nd ref='-41659' />
    <nd ref='-41661' />
    <nd ref='-41663' />
    <nd ref='-41665' />
    <nd ref='-41667' />
    <nd ref='-41669' />
    <nd ref='-41671' />
    <nd ref='-41673' />
    <nd ref='-41675' />
    <nd ref='-41677' />
    <nd ref='-41679' />
    <nd ref='-41681' />
    <nd ref='-41683' />
    <nd ref='-41685' />
    <nd ref='-41687' />
    <nd ref='-41689' />
    <nd ref='-41691' />
    <nd ref='-41693' />
    <nd ref='-41695' />
    <nd ref='-41697' />
    <nd ref='-41699' />
    <nd ref='-41701' />
    <nd ref='-41703' />
    <nd ref='-41705' />
    <nd ref='-41707' />
    <nd ref='-41709' />
    <nd ref='-41711' />
    <nd ref='-41713' />
    <nd ref='-41715' />
    <nd ref='-41717' />
    <nd ref='-41719' />
    <nd ref='-41721' />
    <nd ref='-41723' />
    <nd ref='-41725' />
    <nd ref='-41727' />
    <nd ref='-41729' />
    <nd ref='-41731' />
    <nd ref='-41733' />
    <nd ref='-41735' />
    <nd ref='-41737' />
    <nd ref='-41739' />
    <nd ref='-41741' />
    <nd ref='-41743' />
    <nd ref='-41745' />
    <nd ref='-41747' />
    <nd ref='-41749' />
    <nd ref='-41751' />
    <nd ref='-41753' />
    <nd ref='-41755' />
    <nd ref='-41757' />
    <nd ref='-41759' />
    <nd ref='-41761' />
    <nd ref='-41763' />
    <nd ref='-41765' />
    <nd ref='-41767' />
    <nd ref='-41769' />
    <nd ref='-41771' />
    <nd ref='-41773' />
    <nd ref='-41775' />
    <nd ref='-41777' />
    <nd ref='-41779' />
    <nd ref='-41781' />
    <nd ref='-41783' />
    <nd ref='-41785' />
    <nd ref='-41787' />
    <nd ref='-41789' />
    <nd ref='-41791' />
    <nd ref='-41793' />
    <nd ref='-41795' />
    <nd ref='-41797' />
    <nd ref='-41799' />
    <nd ref='-41801' />
    <nd ref='-41803' />
    <nd ref='-41805' />
    <nd ref='-41807' />
    <nd ref='-41809' />
    <nd ref='-41811' />
    <nd ref='-41813' />
    <nd ref='-41815' />
    <nd ref='-41817' />
    <nd ref='-41819' />
    <nd ref='-41821' />
    <nd ref='-41823' />
    <nd ref='-41825' />
    <nd ref='-41827' />
    <nd ref='-41829' />
    <nd ref='-41831' />
    <nd ref='-41833' />
    <nd ref='-41835' />
    <nd ref='-41837' />
    <nd ref='-41839' />
    <nd ref='-41841' />
    <nd ref='-41843' />
    <nd ref='-41845' />
    <nd ref='-41847' />
    <nd ref='-41849' />
    <nd ref='-41851' />
    <nd ref='-41853' />
    <nd ref='-41855' />
    <nd ref='-41857' />
    <tag k='name' v='Palm Beach to Collaroy' />
    <tag k='role' v='primary' />
    <tag k='photo' v='136319147@N08/23203096076' />
    <tag k='style' v='oneway' />
    <tag k='transport' v='bus;carshuffle' />
  </way>
</osm>
