<?xml version='1.0' encoding='UTF-8'?>
<osm version='0.6' upload='false' generator='JOSM'>
  <node id='-43662' action='modify' visible='true' lat='-33.5507427' lon='151.2865278' />
  <node id='-43664' action='modify' visible='true' lat='-33.5507494' lon='151.2865422' />
  <node id='-43666' action='modify' visible='true' lat='-33.5508519' lon='151.2867445' />
  <node id='-43668' action='modify' visible='true' lat='-33.5510522' lon='151.2873969' />
  <node id='-43670' action='modify' visible='true' lat='-33.5511381' lon='151.28762' />
  <node id='-43672' action='modify' visible='true' lat='-33.5512668' lon='151.2878003' />
  <node id='-43674' action='modify' visible='true' lat='-33.5513884' lon='151.2879204' />
  <node id='-43676' action='modify' visible='true' lat='-33.5516745' lon='151.2879118' />
  <node id='-43678' action='modify' visible='true' lat='-33.5518248' lon='151.2879719' />
  <node id='-43680' action='modify' visible='true' lat='-33.5519821' lon='151.2880921' />
  <node id='-43682' action='modify' visible='true' lat='-33.5521252' lon='151.2882809' />
  <node id='-43684' action='modify' visible='true' lat='-33.5522754' lon='151.2884268' />
  <node id='-43686' action='modify' visible='true' lat='-33.5523255' lon='151.2885727' />
  <node id='-43688' action='modify' visible='true' lat='-33.5522575' lon='151.2891585' />
  <node id='-43690' action='modify' visible='true' lat='-33.552283' lon='151.289325' />
  <node id='-43692' action='modify' visible='true' lat='-33.5034724' lon='151.2920476' />
  <node id='-43694' action='modify' visible='true' lat='-33.5035537' lon='151.2914949' />
  <node id='-43696' action='modify' visible='true' lat='-33.5037301' lon='151.2912492' />
  <node id='-43698' action='modify' visible='true' lat='-33.5039229' lon='151.2909808' />
  <node id='-43700' action='modify' visible='true' lat='-33.5046764' lon='151.2905186' />
  <node id='-43702' action='modify' visible='true' lat='-33.5048867' lon='151.2903094' />
  <node id='-43704' action='modify' visible='true' lat='-33.5050388' lon='151.2900626' />
  <node id='-43706' action='modify' visible='true' lat='-33.5053295' lon='151.2899017' />
  <node id='-43708' action='modify' visible='true' lat='-33.505334' lon='151.2897783' />
  <node id='-43710' action='modify' visible='true' lat='-33.5051014' lon='151.289773' />
  <node id='-43712' action='modify' visible='true' lat='-33.5047704' lon='151.28973' />
  <node id='-43714' action='modify' visible='true' lat='-33.5046049' lon='151.2896174' />
  <node id='-43716' action='modify' visible='true' lat='-33.5046183' lon='151.2893438' />
  <node id='-43718' action='modify' visible='true' lat='-33.5047927' lon='151.2887376' />
  <node id='-43720' action='modify' visible='true' lat='-33.5050701' lon='151.2883353' />
  <node id='-43722' action='modify' visible='true' lat='-33.5050969' lon='151.2881368' />
  <node id='-43724' action='modify' visible='true' lat='-33.5048464' lon='151.2877506' />
  <node id='-43726' action='modify' visible='true' lat='-33.5045601' lon='151.2874394' />
  <node id='-43728' action='modify' visible='true' lat='-33.5042247' lon='151.2864899' />
  <node id='-43730' action='modify' visible='true' lat='-33.5039518' lon='151.2856906' />
  <node id='-43732' action='modify' visible='true' lat='-33.5036566' lon='151.2847894' />
  <node id='-43734' action='modify' visible='true' lat='-33.5034642' lon='151.2842583' />
  <node id='-43736' action='modify' visible='true' lat='-33.5032137' lon='151.2836468' />
  <node id='-43738' action='modify' visible='true' lat='-33.503084' lon='151.2829441' />
  <node id='-43740' action='modify' visible='true' lat='-33.5029051' lon='151.2819946' />
  <node id='-43742' action='modify' visible='true' lat='-33.5026859' lon='151.2814527' />
  <node id='-43744' action='modify' visible='true' lat='-33.5021938' lon='151.2810611' />
  <node id='-43746' action='modify' visible='true' lat='-33.5017734' lon='151.2806481' />
  <node id='-43748' action='modify' visible='true' lat='-33.5016034' lon='151.2804281' />
  <node id='-43750' action='modify' visible='true' lat='-33.5016257' lon='151.2800741' />
  <node id='-43752' action='modify' visible='true' lat='-33.5015765' lon='151.2793177' />
  <node id='-43754' action='modify' visible='true' lat='-33.5014334' lon='151.2789851' />
  <node id='-43756' action='modify' visible='true' lat='-33.5013663' lon='151.2785613' />
  <node id='-43758' action='modify' visible='true' lat='-33.5013797' lon='151.2783307' />
  <node id='-43760' action='modify' visible='true' lat='-33.5015229' lon='151.2780142' />
  <node id='-43762' action='modify' visible='true' lat='-33.5016481' lon='151.2778747' />
  <node id='-43764' action='modify' visible='true' lat='-33.5017063' lon='151.2776172' />
  <node id='-43766' action='modify' visible='true' lat='-33.501751' lon='151.2770915' />
  <node id='-43768' action='modify' visible='true' lat='-33.501892' lon='151.2767477' />
  <node id='-43770' action='modify' visible='true' lat='-33.538461' lon='151.2830343' />
  <node id='-43772' action='modify' visible='true' lat='-33.538445' lon='151.2830034' />
  <node id='-43774' action='modify' visible='true' lat='-33.5380027' lon='151.2821478' />
  <node id='-43776' action='modify' visible='true' lat='-33.537835' lon='151.282003' />
  <node id='-43778' action='modify' visible='true' lat='-33.5377762' lon='151.2819753' />
  <node id='-43780' action='modify' visible='true' lat='-33.5375891' lon='151.2821022' />
  <node id='-43782' action='modify' visible='true' lat='-33.536858' lon='151.2823222' />
  <node id='-43784' action='modify' visible='true' lat='-33.5364198' lon='151.282467' />
  <node id='-43786' action='modify' visible='true' lat='-33.5362209' lon='151.2825126' />
  <node id='-43788' action='modify' visible='true' lat='-33.5360898' lon='151.2824459' />
  <node id='-43790' action='modify' visible='true' lat='-33.5358629' lon='151.2816015' />
  <node id='-43792' action='modify' visible='true' lat='-33.533435' lon='151.2816388'>
  </node>
  <node id='-43794' action='modify' visible='true' lat='-33.5513899' lon='151.2895029'>
  </node>
  <node id='-43796' action='modify' visible='true' lat='-33.5513189' lon='151.2891713'>
  </node>
  <node id='-43798' action='modify' visible='true' lat='-33.5503477' lon='151.2885317'>
  </node>
  <node id='-43800' action='modify' visible='true' lat='-33.5501981' lon='151.2882093' />
  <node id='-43802' action='modify' visible='true' lat='-33.54995' lon='151.2880408' />
  <node id='-43804' action='modify' visible='true' lat='-33.540413' lon='151.2815738' />
  <node id='-43806' action='modify' visible='true' lat='-33.5385813' lon='151.283108' />
  <node id='-43808' action='modify' visible='true' lat='-33.5524913' lon='151.289099' />
  <node id='-43810' action='modify' visible='true' lat='-33.5526695' lon='151.2889586' />
  <node id='-43812' action='modify' visible='true' lat='-33.5528067' lon='151.2889321' />
  <node id='-43814' action='modify' visible='true' lat='-33.5496935' lon='151.2878109' />
  <node id='-43816' action='modify' visible='true' lat='-33.5493977' lon='151.2876511' />
  <node id='-43818' action='modify' visible='true' lat='-33.5490543' lon='151.2875395' />
  <node id='-43820' action='modify' visible='true' lat='-33.54873' lon='151.2872905' />
  <node id='-43822' action='modify' visible='true' lat='-33.5486967' lon='151.2872649' />
  <node id='-43824' action='modify' visible='true' lat='-33.5481673' lon='151.2868786' />
  <node id='-43826' action='modify' visible='true' lat='-33.5475807' lon='151.2864924'>
  </node>
  <node id='-43828' action='modify' visible='true' lat='-33.5471015' lon='151.2862435' />
  <node id='-43830' action='modify' visible='true' lat='-33.5466293' lon='151.2859173' />
  <node id='-43832' action='modify' visible='true' lat='-33.546336' lon='151.2854796' />
  <node id='-43834' action='modify' visible='true' lat='-33.5459656' lon='151.2851445'>
  </node>
  <node id='-43836' action='modify' visible='true' lat='-33.545449' lon='151.2846642' />
  <node id='-43838' action='modify' visible='true' lat='-33.5449053' lon='151.2843037' />
  <node id='-43840' action='modify' visible='true' lat='-33.5445334' lon='151.2839346' />
  <node id='-43842' action='modify' visible='true' lat='-33.5437321' lon='151.2835398'>
  </node>
  <node id='-43844' action='modify' visible='true' lat='-33.5435032' lon='151.2831793' />
  <node id='-43846' action='modify' visible='true' lat='-33.5431742' lon='151.2827931' />
  <node id='-43848' action='modify' visible='true' lat='-33.5426877' lon='151.2824412' />
  <node id='-43850' action='modify' visible='true' lat='-33.5417677' lon='151.2818211' />
  <node id='-43852' action='modify' visible='true' lat='-33.5514112' lon='151.279192' />
  <node id='-43854' action='modify' visible='true' lat='-33.5514806' lon='151.2792777' />
  <node id='-43856' action='modify' visible='true' lat='-33.5515919' lon='151.2793493' />
  <node id='-43858' action='modify' visible='true' lat='-33.5525529' lon='151.2794276' />
  <node id='-43860' action='modify' visible='true' lat='-33.5517713' lon='151.2805247' />
  <node id='-43862' action='modify' visible='true' lat='-33.5516836' lon='151.2809148' />
  <node id='-43864' action='modify' visible='true' lat='-33.5517858' lon='151.2812022' />
  <node id='-43866' action='modify' visible='true' lat='-33.5515977' lon='151.2812479' />
  <node id='-43868' action='modify' visible='true' lat='-33.5515583' lon='151.2819762' />
  <node id='-43870' action='modify' visible='true' lat='-33.5516883' lon='151.2821614' />
  <node id='-43872' action='modify' visible='true' lat='-33.5515341' lon='151.2831889' />
  <node id='-43874' action='modify' visible='true' lat='-33.5505385' lon='151.2853438' />
  <node id='-43876' action='modify' visible='true' lat='-33.5332176' lon='151.280314' />
  <node id='-43878' action='modify' visible='true' lat='-33.5329139' lon='151.2802649'>
  </node>
  <node id='-43880' action='modify' visible='true' lat='-33.5326244' lon='151.2800685' />
  <node id='-43882' action='modify' visible='true' lat='-33.5323928' lon='151.280715'>
  </node>
  <node id='-43884' action='modify' visible='true' lat='-33.5324665' lon='151.2813101' />
  <node id='-43886' action='modify' visible='true' lat='-33.5323449' lon='151.2814447' />
  <node id='-43888' action='modify' visible='true' lat='-33.5318416' lon='151.2809091' />
  <node id='-43890' action='modify' visible='true' lat='-33.5314453' lon='151.2811413'>
  </node>
  <node id='-43892' action='modify' visible='true' lat='-33.5310426' lon='151.2815677'>
  </node>
  <node id='-43894' action='modify' visible='true' lat='-33.5304504' lon='151.2816624'>
  </node>
  <node id='-43896' action='modify' visible='true' lat='-33.5296688' lon='151.2825862'>
  </node>
  <node id='-43898' action='modify' visible='true' lat='-33.528044' lon='151.2830905' />
  <node id='-43900' action='modify' visible='true' lat='-33.527584' lon='151.2830452' />
  <node id='-43902' action='modify' visible='true' lat='-33.5272547' lon='151.2832319' />
  <node id='-43904' action='modify' visible='true' lat='-33.5263444' lon='151.2835103' />
  <node id='-43906' action='modify' visible='true' lat='-33.5259949' lon='151.28376' />
  <node id='-43908' action='modify' visible='true' lat='-33.5258091' lon='151.2841634' />
  <node id='-43910' action='modify' visible='true' lat='-33.5252403' lon='151.2844348' />
  <node id='-43912' action='modify' visible='true' lat='-33.5247348' lon='151.2846697' />
  <node id='-43914' action='modify' visible='true' lat='-33.5245286' lon='151.2847655'>
  </node>
  <node id='-43916' action='modify' visible='true' lat='-33.5237627' lon='151.2850786' />
  <node id='-43918' action='modify' visible='true' lat='-33.523699' lon='151.2858357' />
  <node id='-43920' action='modify' visible='true' lat='-33.5233443' lon='151.2863999'>
  </node>
  <node id='-43922' action='modify' visible='true' lat='-33.5225414' lon='151.2871256' />
  <node id='-43924' action='modify' visible='true' lat='-33.5220427' lon='151.2873177' />
  <node id='-43926' action='modify' visible='true' lat='-33.5215307' lon='151.2874649' />
  <node id='-43928' action='modify' visible='true' lat='-33.5206796' lon='151.2874553' />
  <node id='-43930' action='modify' visible='true' lat='-33.5199582' lon='151.2871463' />
  <node id='-43932' action='modify' visible='true' lat='-33.5191494' lon='151.2863749' />
  <node id='-43934' action='modify' visible='true' lat='-33.5183448' lon='151.2861088' />
  <node id='-43936' action='modify' visible='true' lat='-33.5173607' lon='151.2861353' />
  <node id='-43938' action='modify' visible='true' lat='-33.5171183' lon='151.2865935' />
  <node id='-43940' action='modify' visible='true' lat='-33.5168043' lon='151.2867509' />
  <node id='-43942' action='modify' visible='true' lat='-33.5166344' lon='151.28712' />
  <node id='-43944' action='modify' visible='true' lat='-33.5162323' lon='151.2875631' />
  <node id='-43946' action='modify' visible='true' lat='-33.5161791' lon='151.2878852' />
  <node id='-43948' action='modify' visible='true' lat='-33.5163376' lon='151.288232' />
  <node id='-43950' action='modify' visible='true' lat='-33.5163314' lon='151.2884375' />
  <node id='-43952' action='modify' visible='true' lat='-33.5161721' lon='151.2884943' />
  <node id='-43954' action='modify' visible='true' lat='-33.5159197' lon='151.2885509' />
  <node id='-43956' action='modify' visible='true' lat='-33.5157069' lon='151.2884439' />
  <node id='-43958' action='modify' visible='true' lat='-33.5155695' lon='151.2882889' />
  <node id='-43960' action='modify' visible='true' lat='-33.5151104' lon='151.2881242' />
  <node id='-43962' action='modify' visible='true' lat='-33.5148995' lon='151.2881701' />
  <node id='-43964' action='modify' visible='true' lat='-33.5147932' lon='151.2880106'>
  </node>
  <node id='-43966' action='modify' visible='true' lat='-33.514509' lon='151.2873947'>
  </node>
  <node id='-43968' action='modify' visible='true' lat='-33.5140826' lon='151.2878922'>
  </node>
  <node id='-43970' action='modify' visible='true' lat='-33.5135852' lon='151.2880817'>
  </node>
  <node id='-43972' action='modify' visible='true' lat='-33.5132299' lon='151.2887923'>
  </node>
  <node id='-43974' action='modify' visible='true' lat='-33.5130877' lon='151.2893845'>
  </node>
  <node id='-43976' action='modify' visible='true' lat='-33.5131195' lon='151.2897448' />
  <node id='-43978' action='modify' visible='true' lat='-33.5129693' lon='151.2898108'>
  </node>
  <node id='-43980' action='modify' visible='true' lat='-33.5122824' lon='151.2892187' />
  <node id='-43982' action='modify' visible='true' lat='-33.5115244' lon='151.2887686'>
  </node>
  <node id='-43984' action='modify' visible='true' lat='-33.5102453' lon='151.2888633'>
  </node>
  <node id='-43986' action='modify' visible='true' lat='-33.5097715' lon='151.2887212'>
  </node>
  <node id='-43988' action='modify' visible='true' lat='-33.5095583' lon='151.2890528'>
  </node>
  <node id='-43990' action='modify' visible='true' lat='-33.5093688' lon='151.2886265'>
  </node>
  <node id='-43992' action='modify' visible='true' lat='-33.508824' lon='151.2880343'>
  </node>
  <node id='-43994' action='modify' visible='true' lat='-33.5086345' lon='151.2873237'>
  </node>
  <node id='-43996' action='modify' visible='true' lat='-33.5084214' lon='151.2866131'>
  </node>
  <node id='-43998' action='modify' visible='true' lat='-33.508445' lon='151.2854287'>
  </node>
  <node id='-44000' action='modify' visible='true' lat='-33.5084687' lon='151.2843628'>
  </node>
  <node id='-44002' action='modify' visible='true' lat='-33.508753' lon='151.2837232'>
  </node>
  <node id='-44004' action='modify' visible='true' lat='-33.5084687' lon='151.2832732'>
  </node>
  <node id='-44006' action='modify' visible='true' lat='-33.5080897' lon='151.2831074'>
  </node>
  <node id='-44008' action='modify' visible='true' lat='-33.5078055' lon='151.2823967'>
  </node>
  <node id='-44010' action='modify' visible='true' lat='-33.5070475' lon='151.2813545'>
  </node>
  <node id='-44012' action='modify' visible='true' lat='-33.5064316' lon='151.2814493'>
  </node>
  <node id='-44014' action='modify' visible='true' lat='-33.5060763' lon='151.2817809'>
  </node>
  <node id='-44016' action='modify' visible='true' lat='-33.5051052' lon='151.2819704'>
  </node>
  <node id='-44018' action='modify' visible='true' lat='-33.5048683' lon='151.2812834'>
  </node>
  <node id='-44020' action='modify' visible='true' lat='-33.5042287' lon='151.2809281'>
  </node>
  <node id='-44022' action='modify' visible='true' lat='-33.5039906' lon='151.2802523' />
  <node id='-44024' action='modify' visible='true' lat='-33.503812' lon='151.2801045' />
  <node id='-44026' action='modify' visible='true' lat='-33.5039149' lon='151.2798134' />
  <node id='-44028' action='modify' visible='true' lat='-33.503447' lon='151.2795543'>
  </node>
  <node id='-44030' action='modify' visible='true' lat='-33.5033286' lon='151.2791279'>
  </node>
  <node id='-44032' action='modify' visible='true' lat='-33.5023825' lon='151.2785521' />
  <node id='-44034' action='modify' visible='true' lat='-33.5023923' lon='151.2780462' />
  <node id='-44036' action='modify' visible='true' lat='-33.5022803' lon='151.2774592' />
  <node id='-44038' action='modify' visible='true' lat='-33.5021767' lon='151.2771863' />
  <node id='-44040' action='modify' visible='true' lat='-33.5020924' lon='151.2769441' />
  <node id='-44042' action='modify' visible='true' lat='-33.501961' lon='151.2767799' />
  <node id='-44044' action='modify' visible='true' lat='-33.5019232' lon='151.276722' />
  <node id='-44046' action='modify' visible='true' lat='-33.5018962' lon='151.2766807' />
  <node id='-44048' action='modify' visible='true' lat='-33.5522774332' lon='151.28930745445' />
  <node id='-44050' action='modify' visible='true' lat='-33.5528045586' lon='151.28891613672' />
  <node id='-44052' action='modify' visible='true' lat='-33.5524830345' lon='151.28908616957' />
  <node id='-44054' action='modify' visible='true' lat='-33.5526645133' lon='151.28894318628' />
  <node id='-44056' action='modify' visible='true' lat='-33.5034724' lon='151.2920476' />
  <node id='-44058' action='modify' visible='true' lat='-33.5032625' lon='151.2923556' />
  <node id='-44060' action='modify' visible='true' lat='-33.5032051' lon='151.292759' />
  <node id='-44062' action='modify' visible='true' lat='-33.5032094' lon='151.2930785' />
  <node id='-44064' action='modify' visible='true' lat='-33.5031972' lon='151.2936137' />
  <node id='-44066' action='modify' visible='true' lat='-33.5031354' lon='151.2937621' />
  <node id='-44068' action='modify' visible='true' lat='-33.5030107' lon='151.2938117' />
  <node id='-44070' action='modify' visible='true' lat='-33.5028847' lon='151.2938091' />
  <node id='-44072' action='modify' visible='true' lat='-33.5027149' lon='151.2936997' />
  <node id='-44074' action='modify' visible='true' lat='-33.502457' lon='151.2935568' />
  <node id='-44076' action='modify' visible='true' lat='-33.5023204' lon='151.2934675' />
  <node id='-44078' action='modify' visible='true' lat='-33.5021418' lon='151.2934597' />
  <node id='-44080' action='modify' visible='true' lat='-33.5019139' lon='151.2936329' />
  <node id='-44082' action='modify' visible='true' lat='-33.5016065' lon='151.2940568' />
  <node id='-44084' action='modify' visible='true' lat='-33.5013016' lon='151.294542' />
  <node id='-44086' action='modify' visible='true' lat='-33.5011753' lon='151.2947869' />
  <node id='-44088' action='modify' visible='true' lat='-33.5010317' lon='151.2949023' />
  <node id='-44090' action='modify' visible='true' lat='-33.5008028' lon='151.2949653' />
  <node id='-44092' action='modify' visible='true' lat='-33.5005884' lon='151.2950389' />
  <node id='-44094' action='modify' visible='true' lat='-33.5004111' lon='151.2951873' />
  <node id='-44096' action='modify' visible='true' lat='-33.5002126' lon='151.2954651' />
  <node id='-44098' action='modify' visible='true' lat='-33.500104' lon='151.2956677' />
  <node id='-44100' action='modify' visible='true' lat='-33.4999842' lon='151.2957761' />
  <node id='-44102' action='modify' visible='true' lat='-33.4998366' lon='151.295867' />
  <node id='-44104' action='modify' visible='true' lat='-33.499639' lon='151.295905' />
  <node id='-44106' action='modify' visible='true' lat='-33.4993665' lon='151.295847' />
  <node id='-44108' action='modify' visible='true' lat='-33.4990765' lon='151.2956429' />
  <node id='-44110' action='modify' visible='true' lat='-33.4988345' lon='151.2955666' />
  <node id='-44112' action='modify' visible='true' lat='-33.4985587' lon='151.2955944' />
  <node id='-44114' action='modify' visible='true' lat='-33.4983165' lon='151.2957836' />
  <node id='-44116' action='modify' visible='true' lat='-33.4980874' lon='151.2961218' />
  <node id='-44118' action='modify' visible='true' lat='-33.4978406' lon='151.2967126' />
  <node id='-44120' action='modify' visible='true' lat='-33.4976959' lon='151.2975728' />
  <node id='-44122' action='modify' visible='true' lat='-33.4977392' lon='151.2983638' />
  <node id='-44124' action='modify' visible='true' lat='-33.4978663' lon='151.2991746' />
  <node id='-44126' action='modify' visible='true' lat='-33.4978882' lon='151.2999196' />
  <node id='-44128' action='modify' visible='true' lat='-33.4978048' lon='151.3003016' />
  <node id='-44130' action='modify' visible='true' lat='-33.497763' lon='151.3007924' />
  <node id='-44132' action='modify' visible='true' lat='-33.4978007' lon='151.3013669' />
  <node id='-44134' action='modify' visible='true' lat='-33.497858' lon='151.3018371' />
  <node id='-44136' action='modify' visible='true' lat='-33.4978742' lon='151.3024831' />
  <node id='-44138' action='modify' visible='true' lat='-33.497869' lon='151.3029052' />
  <node id='-44140' action='modify' visible='true' lat='-33.4978224' lon='151.3032136' />
  <node id='-44142' action='modify' visible='true' lat='-33.4977318' lon='151.30427' />
  <node id='-44144' action='modify' visible='true' lat='-33.4976943' lon='151.3047068' />
  <node id='-44146' action='modify' visible='true' lat='-33.4976544' lon='151.3050292' />
  <node id='-44148' action='modify' visible='true' lat='-33.4975281' lon='151.3058842' />
  <node id='-44150' action='modify' visible='true' lat='-33.4972657' lon='151.3068743' />
  <node id='-44152' action='modify' visible='true' lat='-33.496896' lon='151.3081744' />
  <node id='-44154' action='modify' visible='true' lat='-33.4966488' lon='151.308918' />
  <node id='-44156' action='modify' visible='true' lat='-33.4964179' lon='151.3095181' />
  <node id='-44158' action='modify' visible='true' lat='-33.4956312' lon='151.3111547' />
  <node id='-44160' action='modify' visible='true' lat='-33.4954316' lon='151.3115358' />
  <node id='-44162' action='modify' visible='true' lat='-33.4952268' lon='151.3118731' />
  <node id='-44164' action='modify' visible='true' lat='-33.4942156' lon='151.3132628' />
  <node id='-44166' action='modify' visible='true' lat='-33.4927472' lon='151.3151534' />
  <node id='-44168' action='modify' visible='true' lat='-33.4920326' lon='151.3160581' />
  <node id='-44170' action='modify' visible='true' lat='-33.4916924' lon='151.3164887' />
  <node id='-44172' action='modify' visible='true' lat='-33.4904546' lon='151.3180677' />
  <node id='-44174' action='modify' visible='true' lat='-33.4890145' lon='151.3198668' />
  <node id='-44176' action='modify' visible='true' lat='-33.4881229' lon='151.3209807' />
  <node id='-44178' action='modify' visible='true' lat='-33.48807212303' lon='151.32093844102' />
  <node id='-44180' action='modify' visible='true' lat='-33.4877581' lon='151.3213243' />
  <node id='-44182' action='modify' visible='true' lat='-33.4876294' lon='151.3214759' />
  <node id='-44184' action='modify' visible='true' lat='-33.4873655' lon='151.3217314' />
  <node id='-44186' action='modify' visible='true' lat='-33.4872464' lon='151.321846' />
  <node id='-44188' action='modify' visible='true' lat='-33.4871681' lon='151.3218742' />
  <node id='-44190' action='modify' visible='true' lat='-33.4871205' lon='151.3218889' />
  <node id='-44192' action='modify' visible='true' lat='-33.4870674' lon='151.3219446' />
  <node id='-44194' action='modify' visible='true' lat='-33.4869757' lon='151.322186' />
  <node id='-44196' action='modify' visible='true' lat='-33.4868767' lon='151.3223463' />
  <node id='-44198' action='modify' visible='true' lat='-33.4868588' lon='151.3223691' />
  <node id='-44200' action='modify' visible='true' lat='-33.486804' lon='151.3224079' />
  <node id='-44202' action='modify' visible='true' lat='-33.4867179' lon='151.3225233' />
  <node id='-44204' action='modify' visible='true' lat='-33.4866383' lon='151.3226392' />
  <node id='-44206' action='modify' visible='true' lat='-33.4866161' lon='151.3226715' />
  <node id='-44208' action='modify' visible='true' lat='-33.4864332' lon='151.3229142' />
  <node id='-44210' action='modify' visible='true' lat='-33.4863929' lon='151.3228968' />
  <node id='-44212' action='modify' visible='true' lat='-33.486323' lon='151.3228874' />
  <node id='-44214' action='modify' visible='true' lat='-33.4862671' lon='151.3229169' />
  <node id='-44216' action='modify' visible='true' lat='-33.4862039' lon='151.3229994' />
  <node id='-44218' action='modify' visible='true' lat='-33.4861964' lon='151.3230268' />
  <node id='-44220' action='modify' visible='true' lat='-33.4861855' lon='151.3230671' />
  <node id='-44222' action='modify' visible='true' lat='-33.4861245' lon='151.3231449' />
  <node id='-44224' action='modify' visible='true' lat='-33.4859843' lon='151.3232581' />
  <node id='-44226' action='modify' visible='true' lat='-33.4857398' lon='151.3234555' />
  <node id='-44228' action='modify' visible='true' lat='-33.55149700833' lon='151.27894711779' />
  <node id='-44230' action='modify' visible='true' lat='-33.55180101194' lon='151.27851259993' />
  <node id='-44232' action='modify' visible='true' lat='-33.55101641221' lon='151.27769184397' />
  <node id='-44234' action='modify' visible='true' lat='-33.55081076096' lon='151.27753627585' />
  <node id='-44236' action='modify' visible='true' lat='-33.55075264204' lon='151.27723855065' />
  <node id='-44238' action='modify' visible='true' lat='-33.55037710346' lon='151.27582234429' />
  <node id='-44240' action='modify' visible='true' lat='-33.55042628122' lon='151.2751115589' />
  <node id='-44242' action='modify' visible='true' lat='-33.55056040225' lon='151.27455365942' />
  <way id='-44244' action='modify' visible='true'>
    <nd ref='-43692' />
    <nd ref='-43694' />
    <nd ref='-43696' />
    <nd ref='-43698' />
    <nd ref='-43700' />
    <nd ref='-43702' />
    <nd ref='-43704' />
    <nd ref='-43706' />
    <nd ref='-43708' />
    <nd ref='-43710' />
    <nd ref='-43712' />
    <nd ref='-43714' />
    <nd ref='-43716' />
    <nd ref='-43718' />
    <nd ref='-43720' />
    <nd ref='-43722' />
    <nd ref='-43724' />
    <nd ref='-43726' />
    <nd ref='-43728' />
    <nd ref='-43730' />
    <nd ref='-43732' />
    <nd ref='-43734' />
    <nd ref='-43736' />
    <nd ref='-43738' />
    <nd ref='-43740' />
    <nd ref='-43742' />
    <nd ref='-43744' />
    <nd ref='-43746' />
    <nd ref='-43748' />
    <nd ref='-43750' />
    <nd ref='-43752' />
    <nd ref='-43754' />
    <nd ref='-43756' />
    <nd ref='-43758' />
    <nd ref='-43760' />
    <nd ref='-43762' />
    <nd ref='-43764' />
    <nd ref='-43766' />
    <nd ref='-43768' />
    <nd ref='-44046' />
    <nd ref='-44044' />
    <nd ref='-44042' />
    <nd ref='-44040' />
    <nd ref='-44038' />
    <nd ref='-44036' />
    <nd ref='-44034' />
    <nd ref='-44032' />
    <nd ref='-44030' />
    <nd ref='-44028' />
    <nd ref='-44026' />
    <nd ref='-44024' />
    <nd ref='-44022' />
    <nd ref='-44020' />
    <nd ref='-44018' />
    <nd ref='-44016' />
    <nd ref='-44014' />
    <nd ref='-44012' />
    <nd ref='-44010' />
    <nd ref='-44008' />
    <nd ref='-44006' />
    <nd ref='-44004' />
    <nd ref='-44002' />
    <nd ref='-44000' />
    <nd ref='-43998' />
    <nd ref='-43996' />
    <nd ref='-43994' />
    <nd ref='-43992' />
    <nd ref='-43990' />
    <nd ref='-43988' />
    <nd ref='-43986' />
    <nd ref='-43984' />
    <nd ref='-43982' />
    <nd ref='-43980' />
    <nd ref='-43978' />
    <nd ref='-43976' />
    <nd ref='-43974' />
    <nd ref='-43972' />
    <nd ref='-43970' />
    <nd ref='-43968' />
    <nd ref='-43966' />
    <nd ref='-43964' />
    <nd ref='-43962' />
    <nd ref='-43960' />
    <nd ref='-43958' />
    <nd ref='-43956' />
    <nd ref='-43954' />
    <nd ref='-43952' />
    <nd ref='-43950' />
    <nd ref='-43948' />
    <nd ref='-43946' />
    <nd ref='-43944' />
    <nd ref='-43942' />
    <nd ref='-43940' />
    <nd ref='-43938' />
    <nd ref='-43936' />
    <nd ref='-43934' />
    <nd ref='-43932' />
    <nd ref='-43930' />
    <nd ref='-43928' />
    <nd ref='-43926' />
    <nd ref='-43924' />
    <nd ref='-43922' />
    <nd ref='-43920' />
    <nd ref='-43918' />
    <nd ref='-43916' />
    <nd ref='-43914' />
    <nd ref='-43912' />
    <nd ref='-43910' />
    <nd ref='-43908' />
    <nd ref='-43906' />
    <nd ref='-43904' />
    <nd ref='-43902' />
    <nd ref='-43900' />
    <nd ref='-43898' />
    <nd ref='-43896' />
    <nd ref='-43894' />
    <nd ref='-43892' />
    <nd ref='-43890' />
    <nd ref='-43888' />
    <nd ref='-43886' />
    <nd ref='-43884' />
    <nd ref='-43882' />
    <nd ref='-43880' />
    <nd ref='-43878' />
    <nd ref='-43876' />
    <nd ref='-43792' />
    <nd ref='-43790' />
    <nd ref='-43788' />
    <nd ref='-43786' />
    <nd ref='-43784' />
    <nd ref='-43782' />
    <nd ref='-43780' />
    <nd ref='-43778' />
    <nd ref='-43776' />
    <nd ref='-43774' />
    <nd ref='-43772' />
    <nd ref='-43770' />
    <nd ref='-43806' />
    <nd ref='-43804' />
    <nd ref='-43850' />
    <nd ref='-43848' />
    <nd ref='-43846' />
    <nd ref='-43844' />
    <nd ref='-43842' />
    <nd ref='-43840' />
    <nd ref='-43838' />
    <nd ref='-43836' />
    <nd ref='-43834' />
    <nd ref='-43832' />
    <nd ref='-43830' />
    <nd ref='-43828' />
    <nd ref='-43826' />
    <nd ref='-43824' />
    <nd ref='-43822' />
    <nd ref='-43820' />
    <nd ref='-43818' />
    <nd ref='-43816' />
    <nd ref='-43814' />
    <nd ref='-43802' />
    <nd ref='-43800' />
    <nd ref='-43798' />
    <nd ref='-43796' />
    <nd ref='-43794' />
    <nd ref='-43690' />
    <nd ref='-43808' />
    <nd ref='-43810' />
    <nd ref='-43812' />
    <nd ref='-44050' />
    <nd ref='-44054' />
    <nd ref='-44052' />
    <nd ref='-44048' />
    <nd ref='-43688' />
    <nd ref='-43686' />
    <nd ref='-43684' />
    <nd ref='-43682' />
    <nd ref='-43680' />
    <nd ref='-43678' />
    <nd ref='-43676' />
    <nd ref='-43674' />
    <nd ref='-43672' />
    <nd ref='-43670' />
    <nd ref='-43668' />
    <nd ref='-43666' />
    <nd ref='-43664' />
    <nd ref='-43662' />
    <nd ref='-43874' />
    <nd ref='-43872' />
    <nd ref='-43870' />
    <nd ref='-43868' />
    <nd ref='-43866' />
    <nd ref='-43864' />
    <nd ref='-43862' />
    <nd ref='-43860' />
    <nd ref='-43858' />
    <nd ref='-43856' />
    <nd ref='-43854' />
    <nd ref='-43852' />
    <nd ref='-44228' />
    <nd ref='-44230' />
    <nd ref='-44232' />
    <nd ref='-44234' />
    <nd ref='-44236' />
    <nd ref='-44238' />
    <nd ref='-44240' />
    <nd ref='-44242' />
    <tag k='name' v='Woy Woy to Patonga' />
    <tag k='park' v='Brisbane Water National Park' />
    <tag k='photo' v='136319147@N08/34555609660' />
    <tag k='role' v='primary' />
    <tag k='style' v='oneway' />
    <tag k='transport' v='train+bus+foot;carshuffle;train+taxi+bus' />
  </way>
  <way id='-44246' action='modify' visible='true'>
    <nd ref='-44226' />
    <nd ref='-44224' />
    <nd ref='-44222' />
    <nd ref='-44220' />
    <nd ref='-44218' />
    <nd ref='-44216' />
    <nd ref='-44214' />
    <nd ref='-44212' />
    <nd ref='-44210' />
    <nd ref='-44208' />
    <nd ref='-44206' />
    <nd ref='-44204' />
    <nd ref='-44202' />
    <nd ref='-44200' />
    <nd ref='-44198' />
    <nd ref='-44196' />
    <nd ref='-44194' />
    <nd ref='-44192' />
    <nd ref='-44190' />
    <nd ref='-44188' />
    <nd ref='-44186' />
    <nd ref='-44184' />
    <nd ref='-44182' />
    <nd ref='-44180' />
    <nd ref='-44178' />
    <nd ref='-44176' />
    <nd ref='-44174' />
    <nd ref='-44172' />
    <nd ref='-44170' />
    <nd ref='-44168' />
    <nd ref='-44166' />
    <nd ref='-44164' />
    <nd ref='-44162' />
    <nd ref='-44160' />
    <nd ref='-44158' />
    <nd ref='-44156' />
    <nd ref='-44154' />
    <nd ref='-44152' />
    <nd ref='-44150' />
    <nd ref='-44148' />
    <nd ref='-44146' />
    <nd ref='-44144' />
    <nd ref='-44142' />
    <nd ref='-44140' />
    <nd ref='-44138' />
    <nd ref='-44136' />
    <nd ref='-44134' />
    <nd ref='-44132' />
    <nd ref='-44130' />
    <nd ref='-44128' />
    <nd ref='-44126' />
    <nd ref='-44124' />
    <nd ref='-44122' />
    <nd ref='-44120' />
    <nd ref='-44118' />
    <nd ref='-44116' />
    <nd ref='-44114' />
    <nd ref='-44112' />
    <nd ref='-44110' />
    <nd ref='-44108' />
    <nd ref='-44106' />
    <nd ref='-44104' />
    <nd ref='-44102' />
    <nd ref='-44100' />
    <nd ref='-44098' />
    <nd ref='-44096' />
    <nd ref='-44094' />
    <nd ref='-44092' />
    <nd ref='-44090' />
    <nd ref='-44088' />
    <nd ref='-44086' />
    <nd ref='-44084' />
    <nd ref='-44082' />
    <nd ref='-44080' />
    <nd ref='-44078' />
    <nd ref='-44076' />
    <nd ref='-44074' />
    <nd ref='-44072' />
    <nd ref='-44070' />
    <nd ref='-44068' />
    <nd ref='-44066' />
    <nd ref='-44064' />
    <nd ref='-44062' />
    <nd ref='-44060' />
    <nd ref='-44058' />
    <nd ref='-44056' />
    <tag k='role' v='transit_connection' />
  </way>
</osm>
