<?xml version='1.0' encoding='UTF-8'?>
<osm version='0.6' upload='false' generator='JOSM'>
  <node id='-39180' action='modify' lat='-33.78167146332' lon='150.62639804525' />
  <node id='-39182' action='modify' lat='-33.78138833525' lon='150.62622101945' />
  <node id='-39184' action='modify' lat='-33.7811388' lon='150.6262067' />
  <node id='-39186' action='modify' lat='-33.781086' lon='150.626202' />
  <node id='-39188' action='modify' lat='-33.7810332' lon='150.6261772' />
  <node id='-39190' action='modify' lat='-33.7809779' lon='150.6261509' />
  <node id='-39192' action='modify' lat='-33.7809174' lon='150.6261354' />
  <node id='-39194' action='modify' lat='-33.7808736' lon='150.6261029' />
  <node id='-39196' action='modify' lat='-33.7808066' lon='150.6260502' />
  <node id='-39198' action='modify' lat='-33.7807268' lon='150.6260161' />
  <node id='-39200' action='modify' lat='-33.7806702' lon='150.625934' />
  <node id='-39202' action='modify' lat='-33.7806225' lon='150.625886' />
  <node id='-39204' action='modify' lat='-33.7806238' lon='150.625852' />
  <node id='-39206' action='modify' lat='-33.7805981' lon='150.6257884' />
  <node id='-39208' action='modify' lat='-33.7805569' lon='150.6257048' />
  <node id='-39210' action='modify' lat='-33.7805402' lon='150.6256258' />
  <node id='-39212' action='modify' lat='-33.780535' lon='150.6255468' />
  <node id='-39214' action='modify' lat='-33.780508' lon='150.6255236' />
  <node id='-39216' action='modify' lat='-33.7805002' lon='150.6255081' />
  <node id='-39218' action='modify' lat='-33.7805131' lon='150.6254756' />
  <node id='-39220' action='modify' lat='-33.7805427' lon='150.6254245' />
  <node id='-39222' action='modify' lat='-33.7805157' lon='150.6253501' />
  <node id='-39224' action='modify' lat='-33.7804642' lon='150.6252401' />
  <node id='-39226' action='modify' lat='-33.7804269' lon='150.6251937' />
  <node id='-39228' action='modify' lat='-33.7803586' lon='150.6251147' />
  <node id='-39230' action='modify' lat='-33.7803561' lon='150.6250945' />
  <node id='-39232' action='modify' lat='-33.7803728' lon='150.6250636' />
  <node id='-39234' action='modify' lat='-33.7803818' lon='150.6250326' />
  <node id='-39236' action='modify' lat='-33.7803754' lon='150.6250001' />
  <node id='-39238' action='modify' lat='-33.7803548' lon='150.6249428' />
  <node id='-39240' action='modify' lat='-33.7803303' lon='150.6248823' />
  <node id='-39242' action='modify' lat='-33.7803239' lon='150.6247987' />
  <node id='-39244' action='modify' lat='-33.7803638' lon='150.6247259' />
  <node id='-39246' action='modify' lat='-33.7803625' lon='150.6245571' />
  <node id='-39248' action='modify' lat='-33.7803728' lon='150.6245215' />
  <node id='-39250' action='modify' lat='-33.7804037' lon='150.6244889' />
  <node id='-39252' action='modify' lat='-33.780441' lon='150.6244564' />
  <node id='-39254' action='modify' lat='-33.780441' lon='150.6244363' />
  <node id='-39256' action='modify' lat='-33.7804153' lon='150.6244053' />
  <node id='-39258' action='modify' lat='-33.7803792' lon='150.6243882' />
  <node id='-39260' action='modify' lat='-33.7803496' lon='150.624348' />
  <node id='-39262' action='modify' lat='-33.7803406' lon='150.6243154' />
  <node id='-39264' action='modify' lat='-33.7803548' lon='150.6242953' />
  <node id='-39266' action='modify' lat='-33.7803818' lon='150.624269' />
  <node id='-39268' action='modify' lat='-33.780414' lon='150.6242039' />
  <node id='-39270' action='modify' lat='-33.7804462' lon='150.6241203' />
  <node id='-39272' action='modify' lat='-33.7804334' lon='150.6240462' />
  <node id='-39274' action='modify' lat='-33.7804681' lon='150.6239546' />
  <node id='-39276' action='modify' lat='-33.7804487' lon='150.6238911' />
  <node id='-39278' action='modify' lat='-33.7804874' lon='150.6238136' />
  <node id='-39280' action='modify' lat='-33.7804706' lon='150.6237935' />
  <node id='-39282' action='modify' lat='-33.7804487' lon='150.6237919' />
  <node id='-39284' action='modify' lat='-33.7803973' lon='150.6238384' />
  <node id='-39286' action='modify' lat='-33.7803575' lon='150.6238597' />
  <node id='-39288' action='modify' lat='-33.7803076' lon='150.6238336' />
  <node id='-39290' action='modify' lat='-33.7802517' lon='150.6237865' />
  <node id='-39292' action='modify' lat='-33.7802282' lon='150.6237236' />
  <node id='-39294' action='modify' lat='-33.7802143' lon='150.6236779' />
  <node id='-39296' action='modify' lat='-33.7801968' lon='150.6236105' />
  <node id='-39298' action='modify' lat='-33.7801759' lon='150.6235016' />
  <node id='-39300' action='modify' lat='-33.7801411' lon='150.6234171' />
  <node id='-39302' action='modify' lat='-33.7801291' lon='150.6233845' />
  <node id='-39304' action='modify' lat='-33.7800947' lon='150.6233381' />
  <node id='-39306' action='modify' lat='-33.780088' lon='150.6233163' />
  <node id='-39308' action='modify' lat='-33.7800721' lon='150.6232721' />
  <node id='-39310' action='modify' lat='-33.7800497' lon='150.6232405' />
  <node id='-39312' action='modify' lat='-33.7800226' lon='150.6231624' />
  <node id='-39314' action='modify' lat='-33.7799662' lon='150.6231099' />
  <node id='-39316' action='modify' lat='-33.7799177' lon='150.6230469' />
  <node id='-39318' action='modify' lat='-33.7798854' lon='150.6229986' />
  <node id='-39320' action='modify' lat='-33.7798694' lon='150.6229505' />
  <node id='-39322' action='modify' lat='-33.7798613' lon='150.6229259' />
  <node id='-39324' action='modify' lat='-33.7798174' lon='150.6228571' />
  <node id='-39326' action='modify' lat='-33.7797951' lon='150.6228189' />
  <node id='-39328' action='modify' lat='-33.7797804' lon='150.6227333' />
  <node id='-39330' action='modify' lat='-33.7797566' lon='150.6226841' />
  <node id='-39332' action='modify' lat='-33.7797227' lon='150.6226112' />
  <node id='-39334' action='modify' lat='-33.7796948' lon='150.6225397' />
  <node id='-39336' action='modify' lat='-33.7796686' lon='150.62248' />
  <node id='-39338' action='modify' lat='-33.7796424' lon='150.6224313' />
  <node id='-39340' action='modify' lat='-33.77959' lon='150.622334' />
  <node id='-39342' action='modify' lat='-33.7795927' lon='150.6222331' />
  <node id='-39344' action='modify' lat='-33.779614' lon='150.622159' />
  <node id='-39346' action='modify' lat='-33.7796354' lon='150.6221136' />
  <node id='-39348' action='modify' lat='-33.779629' lon='150.6220537' />
  <node id='-39350' action='modify' lat='-33.7796809' lon='150.621978' />
  <node id='-39352' action='modify' lat='-33.7797109' lon='150.6219046' />
  <node id='-39354' action='modify' lat='-33.7797432' lon='150.6218512' />
  <node id='-39356' action='modify' lat='-33.7797541' lon='150.6217904' />
  <node id='-39358' action='modify' lat='-33.7797535' lon='150.6217474' />
  <node id='-39360' action='modify' lat='-33.7797523' lon='150.6216777' />
  <node id='-39362' action='modify' lat='-33.7797515' lon='150.6216268' />
  <node id='-39364' action='modify' lat='-33.7797594' lon='150.6215815' />
  <node id='-39366' action='modify' lat='-33.7797497' lon='150.6215243' />
  <node id='-39368' action='modify' lat='-33.7797365' lon='150.6214928' />
  <node id='-39370' action='modify' lat='-33.7797059' lon='150.6214283' />
  <node id='-39372' action='modify' lat='-33.7796793' lon='150.6213738' />
  <node id='-39374' action='modify' lat='-33.7796699' lon='150.62134' />
  <node id='-39376' action='modify' lat='-33.7796634' lon='150.6212595' />
  <node id='-39378' action='modify' lat='-33.779657' lon='150.6212146' />
  <node id='-39380' action='modify' lat='-33.7796399' lon='150.6211954' />
  <node id='-39382' action='modify' lat='-33.7796235' lon='150.621165' />
  <node id='-39384' action='modify' lat='-33.7796024' lon='150.6210843' />
  <node id='-39386' action='modify' lat='-33.7795812' lon='150.6210488' />
  <node id='-39388' action='modify' lat='-33.7795345' lon='150.621003' />
  <node id='-39390' action='modify' lat='-33.7794811' lon='150.6209626' />
  <node id='-39392' action='modify' lat='-33.7794442' lon='150.6209139' />
  <node id='-39394' action='modify' lat='-33.7794047' lon='150.620849' />
  <node id='-39396' action='modify' lat='-33.7793705' lon='150.6208487' />
  <node id='-39398' action='modify' lat='-33.7793361' lon='150.6208603' />
  <node id='-39400' action='modify' lat='-33.779286' lon='150.6208158' />
  <node id='-39402' action='modify' lat='-33.7792648' lon='150.6207514' />
  <node id='-39404' action='modify' lat='-33.7792359' lon='150.6206778' />
  <node id='-39406' action='modify' lat='-33.7791485' lon='150.6205702' />
  <node id='-39408' action='modify' lat='-33.7790801' lon='150.6205189' />
  <node id='-39410' action='modify' lat='-33.7789764' lon='150.6204753' />
  <node id='-39412' action='modify' lat='-33.7788807' lon='150.6204214' />
  <node id='-39414' action='modify' lat='-33.7787815' lon='150.6203805' />
  <node id='-39416' action='modify' lat='-33.7787347' lon='150.6203765' />
  <node id='-39418' action='modify' lat='-33.7786578' lon='150.6203939' />
  <node id='-39420' action='modify' lat='-33.77854916396' lon='150.62044387055' />
  <node id='-39422' action='modify' lat='-33.7784561' lon='150.620415' />
  <node id='-39424' action='modify' lat='-33.7783326' lon='150.6202759' />
  <node id='-39426' action='modify' lat='-33.7783409' lon='150.6202054' />
  <node id='-39428' action='modify' lat='-33.7783404' lon='150.6201325' />
  <node id='-39430' action='modify' lat='-33.7783067' lon='150.6200662' />
  <node id='-39432' action='modify' lat='-33.7782627' lon='150.6200004' />
  <node id='-39434' action='modify' lat='-33.7782012' lon='150.6199405' />
  <node id='-39436' action='modify' lat='-33.7776039' lon='150.6195491' />
  <node id='-39438' action='modify' lat='-33.7773269' lon='150.6194299' />
  <node id='-39440' action='modify' lat='-33.7772629' lon='150.6194246' />
  <node id='-39442' action='modify' lat='-33.777202' lon='150.6194511' />
  <node id='-39444' action='modify' lat='-33.7771622' lon='150.6194776' />
  <node id='-39446' action='modify' lat='-33.777048' lon='150.6195774' />
  <node id='-39448' action='modify' lat='-33.776963' lon='150.6197172' />
  <node id='-39450' action='modify' lat='-33.7768797' lon='150.619776' />
  <node id='-39452' action='modify' lat='-33.7768226' lon='150.6197636' />
  <node id='-39454' action='modify' lat='-33.7767452' lon='150.6197159' />
  <node id='-39456' action='modify' lat='-33.776716' lon='150.619666' />
  <node id='-39458' action='modify' lat='-33.7766893' lon='150.6195211' />
  <node id='-39460' action='modify' lat='-33.7766937' lon='150.6192046' />
  <node id='-39462' action='modify' lat='-33.7767463' lon='150.6189136' />
  <node id='-39464' action='modify' lat='-33.7768007' lon='150.6187755' />
  <node id='-39466' action='modify' lat='-33.7768669' lon='150.6186618' />
  <node id='-39468' action='modify' lat='-33.776986' lon='150.6185718' />
  <node id='-39470' action='modify' lat='-33.7770524' lon='150.6185278' />
  <node id='-39472' action='modify' lat='-33.7771461' lon='150.618482' />
  <node id='-39474' action='modify' lat='-33.777194' lon='150.6184344' />
  <node id='-39476' action='modify' lat='-33.7772208' lon='150.6183668' />
  <node id='-39478' action='modify' lat='-33.7771899' lon='150.6182918' />
  <node id='-39480' action='modify' lat='-33.7771447' lon='150.6182488' />
  <node id='-39482' action='modify' lat='-33.7770226' lon='150.6182088' />
  <node id='-39484' action='modify' lat='-33.7769516' lon='150.6181821' />
  <node id='-39486' action='modify' lat='-33.7769147' lon='150.618153' />
  <node id='-39488' action='modify' lat='-33.7768328' lon='150.618179' />
  <node id='-39490' action='modify' lat='-33.7768194' lon='150.6181934' />
  <node id='-39492' action='modify' lat='-33.7768063' lon='150.6182224' />
  <node id='-39494' action='modify' lat='-33.7767945' lon='150.6182814' />
  <node id='-39496' action='modify' lat='-33.7767751' lon='150.6183793' />
  <node id='-39498' action='modify' lat='-33.7767711' lon='150.618412' />
  <node id='-39500' action='modify' lat='-33.7767709' lon='150.6184513' />
  <node id='-39502' action='modify' lat='-33.7766968' lon='150.6184737' />
  <node id='-39504' action='modify' lat='-33.7766728' lon='150.6184375' />
  <node id='-39506' action='modify' lat='-33.7766438' lon='150.6184375' />
  <node id='-39508' action='modify' lat='-33.7766293' lon='150.6184228' />
  <node id='-39510' action='modify' lat='-33.7766226' lon='150.6183785' />
  <node id='-39512' action='modify' lat='-33.7766009' lon='150.6182833' />
  <node id='-39514' action='modify' lat='-33.7765507' lon='150.6181827' />
  <node id='-39516' action='modify' lat='-33.7765151' lon='150.6181277' />
  <node id='-39518' action='modify' lat='-33.7764493' lon='150.6180056' />
  <node id='-39520' action='modify' lat='-33.7764186' lon='150.6179735' />
  <node id='-39522' action='modify' lat='-33.7763802' lon='150.6179842' />
  <node id='-39524' action='modify' lat='-33.776184' lon='150.6180861' />
  <node id='-39526' action='modify' lat='-33.7759633' lon='150.6181746' />
  <node id='-39528' action='modify' lat='-33.7759129' lon='150.6182259' />
  <node id='-39530' action='modify' lat='-33.7758144' lon='150.6183262' />
  <node id='-39532' action='modify' lat='-33.7757481' lon='150.6183805' />
  <node id='-39534' action='modify' lat='-33.7756946' lon='150.618412' />
  <node id='-39536' action='modify' lat='-33.7756238' lon='150.6184335' />
  <node id='-39538' action='modify' lat='-33.7755943' lon='150.6184596' />
  <node id='-39540' action='modify' lat='-33.7755519' lon='150.6184871' />
  <node id='-39542' action='modify' lat='-33.7755073' lon='150.6184979' />
  <node id='-39544' action='modify' lat='-33.77547' lon='150.6184838' />
  <node id='-39546' action='modify' lat='-33.7754202' lon='150.6184551' />
  <node id='-39548' action='modify' lat='-33.775327' lon='150.6184832' />
  <node id='-39550' action='modify' lat='-33.7752232' lon='150.6184653' />
  <node id='-39552' action='modify' lat='-33.7751214' lon='150.6183965' />
  <node id='-39554' action='modify' lat='-33.7750113' lon='150.6183404' />
  <node id='-39556' action='modify' lat='-33.7749307' lon='150.6182486' />
  <node id='-39558' action='modify' lat='-33.7748184' lon='150.6180702' />
  <node id='-39560' action='modify' lat='-33.7748015' lon='150.6179223' />
  <node id='-39562' action='modify' lat='-33.774723' lon='150.6177897' />
  <node id='-39564' action='modify' lat='-33.7747548' lon='150.6177235' />
  <node id='-39566' action='modify' lat='-33.7748438' lon='150.6176699' />
  <node id='-39568' action='modify' lat='-33.7748544' lon='150.6175883' />
  <node id='-39570' action='modify' lat='-33.77490147915' lon='150.61745994355' />
  <node id='-39572' action='modify' lat='-33.7747485' lon='150.6174354' />
  <node id='-39574' action='modify' lat='-33.7747294' lon='150.6173742' />
  <node id='-39576' action='modify' lat='-33.7746976' lon='150.6173436' />
  <node id='-39578' action='modify' lat='-33.7746701' lon='150.6172773' />
  <node id='-39580' action='modify' lat='-33.7746828' lon='150.6171651' />
  <node id='-39582' action='modify' lat='-33.7746743' lon='150.6170479' />
  <node id='-39584' action='modify' lat='-33.7747103' lon='150.6169586' />
  <node id='-39586' action='modify' lat='-33.7747506' lon='150.6167266' />
  <node id='-39588' action='modify' lat='-33.7747315' lon='150.6166323' />
  <node id='-39590' action='modify' lat='-33.7747464' lon='150.6165864' />
  <node id='-39592' action='modify' lat='-33.7747612' lon='150.6164947' />
  <node id='-39594' action='modify' lat='-33.7747082' lon='150.616357' />
  <node id='-39596' action='modify' lat='-33.7745196' lon='150.6162142' />
  <node id='-39598' action='modify' lat='-33.7745154' lon='150.6161482' />
  <node id='-39600' action='modify' lat='-33.7744243' lon='150.6161482' />
  <node id='-39602' action='modify' lat='-33.7743798' lon='150.6161304' />
  <node id='-39604' action='modify' lat='-33.7743465' lon='150.6161348' />
  <node id='-39606' action='modify' lat='-33.7743187' lon='150.6161883' />
  <node id='-39608' action='modify' lat='-33.7742964' lon='150.6161838' />
  <node id='-39610' action='modify' lat='-33.7742705' lon='150.6161682' />
  <node id='-39612' action='modify' lat='-33.7742575' lon='150.6162017' />
  <node id='-39614' action='modify' lat='-33.7742316' lon='150.6162195' />
  <node id='-39616' action='modify' lat='-33.7741909' lon='150.6161838' />
  <node id='-39618' action='modify' lat='-33.7741371' lon='150.6161638' />
  <node id='-39620' action='modify' lat='-33.7740482' lon='150.6161682' />
  <node id='-39622' action='modify' lat='-33.7740241' lon='150.6162017' />
  <node id='-39624' action='modify' lat='-33.7739852' lon='150.6162373' />
  <node id='-39626' action='modify' lat='-33.7739519' lon='150.6162819' />
  <node id='-39628' action='modify' lat='-33.7739167' lon='150.616302' />
  <node id='-39630' action='modify' lat='-33.7738093' lon='150.6163042' />
  <node id='-39632' action='modify' lat='-33.7737203' lon='150.6162886' />
  <node id='-39634' action='modify' lat='-33.7737259' lon='150.616244' />
  <node id='-39636' action='modify' lat='-33.7737667' lon='150.6161883' />
  <node id='-39638' action='modify' lat='-33.7737778' lon='150.616137' />
  <node id='-39640' action='modify' lat='-33.7737722' lon='150.6160613' />
  <node id='-39642' action='modify' lat='-33.7737555' lon='150.6159721' />
  <node id='-39644' action='modify' lat='-33.773724' lon='150.6158897' />
  <node id='-39646' action='modify' lat='-33.7737166' lon='150.6158095' />
  <node id='-39648' action='modify' lat='-33.773687' lon='150.6157493' />
  <node id='-39650' action='modify' lat='-33.7736388' lon='150.6156936' />
  <node id='-39652' action='modify' lat='-33.7736296' lon='150.6156401' />
  <node id='-39654' action='modify' lat='-33.7735684' lon='150.6155732' />
  <node id='-39656' action='modify' lat='-33.7735388' lon='150.6154952' />
  <node id='-39658' action='modify' lat='-33.7735092' lon='150.6154172' />
  <node id='-39660' action='modify' lat='-33.7734869' lon='150.6153303' />
  <node id='-39662' action='modify' lat='-33.7734925' lon='150.6152434' />
  <node id='-39664' action='modify' lat='-33.7734629' lon='150.6151565' />
  <node id='-39666' action='modify' lat='-33.7734388' lon='150.6150718' />
  <node id='-39668' action='modify' lat='-33.7733943' lon='150.6149871' />
  <node id='-39670' action='modify' lat='-33.7733072' lon='150.6149091' />
  <node id='-39672' action='modify' lat='-33.7732683' lon='150.6148757' />
  <node id='-39674' action='modify' lat='-33.7732572' lon='150.6148378' />
  <node id='-39676' action='modify' lat='-33.7732332' lon='150.6148245' />
  <node id='-39678' action='modify' lat='-33.7732072' lon='150.6148601' />
  <node id='-39680' action='modify' lat='-33.7731831' lon='150.6149114' />
  <node id='-39682' action='modify' lat='-33.7731776' lon='150.6149492' />
  <node id='-39684' action='modify' lat='-33.773172' lon='150.6150629' />
  <node id='-39686' action='modify' lat='-33.7731535' lon='150.6151498' />
  <node id='-39688' action='modify' lat='-33.7731572' lon='150.6152033' />
  <node id='-39690' action='modify' lat='-33.7731442' lon='150.6152791' />
  <node id='-39692' action='modify' lat='-33.7731035' lon='150.6154596' />
  <node id='-39694' action='modify' lat='-33.7730701' lon='150.6155309' />
  <node id='-39696' action='modify' lat='-33.7730238' lon='150.6155755' />
  <node id='-39698' action='modify' lat='-33.7729701' lon='150.6155977' />
  <node id='-39700' action='modify' lat='-33.7729182' lon='150.6155888' />
  <node id='-39702' action='modify' lat='-33.7728756' lon='150.6155643' />
  <node id='-39704' action='modify' lat='-33.7728182' lon='150.6155242' />
  <node id='-39706' action='modify' lat='-33.7727867' lon='150.6154663' />
  <node id='-39708' action='modify' lat='-33.7727552' lon='150.6154217' />
  <node id='-39710' action='modify' lat='-33.7727219' lon='150.6153838' />
  <node id='-39712' action='modify' lat='-33.7727145' lon='150.6153036' />
  <node id='-39714' action='modify' lat='-33.7727367' lon='150.6152635' />
  <node id='-39716' action='modify' lat='-33.7727441' lon='150.6152144' />
  <node id='-39718' action='modify' lat='-33.7727293' lon='150.6151721' />
  <node id='-39720' action='modify' lat='-33.7727015' lon='150.6151632' />
  <node id='-39722' action='modify' lat='-33.7726626' lon='150.6151387' />
  <node id='-39724' action='modify' lat='-33.7726052' lon='150.6151364' />
  <node id='-39726' action='modify' lat='-33.7725644' lon='150.6151253' />
  <node id='-39728' action='modify' lat='-33.7725329' lon='150.6150874' />
  <node id='-39730' action='modify' lat='-33.7725255' lon='150.6150272' />
  <node id='-39732' action='modify' lat='-33.7725311' lon='150.6149738' />
  <node id='-39734' action='modify' lat='-33.7725589' lon='150.6149158' />
  <node id='-39736' action='modify' lat='-33.7725589' lon='150.6148155' />
  <node id='-39738' action='modify' lat='-33.7725829' lon='150.6147242' />
  <node id='-39740' action='modify' lat='-33.7726126' lon='150.6145035' />
  <node id='-39742' action='modify' lat='-33.7726385' lon='150.6144389' />
  <node id='-39744' action='modify' lat='-33.7726793' lon='150.6142852' />
  <node id='-39746' action='modify' lat='-33.7727182' lon='150.614098' />
  <node id='-39748' action='modify' lat='-33.77272' lon='150.6139531' />
  <node id='-39750' action='modify' lat='-33.7727348' lon='150.6138796' />
  <node id='-39752' action='modify' lat='-33.7727867' lon='150.6138194' />
  <node id='-39754' action='modify' lat='-33.7728201' lon='150.6137236' />
  <node id='-39756' action='modify' lat='-33.7728386' lon='150.6136812' />
  <node id='-39758' action='modify' lat='-33.7728886' lon='150.6136433' />
  <node id='-39760' action='modify' lat='-33.7729368' lon='150.6136367' />
  <node id='-39762' action='modify' lat='-33.7729794' lon='150.6135965' />
  <node id='-39764' action='modify' lat='-33.7730331' lon='150.6135319' />
  <node id='-39766' action='modify' lat='-33.7730609' lon='150.613474' />
  <node id='-39768' action='modify' lat='-33.7730683' lon='150.6134027' />
  <node id='-39770' action='modify' lat='-33.7730602' lon='150.6133203' />
  <node id='-39772' action='modify' lat='-33.7729621' lon='150.6133404' />
  <node id='-39774' action='modify' lat='-33.772757' lon='150.6134141' />
  <node id='-39776' action='modify' lat='-33.772679' lon='150.6134302' />
  <node id='-39778' action='modify' lat='-33.7725385' lon='150.6135254' />
  <node id='-39780' action='modify' lat='-33.7724582' lon='150.6136032' />
  <node id='-39782' action='modify' lat='-33.77232' lon='150.613736' />
  <node id='-39784' action='modify' lat='-33.7722331' lon='150.6138098' />
  <node id='-39786' action='modify' lat='-33.7721662' lon='150.6138527' />
  <node id='-39788' action='modify' lat='-33.7721093' lon='150.6138889' />
  <node id='-39790' action='modify' lat='-33.7719934' lon='150.6139385' />
  <node id='-39792' action='modify' lat='-33.7718496' lon='150.6139479' />
  <node id='-39794' action='modify' lat='-33.7717481' lon='150.6139546' />
  <node id='-39796' action='modify' lat='-33.7716166' lon='150.6140015' />
  <node id='-39798' action='modify' lat='-33.7714962' lon='150.6140042' />
  <node id='-39800' action='modify' lat='-33.7714337' lon='150.6139962' />
  <node id='-39802' action='modify' lat='-33.7713921' lon='150.6139851' />
  <node id='-39804' action='modify' lat='-33.7712754' lon='150.6141343' />
  <node id='-39806' action='modify' lat='-33.7710636' lon='150.6143891' />
  <node id='-39808' action='modify' lat='-33.7709579' lon='150.6145258' />
  <node id='-39810' action='modify' lat='-33.7708993' lon='150.6146856' />
  <node id='-39812' action='modify' lat='-33.7708153' lon='150.6148289' />
  <node id='-39814' action='modify' lat='-33.7707411' lon='150.6149071' />
  <node id='-39816' action='modify' lat='-33.7706537' lon='150.6149235' />
  <node id='-39818' action='modify' lat='-33.7705594' lon='150.615011' />
  <node id='-39820' action='modify' lat='-33.7704627' lon='150.6151056' />
  <node id='-39822' action='modify' lat='-33.7703163' lon='150.6152337' />
  <node id='-39824' action='modify' lat='-33.7702098' lon='150.6152936' />
  <node id='-39826' action='modify' lat='-33.7701483' lon='150.615339' />
  <node id='-39828' action='modify' lat='-33.7702767' lon='150.6156748' />
  <node id='-39830' action='modify' lat='-33.770389' lon='150.615797' />
  <node id='-39832' action='modify' lat='-33.770479' lon='150.6158836' />
  <node id='-39834' action='modify' lat='-33.770077' lon='150.6165885' />
  <node id='-39836' action='modify' lat='-33.7702063' lon='150.617184' />
  <node id='-39838' action='modify' lat='-33.7702654' lon='150.617306' />
  <node id='-39840' action='modify' lat='-33.7701994' lon='150.6173406' />
  <node id='-39842' action='modify' lat='-33.7701205' lon='150.6173637' />
  <node id='-39844' action='modify' lat='-33.770096' lon='150.6173851' />
  <node id='-39846' action='modify' lat='-33.7700447' lon='150.6174509' />
  <node id='-39848' action='modify' lat='-33.7700201' lon='150.6174951' />
  <node id='-39850' action='modify' lat='-33.7699599' lon='150.6175461' />
  <node id='-39852' action='modify' lat='-33.769912' lon='150.6175903' />
  <node id='-39854' action='modify' lat='-33.7698786' lon='150.6176306' />
  <node id='-39856' action='modify' lat='-33.7698418' lon='150.6176855' />
  <node id='-39858' action='modify' lat='-33.769815' lon='150.6177258' />
  <node id='-39860' action='modify' lat='-33.7698005' lon='150.617762' />
  <node id='-39862' action='modify' lat='-33.7697827' lon='150.617813' />
  <node id='-39864' action='modify' lat='-33.7697492' lon='150.6178331' />
  <node id='-39866' action='modify' lat='-33.7696812' lon='150.6178626' />
  <node id='-39868' action='modify' lat='-33.7696422' lon='150.6178787' />
  <node id='-39870' action='modify' lat='-33.7695932' lon='150.6179216' />
  <node id='-39872' action='modify' lat='-33.7695274' lon='150.6179685' />
  <node id='-39874' action='modify' lat='-33.7694717' lon='150.61799' />
  <node id='-39876' action='modify' lat='-33.7694126' lon='150.6180101' />
  <node id='-39878' action='modify' lat='-33.7693635' lon='150.6180369' />
  <node id='-39880' action='modify' lat='-33.76932' lon='150.6180745' />
  <node id='-39882' action='modify' lat='-33.7692766' lon='150.6181107' />
  <node id='-39884' action='modify' lat='-33.7692383' lon='150.6181421' />
  <node id='-39886' action='modify' lat='-33.7692297' lon='150.6181348' />
  <node id='-39888' action='modify' lat='-33.7691784' lon='150.618116' />
  <node id='-39890' action='modify' lat='-33.7691372' lon='150.618116' />
  <node id='-39892' action='modify' lat='-33.7690257' lon='150.6181249' />
  <node id='-39894' action='modify' lat='-33.76898' lon='150.6181276' />
  <node id='-39896' action='modify' lat='-33.7689404' lon='150.6181149' />
  <node id='-39898' action='modify' lat='-33.768883' lon='150.6180867' />
  <node id='-39900' action='modify' lat='-33.7688401' lon='150.6180947' />
  <node id='-39902' action='modify' lat='-33.7687946' lon='150.6181011' />
  <node id='-39904' action='modify' lat='-33.7687748' lon='150.6180952' />
  <node id='-39906' action='modify' lat='-33.768745' lon='150.6180912' />
  <node id='-39908' action='modify' lat='-33.7687132' lon='150.6180928' />
  <node id='-39910' action='modify' lat='-33.7686467' lon='150.6180923' />
  <node id='-39912' action='modify' lat='-33.7685939' lon='150.6181011' />
  <node id='-39914' action='modify' lat='-33.7685443' lon='150.6181125' />
  <node id='-39916' action='modify' lat='-33.7683501' lon='150.6181776' />
  <node id='-39918' action='modify' lat='-33.7683182' lon='150.6181923' />
  <node id='-39920' action='modify' lat='-33.7682494' lon='150.6182224' />
  <node id='-39922' action='modify' lat='-33.7682302' lon='150.6182317' />
  <node id='-39924' action='modify' lat='-33.7682207' lon='150.6182376' />
  <node id='-39926' action='modify' lat='-33.7682127' lon='150.6182429' />
  <node id='-39928' action='modify' lat='-33.7682073' lon='150.6182486' />
  <node id='-39930' action='modify' lat='-33.7682026' lon='150.6182574' />
  <node id='-39932' action='modify' lat='-33.7681993' lon='150.6182666' />
  <node id='-39934' action='modify' lat='-33.7681982' lon='150.6182775' />
  <node id='-39936' action='modify' lat='-33.7681995' lon='150.6182894' />
  <node id='-39938' action='modify' lat='-33.7682271' lon='150.6184104' />
  <node id='-39940' action='modify' lat='-33.7683235' lon='150.6188053' />
  <node id='-39942' action='modify' lat='-33.7684986' lon='150.6195221' />
  <node id='-39944' action='modify' lat='-33.768636' lon='150.6200819' />
  <node id='-39946' action='modify' lat='-33.7688403' lon='150.6209027' />
  <node id='-39948' action='modify' lat='-33.7689499' lon='150.621194' />
  <node id='-39950' action='modify' lat='-33.7689942' lon='150.621294' />
  <node id='-39952' action='modify' lat='-33.7690329' lon='150.6211537' />
  <node id='-39954' action='modify' lat='-33.7691361' lon='150.6211049' />
  <node id='-39956' action='modify' lat='-33.7691006' lon='150.6209828' />
  <node id='-39958' action='modify' lat='-33.7690333' lon='150.6207396' />
  <node id='-39960' action='modify' lat='-33.7733541' lon='150.6428842' />
  <node id='-39962' action='modify' lat='-33.773341' lon='150.6429829' />
  <node id='-39964' action='modify' lat='-33.7733411' lon='150.64313' />
  <node id='-39966' action='modify' lat='-33.779678' lon='150.6406737' />
  <node id='-39968' action='modify' lat='-33.7732624' lon='150.642649' />
  <node id='-39970' action='modify' lat='-33.7735506' lon='150.6426885' />
  <node id='-39972' action='modify' lat='-33.7728945' lon='150.647428' />
  <node id='-39974' action='modify' lat='-33.77953791763' lon='150.6405203129' />
  <node id='-39976' action='modify' lat='-33.77933440588' lon='150.64023447976' />
  <node id='-39978' action='modify' lat='-33.7755116' lon='150.6452056' />
  <node id='-39980' action='modify' lat='-33.7761537' lon='150.644785' />
  <node id='-39982' action='modify' lat='-33.77673960991' lon='150.64429259511' />
  <node id='-39984' action='modify' lat='-33.77741642862' lon='150.64366491905' />
  <node id='-39986' action='modify' lat='-33.77320404786' lon='150.64727462268' />
  <node id='-39988' action='modify' lat='-33.7734497' lon='150.6471539' />
  <node id='-39990' action='modify' lat='-33.7740205' lon='150.6466218' />
  <node id='-39992' action='modify' lat='-33.7744771' lon='150.6461583' />
  <node id='-39994' action='modify' lat='-33.7797636' lon='150.6415664' />
  <node id='-39996' action='modify' lat='-33.7797859' lon='150.6415228' />
  <node id='-39998' action='modify' lat='-33.77990445277' lon='150.6414920626' />
  <node id='-40000' action='modify' lat='-33.78011542164' lon='150.64106883436' />
  <node id='-40002' action='modify' lat='-33.7779087' lon='150.64318' />
  <node id='-40004' action='modify' lat='-33.77828861776' lon='150.64293426627' />
  <node id='-40006' action='modify' lat='-33.778795172' lon='150.64236247116' />
  <node id='-40008' action='modify' lat='-33.7794354' lon='150.6418496' />
  <node id='-40010' action='modify' lat='-33.77987376417' lon='150.64090709081' />
  <node id='-40012' action='modify' lat='-33.7732362' lon='150.642861' />
  <node id='-40014' action='modify' lat='-33.7733537' lon='150.6432353' />
  <node id='-40016' action='modify' lat='-33.7735061' lon='150.64324' />
  <node id='-40018' action='modify' lat='-33.7736142' lon='150.6433017' />
  <node id='-40020' action='modify' lat='-33.7740478' lon='150.6435672' />
  <node id='-40022' action='modify' lat='-33.7745402' lon='150.6441262' />
  <node id='-40024' action='modify' lat='-33.774564' lon='150.6442686' />
  <node id='-40026' action='modify' lat='-33.7745522' lon='150.644442' />
  <node id='-40028' action='modify' lat='-33.7745182' lon='150.6445788' />
  <node id='-40030' action='modify' lat='-33.7741905' lon='150.6436262' />
  <node id='-40032' action='modify' lat='-33.774312' lon='150.6436799' />
  <node id='-40034' action='modify' lat='-33.7743819' lon='150.6437242' />
  <node id='-40036' action='modify' lat='-33.7744985' lon='150.6439353' />
  <node id='-40038' action='modify' lat='-33.7737658' lon='150.6459141' />
  <node id='-40040' action='modify' lat='-33.77353' lon='150.6460694' />
  <node id='-40042' action='modify' lat='-33.7734247' lon='150.6461287' />
  <node id='-40044' action='modify' lat='-33.7732329' lon='150.6462015' />
  <node id='-40046' action='modify' lat='-33.77438' lon='150.6448497' />
  <node id='-40048' action='modify' lat='-33.7740891' lon='150.6454783' />
  <node id='-40050' action='modify' lat='-33.7739386' lon='150.6457613' />
  <node id='-40052' action='modify' lat='-33.7738539' lon='150.6458484' />
  <node id='-40054' action='modify' lat='-33.7730914' lon='150.6468181' />
  <node id='-40056' action='modify' lat='-33.7730016' lon='150.6470632' />
  <node id='-40058' action='modify' lat='-33.7729129' lon='150.6472516' />
  <node id='-40060' action='modify' lat='-33.7728165' lon='150.6473622' />
  <node id='-40062' action='modify' lat='-33.7731649' lon='150.6462186' />
  <node id='-40064' action='modify' lat='-33.7731259' lon='150.6462672' />
  <node id='-40066' action='modify' lat='-33.7731114' lon='150.6463339' />
  <node id='-40068' action='modify' lat='-33.7731326' lon='150.6466575' />
  <node id='-40070' action='modify' lat='-33.7799764' lon='150.639576' />
  <node id='-40072' action='modify' lat='-33.7800967' lon='150.6395223' />
  <node id='-40074' action='modify' lat='-33.7801904' lon='150.6394311' />
  <node id='-40076' action='modify' lat='-33.7802127' lon='150.6393453' />
  <node id='-40078' action='modify' lat='-33.77964531438' lon='150.64017947427' />
  <node id='-40080' action='modify' lat='-33.77969995853' lon='150.64002390126' />
  <node id='-40082' action='modify' lat='-33.7797623' lon='150.6397369' />
  <node id='-40084' action='modify' lat='-33.7799006' lon='150.6396404' />
  <node id='-40086' action='modify' lat='-33.7805203' lon='150.6389215' />
  <node id='-40088' action='modify' lat='-33.7806229' lon='150.6387928' />
  <node id='-40090' action='modify' lat='-33.7807388' lon='150.6387499' />
  <node id='-40092' action='modify' lat='-33.7808057' lon='150.6386265' />
  <node id='-40094' action='modify' lat='-33.7802171' lon='150.6392434' />
  <node id='-40096' action='modify' lat='-33.7802127' lon='150.6391522' />
  <node id='-40098' action='modify' lat='-33.780284' lon='150.6390878' />
  <node id='-40100' action='modify' lat='-33.7804311' lon='150.6390449' />
  <node id='-40102' action='modify' lat='-33.7811668' lon='150.6380954' />
  <node id='-40104' action='modify' lat='-33.7811401' lon='150.6380418' />
  <node id='-40106' action='modify' lat='-33.7811044' lon='150.6380364' />
  <node id='-40108' action='modify' lat='-33.7810598' lon='150.6380203' />
  <node id='-40110' action='modify' lat='-33.7809082' lon='150.6385031' />
  <node id='-40112' action='modify' lat='-33.7809617' lon='150.6383583' />
  <node id='-40114' action='modify' lat='-33.7811133' lon='150.6382778' />
  <node id='-40116' action='modify' lat='-33.7811535' lon='150.6381759' />
  <node id='-40118' action='modify' lat='-33.78190083011' lon='150.62647662024' />
  <node id='-40120' action='modify' lat='-33.78241588936' lon='150.62702026194' />
  <node id='-40122' action='modify' lat='-33.78282368907' lon='150.62779488036' />
  <node id='-40124' action='modify' lat='-33.78274293282' lon='150.62879208528' />
  <node id='-40126' action='modify' lat='-33.78203568341' lon='150.630043508' />
  <node id='-40128' action='modify' lat='-33.78179894255' lon='150.63018784726' />
  <node id='-40130' action='modify' lat='-33.78155573761' lon='150.63030228158' />
  <node id='-40132' action='modify' lat='-33.78034954406' lon='150.63094822581' />
  <node id='-40134' action='modify' lat='-33.77940926572' lon='150.63157250863' />
  <node id='-40136' action='modify' lat='-33.77911345855' lon='150.6323313086' />
  <node id='-40138' action='modify' lat='-33.7791249' lon='150.6324946' />
  <node id='-40140' action='modify' lat='-33.77905021485' lon='150.63267214292' />
  <node id='-40142' action='modify' lat='-33.77918447945' lon='150.63338670793' />
  <node id='-40144' action='modify' lat='-33.77939694122' lon='150.63416161901' />
  <node id='-40146' action='modify' lat='-33.77948654988' lon='150.63462584663' />
  <node id='-40148' action='modify' lat='-33.77975627' lon='150.63529836872' />
  <node id='-40150' action='modify' lat='-33.77943' lon='150.6364434' />
  <node id='-40152' action='modify' lat='-33.7793094' lon='150.6369285' />
  <node id='-40154' action='modify' lat='-33.77914495274' lon='150.63717378217' />
  <node id='-40156' action='modify' lat='-33.77890057835' lon='150.6378164589' />
  <node id='-40158' action='modify' lat='-33.77908587327' lon='150.63819622206' />
  <node id='-40160' action='modify' lat='-33.77905024958' lon='150.63889817421' />
  <node id='-40162' action='modify' lat='-33.77905783481' lon='150.63941441286' />
  <node id='-40164' action='modify' lat='-33.77892772898' lon='150.63965767086' />
  <node id='-40166' action='modify' lat='-33.78200985368' lon='150.62642633781' />
  <node id='-40168' action='modify' lat='-33.78232641972' lon='150.62678709492' />
  <node id='-40170' action='modify' lat='-33.78271320833' lon='150.62716930971' />
  <node id='-40172' action='modify' lat='-33.78282021582' lon='150.62741339073' />
  <node id='-40174' action='modify' lat='-33.78284362369' lon='150.62808528408' />
  <node id='-40176' action='modify' lat='-33.78289601271' lon='150.62830656633' />
  <node id='-40178' action='modify' lat='-33.78296289227' lon='150.62843263015' />
  <node id='-40180' action='modify' lat='-33.78269202975' lon='150.62911659345' />
  <node id='-40182' action='modify' lat='-33.78231304371' lon='150.62976166472' />
  <node id='-40184' action='modify' lat='-33.78111922675' lon='150.63053414091' />
  <node id='-40186' action='modify' lat='-33.78140792911' lon='150.63031688198' />
  <node id='-40188' action='modify' lat='-33.78054070442' lon='150.63081979617' />
  <node id='-40190' action='modify' lat='-33.78019514972' lon='150.63110209867' />
  <node id='-40192' action='modify' lat='-33.78090743731' lon='150.63074402444' />
  <node id='-40194' action='modify' lat='-33.78005637066' lon='150.6311476969' />
  <node id='-40196' action='modify' lat='-33.78012603917' lon='150.63115976684' />
  <node id='-40198' action='modify' lat='-33.77918300084' lon='150.63206300005' />
  <node id='-40200' action='modify' lat='-33.77916962434' lon='150.63287839159' />
  <node id='-40202' action='modify' lat='-33.77956868894' lon='150.63474789128' />
  <node id='-40204' action='modify' lat='-33.77972474721' lon='150.63545063004' />
  <node id='-40206' action='modify' lat='-33.77943046565' lon='150.635796635' />
  <node id='-40208' action='modify' lat='-33.77891881463' lon='150.6380859004' />
  <node id='-40210' action='modify' lat='-33.77895448595' lon='150.63944376938' />
  <node id='-40212' action='modify' lat='-33.77983621723' lon='150.64043283328' />
  <node id='-40214' action='modify' lat='-33.779885264' lon='150.64048513636' />
  <node id='-40216' action='modify' lat='-33.77998335744' lon='150.64056560263' />
  <node id='-40218' action='modify' lat='-33.78003128942' lon='150.64061254129' />
  <node id='-40220' action='modify' lat='-33.78002683064' lon='150.64074933395' />
  <node id='-40222' action='modify' lat='-33.77998224274' lon='150.64083918795' />
  <node id='-40224' action='modify' lat='-33.7799543753' lon='150.64089685544' />
  <node id='-40226' action='modify' lat='-33.78017285582' lon='150.64129248127' />
  <node id='-40228' action='modify' lat='-33.78005135397' lon='150.64143061504' />
  <node id='-40230' action='modify' lat='-33.77356134447' lon='150.6427663558' />
  <node id='-40232' action='modify' lat='-33.7838588' lon='150.627639' />
  <node id='-40234' action='modify' lat='-33.7839222' lon='150.6276214' />
  <node id='-40236' action='modify' lat='-33.7840058' lon='150.6276281' />
  <node id='-40238' action='modify' lat='-33.7841663' lon='150.6276214' />
  <node id='-40240' action='modify' lat='-33.7842677' lon='150.6276066' />
  <node id='-40242' action='modify' lat='-33.7843903' lon='150.6275959' />
  <node id='-40244' action='modify' lat='-33.7845743' lon='150.6274926' />
  <node id='-40246' action='modify' lat='-33.7848808' lon='150.6274645' />
  <node id='-40248' action='modify' lat='-33.7852051' lon='150.6272445' />
  <node id='-40250' action='modify' lat='-33.7856666' lon='150.6270299' />
  <node id='-40252' action='modify' lat='-33.7858225' lon='150.6270195' />
  <node id='-40254' action='modify' lat='-33.7860567' lon='150.6270594' />
  <node id='-40256' action='modify' lat='-33.7860578' lon='150.6271667' />
  <node id='-40258' action='modify' lat='-33.786089' lon='150.6272244' />
  <node id='-40260' action='modify' lat='-33.786384' lon='150.627534' />
  <node id='-40262' action='modify' lat='-33.7865093' lon='150.6278641' />
  <node id='-40264' action='modify' lat='-33.786682' lon='150.6281672' />
  <node id='-40266' action='modify' lat='-33.7869361' lon='150.6284703' />
  <node id='-40268' action='modify' lat='-33.7876885' lon='150.6289356' />
  <node id='-40270' action='modify' lat='-33.7877766' lon='150.6290148' />
  <node id='-40272' action='modify' lat='-33.7878312' lon='150.6291516' />
  <node id='-40274' action='modify' lat='-33.7879482' lon='150.6294801' />
  <node id='-40276' action='modify' lat='-33.7879716' lon='150.6296357' />
  <node id='-40278' action='modify' lat='-33.7879805' lon='150.6300863' />
  <node id='-40280' action='modify' lat='-33.7879627' lon='150.630317' />
  <node id='-40282' action='modify' lat='-33.7878925' lon='150.6305034' />
  <node id='-40284' action='modify' lat='-33.7877364' lon='150.6308373' />
  <node id='-40286' action='modify' lat='-33.787635' lon='150.6310036' />
  <node id='-40288' action='modify' lat='-33.7875102' lon='150.6311123' />
  <node id='-40290' action='modify' lat='-33.786857' lon='150.631646' />
  <node id='-40292' action='modify' lat='-33.7865772' lon='150.63176' />
  <node id='-40294' action='modify' lat='-33.7862484' lon='150.6320256' />
  <node id='-40296' action='modify' lat='-33.7859029' lon='150.6321717' />
  <node id='-40298' action='modify' lat='-33.7857703' lon='150.6322415' />
  <node id='-40300' action='modify' lat='-33.7854626' lon='150.6325218' />
  <node id='-40302' action='modify' lat='-33.785186' lon='150.632696' />
  <node id='-40304' action='modify' lat='-33.7847916' lon='150.6328584' />
  <node id='-40306' action='modify' lat='-33.7844093' lon='150.633136' />
  <node id='-40308' action='modify' lat='-33.7841418' lon='150.6332406' />
  <node id='-40310' action='modify' lat='-33.7839757' lon='150.6333667' />
  <node id='-40312' action='modify' lat='-33.7837818' lon='150.6335651' />
  <node id='-40314' action='modify' lat='-33.7834596' lon='150.6339514' />
  <node id='-40316' action='modify' lat='-33.783376' lon='150.6341338' />
  <node id='-40318' action='modify' lat='-33.7832601' lon='150.6346219' />
  <node id='-40320' action='modify' lat='-33.7831988' lon='150.6347882' />
  <node id='-40322' action='modify' lat='-33.78303' lon='150.634974' />
  <node id='-40324' action='modify' lat='-33.7828176' lon='150.6352455' />
  <node id='-40326' action='modify' lat='-33.7826604' lon='150.6353917' />
  <node id='-40328' action='modify' lat='-33.7824483' lon='150.6355263' />
  <node id='-40330' action='modify' lat='-33.7823561' lon='150.6355848' />
  <node id='-40332' action='modify' lat='-33.7821956' lon='150.6357015' />
  <node id='-40334' action='modify' lat='-33.781885' lon='150.635989' />
  <node id='-40336' action='modify' lat='-33.7817709' lon='150.6360811' />
  <node id='-40338' action='modify' lat='-33.7817375' lon='150.6361669' />
  <node id='-40340' action='modify' lat='-33.7817442' lon='150.6362903' />
  <node id='-40342' action='modify' lat='-33.7818177' lon='150.6369152' />
  <node id='-40344' action='modify' lat='-33.7818612' lon='150.6370627' />
  <node id='-40346' action='modify' lat='-33.7818657' lon='150.6372438' />
  <node id='-40348' action='modify' lat='-33.7818757' lon='150.6374879' />
  <node id='-40350' action='modify' lat='-33.7818523' lon='150.6375952' />
  <node id='-40352' action='modify' lat='-33.7817932' lon='150.6376998' />
  <node id='-40354' action='modify' lat='-33.7816938' lon='150.6377711' />
  <node id='-40356' action='modify' lat='-33.7816338' lon='150.6377869' />
  <node id='-40358' action='modify' lat='-33.7812639' lon='150.6378364' />
  <node id='-40360' action='modify' lat='-33.78108244221' lon='150.63796385989' />
  <way id='-40362' action='modify'>
    <nd ref='-39958' />
    <nd ref='-39956' />
    <nd ref='-39954' />
    <nd ref='-39952' />
    <nd ref='-39950' />
    <nd ref='-39948' />
    <nd ref='-39946' />
    <nd ref='-39944' />
    <nd ref='-39942' />
    <nd ref='-39940' />
    <nd ref='-39938' />
    <nd ref='-39936' />
    <nd ref='-39934' />
    <nd ref='-39932' />
    <nd ref='-39930' />
    <nd ref='-39928' />
    <nd ref='-39926' />
    <nd ref='-39924' />
    <nd ref='-39922' />
    <nd ref='-39920' />
    <nd ref='-39918' />
    <nd ref='-39916' />
    <nd ref='-39914' />
    <nd ref='-39912' />
    <nd ref='-39910' />
    <nd ref='-39908' />
    <nd ref='-39906' />
    <nd ref='-39904' />
    <nd ref='-39902' />
    <nd ref='-39900' />
    <nd ref='-39898' />
    <nd ref='-39896' />
    <nd ref='-39894' />
    <nd ref='-39892' />
    <nd ref='-39890' />
    <nd ref='-39888' />
    <nd ref='-39886' />
    <nd ref='-39884' />
    <nd ref='-39882' />
    <nd ref='-39880' />
    <nd ref='-39878' />
    <nd ref='-39876' />
    <nd ref='-39874' />
    <nd ref='-39872' />
    <nd ref='-39870' />
    <nd ref='-39868' />
    <nd ref='-39866' />
    <nd ref='-39864' />
    <nd ref='-39862' />
    <nd ref='-39860' />
    <nd ref='-39858' />
    <nd ref='-39856' />
    <nd ref='-39854' />
    <nd ref='-39852' />
    <nd ref='-39850' />
    <nd ref='-39848' />
    <nd ref='-39846' />
    <nd ref='-39844' />
    <nd ref='-39842' />
    <nd ref='-39840' />
    <nd ref='-39838' />
    <nd ref='-39836' />
    <nd ref='-39834' />
    <nd ref='-39832' />
    <nd ref='-39830' />
    <nd ref='-39828' />
    <nd ref='-39826' />
    <nd ref='-39824' />
    <nd ref='-39822' />
    <nd ref='-39820' />
    <nd ref='-39818' />
    <nd ref='-39816' />
    <nd ref='-39814' />
    <nd ref='-39812' />
    <nd ref='-39810' />
    <nd ref='-39808' />
    <nd ref='-39806' />
    <nd ref='-39804' />
    <nd ref='-39802' />
    <nd ref='-39800' />
    <nd ref='-39798' />
    <nd ref='-39796' />
    <nd ref='-39794' />
    <nd ref='-39792' />
    <nd ref='-39790' />
    <nd ref='-39788' />
    <nd ref='-39786' />
    <nd ref='-39784' />
    <nd ref='-39782' />
    <nd ref='-39780' />
    <nd ref='-39778' />
    <nd ref='-39776' />
    <nd ref='-39774' />
    <nd ref='-39772' />
    <nd ref='-39770' />
    <nd ref='-39768' />
    <nd ref='-39766' />
    <nd ref='-39764' />
    <nd ref='-39762' />
    <nd ref='-39760' />
    <nd ref='-39758' />
    <nd ref='-39756' />
    <nd ref='-39754' />
    <nd ref='-39752' />
    <nd ref='-39750' />
    <nd ref='-39748' />
    <nd ref='-39746' />
    <nd ref='-39744' />
    <nd ref='-39742' />
    <nd ref='-39740' />
    <nd ref='-39738' />
    <nd ref='-39736' />
    <nd ref='-39734' />
    <nd ref='-39732' />
    <nd ref='-39730' />
    <nd ref='-39728' />
    <nd ref='-39726' />
    <nd ref='-39724' />
    <nd ref='-39722' />
    <nd ref='-39720' />
    <nd ref='-39718' />
    <nd ref='-39716' />
    <nd ref='-39714' />
    <nd ref='-39712' />
    <nd ref='-39710' />
    <nd ref='-39708' />
    <nd ref='-39706' />
    <nd ref='-39704' />
    <nd ref='-39702' />
    <nd ref='-39700' />
    <nd ref='-39698' />
    <nd ref='-39696' />
    <nd ref='-39694' />
    <nd ref='-39692' />
    <nd ref='-39690' />
    <nd ref='-39688' />
    <nd ref='-39686' />
    <nd ref='-39684' />
    <nd ref='-39682' />
    <nd ref='-39680' />
    <nd ref='-39678' />
    <nd ref='-39676' />
    <nd ref='-39674' />
    <nd ref='-39672' />
    <nd ref='-39670' />
    <nd ref='-39668' />
    <nd ref='-39666' />
    <nd ref='-39664' />
    <nd ref='-39662' />
    <nd ref='-39660' />
    <nd ref='-39658' />
    <nd ref='-39656' />
    <nd ref='-39654' />
    <nd ref='-39652' />
    <nd ref='-39650' />
    <nd ref='-39648' />
    <nd ref='-39646' />
    <nd ref='-39644' />
    <nd ref='-39642' />
    <nd ref='-39640' />
    <nd ref='-39638' />
    <nd ref='-39636' />
    <nd ref='-39634' />
    <nd ref='-39632' />
    <nd ref='-39630' />
    <nd ref='-39628' />
    <nd ref='-39626' />
    <nd ref='-39624' />
    <nd ref='-39622' />
    <nd ref='-39620' />
    <nd ref='-39618' />
    <nd ref='-39616' />
    <nd ref='-39614' />
    <nd ref='-39612' />
    <nd ref='-39610' />
    <nd ref='-39608' />
    <nd ref='-39606' />
    <nd ref='-39604' />
    <nd ref='-39602' />
    <nd ref='-39600' />
    <nd ref='-39598' />
    <nd ref='-39596' />
    <nd ref='-39594' />
    <nd ref='-39592' />
    <nd ref='-39590' />
    <nd ref='-39588' />
    <nd ref='-39586' />
    <nd ref='-39584' />
    <nd ref='-39582' />
    <nd ref='-39580' />
    <nd ref='-39578' />
    <nd ref='-39576' />
    <nd ref='-39574' />
    <nd ref='-39572' />
    <nd ref='-39570' />
    <nd ref='-39568' />
    <nd ref='-39566' />
    <nd ref='-39564' />
    <nd ref='-39562' />
    <nd ref='-39560' />
    <nd ref='-39558' />
    <nd ref='-39556' />
    <nd ref='-39554' />
    <nd ref='-39552' />
    <nd ref='-39550' />
    <nd ref='-39548' />
    <nd ref='-39546' />
    <nd ref='-39544' />
    <nd ref='-39542' />
    <nd ref='-39540' />
    <nd ref='-39538' />
    <nd ref='-39536' />
    <nd ref='-39534' />
    <nd ref='-39532' />
    <nd ref='-39530' />
    <nd ref='-39528' />
    <nd ref='-39526' />
    <nd ref='-39524' />
    <nd ref='-39522' />
    <nd ref='-39520' />
    <nd ref='-39518' />
    <nd ref='-39516' />
    <nd ref='-39514' />
    <nd ref='-39512' />
    <nd ref='-39510' />
    <nd ref='-39508' />
    <nd ref='-39506' />
    <nd ref='-39504' />
    <nd ref='-39502' />
    <nd ref='-39500' />
    <nd ref='-39498' />
    <nd ref='-39496' />
    <nd ref='-39494' />
    <nd ref='-39492' />
    <nd ref='-39490' />
    <nd ref='-39488' />
    <nd ref='-39486' />
    <nd ref='-39484' />
    <nd ref='-39482' />
    <nd ref='-39480' />
    <nd ref='-39478' />
    <nd ref='-39476' />
    <nd ref='-39474' />
    <nd ref='-39472' />
    <nd ref='-39470' />
    <nd ref='-39468' />
    <nd ref='-39466' />
    <nd ref='-39464' />
    <nd ref='-39462' />
    <nd ref='-39460' />
    <nd ref='-39458' />
    <nd ref='-39456' />
    <nd ref='-39454' />
    <nd ref='-39452' />
    <nd ref='-39450' />
    <nd ref='-39448' />
    <nd ref='-39446' />
    <nd ref='-39444' />
    <nd ref='-39442' />
    <nd ref='-39440' />
    <nd ref='-39438' />
    <nd ref='-39436' />
    <nd ref='-39434' />
    <nd ref='-39432' />
    <nd ref='-39430' />
    <nd ref='-39428' />
    <nd ref='-39426' />
    <nd ref='-39424' />
    <nd ref='-39422' />
    <nd ref='-39420' />
    <nd ref='-39418' />
    <nd ref='-39416' />
    <nd ref='-39414' />
    <nd ref='-39412' />
    <nd ref='-39410' />
    <nd ref='-39408' />
    <nd ref='-39406' />
    <nd ref='-39404' />
    <nd ref='-39402' />
    <nd ref='-39400' />
    <nd ref='-39398' />
    <nd ref='-39396' />
    <nd ref='-39394' />
    <nd ref='-39392' />
    <nd ref='-39390' />
    <nd ref='-39388' />
    <nd ref='-39386' />
    <nd ref='-39384' />
    <nd ref='-39382' />
    <nd ref='-39380' />
    <nd ref='-39378' />
    <nd ref='-39376' />
    <nd ref='-39374' />
    <nd ref='-39372' />
    <nd ref='-39370' />
    <nd ref='-39368' />
    <nd ref='-39366' />
    <nd ref='-39364' />
    <nd ref='-39362' />
    <nd ref='-39360' />
    <nd ref='-39358' />
    <nd ref='-39356' />
    <nd ref='-39354' />
    <nd ref='-39352' />
    <nd ref='-39350' />
    <nd ref='-39348' />
    <nd ref='-39346' />
    <nd ref='-39344' />
    <nd ref='-39342' />
    <nd ref='-39340' />
    <nd ref='-39338' />
    <nd ref='-39336' />
    <nd ref='-39334' />
    <nd ref='-39332' />
    <nd ref='-39330' />
    <nd ref='-39328' />
    <nd ref='-39326' />
    <nd ref='-39324' />
    <nd ref='-39322' />
    <nd ref='-39320' />
    <nd ref='-39318' />
    <nd ref='-39316' />
    <nd ref='-39314' />
    <nd ref='-39312' />
    <nd ref='-39310' />
    <nd ref='-39308' />
    <nd ref='-39306' />
    <nd ref='-39304' />
    <nd ref='-39302' />
    <nd ref='-39300' />
    <nd ref='-39298' />
    <nd ref='-39296' />
    <nd ref='-39294' />
    <nd ref='-39292' />
    <nd ref='-39290' />
    <nd ref='-39288' />
    <nd ref='-39286' />
    <nd ref='-39284' />
    <nd ref='-39282' />
    <nd ref='-39280' />
    <nd ref='-39278' />
    <nd ref='-39276' />
    <nd ref='-39274' />
    <nd ref='-39272' />
    <nd ref='-39270' />
    <nd ref='-39268' />
    <nd ref='-39266' />
    <nd ref='-39264' />
    <nd ref='-39262' />
    <nd ref='-39260' />
    <nd ref='-39258' />
    <nd ref='-39256' />
    <nd ref='-39254' />
    <nd ref='-39252' />
    <nd ref='-39250' />
    <nd ref='-39248' />
    <nd ref='-39246' />
    <nd ref='-39244' />
    <nd ref='-39242' />
    <nd ref='-39240' />
    <nd ref='-39238' />
    <nd ref='-39236' />
    <nd ref='-39234' />
    <nd ref='-39232' />
    <nd ref='-39230' />
    <nd ref='-39228' />
    <nd ref='-39226' />
    <nd ref='-39224' />
    <nd ref='-39222' />
    <nd ref='-39220' />
    <nd ref='-39218' />
    <nd ref='-39216' />
    <nd ref='-39214' />
    <nd ref='-39212' />
    <nd ref='-39210' />
    <nd ref='-39208' />
    <nd ref='-39206' />
    <nd ref='-39204' />
    <nd ref='-39202' />
    <nd ref='-39200' />
    <nd ref='-39198' />
    <nd ref='-39196' />
    <nd ref='-39194' />
    <nd ref='-39192' />
    <nd ref='-39190' />
    <nd ref='-39188' />
    <nd ref='-39186' />
    <nd ref='-39184' />
    <nd ref='-39182' />
    <nd ref='-39180' />
    <nd ref='-40118' />
    <nd ref='-40166' />
    <nd ref='-40168' />
    <nd ref='-40120' />
    <nd ref='-40170' />
    <nd ref='-40172' />
    <nd ref='-40122' />
    <nd ref='-40174' />
    <nd ref='-40176' />
    <nd ref='-40178' />
    <nd ref='-40124' />
    <nd ref='-40180' />
    <nd ref='-40182' />
    <nd ref='-40126' />
    <nd ref='-40128' />
    <nd ref='-40130' />
    <nd ref='-40186' />
    <nd ref='-40184' />
    <nd ref='-40192' />
    <nd ref='-40188' />
    <nd ref='-40132' />
    <nd ref='-40190' />
    <nd ref='-40196' />
    <nd ref='-40194' />
    <nd ref='-40134' />
    <nd ref='-40198' />
    <nd ref='-40136' />
    <nd ref='-40138' />
    <nd ref='-40140' />
    <nd ref='-40200' />
    <nd ref='-40142' />
    <nd ref='-40144' />
    <nd ref='-40146' />
    <nd ref='-40202' />
    <nd ref='-40148' />
    <nd ref='-40204' />
    <nd ref='-40206' />
    <nd ref='-40150' />
    <nd ref='-40152' />
    <nd ref='-40154' />
    <nd ref='-40156' />
    <nd ref='-40208' />
    <nd ref='-40158' />
    <nd ref='-40160' />
    <nd ref='-40162' />
    <nd ref='-40210' />
    <nd ref='-40164' />
    <nd ref='-39976' />
    <nd ref='-39974' />
    <nd ref='-39966' />
    <nd ref='-40010' />
    <nd ref='-40000' />
    <nd ref='-40226' />
    <nd ref='-40228' />
    <nd ref='-39998' />
    <nd ref='-39996' />
    <nd ref='-39994' />
    <nd ref='-40008' />
    <nd ref='-40006' />
    <nd ref='-40004' />
    <nd ref='-40002' />
    <nd ref='-39984' />
    <nd ref='-39982' />
    <nd ref='-39980' />
    <nd ref='-39978' />
    <nd ref='-39992' />
    <nd ref='-39990' />
    <nd ref='-39988' />
    <nd ref='-39986' />
    <nd ref='-39972' />
    <nd ref='-40060' />
    <nd ref='-40058' />
    <nd ref='-40056' />
    <nd ref='-40054' />
    <nd ref='-40068' />
    <nd ref='-40066' />
    <nd ref='-40064' />
    <nd ref='-40062' />
    <nd ref='-40044' />
    <nd ref='-40042' />
    <nd ref='-40040' />
    <nd ref='-40038' />
    <nd ref='-40052' />
    <nd ref='-40050' />
    <nd ref='-40048' />
    <nd ref='-40046' />
    <nd ref='-40028' />
    <nd ref='-40026' />
    <nd ref='-40024' />
    <nd ref='-40022' />
    <nd ref='-40036' />
    <nd ref='-40034' />
    <nd ref='-40032' />
    <nd ref='-40030' />
    <nd ref='-40020' />
    <nd ref='-40018' />
    <nd ref='-40016' />
    <nd ref='-40014' />
    <nd ref='-39964' />
    <nd ref='-39962' />
    <nd ref='-39960' />
    <nd ref='-40012' />
    <nd ref='-39968' />
    <nd ref='-39970' />
    <nd ref='-40230' />
    <tag k='name' v='Glenbrook Gorge via Nepean River' />
    <tag k='park' v='Blue Mountains National Park' />
    <tag k='photo' v='136319147@N08/36440754614' />
    <tag k='role' v='primary' />
    <tag k='style' v='oneway' />
    <tag k='transport' v='carshuffle;train' />
  </way>
  <way id='-40366' action='modify'>
    <nd ref='-40010' />
    <nd ref='-40224' />
    <nd ref='-40222' />
    <nd ref='-40220' />
    <nd ref='-40218' />
    <nd ref='-40216' />
    <nd ref='-40214' />
    <nd ref='-40212' />
    <nd ref='-40078' />
    <nd ref='-40080' />
    <nd ref='-40082' />
    <nd ref='-40084' />
    <nd ref='-40070' />
    <nd ref='-40072' />
    <nd ref='-40074' />
    <nd ref='-40076' />
    <nd ref='-40094' />
    <nd ref='-40096' />
    <nd ref='-40098' />
    <nd ref='-40100' />
    <nd ref='-40086' />
    <nd ref='-40088' />
    <nd ref='-40090' />
    <nd ref='-40092' />
    <nd ref='-40110' />
    <nd ref='-40112' />
    <nd ref='-40114' />
    <nd ref='-40116' />
    <nd ref='-40102' />
    <nd ref='-40104' />
    <nd ref='-40106' />
    <nd ref='-40108' />
    <tag k='name' v='Mount Portal Lookout' />
    <tag k='photo' v='136319147@N08/37088040696' />
    <tag k='role' v='sidetrack' />
    <tag k='style' v='return' />
  </way>
  <way id='-40368' action='modify'>
    <nd ref='-40108' />
    <nd ref='-40360' />
    <nd ref='-40358' />
    <nd ref='-40356' />
    <nd ref='-40354' />
    <nd ref='-40352' />
    <nd ref='-40350' />
    <nd ref='-40348' />
    <nd ref='-40346' />
    <nd ref='-40344' />
    <nd ref='-40342' />
    <nd ref='-40340' />
    <nd ref='-40338' />
    <nd ref='-40336' />
    <nd ref='-40334' />
    <nd ref='-40332' />
    <nd ref='-40330' />
    <nd ref='-40328' />
    <nd ref='-40326' />
    <nd ref='-40324' />
    <nd ref='-40322' />
    <nd ref='-40320' />
    <nd ref='-40318' />
    <nd ref='-40316' />
    <nd ref='-40314' />
    <nd ref='-40312' />
    <nd ref='-40310' />
    <nd ref='-40308' />
    <nd ref='-40306' />
    <nd ref='-40304' />
    <nd ref='-40302' />
    <nd ref='-40300' />
    <nd ref='-40298' />
    <nd ref='-40296' />
    <nd ref='-40294' />
    <nd ref='-40292' />
    <nd ref='-40290' />
    <nd ref='-40288' />
    <nd ref='-40286' />
    <nd ref='-40284' />
    <nd ref='-40282' />
    <nd ref='-40280' />
    <nd ref='-40278' />
    <nd ref='-40276' />
    <nd ref='-40274' />
    <nd ref='-40272' />
    <nd ref='-40270' />
    <nd ref='-40268' />
    <nd ref='-40266' />
    <nd ref='-40264' />
    <nd ref='-40262' />
    <nd ref='-40260' />
    <nd ref='-40258' />
    <nd ref='-40256' />
    <nd ref='-40254' />
    <nd ref='-40252' />
    <nd ref='-40250' />
    <nd ref='-40248' />
    <nd ref='-40246' />
    <nd ref='-40244' />
    <nd ref='-40242' />
    <nd ref='-40240' />
    <nd ref='-40238' />
    <nd ref='-40236' />
    <nd ref='-40234' />
    <nd ref='-40232' />
    <tag k='name' v='Tunnel View Lookout' />
    <tag k='role' v='sidetrack' />
    <tag k='style' v='return' />
  </way>
</osm>
