<?xml version='1.0' encoding='UTF-8'?>
<osm version='0.6' upload='false' generator='JOSM'>
  <node id='-43723' action='modify' lat='-34.3790558' lon='150.3542938' />
  <node id='-43725' action='modify' lat='-34.3790026' lon='150.35409' />
  <node id='-43727' action='modify' lat='-34.3789451' lon='150.3539613' />
  <node id='-43729' action='modify' lat='-34.3789849' lon='150.3538164' />
  <node id='-43731' action='modify' lat='-34.3788919' lon='150.3535965' />
  <node id='-43733' action='modify' lat='-34.3788078' lon='150.3535321' />
  <node id='-43735' action='modify' lat='-34.3786883' lon='150.3532317' />
  <node id='-43737' action='modify' lat='-34.3786219' lon='150.3530922' />
  <node id='-43739' action='modify' lat='-34.378613' lon='150.3529045' />
  <node id='-43741' action='modify' lat='-34.3786174' lon='150.3527382' />
  <node id='-43743' action='modify' lat='-34.3785909' lon='150.3525129' />
  <node id='-43745' action='modify' lat='-34.3785776' lon='150.3523144' />
  <node id='-43747' action='modify' lat='-34.3785333' lon='150.3521803' />
  <node id='-43749' action='modify' lat='-34.3783872' lon='150.3519764' />
  <node id='-43751' action='modify' lat='-34.3783429' lon='150.3518262' />
  <node id='-43753' action='modify' lat='-34.3781791' lon='150.3517189' />
  <node id='-43755' action='modify' lat='-34.3780419' lon='150.351735' />
  <node id='-43757' action='modify' lat='-34.3778781' lon='150.3515955' />
  <node id='-43759' action='modify' lat='-34.377639' lon='150.3515365' />
  <node id='-43761' action='modify' lat='-34.3772936' lon='150.3517082' />
  <node id='-43763' action='modify' lat='-34.3768155' lon='150.3519871' />
  <node id='-43765' action='modify' lat='-34.3764436' lon='150.352191' />
  <node id='-43767' action='modify' lat='-34.3760717' lon='150.3523197' />
  <node id='-43769' action='modify' lat='-34.3759388' lon='150.3522446' />
  <node id='-43771' action='modify' lat='-34.3754429' lon='150.3522876' />
  <node id='-43773' action='modify' lat='-34.3750356' lon='150.352427' />
  <node id='-43775' action='modify' lat='-34.3748231' lon='150.352545' />
  <node id='-43777' action='modify' lat='-34.37446' lon='150.3523734' />
  <node id='-43779' action='modify' lat='-34.3742652' lon='150.3524378' />
  <node id='-43781' action='modify' lat='-34.3741058' lon='150.3526953' />
  <node id='-43783' action='modify' lat='-34.3740615' lon='150.3529206' />
  <node id='-43785' action='modify' lat='-34.3742032' lon='150.3534785' />
  <node id='-43787' action='modify' lat='-34.3738313' lon='150.3541866' />
  <node id='-43789' action='modify' lat='-34.3737605' lon='150.3545728' />
  <node id='-43791' action='modify' lat='-34.3733903' lon='150.3552391' />
  <node id='-43793' action='modify' lat='-34.3736205' lon='150.3561617' />
  <node id='-43795' action='modify' lat='-34.3737977' lon='150.3566123' />
  <node id='-43797' action='modify' lat='-34.3737799' lon='150.3570844' />
  <node id='-43799' action='modify' lat='-34.3738685' lon='150.357535' />
  <node id='-43801' action='modify' lat='-34.3737977' lon='150.3578354' />
  <node id='-43803' action='modify' lat='-34.3738862' lon='150.358286' />
  <node id='-43805' action='modify' lat='-34.3737622' lon='150.3586079' />
  <node id='-43807' action='modify' lat='-34.3734328' lon='150.3588' />
  <node id='-43809' action='modify' lat='-34.3733' lon='150.359036' />
  <node id='-43811' action='modify' lat='-34.3730875' lon='150.3590789' />
  <node id='-43813' action='modify' lat='-34.3729281' lon='150.3593579' />
  <node id='-43815' action='modify' lat='-34.3729103' lon='150.359551' />
  <node id='-43817' action='modify' lat='-34.3727332' lon='150.3599372' />
  <node id='-43819' action='modify' lat='-34.3726181' lon='150.3601518' />
  <node id='-43821' action='modify' lat='-34.3726978' lon='150.3603771' />
  <node id='-43823' action='modify' lat='-34.3728307' lon='150.3604737' />
  <node id='-43825' action='modify' lat='-34.3728661' lon='150.3607526' />
  <node id='-43827' action='modify' lat='-34.3732026' lon='150.3609457' />
  <node id='-43829' action='modify' lat='-34.3734771' lon='150.3610637' />
  <node id='-43831' action='modify' lat='-34.3735302' lon='150.3613105' />
  <node id='-43833' action='modify' lat='-34.3736985' lon='150.3615036' />
  <node id='-43835' action='modify' lat='-34.3738402' lon='150.3616109' />
  <node id='-43837' action='modify' lat='-34.373911' lon='150.3618469' />
  <node id='-43839' action='modify' lat='-34.3737162' lon='150.3621903' />
  <node id='-43841' action='modify' lat='-34.3736631' lon='150.3623941' />
  <node id='-43843' action='modify' lat='-34.3733885' lon='150.3626623' />
  <node id='-43845' action='modify' lat='-34.373362' lon='150.3632202' />
  <node id='-43847' action='modify' lat='-34.3732911' lon='150.3636387' />
  <node id='-43849' action='modify' lat='-34.3730432' lon='150.3640249' />
  <node id='-43851' action='modify' lat='-34.3729369' lon='150.3644541' />
  <node id='-43853' action='modify' lat='-34.3728129' lon='150.3646686' />
  <node id='-43855' action='modify' lat='-34.3728484' lon='150.3650656' />
  <node id='-43857' action='modify' lat='-34.3727067' lon='150.3653016' />
  <node id='-43859' action='modify' lat='-34.3725384' lon='150.3656879' />
  <node id='-43861' action='modify' lat='-34.3724056' lon='150.3657308' />
  <node id='-43863' action='modify' lat='-34.3723215' lon='150.3659185' />
  <node id='-43865' action='modify' lat='-34.3722285' lon='150.3660527' />
  <node id='-43867' action='modify' lat='-34.3721665' lon='150.3661868' />
  <node id='-43869' action='modify' lat='-34.3721399' lon='150.3664067' />
  <node id='-43871' action='modify' lat='-34.3720957' lon='150.3665247' />
  <node id='-43873' action='modify' lat='-34.3720248' lon='150.3666964' />
  <node id='-43875' action='modify' lat='-34.3719982' lon='150.3668198' />
  <node id='-43877' action='modify' lat='-34.3719672' lon='150.3670182' />
  <node id='-43879' action='modify' lat='-34.3719097' lon='150.3670665' />
  <node id='-43881' action='modify' lat='-34.371892' lon='150.3671845' />
  <node id='-43883' action='modify' lat='-34.3718433' lon='150.3672543' />
  <node id='-43885' action='modify' lat='-34.3717813' lon='150.3676191' />
  <node id='-43887' action='modify' lat='-34.3716042' lon='150.367662' />
  <node id='-43889' action='modify' lat='-34.3715422' lon='150.3677049' />
  <node id='-43891' action='modify' lat='-34.3714758' lon='150.367721' />
  <node id='-43893' action='modify' lat='-34.3714448' lon='150.3677907' />
  <node id='-43895' action='modify' lat='-34.3713784' lon='150.3678444' />
  <node id='-43897' action='modify' lat='-34.3711924' lon='150.3679999' />
  <node id='-43899' action='modify' lat='-34.3710551' lon='150.3680429' />
  <node id='-43901' action='modify' lat='-34.3709533' lon='150.3681716' />
  <node id='-43903' action='modify' lat='-34.3709489' lon='150.3682467' />
  <node id='-43905' action='modify' lat='-34.3708913' lon='150.3683325' />
  <node id='-43907' action='modify' lat='-34.3708559' lon='150.3684774' />
  <node id='-43909' action='modify' lat='-34.3707673' lon='150.3685954' />
  <node id='-43911' action='modify' lat='-34.3706345' lon='150.3687027' />
  <node id='-43913' action='modify' lat='-34.3704795' lon='150.3688421' />
  <node id='-43915' action='modify' lat='-34.3704262' lon='150.3688207' />
  <node id='-43917' action='modify' lat='-34.3701784' lon='150.3688958' />
  <node id='-43919' action='modify' lat='-34.3699836' lon='150.3689816' />
  <node id='-43921' action='modify' lat='-34.370112' lon='150.369105' />
  <node id='-43923' action='modify' lat='-34.3702404' lon='150.3691855' />
  <node id='-43925' action='modify' lat='-34.3702006' lon='150.3692713' />
  <node id='-43927' action='modify' lat='-34.3701031' lon='150.3692981' />
  <node id='-43929' action='modify' lat='-34.3702183' lon='150.3694322' />
  <node id='-43931' action='modify' lat='-34.3701474' lon='150.3694859' />
  <node id='-43933' action='modify' lat='-34.3703865' lon='150.3697005' />
  <node id='-43935' action='modify' lat='-34.3704131' lon='150.3697595' />
  <node id='-43937' action='modify' lat='-34.3704662' lon='150.3698131' />
  <node id='-43939' action='modify' lat='-34.3705548' lon='150.3699901' />
  <node id='-43941' action='modify' lat='-34.3705548' lon='150.370076' />
  <node id='-43943' action='modify' lat='-34.3705105' lon='150.3701403' />
  <node id='-43945' action='modify' lat='-34.3703777' lon='150.3702208' />
  <node id='-43947' action='modify' lat='-34.3702493' lon='150.3702047' />
  <node id='-43949' action='modify' lat='-34.3701474' lon='150.3701672' />
  <node id='-43951' action='modify' lat='-34.3700013' lon='150.3702423' />
  <node id='-43953' action='modify' lat='-34.3698995' lon='150.3702744' />
  <node id='-43955' action='modify' lat='-34.3698109' lon='150.3703656' />
  <node id='-43957' action='modify' lat='-34.3696736' lon='150.3703388' />
  <node id='-43959' action='modify' lat='-34.3695452' lon='150.370371' />
  <node id='-43961' action='modify' lat='-34.3695187' lon='150.3704568' />
  <node id='-43963' action='modify' lat='-34.369377' lon='150.3705534' />
  <node id='-43965' action='modify' lat='-34.3692973' lon='150.3706607' />
  <node id='-43967' action='modify' lat='-34.3692264' lon='150.3706875' />
  <node id='-43969' action='modify' lat='-34.3691954' lon='150.3708216' />
  <node id='-43971' action='modify' lat='-34.3691467' lon='150.370886' />
  <node id='-43973' action='modify' lat='-34.3850856' lon='150.3544011' />
  <node id='-43975' action='modify' lat='-34.3848288' lon='150.3543797' />
  <node id='-43977' action='modify' lat='-34.3845986' lon='150.3543689' />
  <node id='-43979' action='modify' lat='-34.3844304' lon='150.3543689' />
  <node id='-43981' action='modify' lat='-34.3842445' lon='150.3543904' />
  <node id='-43983' action='modify' lat='-34.3840408' lon='150.3542724' />
  <node id='-43985' action='modify' lat='-34.3838372' lon='150.3541973' />
  <node id='-43987' action='modify' lat='-34.3836778' lon='150.3543153' />
  <node id='-43989' action='modify' lat='-34.3834122' lon='150.3542509' />
  <node id='-43991' action='modify' lat='-34.3833413' lon='150.3541544' />
  <node id='-43993' action='modify' lat='-34.3830226' lon='150.3540685' />
  <node id='-43995' action='modify' lat='-34.3828455' lon='150.35409' />
  <node id='-43997' action='modify' lat='-34.3826064' lon='150.3540364' />
  <node id='-43999' action='modify' lat='-34.3824293' lon='150.3539398' />
  <node id='-44001' action='modify' lat='-34.3821283' lon='150.3536394' />
  <node id='-44003' action='modify' lat='-34.3817387' lon='150.3536394' />
  <node id='-44005' action='modify' lat='-34.3814376' lon='150.3536394' />
  <node id='-44007' action='modify' lat='-34.3810126' lon='150.3534463' />
  <node id='-44009' action='modify' lat='-34.3809241' lon='150.3537467' />
  <node id='-44011' action='modify' lat='-34.3806761' lon='150.3537681' />
  <node id='-44013' action='modify' lat='-34.3805699' lon='150.3535965' />
  <node id='-44015' action='modify' lat='-34.38026' lon='150.3536072' />
  <node id='-44017' action='modify' lat='-34.3801449' lon='150.3537574' />
  <node id='-44019' action='modify' lat='-34.3798792' lon='150.3537145' />
  <node id='-44021' action='modify' lat='-34.3798527' lon='150.3539183' />
  <node id='-44023' action='modify' lat='-34.3797287' lon='150.353972' />
  <node id='-44025' action='modify' lat='-34.3795605' lon='150.3539183' />
  <node id='-44027' action='modify' lat='-34.3793745' lon='150.3540149' />
  <node id='-44029' action='modify' lat='-34.3792063' lon='150.3541007' />
  <node id='-44031' action='modify' lat='-34.3941703' lon='150.3516933' />
  <node id='-44033' action='modify' lat='-34.3933562' lon='150.3519894' />
  <node id='-44035' action='modify' lat='-34.3924532' lon='150.3516782' />
  <node id='-44037' action='modify' lat='-34.3920459' lon='150.3514422' />
  <node id='-44039' action='modify' lat='-34.3911252' lon='150.3515817' />
  <node id='-44041' action='modify' lat='-34.3904523' lon='150.3510774' />
  <node id='-44043' action='modify' lat='-34.389744' lon='150.3512706' />
  <node id='-44045' action='modify' lat='-34.3893013' lon='150.3518928' />
  <node id='-44047' action='modify' lat='-34.388779' lon='150.3521074' />
  <node id='-44049' action='modify' lat='-34.3885222' lon='150.3526117' />
  <node id='-44051' action='modify' lat='-34.3880618' lon='150.3531481' />
  <node id='-44053' action='modify' lat='-34.3876811' lon='150.3533198' />
  <node id='-44055' action='modify' lat='-34.3875129' lon='150.3531899' />
  <node id='-44057' action='modify' lat='-34.3875749' lon='150.3529657' />
  <node id='-44059' action='modify' lat='-34.3872561' lon='150.3525366' />
  <node id='-44061' action='modify' lat='-34.3867426' lon='150.3525687' />
  <node id='-44063' action='modify' lat='-34.3864947' lon='150.3527297' />
  <node id='-44065' action='modify' lat='-34.3858483' lon='150.3525687' />
  <node id='-44067' action='modify' lat='-34.3856713' lon='150.3524936' />
  <node id='-44069' action='modify' lat='-34.3854853' lon='150.3528048' />
  <node id='-44071' action='modify' lat='-34.3853348' lon='150.3531588' />
  <node id='-44073' action='modify' lat='-34.3852892' lon='150.3534463' />
  <node id='-44075' action='modify' lat='-34.3852627' lon='150.3537467' />
  <node id='-44077' action='modify' lat='-34.3852804' lon='150.3540793' />
  <node id='-44079' action='modify' lat='-34.3851476' lon='150.3543046' />
  <way id='-44081' action='modify'>
    <nd ref='-44031' />
    <nd ref='-44033' />
    <nd ref='-44035' />
    <nd ref='-44037' />
    <nd ref='-44039' />
    <nd ref='-44041' />
    <nd ref='-44043' />
    <nd ref='-44045' />
    <nd ref='-44047' />
    <nd ref='-44049' />
    <nd ref='-44051' />
    <nd ref='-44053' />
    <nd ref='-44055' />
    <nd ref='-44057' />
    <nd ref='-44059' />
    <nd ref='-44061' />
    <nd ref='-44063' />
    <nd ref='-44065' />
    <nd ref='-44067' />
    <nd ref='-44069' />
    <nd ref='-44071' />
    <nd ref='-44073' />
    <nd ref='-44075' />
    <nd ref='-44077' />
    <nd ref='-44079' />
    <nd ref='-43973' />
    <nd ref='-43975' />
    <nd ref='-43977' />
    <nd ref='-43979' />
    <nd ref='-43981' />
    <nd ref='-43983' />
    <nd ref='-43985' />
    <nd ref='-43987' />
    <nd ref='-43989' />
    <nd ref='-43991' />
    <nd ref='-43993' />
    <nd ref='-43995' />
    <nd ref='-43997' />
    <nd ref='-43999' />
    <nd ref='-44001' />
    <nd ref='-44003' />
    <nd ref='-44005' />
    <nd ref='-44007' />
    <nd ref='-44009' />
    <nd ref='-44011' />
    <nd ref='-44013' />
    <nd ref='-44015' />
    <nd ref='-44017' />
    <nd ref='-44019' />
    <nd ref='-44021' />
    <nd ref='-44023' />
    <nd ref='-44025' />
    <nd ref='-44027' />
    <nd ref='-44029' />
    <nd ref='-43723' />
    <nd ref='-43725' />
    <nd ref='-43727' />
    <nd ref='-43729' />
    <nd ref='-43731' />
    <nd ref='-43733' />
    <nd ref='-43735' />
    <nd ref='-43737' />
    <nd ref='-43739' />
    <nd ref='-43741' />
    <nd ref='-43743' />
    <nd ref='-43745' />
    <nd ref='-43747' />
    <nd ref='-43749' />
    <nd ref='-43751' />
    <nd ref='-43753' />
    <nd ref='-43755' />
    <nd ref='-43757' />
    <nd ref='-43759' />
    <nd ref='-43761' />
    <nd ref='-43763' />
    <nd ref='-43765' />
    <nd ref='-43767' />
    <nd ref='-43769' />
    <nd ref='-43771' />
    <nd ref='-43773' />
    <nd ref='-43775' />
    <nd ref='-43777' />
    <nd ref='-43779' />
    <nd ref='-43781' />
    <nd ref='-43783' />
    <nd ref='-43785' />
    <nd ref='-43787' />
    <nd ref='-43789' />
    <nd ref='-43791' />
    <nd ref='-43793' />
    <nd ref='-43795' />
    <nd ref='-43797' />
    <nd ref='-43799' />
    <nd ref='-43801' />
    <nd ref='-43803' />
    <nd ref='-43805' />
    <nd ref='-43807' />
    <nd ref='-43809' />
    <nd ref='-43811' />
    <nd ref='-43813' />
    <nd ref='-43815' />
    <nd ref='-43817' />
    <nd ref='-43819' />
    <nd ref='-43821' />
    <nd ref='-43823' />
    <nd ref='-43825' />
    <nd ref='-43827' />
    <nd ref='-43829' />
    <nd ref='-43831' />
    <nd ref='-43833' />
    <nd ref='-43835' />
    <nd ref='-43837' />
    <nd ref='-43839' />
    <nd ref='-43841' />
    <nd ref='-43843' />
    <nd ref='-43845' />
    <nd ref='-43847' />
    <nd ref='-43849' />
    <nd ref='-43851' />
    <nd ref='-43853' />
    <nd ref='-43855' />
    <nd ref='-43857' />
    <nd ref='-43859' />
    <nd ref='-43861' />
    <nd ref='-43863' />
    <nd ref='-43865' />
    <nd ref='-43867' />
    <nd ref='-43869' />
    <nd ref='-43871' />
    <nd ref='-43873' />
    <nd ref='-43875' />
    <nd ref='-43877' />
    <nd ref='-43879' />
    <nd ref='-43881' />
    <nd ref='-43883' />
    <nd ref='-43885' />
    <nd ref='-43887' />
    <nd ref='-43889' />
    <nd ref='-43891' />
    <nd ref='-43893' />
    <nd ref='-43895' />
    <nd ref='-43897' />
    <nd ref='-43899' />
    <nd ref='-43901' />
    <nd ref='-43903' />
    <nd ref='-43905' />
    <nd ref='-43907' />
    <nd ref='-43909' />
    <nd ref='-43911' />
    <nd ref='-43913' />
    <nd ref='-43915' />
    <nd ref='-43917' />
    <nd ref='-43919' />
    <nd ref='-43921' />
    <nd ref='-43923' />
    <nd ref='-43925' />
    <nd ref='-43927' />
    <nd ref='-43929' />
    <nd ref='-43931' />
    <nd ref='-43933' />
    <nd ref='-43935' />
    <nd ref='-43937' />
    <nd ref='-43939' />
    <nd ref='-43941' />
    <nd ref='-43943' />
    <nd ref='-43945' />
    <nd ref='-43947' />
    <nd ref='-43949' />
    <nd ref='-43951' />
    <nd ref='-43953' />
    <nd ref='-43955' />
    <nd ref='-43957' />
    <nd ref='-43959' />
    <nd ref='-43961' />
    <nd ref='-43963' />
    <nd ref='-43965' />
    <nd ref='-43967' />
    <nd ref='-43969' />
    <nd ref='-43971' />
    <tag k='name' v='Mount Jellore' />
    <tag k='park' v='Nattai National Park' />
    <tag k='role' v='primary' />
    <tag k='style' v='return' />
    <tag k='transport' v='car' />
  </way>
</osm>
