<?xml version='1.0' encoding='UTF-8'?>
<osm version='0.6' upload='false' generator='JOSM'>
  <node id='-41527' action='modify' lat='-33.524911' lon='151.095634' />
  <node id='-41529' action='modify' lat='-33.5248649' lon='151.0955276' />
  <node id='-41531' action='modify' lat='-33.5249275' lon='151.095415' />
  <node id='-41533' action='modify' lat='-33.525245' lon='151.0950395' />
  <node id='-41535' action='modify' lat='-33.5250929' lon='151.0949107' />
  <node id='-41537' action='modify' lat='-33.5249856' lon='151.0947337' />
  <node id='-41539' action='modify' lat='-33.5247486' lon='151.0944118' />
  <node id='-41541' action='modify' lat='-33.5245608' lon='151.0941061' />
  <node id='-41543' action='modify' lat='-33.524355' lon='151.093634' />
  <node id='-41545' action='modify' lat='-33.524203' lon='151.0930439' />
  <node id='-41547' action='modify' lat='-33.5240912' lon='151.0928079' />
  <node id='-41549' action='modify' lat='-33.5236887' lon='151.0924163' />
  <node id='-41551' action='modify' lat='-33.5230179' lon='151.0914721' />
  <node id='-41553' action='modify' lat='-33.5226869' lon='151.0907372' />
  <node id='-41555' action='modify' lat='-33.5225796' lon='151.0903778' />
  <node id='-41557' action='modify' lat='-33.5225394' lon='151.0898092' />
  <node id='-41559' action='modify' lat='-33.5226064' lon='151.089498' />
  <node id='-41561' action='modify' lat='-33.5228032' lon='151.0891923' />
  <node id='-41563' action='modify' lat='-33.5229329' lon='151.0889455' />
  <node id='-41565' action='modify' lat='-33.5228927' lon='151.0887953' />
  <node id='-41567' action='modify' lat='-33.5227744' lon='151.0884791' />
  <node id='-41569' action='modify' lat='-33.5227361' lon='151.0883769' />
  <node id='-41571' action='modify' lat='-33.5225707' lon='151.0879048' />
  <node id='-41573' action='modify' lat='-33.5225036' lon='151.087701' />
  <node id='-41575' action='modify' lat='-33.522195' lon='151.0872664' />
  <node id='-41577' action='modify' lat='-33.5220743' lon='151.0869768' />
  <node id='-41579' action='modify' lat='-33.5220743' lon='151.0867354' />
  <node id='-41581' action='modify' lat='-33.5221637' lon='151.0866066' />
  <node id='-41583' action='modify' lat='-33.525052' lon='151.095837' />
  <node id='-41585' action='modify' lat='-33.525232' lon='151.095926' />
  <node id='-41587' action='modify' lat='-33.525468' lon='151.095975' />
  <node id='-41589' action='modify' lat='-33.525657' lon='151.095884' />
  <node id='-41591' action='modify' lat='-33.525849' lon='151.095799' />
  <node id='-41593' action='modify' lat='-33.526056' lon='151.095733' />
  <node id='-41595' action='modify' lat='-33.526234' lon='151.095633' />
  <node id='-41597' action='modify' lat='-33.5264278' lon='151.0955411' />
  <node id='-41599' action='modify' lat='-33.5266008' lon='151.0955211' />
  <node id='-41601' action='modify' lat='-33.5268488' lon='151.095548' />
  <node id='-41603' action='modify' lat='-33.5270126' lon='151.0954052' />
  <node id='-41605' action='modify' lat='-33.5272019' lon='151.0949688' />
  <node id='-41607' action='modify' lat='-33.5273785' lon='151.094581' />
  <node id='-41609' action='modify' lat='-33.527521' lon='151.0942493' />
  <node id='-41611' action='modify' lat='-33.527518' lon='151.09406' />
  <node id='-41613' action='modify' lat='-33.527502' lon='151.093783' />
  <node id='-41615' action='modify' lat='-33.527506' lon='151.093553' />
  <node id='-41617' action='modify' lat='-33.5275898' lon='151.0933548' />
  <node id='-41619' action='modify' lat='-33.5277228' lon='151.0931422' />
  <node id='-41621' action='modify' lat='-33.5278548' lon='151.0930677' />
  <node id='-41623' action='modify' lat='-33.5280222' lon='151.092984' />
  <node id='-41625' action='modify' lat='-33.5281929' lon='151.0928904' />
  <node id='-41627' action='modify' lat='-33.5283658' lon='151.0927876' />
  <node id='-41629' action='modify' lat='-33.5285425' lon='151.0927813' />
  <node id='-41631' action='modify' lat='-33.5286458' lon='151.0927698' />
  <node id='-41633' action='modify' lat='-33.5288533' lon='151.0927092' />
  <node id='-41635' action='modify' lat='-33.5289405' lon='151.0927016' />
  <node id='-41637' action='modify' lat='-33.5290708' lon='151.0928856' />
  <node id='-41639' action='modify' lat='-33.5291958' lon='151.0931086' />
  <node id='-41641' action='modify' lat='-33.5293567' lon='151.0933692' />
  <node id='-41643' action='modify' lat='-33.5297183' lon='151.0934738' />
  <node id='-41645' action='modify' lat='-33.5299842' lon='151.0933845' />
  <node id='-41647' action='modify' lat='-33.5301947' lon='151.0933079' />
  <node id='-41649' action='modify' lat='-33.5303691' lon='151.0931855' />
  <node id='-41651' action='modify' lat='-33.5305521' lon='151.0929073' />
  <node id='-41653' action='modify' lat='-33.5307208' lon='151.0926965' />
  <node id='-41655' action='modify' lat='-33.5308803' lon='151.0924617' />
  <node id='-41657' action='modify' lat='-33.5309931' lon='151.0922652' />
  <node id='-41659' action='modify' lat='-33.5311122' lon='151.0920637' />
  <node id='-41661' action='modify' lat='-33.5312121' lon='151.0918748' />
  <node id='-41663' action='modify' lat='-33.531293' lon='151.0916886' />
  <node id='-41665' action='modify' lat='-33.5313206' lon='151.0914895' />
  <node id='-41667' action='modify' lat='-33.5313355' lon='151.0913543' />
  <node id='-41669' action='modify' lat='-33.5314567' lon='151.0911374' />
  <node id='-41671' action='modify' lat='-33.5315907' lon='151.0909792' />
  <node id='-41673' action='modify' lat='-33.5317396' lon='151.0908363' />
  <node id='-41675' action='modify' lat='-33.531838' lon='151.090698' />
  <node id='-41677' action='modify' lat='-33.531993' lon='151.090571' />
  <node id='-41679' action='modify' lat='-33.532168' lon='151.09048' />
  <node id='-41681' action='modify' lat='-33.5323522' lon='151.0904434' />
  <node id='-41683' action='modify' lat='-33.5325543' lon='151.0904' />
  <node id='-41685' action='modify' lat='-33.5327457' lon='151.0903745' />
  <node id='-41687' action='modify' lat='-33.5329307' lon='151.090326' />
  <node id='-41689' action='modify' lat='-33.5331196' lon='151.0902848' />
  <node id='-41691' action='modify' lat='-33.5332494' lon='151.0902648' />
  <node id='-41693' action='modify' lat='-33.5335263' lon='151.0902596' />
  <node id='-41695' action='modify' lat='-33.5337198' lon='151.0902367' />
  <node id='-41697' action='modify' lat='-33.533905' lon='151.090156' />
  <node id='-41699' action='modify' lat='-33.534093' lon='151.090013' />
  <node id='-41701' action='modify' lat='-33.534242' lon='151.089805' />
  <node id='-41703' action='modify' lat='-33.534377' lon='151.089657' />
  <node id='-41705' action='modify' lat='-33.534492' lon='151.089487' />
  <node id='-41707' action='modify' lat='-33.534636' lon='151.089306' />
  <node id='-41709' action='modify' lat='-33.53481' lon='151.089191' />
  <node id='-41711' action='modify' lat='-33.534938' lon='151.089096' />
  <node id='-41713' action='modify' lat='-33.535094' lon='151.088984' />
  <node id='-41715' action='modify' lat='-33.535307' lon='151.088918' />
  <node id='-41717' action='modify' lat='-33.535537' lon='151.089004' />
  <node id='-41719' action='modify' lat='-33.535703' lon='151.0891266' />
  <node id='-41721' action='modify' lat='-33.5358746' lon='151.0891648' />
  <node id='-41723' action='modify' lat='-33.5361399' lon='151.0891588' />
  <node id='-41725' action='modify' lat='-33.5363095' lon='151.0891548' />
  <node id='-41727' action='modify' lat='-33.5365265' lon='151.089183' />
  <node id='-41729' action='modify' lat='-33.5367386' lon='151.0892921' />
  <node id='-41731' action='modify' lat='-33.5369366' lon='151.0894176' />
  <node id='-41733' action='modify' lat='-33.5371019' lon='151.08952' />
  <node id='-41735' action='modify' lat='-33.537269' lon='151.0896219' />
  <node id='-41737' action='modify' lat='-33.5375159' lon='151.0897157' />
  <node id='-41739' action='modify' lat='-33.5377562' lon='151.0898841' />
  <node id='-41741' action='modify' lat='-33.5379304' lon='151.0900942' />
  <node id='-41743' action='modify' lat='-33.5381005' lon='151.0902167' />
  <node id='-41745' action='modify' lat='-33.5382813' lon='151.0903162' />
  <node id='-41747' action='modify' lat='-33.5384451' lon='151.0904948' />
  <node id='-41749' action='modify' lat='-33.5385627' lon='151.0907598' />
  <node id='-41751' action='modify' lat='-33.538684' lon='151.09094' />
  <node id='-41753' action='modify' lat='-33.5387826' lon='151.0912517' />
  <node id='-41755' action='modify' lat='-33.5388847' lon='151.0915068' />
  <node id='-41757' action='modify' lat='-33.5389932' lon='151.0917441' />
  <node id='-41759' action='modify' lat='-33.5391144' lon='151.0919253' />
  <node id='-41761' action='modify' lat='-33.5391797' lon='151.0920564' />
  <node id='-41763' action='modify' lat='-33.5392917' lon='151.0922174' />
  <node id='-41765' action='modify' lat='-33.539482' lon='151.092369' />
  <node id='-41767' action='modify' lat='-33.539656' lon='151.092478' />
  <node id='-41769' action='modify' lat='-33.539968' lon='151.092389' />
  <node id='-41771' action='modify' lat='-33.540129' lon='151.092271' />
  <node id='-41773' action='modify' lat='-33.540257' lon='151.092124' />
  <node id='-41775' action='modify' lat='-33.540387' lon='151.092008' />
  <node id='-41777' action='modify' lat='-33.540529' lon='151.091885' />
  <node id='-41779' action='modify' lat='-33.54065' lon='151.091735' />
  <node id='-41781' action='modify' lat='-33.54079' lon='151.091588' />
  <node id='-41783' action='modify' lat='-33.540915' lon='151.091399' />
  <node id='-41785' action='modify' lat='-33.541041' lon='151.091185' />
  <node id='-41787' action='modify' lat='-33.541148' lon='151.091002' />
  <node id='-41789' action='modify' lat='-33.541263' lon='151.090822' />
  <node id='-41791' action='modify' lat='-33.541392' lon='151.090647' />
  <node id='-41793' action='modify' lat='-33.541525' lon='151.090502' />
  <node id='-41795' action='modify' lat='-33.541598' lon='151.090347' />
  <node id='-41797' action='modify' lat='-33.541672' lon='151.090149' />
  <node id='-41799' action='modify' lat='-33.541739' lon='151.089981' />
  <node id='-41801' action='modify' lat='-33.541815' lon='151.089773' />
  <node id='-41803' action='modify' lat='-33.541908' lon='151.089586' />
  <node id='-41805' action='modify' lat='-33.541977' lon='151.089407' />
  <node id='-41807' action='modify' lat='-33.542031' lon='151.089199' />
  <node id='-41809' action='modify' lat='-33.542115' lon='151.088937' />
  <node id='-41811' action='modify' lat='-33.542138' lon='151.088747' />
  <node id='-41813' action='modify' lat='-33.542148' lon='151.088521' />
  <node id='-41815' action='modify' lat='-33.542109' lon='151.088326' />
  <node id='-41817' action='modify' lat='-33.542087' lon='151.088135' />
  <node id='-41819' action='modify' lat='-33.542142' lon='151.087894' />
  <node id='-41821' action='modify' lat='-33.542229' lon='151.087727' />
  <node id='-41823' action='modify' lat='-33.542311' lon='151.087571' />
  <node id='-41825' action='modify' lat='-33.542332' lon='151.087392' />
  <node id='-41827' action='modify' lat='-33.5423245' lon='151.0872786' />
  <node id='-41829' action='modify' lat='-33.542305' lon='151.087047' />
  <node id='-41831' action='modify' lat='-33.542276' lon='151.086849' />
  <node id='-41833' action='modify' lat='-33.542231' lon='151.086631' />
  <way id='-41835' action='modify'>
    <nd ref='-41833' />
    <nd ref='-41831' />
    <nd ref='-41829' />
    <nd ref='-41827' />
    <nd ref='-41825' />
    <nd ref='-41823' />
    <nd ref='-41821' />
    <nd ref='-41819' />
    <nd ref='-41817' />
    <nd ref='-41815' />
    <nd ref='-41813' />
    <nd ref='-41811' />
    <nd ref='-41809' />
    <nd ref='-41807' />
    <nd ref='-41805' />
    <nd ref='-41803' />
    <nd ref='-41801' />
    <nd ref='-41799' />
    <nd ref='-41797' />
    <nd ref='-41795' />
    <nd ref='-41793' />
    <nd ref='-41791' />
    <nd ref='-41789' />
    <nd ref='-41787' />
    <nd ref='-41785' />
    <nd ref='-41783' />
    <nd ref='-41781' />
    <nd ref='-41779' />
    <nd ref='-41777' />
    <nd ref='-41775' />
    <nd ref='-41773' />
    <nd ref='-41771' />
    <nd ref='-41769' />
    <nd ref='-41767' />
    <nd ref='-41765' />
    <nd ref='-41763' />
    <nd ref='-41761' />
    <nd ref='-41759' />
    <nd ref='-41757' />
    <nd ref='-41755' />
    <nd ref='-41753' />
    <nd ref='-41751' />
    <nd ref='-41749' />
    <nd ref='-41747' />
    <nd ref='-41745' />
    <nd ref='-41743' />
    <nd ref='-41741' />
    <nd ref='-41739' />
    <nd ref='-41737' />
    <nd ref='-41735' />
    <nd ref='-41733' />
    <nd ref='-41731' />
    <nd ref='-41729' />
    <nd ref='-41727' />
    <nd ref='-41725' />
    <nd ref='-41723' />
    <nd ref='-41721' />
    <nd ref='-41719' />
    <nd ref='-41717' />
    <nd ref='-41715' />
    <nd ref='-41713' />
    <nd ref='-41711' />
    <nd ref='-41709' />
    <nd ref='-41707' />
    <nd ref='-41705' />
    <nd ref='-41703' />
    <nd ref='-41701' />
    <nd ref='-41699' />
    <nd ref='-41697' />
    <nd ref='-41695' />
    <nd ref='-41693' />
    <nd ref='-41691' />
    <nd ref='-41689' />
    <nd ref='-41687' />
    <nd ref='-41685' />
    <nd ref='-41683' />
    <nd ref='-41681' />
    <nd ref='-41679' />
    <nd ref='-41677' />
    <nd ref='-41675' />
    <nd ref='-41673' />
    <nd ref='-41671' />
    <nd ref='-41669' />
    <nd ref='-41667' />
    <nd ref='-41665' />
    <nd ref='-41663' />
    <nd ref='-41661' />
    <nd ref='-41659' />
    <nd ref='-41657' />
    <nd ref='-41655' />
    <nd ref='-41653' />
    <nd ref='-41651' />
    <nd ref='-41649' />
    <nd ref='-41647' />
    <nd ref='-41645' />
    <nd ref='-41643' />
    <nd ref='-41641' />
    <nd ref='-41639' />
    <nd ref='-41637' />
    <nd ref='-41635' />
    <nd ref='-41633' />
    <nd ref='-41631' />
    <nd ref='-41629' />
    <nd ref='-41627' />
    <nd ref='-41625' />
    <nd ref='-41623' />
    <nd ref='-41621' />
    <nd ref='-41619' />
    <nd ref='-41617' />
    <nd ref='-41615' />
    <nd ref='-41613' />
    <nd ref='-41611' />
    <nd ref='-41609' />
    <nd ref='-41607' />
    <nd ref='-41605' />
    <nd ref='-41603' />
    <nd ref='-41601' />
    <nd ref='-41599' />
    <nd ref='-41597' />
    <nd ref='-41595' />
    <nd ref='-41593' />
    <nd ref='-41591' />
    <nd ref='-41589' />
    <nd ref='-41587' />
    <nd ref='-41585' />
    <nd ref='-41583' />
    <nd ref='-41527' />
    <nd ref='-41529' />
    <nd ref='-41531' />
    <nd ref='-41533' />
    <nd ref='-41535' />
    <nd ref='-41537' />
    <nd ref='-41539' />
    <nd ref='-41541' />
    <nd ref='-41543' />
    <nd ref='-41545' />
    <nd ref='-41547' />
    <nd ref='-41549' />
    <nd ref='-41551' />
    <nd ref='-41553' />
    <nd ref='-41555' />
    <nd ref='-41557' />
    <nd ref='-41559' />
    <nd ref='-41561' />
    <nd ref='-41563' />
    <nd ref='-41565' />
    <nd ref='-41567' />
    <nd ref='-41569' />
    <nd ref='-41571' />
    <nd ref='-41573' />
    <nd ref='-41575' />
    <nd ref='-41577' />
    <nd ref='-41579' />
    <nd ref='-41581' />
    <tag k='name' v='Marramarra Creek' />
    <tag k='park' v='Marramarra National Park' />
    <tag k='role' v='primary' />
    <tag k='style' v='return' />
    <tag k='transport' v='car' />
  </way>
</osm>
