<?xml version='1.0' encoding='UTF-8'?>
<osm version='0.6' upload='false' generator='JOSM'>
  <node id='-40003' action='modify' lat='-33.8388623' lon='151.2795459' />
  <node id='-40005' action='modify' lat='-33.8388188' lon='151.2795369' />
  <node id='-40007' action='modify' lat='-33.8333029' lon='151.2804791' />
  <node id='-40009' action='modify' lat='-33.8332949' lon='151.2805203' />
  <node id='-40011' action='modify' lat='-33.8332997' lon='151.280583' />
  <node id='-40013' action='modify' lat='-33.8333198' lon='151.280666' />
  <node id='-40015' action='modify' lat='-33.8333294' lon='151.2807289' />
  <node id='-40017' action='modify' lat='-33.8333303' lon='151.2807674' />
  <node id='-40019' action='modify' lat='-33.8333486' lon='151.2808086' />
  <node id='-40021' action='modify' lat='-33.8334304' lon='151.2808963' />
  <node id='-40023' action='modify' lat='-33.8334646' lon='151.2809242' />
  <node id='-40025' action='modify' lat='-33.8335091' lon='151.280931' />
  <node id='-40027' action='modify' lat='-33.8338472' lon='151.2809087' />
  <node id='-40029' action='modify' lat='-33.8339127' lon='151.2809145' />
  <node id='-40031' action='modify' lat='-33.8339529' lon='151.2809203' />
  <node id='-40033' action='modify' lat='-33.8339927' lon='151.2809313' />
  <node id='-40035' action='modify' lat='-33.8341445' lon='151.2810223' />
  <node id='-40037' action='modify' lat='-33.834246' lon='151.2810625' />
  <node id='-40039' action='modify' lat='-33.8343596' lon='151.2810841' />
  <node id='-40041' action='modify' lat='-33.8345782' lon='151.2810504' />
  <node id='-40043' action='modify' lat='-33.834623' lon='151.2810209' />
  <node id='-40045' action='modify' lat='-33.8346297' lon='151.2809743' />
  <node id='-40047' action='modify' lat='-33.8346131' lon='151.2808274' />
  <node id='-40049' action='modify' lat='-33.8346117' lon='151.2804582' />
  <node id='-40051' action='modify' lat='-33.8347041' lon='151.2802126' />
  <node id='-40053' action='modify' lat='-33.8346917' lon='151.280165' />
  <node id='-40055' action='modify' lat='-33.8346359' lon='151.2801711' />
  <node id='-40057' action='modify' lat='-33.8345117' lon='151.2802014' />
  <node id='-40059' action='modify' lat='-33.8342376' lon='151.2802278' />
  <node id='-40061' action='modify' lat='-33.8342016' lon='151.2802291' />
  <node id='-40063' action='modify' lat='-33.834169' lon='151.2802247' />
  <node id='-40065' action='modify' lat='-33.8341098' lon='151.2801907' />
  <node id='-40067' action='modify' lat='-33.8339714' lon='151.2801043' />
  <node id='-40069' action='modify' lat='-33.8338199' lon='151.2800381' />
  <node id='-40071' action='modify' lat='-33.8337763' lon='151.2800228' />
  <node id='-40073' action='modify' lat='-33.8337361' lon='151.2799904' />
  <node id='-40075' action='modify' lat='-33.8336595' lon='151.2799177' />
  <node id='-40077' action='modify' lat='-33.8336279' lon='151.2799043' />
  <node id='-40079' action='modify' lat='-33.8335577' lon='151.2799005' />
  <node id='-40081' action='modify' lat='-33.8334997' lon='151.2799106' />
  <node id='-40083' action='modify' lat='-33.8334602' lon='151.2799331' />
  <node id='-40085' action='modify' lat='-33.8334226' lon='151.2799665' />
  <node id='-40087' action='modify' lat='-33.8333975' lon='151.2800153' />
  <node id='-40089' action='modify' lat='-33.8333654' lon='151.2801199' />
  <node id='-40091' action='modify' lat='-33.8333472' lon='151.2802081' />
  <node id='-40093' action='modify' lat='-33.8333452' lon='151.2803072' />
  <node id='-40095' action='modify' lat='-33.8333307' lon='151.2803633' />
  <node id='-40097' action='modify' lat='-33.8397243' lon='151.2790801' />
  <node id='-40099' action='modify' lat='-33.8397321' lon='151.279093' />
  <node id='-40101' action='modify' lat='-33.8396234' lon='151.2792048' />
  <node id='-40103' action='modify' lat='-33.8394876' lon='151.2793193' />
  <node id='-40105' action='modify' lat='-33.8393885' lon='151.279397' />
  <node id='-40107' action='modify' lat='-33.8392662' lon='151.2794829' />
  <node id='-40109' action='modify' lat='-33.8391524' lon='151.2795579' />
  <node id='-40111' action='modify' lat='-33.8391184' lon='151.2795872' />
  <node id='-40113' action='modify' lat='-33.8391003' lon='151.2796261' />
  <node id='-40115' action='modify' lat='-33.8391105' lon='151.2796751' />
  <node id='-40117' action='modify' lat='-33.8390826' lon='151.2796887' />
  <node id='-40119' action='modify' lat='-33.8409327' lon='151.277543' />
  <node id='-40121' action='modify' lat='-33.841062' lon='151.2774617' />
  <node id='-40123' action='modify' lat='-33.8411118' lon='151.2774018' />
  <node id='-40125' action='modify' lat='-33.8411379' lon='151.2772382' />
  <node id='-40127' action='modify' lat='-33.8411673' lon='151.2771932' />
  <node id='-40129' action='modify' lat='-33.8411775' lon='151.2771577' />
  <node id='-40131' action='modify' lat='-33.8411798' lon='151.2771128' />
  <node id='-40133' action='modify' lat='-33.8411685' lon='151.2770541' />
  <node id='-40135' action='modify' lat='-33.8411469' lon='151.276941' />
  <node id='-40137' action='modify' lat='-33.8411209' lon='151.2768837' />
  <node id='-40139' action='modify' lat='-33.8410813' lon='151.2768428' />
  <node id='-40141' action='modify' lat='-33.8409963' lon='151.2768265' />
  <node id='-40143' action='modify' lat='-33.8408197' lon='151.2767829' />
  <node id='-40145' action='modify' lat='-33.8407178' lon='151.276821' />
  <node id='-40147' action='modify' lat='-33.8406114' lon='151.276866' />
  <node id='-40149' action='modify' lat='-33.8405321' lon='151.2769451' />
  <node id='-40151' action='modify' lat='-33.8404846' lon='151.277046' />
  <node id='-40153' action='modify' lat='-33.840497' lon='151.2771823' />
  <node id='-40155' action='modify' lat='-33.8405062' lon='151.2773745' />
  <node id='-40157' action='modify' lat='-33.8386439' lon='151.2795006' />
  <node id='-40159' action='modify' lat='-33.8385319' lon='151.2793891' />
  <node id='-40161' action='modify' lat='-33.8384049' lon='151.2793622' />
  <node id='-40163' action='modify' lat='-33.8383781' lon='151.2793465' />
  <node id='-40165' action='modify' lat='-33.8382093' lon='151.2792474' />
  <node id='-40167' action='modify' lat='-33.837967' lon='151.2790151' />
  <node id='-40169' action='modify' lat='-33.8379654' lon='151.2789344' />
  <node id='-40171' action='modify' lat='-33.8377536' lon='151.2788655' />
  <node id='-40173' action='modify' lat='-33.8362722' lon='151.2790061' />
  <node id='-40175' action='modify' lat='-33.836006' lon='151.279227' />
  <node id='-40177' action='modify' lat='-33.8358644' lon='151.2793432' />
  <node id='-40179' action='modify' lat='-33.8358519' lon='151.2793588' />
  <node id='-40181' action='modify' lat='-33.8357781' lon='151.2794509' />
  <node id='-40183' action='modify' lat='-33.8357131' lon='151.2795304' />
  <node id='-40185' action='modify' lat='-33.8355174' lon='151.2796774' />
  <node id='-40187' action='modify' lat='-33.8353512' lon='151.2798121' />
  <node id='-40189' action='modify' lat='-33.8350689' lon='151.2799461' />
  <node id='-40191' action='modify' lat='-33.8347907' lon='151.2801247' />
  <node id='-40193' action='modify' lat='-33.8346974' lon='151.2801128' />
  <node id='-40195' action='modify' lat='-33.8391024' lon='151.2797691' />
  <node id='-40197' action='modify' lat='-33.8390687' lon='151.279632' />
  <node id='-40199' action='modify' lat='-33.8389638' lon='151.279667' />
  <node id='-40201' action='modify' lat='-33.8404256' lon='151.277867' />
  <node id='-40203' action='modify' lat='-33.8404381' lon='151.2778116' />
  <node id='-40205' action='modify' lat='-33.8404635' lon='151.2777593' />
  <node id='-40207' action='modify' lat='-33.8404942' lon='151.2777041' />
  <node id='-40209' action='modify' lat='-33.8404997' lon='151.2776941' />
  <node id='-40211' action='modify' lat='-33.8405457' lon='151.2776403' />
  <node id='-40213' action='modify' lat='-33.8405255' lon='151.2775169' />
  <node id='-40215' action='modify' lat='-33.8375399' lon='151.2786698' />
  <node id='-40217' action='modify' lat='-33.8372867' lon='151.278561' />
  <node id='-40219' action='modify' lat='-33.8370124' lon='151.278501' />
  <node id='-40221' action='modify' lat='-33.8368036' lon='151.2785006' />
  <node id='-40223' action='modify' lat='-33.8365208' lon='151.2786051' />
  <node id='-40225' action='modify' lat='-33.8424841' lon='151.2825846' />
  <node id='-40227' action='modify' lat='-33.8425773' lon='151.282657' />
  <node id='-40229' action='modify' lat='-33.8427941' lon='151.2828328' />
  <node id='-40231' action='modify' lat='-33.8428363' lon='151.2828791' />
  <node id='-40233' action='modify' lat='-33.8413249' lon='151.2814117' />
  <node id='-40235' action='modify' lat='-33.8415397' lon='151.2815339' />
  <node id='-40237' action='modify' lat='-33.8416852' lon='151.2816805' />
  <node id='-40239' action='modify' lat='-33.8418128' lon='151.2818103' />
  <node id='-40241' action='modify' lat='-33.8419018' lon='151.2819167' />
  <node id='-40243' action='modify' lat='-33.8420176' lon='151.2820877' />
  <node id='-40245' action='modify' lat='-33.8421443' lon='151.2822798' />
  <node id='-40247' action='modify' lat='-33.8422308' lon='151.2823771' />
  <node id='-40249' action='modify' lat='-33.8422897' lon='151.2824269' />
  <node id='-40251' action='modify' lat='-33.8408617' lon='151.2812024' />
  <node id='-40253' action='modify' lat='-33.8410655' lon='151.281279' />
  <node id='-40255' action='modify' lat='-33.8412073' lon='151.2813552' />
  <node id='-40257' action='modify' lat='-33.8423305' lon='151.2824642' />
  <node id='-40259' action='modify' lat='-33.8424134' lon='151.2825316' />
  <node id='-40261' action='modify' lat='-33.8424474' lon='151.2825565' />
  <node id='-40263' action='modify' lat='-33.8394299' lon='151.2800165' />
  <node id='-40265' action='modify' lat='-33.8391024' lon='151.2797691' />
  <node id='-40267' action='modify' lat='-33.8402212' lon='151.2806179' />
  <node id='-40269' action='modify' lat='-33.8408007' lon='151.2810908' />
  <node id='-40271' action='modify' lat='-33.8408572' lon='151.2811634' />
  <node id='-40273' action='modify' lat='-33.8433479' lon='151.2819681' />
  <node id='-40275' action='modify' lat='-33.83908086964' lon='151.27977678549' />
  <node id='-40277' action='modify' lat='-33.83471396636' lon='151.28016852387' />
  <node id='-40279' action='modify' lat='-33.83906106568' lon='151.27969636944' />
  <node id='-40281' action='modify' lat='-33.83905341371' lon='151.27966515598' />
  <node id='-40283' action='modify' lat='-33.83895724477' lon='151.27969724285' />
  <node id='-40285' action='modify' lat='-33.83885152036' lon='151.27957110271' />
  <node id='-40287' action='modify' lat='-33.83881498493' lon='151.27956354365' />
  <node id='-40289' action='modify' lat='-33.83863419516' lon='151.27952602125' />
  <node id='-40291' action='modify' lat='-33.83852216331' lon='151.27941448955' />
  <node id='-40293' action='modify' lat='-33.83839790657' lon='151.27938817061' />
  <node id='-40295' action='modify' lat='-33.83836825702' lon='151.27937080127' />
  <node id='-40297' action='modify' lat='-33.83819724001' lon='151.27927039971' />
  <node id='-40299' action='modify' lat='-33.83794479979' lon='151.27902837803' />
  <node id='-40301' action='modify' lat='-33.83794334958' lon='151.27895523309' />
  <node id='-40303' action='modify' lat='-33.83774350083' lon='151.27889022093' />
  <node id='-40305' action='modify' lat='-33.83752907373' lon='151.2786938551' />
  <node id='-40307' action='modify' lat='-33.83728087964' lon='151.27858720615' />
  <node id='-40309' action='modify' lat='-33.83701035871' lon='151.27852803278' />
  <node id='-40311' action='modify' lat='-33.83680695143' lon='151.27852764311' />
  <node id='-40313' action='modify' lat='-33.83653440682' lon='151.27862835356' />
  <node id='-40315' action='modify' lat='-33.83628798739' lon='151.2790258363' />
  <node id='-40317' action='modify' lat='-33.83601869715' lon='151.27924930071' />
  <node id='-40319' action='modify' lat='-33.83587895849' lon='151.27936397327' />
  <node id='-40321' action='modify' lat='-33.83586806276' lon='151.27937757113' />
  <node id='-40323' action='modify' lat='-33.83579418428' lon='151.2794697691' />
  <node id='-40325' action='modify' lat='-33.83572724157' lon='151.2795516452' />
  <node id='-40327' action='modify' lat='-33.83552961842' lon='151.27970008979' />
  <node id='-40329' action='modify' lat='-33.83536171277' lon='151.27983617219' />
  <node id='-40331' action='modify' lat='-33.83507833321' lon='151.27997068464' />
  <node id='-40333' action='modify' lat='-33.83479518671' lon='151.28015246023' />
  <node id='-40335' action='modify' lat='-33.83471681199' lon='151.28014246388' />
  <node id='-40337' action='modify' lat='-33.84025348112' lon='151.27843984864' />
  <node id='-40339' action='modify' lat='-33.8408533' lon='151.2846066' />
  <node id='-40341' action='modify' lat='-33.8410349' lon='151.2844568' />
  <node id='-40343' action='modify' lat='-33.8412583' lon='151.2844949' />
  <node id='-40345' action='modify' lat='-33.8413123' lon='151.2845521' />
  <node id='-40347' action='modify' lat='-33.8414938' lon='151.2845864' />
  <node id='-40349' action='modify' lat='-33.8416727' lon='151.2845923' />
  <node id='-40351' action='modify' lat='-33.8419662' lon='151.2848369' />
  <node id='-40353' action='modify' lat='-33.8420413' lon='151.2849292' />
  <node id='-40355' action='modify' lat='-33.8421426' lon='151.2848876' />
  <node id='-40357' action='modify' lat='-33.8421534' lon='151.2848318' />
  <node id='-40359' action='modify' lat='-33.8422457' lon='151.2847888' />
  <node id='-40361' action='modify' lat='-33.8423363' lon='151.284602' />
  <node id='-40363' action='modify' lat='-33.8423159' lon='151.2845291' />
  <node id='-40365' action='modify' lat='-33.842303' lon='151.284438' />
  <node id='-40367' action='modify' lat='-33.8423395' lon='151.2843911' />
  <node id='-40369' action='modify' lat='-33.842419' lon='151.2844048' />
  <node id='-40371' action='modify' lat='-33.8424574' lon='151.2843485' />
  <node id='-40373' action='modify' lat='-33.8425746' lon='151.284327' />
  <node id='-40375' action='modify' lat='-33.842608' lon='151.2842733' />
  <node id='-40377' action='modify' lat='-33.8427416' lon='151.2843778' />
  <node id='-40379' action='modify' lat='-33.8428016' lon='151.2842878' />
  <node id='-40381' action='modify' lat='-33.84282' lon='151.2842158' />
  <node id='-40383' action='modify' lat='-33.8428446' lon='151.2841617' />
  <node id='-40385' action='modify' lat='-33.8428809' lon='151.2841323' />
  <node id='-40387' action='modify' lat='-33.8429218' lon='151.2841539' />
  <node id='-40389' action='modify' lat='-33.8430253' lon='151.2842376' />
  <node id='-40391' action='modify' lat='-33.843218' lon='151.2843846' />
  <node id='-40393' action='modify' lat='-33.8433092' lon='151.2843719' />
  <node id='-40395' action='modify' lat='-33.84333400749' lon='151.2842872684' />
  <node id='-40397' action='modify' lat='-33.8433571' lon='151.2841804' />
  <node id='-40399' action='modify' lat='-33.8434761' lon='151.2841747' />
  <node id='-40401' action='modify' lat='-33.8434663' lon='151.2841072' />
  <node id='-40403' action='modify' lat='-33.8434624' lon='151.2840201' />
  <node id='-40405' action='modify' lat='-33.8433873' lon='151.2839957' />
  <node id='-40407' action='modify' lat='-33.8435325' lon='151.2835716' />
  <node id='-40409' action='modify' lat='-33.843596' lon='151.2833524' />
  <node id='-40411' action='modify' lat='-33.843455' lon='151.2819814' />
  <node id='-40413' action='modify' lat='-33.8433479' lon='151.2819681' />
  <way id='-40415' action='modify'>
    <nd ref='-40275' />
    <nd ref='-40279' />
    <nd ref='-40281' />
    <nd ref='-40283' />
    <nd ref='-40285' />
    <nd ref='-40287' />
    <nd ref='-40289' />
    <nd ref='-40291' />
    <nd ref='-40293' />
    <nd ref='-40295' />
    <nd ref='-40297' />
    <nd ref='-40299' />
    <nd ref='-40301' />
    <nd ref='-40303' />
    <nd ref='-40305' />
    <nd ref='-40307' />
    <nd ref='-40309' />
    <nd ref='-40311' />
    <nd ref='-40313' />
    <nd ref='-40315' />
    <nd ref='-40317' />
    <nd ref='-40319' />
    <nd ref='-40321' />
    <nd ref='-40323' />
    <nd ref='-40325' />
    <nd ref='-40327' />
    <nd ref='-40329' />
    <nd ref='-40331' />
    <nd ref='-40333' />
    <nd ref='-40335' />
    <nd ref='-40277' />
    <nd ref='-40051' />
    <nd ref='-40049' />
    <nd ref='-40047' />
    <nd ref='-40045' />
    <nd ref='-40043' />
    <nd ref='-40041' />
    <nd ref='-40039' />
    <nd ref='-40037' />
    <nd ref='-40035' />
    <nd ref='-40033' />
    <nd ref='-40031' />
    <nd ref='-40029' />
    <nd ref='-40027' />
    <nd ref='-40025' />
    <nd ref='-40023' />
    <nd ref='-40021' />
    <nd ref='-40019' />
    <nd ref='-40017' />
    <nd ref='-40015' />
    <nd ref='-40013' />
    <nd ref='-40011' />
    <nd ref='-40009' />
    <nd ref='-40007' />
    <nd ref='-40095' />
    <nd ref='-40093' />
    <nd ref='-40091' />
    <nd ref='-40089' />
    <nd ref='-40087' />
    <nd ref='-40085' />
    <nd ref='-40083' />
    <nd ref='-40081' />
    <nd ref='-40079' />
    <nd ref='-40077' />
    <nd ref='-40075' />
    <nd ref='-40073' />
    <nd ref='-40071' />
    <nd ref='-40069' />
    <nd ref='-40067' />
    <nd ref='-40065' />
    <nd ref='-40063' />
    <nd ref='-40061' />
    <nd ref='-40059' />
    <nd ref='-40057' />
    <nd ref='-40055' />
    <nd ref='-40053' />
    <nd ref='-40193' />
    <nd ref='-40191' />
    <nd ref='-40189' />
    <nd ref='-40187' />
    <nd ref='-40185' />
    <nd ref='-40183' />
    <nd ref='-40181' />
    <nd ref='-40179' />
    <nd ref='-40177' />
    <nd ref='-40175' />
    <nd ref='-40173' />
    <nd ref='-40223' />
    <nd ref='-40221' />
    <nd ref='-40219' />
    <nd ref='-40217' />
    <nd ref='-40215' />
    <nd ref='-40171' />
    <nd ref='-40169' />
    <nd ref='-40167' />
    <nd ref='-40165' />
    <nd ref='-40163' />
    <nd ref='-40161' />
    <nd ref='-40159' />
    <nd ref='-40157' />
    <nd ref='-40005' />
    <nd ref='-40003' />
    <nd ref='-40199' />
    <nd ref='-40197' />
    <nd ref='-40117' />
    <nd ref='-40195' />
    <tag k='name' v='South Head' />
    <tag k='park' v='Sydney Harbour National Park' />
    <tag k='role' v='primary' />
    <tag k='photo' v='155823486@N07/44449146050' />
    <tag k='style' v='loop' />
    <tag k='transport' v='bus;ferry;car' />
  </way>
  <way id='-40417' action='modify'>
    <nd ref='-40117' />
    <nd ref='-40115' />
    <nd ref='-40113' />
    <nd ref='-40111' />
    <nd ref='-40109' />
    <nd ref='-40107' />
    <nd ref='-40105' />
    <nd ref='-40103' />
    <nd ref='-40101' />
    <nd ref='-40099' />
    <nd ref='-40097' />
    <nd ref='-40337' />
    <nd ref='-40201' />
    <nd ref='-40203' />
    <nd ref='-40205' />
    <nd ref='-40207' />
    <nd ref='-40209' />
    <nd ref='-40211' />
    <nd ref='-40213' />
    <nd ref='-40155' />
    <nd ref='-40153' />
    <nd ref='-40151' />
    <nd ref='-40149' />
    <nd ref='-40147' />
    <nd ref='-40145' />
    <nd ref='-40143' />
    <nd ref='-40141' />
    <nd ref='-40139' />
    <nd ref='-40137' />
    <nd ref='-40135' />
    <nd ref='-40133' />
    <nd ref='-40131' />
    <nd ref='-40129' />
    <nd ref='-40127' />
    <nd ref='-40125' />
    <nd ref='-40123' />
    <nd ref='-40121' />
    <nd ref='-40119' />
    <tag k='name' v='Green Point' />
    <tag k='role' v='sidetrack' />
    <tag k='style' v='return' />
  </way>
  <way id='-40419' action='modify'>
    <nd ref='-40273' />
    <nd ref='-40231' />
    <nd ref='-40229' />
    <nd ref='-40227' />
    <nd ref='-40225' />
    <nd ref='-40261' />
    <nd ref='-40259' />
    <nd ref='-40257' />
    <nd ref='-40249' />
    <nd ref='-40247' />
    <nd ref='-40245' />
    <nd ref='-40243' />
    <nd ref='-40241' />
    <nd ref='-40239' />
    <nd ref='-40237' />
    <nd ref='-40235' />
    <nd ref='-40233' />
    <nd ref='-40255' />
    <nd ref='-40253' />
    <nd ref='-40251' />
    <nd ref='-40271' />
    <nd ref='-40269' />
    <nd ref='-40267' />
    <nd ref='-40263' />
    <nd ref='-40265' />
    <tag k='role' v='transit_connection' />
    <tag k='style' v='return' />
  </way>
  <way id='-40421' action='modify'>
    <nd ref='-40413' />
    <nd ref='-40411' />
    <nd ref='-40409' />
    <nd ref='-40407' />
    <nd ref='-40405' />
    <nd ref='-40403' />
    <nd ref='-40401' />
    <nd ref='-40399' />
    <nd ref='-40397' />
    <nd ref='-40395' />
    <nd ref='-40393' />
    <nd ref='-40391' />
    <nd ref='-40389' />
    <nd ref='-40387' />
    <nd ref='-40385' />
    <nd ref='-40383' />
    <nd ref='-40381' />
    <nd ref='-40379' />
    <nd ref='-40377' />
    <nd ref='-40375' />
    <nd ref='-40373' />
    <nd ref='-40371' />
    <nd ref='-40369' />
    <nd ref='-40367' />
    <nd ref='-40365' />
    <nd ref='-40363' />
    <nd ref='-40361' />
    <nd ref='-40359' />
    <nd ref='-40357' />
    <nd ref='-40355' />
    <nd ref='-40353' />
    <nd ref='-40351' />
    <nd ref='-40349' />
    <nd ref='-40347' />
    <nd ref='-40345' />
    <nd ref='-40343' />
    <nd ref='-40341' />
    <nd ref='-40339' />
    <tag k='name' v='The Gap' />
    <tag k='role' v='sidetrack' />
    <tag k='style' v='return' />
  </way>
</osm>
