<?xml version='1.0' encoding='UTF-8'?>
<osm version='0.6' upload='false' generator='JOSM'>
  <node id='-41377' action='modify' lat='-25.2861462' lon='130.7401493' />
  <node id='-41379' action='modify' lat='-25.2862084' lon='130.7402236' />
  <node id='-41381' action='modify' lat='-25.2862619' lon='130.7402443' />
  <node id='-41383' action='modify' lat='-25.2863607' lon='130.7403913' />
  <node id='-41385' action='modify' lat='-25.2850617' lon='130.7265143' />
  <node id='-41387' action='modify' lat='-25.2851227' lon='130.7266262' />
  <node id='-41389' action='modify' lat='-25.2847102' lon='130.7258993' />
  <node id='-41391' action='modify' lat='-25.2847201' lon='130.725977' />
  <node id='-41393' action='modify' lat='-25.2847632' lon='130.7260831' />
  <node id='-41395' action='modify' lat='-25.2848677' lon='130.7262162' />
  <node id='-41397' action='modify' lat='-25.2849709' lon='130.726371' />
  <node id='-41399' action='modify' lat='-25.285027' lon='130.7264507' />
  <node id='-41401' action='modify' lat='-25.2861554' lon='130.7341076' />
  <node id='-41403' action='modify' lat='-25.2862244' lon='130.7342146' />
  <node id='-41405' action='modify' lat='-25.2862333' lon='130.7343901' />
  <node id='-41407' action='modify' lat='-25.2862692' lon='130.7346043' />
  <node id='-41409' action='modify' lat='-25.2862257' lon='130.7347304' />
  <node id='-41411' action='modify' lat='-25.2862213' lon='130.7349129' />
  <node id='-41413' action='modify' lat='-25.2862677' lon='130.7349904' />
  <node id='-41415' action='modify' lat='-25.2862367' lon='130.7350895' />
  <node id='-41417' action='modify' lat='-25.2862328' lon='130.7354959' />
  <node id='-41419' action='modify' lat='-25.2862151' lon='130.7356258' />
  <node id='-41421' action='modify' lat='-25.2862106' lon='130.7357499' />
  <node id='-41423' action='modify' lat='-25.2862242' lon='130.7358471' />
  <node id='-41425' action='modify' lat='-25.28621' lon='130.7360385' />
  <node id='-41427' action='modify' lat='-25.2860632' lon='130.7400501' />
  <node id='-41429' action='modify' lat='-25.285139' lon='130.7266561' />
  <node id='-41431' action='modify' lat='-25.2851751' lon='130.7267702' />
  <node id='-41433' action='modify' lat='-25.2851807' lon='130.7269172' />
  <node id='-41435' action='modify' lat='-25.2852092' lon='130.7270259' />
  <node id='-41437' action='modify' lat='-25.2852092' lon='130.7271466' />
  <node id='-41439' action='modify' lat='-25.2851508' lon='130.7273537' />
  <node id='-41441' action='modify' lat='-25.2851522' lon='130.7276397' />
  <node id='-41443' action='modify' lat='-25.2851227' lon='130.7280275' />
  <node id='-41445' action='modify' lat='-25.2851931' lon='130.7283814' />
  <node id='-41447' action='modify' lat='-25.2852319' lon='130.7288376' />
  <node id='-41449' action='modify' lat='-25.2853002' lon='130.7293238' />
  <node id='-41451' action='modify' lat='-25.2852945' lon='130.7294667' />
  <node id='-41453' action='modify' lat='-25.2852795' lon='130.7296431' />
  <node id='-41455' action='modify' lat='-25.2852407' lon='130.7298076' />
  <node id='-41457' action='modify' lat='-25.2851855' lon='130.7299608' />
  <node id='-41459' action='modify' lat='-25.2851945' lon='130.73009' />
  <node id='-41461' action='modify' lat='-25.2851856' lon='130.7302979' />
  <node id='-41463' action='modify' lat='-25.2851928' lon='130.7303815' />
  <node id='-41465' action='modify' lat='-25.2854164' lon='130.7305189' />
  <node id='-41467' action='modify' lat='-25.285661' lon='130.7307746' />
  <node id='-41469' action='modify' lat='-25.2858073' lon='130.7309775' />
  <node id='-41471' action='modify' lat='-25.2858657' lon='130.731081' />
  <node id='-41473' action='modify' lat='-25.2859339' lon='130.7311749' />
  <node id='-41475' action='modify' lat='-25.285957' lon='130.7312432' />
  <node id='-41477' action='modify' lat='-25.2859566' lon='130.7314063' />
  <node id='-41479' action='modify' lat='-25.2859794' lon='130.731465' />
  <node id='-41481' action='modify' lat='-25.2859674' lon='130.7315543' />
  <node id='-41483' action='modify' lat='-25.2859477' lon='130.7316626' />
  <node id='-41485' action='modify' lat='-25.2859882' lon='130.7317872' />
  <node id='-41487' action='modify' lat='-25.2860167' lon='130.7319229' />
  <node id='-41489' action='modify' lat='-25.2860144' lon='130.7320639' />
  <node id='-41491' action='modify' lat='-25.2861646' lon='130.7322917' />
  <node id='-41493' action='modify' lat='-25.2862502' lon='130.732396' />
  <node id='-41495' action='modify' lat='-25.2862725' lon='130.7326126' />
  <node id='-41497' action='modify' lat='-25.2862438' lon='130.732825' />
  <node id='-41499' action='modify' lat='-25.2861324' lon='130.7330512' />
  <node id='-41501' action='modify' lat='-25.28599' lon='130.7331568' />
  <node id='-41503' action='modify' lat='-25.2859532' lon='130.733226' />
  <node id='-41505' action='modify' lat='-25.2858232' lon='130.7332993' />
  <node id='-41507' action='modify' lat='-25.2857895' lon='130.7333365' />
  <node id='-41509' action='modify' lat='-25.2857914' lon='130.7334016' />
  <node id='-41511' action='modify' lat='-25.2858271' lon='130.7334628' />
  <node id='-41513' action='modify' lat='-25.2858505' lon='130.7336297' />
  <node id='-41515' action='modify' lat='-25.2858941' lon='130.7337278' />
  <node id='-41517' action='modify' lat='-25.2859247' lon='130.7338249' />
  <node id='-41519' action='modify' lat='-25.28604' lon='130.7339566' />
  <node id='-41521' action='modify' lat='-25.2861136' lon='130.7340635' />
  <node id='-41523' action='modify' lat='-25.2929636' lon='130.746712' />
  <node id='-41525' action='modify' lat='-25.2930641' lon='130.7471127' />
  <node id='-41527' action='modify' lat='-25.2931296' lon='130.7472361' />
  <node id='-41529' action='modify' lat='-25.2931675' lon='130.7473535' />
  <node id='-41531' action='modify' lat='-25.2931478' lon='130.7474826' />
  <node id='-41533' action='modify' lat='-25.2931584' lon='130.7475799' />
  <node id='-41535' action='modify' lat='-25.2931554' lon='130.7477643' />
  <node id='-41537' action='modify' lat='-25.2931918' lon='130.7478716' />
  <node id='-41539' action='modify' lat='-25.2932014' lon='130.7480116' />
  <node id='-41541' action='modify' lat='-25.2931569' lon='130.7482656' />
  <node id='-41543' action='modify' lat='-25.2930781' lon='130.7484182' />
  <node id='-41545' action='modify' lat='-25.2930569' lon='130.7485289' />
  <node id='-41547' action='modify' lat='-25.2929879' lon='130.7485775' />
  <node id='-41549' action='modify' lat='-25.2929477' lon='130.7487703' />
  <node id='-41551' action='modify' lat='-25.2929113' lon='130.7488433' />
  <node id='-41553' action='modify' lat='-25.2928325' lon='130.7489757' />
  <node id='-41555' action='modify' lat='-25.2927956' lon='130.7491396' />
  <node id='-41557' action='modify' lat='-25.2925858' lon='130.7492912' />
  <node id='-41559' action='modify' lat='-25.2925232' lon='130.7492859' />
  <node id='-41561' action='modify' lat='-25.2924276' lon='130.7492178' />
  <node id='-41563' action='modify' lat='-25.2922958' lon='130.7492457' />
  <node id='-41565' action='modify' lat='-25.2921124' lon='130.7493362' />
  <node id='-41567' action='modify' lat='-25.2919416' lon='130.7494396' />
  <node id='-41569' action='modify' lat='-25.2917607' lon='130.7495005' />
  <node id='-41571' action='modify' lat='-25.291503' lon='130.7495441' />
  <node id='-41573' action='modify' lat='-25.2914347' lon='130.7495928' />
  <node id='-41575' action='modify' lat='-25.2913256' lon='130.7495944' />
  <node id='-41577' action='modify' lat='-25.2912574' lon='130.7496229' />
  <node id='-41579' action='modify' lat='-25.2911956' lon='130.749631' />
  <node id='-41581' action='modify' lat='-25.2908738' lon='130.7497453' />
  <node id='-41583' action='modify' lat='-25.2908238' lon='130.7497806' />
  <node id='-41585' action='modify' lat='-25.29065' lon='130.7498249' />
  <node id='-41587' action='modify' lat='-25.290607' lon='130.7498644' />
  <node id='-41589' action='modify' lat='-25.29056' lon='130.7498728' />
  <node id='-41591' action='modify' lat='-25.2903978' lon='130.7500036' />
  <node id='-41593' action='modify' lat='-25.2903083' lon='130.750027' />
  <node id='-41595' action='modify' lat='-25.2902144' lon='130.750069' />
  <node id='-41597' action='modify' lat='-25.2901302' lon='130.7500635' />
  <node id='-41599' action='modify' lat='-25.2900294' lon='130.7500103' />
  <node id='-41601' action='modify' lat='-25.2898353' lon='130.7499751' />
  <node id='-41603' action='modify' lat='-25.2897944' lon='130.7500052' />
  <node id='-41605' action='modify' lat='-25.2897489' lon='130.7499751' />
  <node id='-41607' action='modify' lat='-25.2896762' lon='130.7499918' />
  <node id='-41609' action='modify' lat='-25.2895709' lon='130.7499527' />
  <node id='-41611' action='modify' lat='-25.2894036' lon='130.7499065' />
  <node id='-41613' action='modify' lat='-25.2892865' lon='130.7497722' />
  <node id='-41615' action='modify' lat='-25.2890861' lon='130.7496325' />
  <node id='-41617' action='modify' lat='-25.288856' lon='130.7495257' />
  <node id='-41619' action='modify' lat='-25.2885977' lon='130.749445' />
  <node id='-41621' action='modify' lat='-25.2882398' lon='130.7492245' />
  <node id='-41623' action='modify' lat='-25.2879907' lon='130.7490729' />
  <node id='-41625' action='modify' lat='-25.2878803' lon='130.7489656' />
  <node id='-41627' action='modify' lat='-25.2878157' lon='130.7488531' />
  <node id='-41629' action='modify' lat='-25.2876083' lon='130.7487024' />
  <node id='-41631' action='modify' lat='-25.2875401' lon='130.748689' />
  <node id='-41633' action='modify' lat='-25.2872668' lon='130.7485707' />
  <node id='-41635' action='modify' lat='-25.2869986' lon='130.7483352' />
  <node id='-41637' action='modify' lat='-25.2868078' lon='130.7481927' />
  <node id='-41639' action='modify' lat='-25.2866469' lon='130.7481396' />
  <node id='-41641' action='modify' lat='-25.2865546' lon='130.7480485' />
  <node id='-41643' action='modify' lat='-25.2865046' lon='130.7480502' />
  <node id='-41645' action='modify' lat='-25.2864682' lon='130.7480083' />
  <node id='-41647' action='modify' lat='-25.2863378' lon='130.7480049' />
  <node id='-41649' action='modify' lat='-25.2862954' lon='130.7479697' />
  <node id='-41651' action='modify' lat='-25.2862302' lon='130.7479714' />
  <node id='-41653' action='modify' lat='-25.2861825' lon='130.7479294' />
  <node id='-41655' action='modify' lat='-25.2861119' lon='130.7479546' />
  <node id='-41657' action='modify' lat='-25.2860604' lon='130.7479529' />
  <node id='-41659' action='modify' lat='-25.2860414' lon='130.747927' />
  <node id='-41661' action='modify' lat='-25.2859694' lon='130.7479261' />
  <node id='-41663' action='modify' lat='-25.2859421' lon='130.7478875' />
  <node id='-41665' action='modify' lat='-25.28593' lon='130.7478456' />
  <node id='-41667' action='modify' lat='-25.2858868' lon='130.7478022' />
  <node id='-41669' action='modify' lat='-25.2856129' lon='130.747407' />
  <node id='-41671' action='modify' lat='-25.2854615' lon='130.7473124' />
  <node id='-41673' action='modify' lat='-25.2853714' lon='130.747216' />
  <node id='-41675' action='modify' lat='-25.285109' lon='130.7471311' />
  <node id='-41677' action='modify' lat='-25.2848784' lon='130.747124' />
  <node id='-41679' action='modify' lat='-25.284799' lon='130.7470643' />
  <node id='-41681' action='modify' lat='-25.2846974' lon='130.7470576' />
  <node id='-41683' action='modify' lat='-25.2846747' lon='130.7470106' />
  <node id='-41685' action='modify' lat='-25.2845848' lon='130.7469896' />
  <node id='-41687' action='modify' lat='-25.2843533' lon='130.7467708' />
  <node id='-41689' action='modify' lat='-25.284097' lon='130.7464475' />
  <node id='-41691' action='modify' lat='-25.2838575' lon='130.7462427' />
  <node id='-41693' action='modify' lat='-25.2836249' lon='130.74607' />
  <node id='-41695' action='modify' lat='-25.2834185' lon='130.7456487' />
  <node id='-41697' action='modify' lat='-25.283151' lon='130.7454227' />
  <node id='-41699' action='modify' lat='-25.2830666' lon='130.7452932' />
  <node id='-41701' action='modify' lat='-25.2829706' lon='130.7452635' />
  <node id='-41703' action='modify' lat='-25.2829477' lon='130.7452449' />
  <node id='-41705' action='modify' lat='-25.2829448' lon='130.7451077' />
  <node id='-41707' action='modify' lat='-25.2829544' lon='130.7449756' />
  <node id='-41709' action='modify' lat='-25.282913' lon='130.7448862' />
  <node id='-41711' action='modify' lat='-25.2828612' lon='130.7448217' />
  <node id='-41713' action='modify' lat='-25.2827433' lon='130.7447322' />
  <node id='-41715' action='modify' lat='-25.2826583' lon='130.7447168' />
  <node id='-41717' action='modify' lat='-25.2826037' lon='130.7446917' />
  <node id='-41719' action='modify' lat='-25.2825543' lon='130.7446821' />
  <node id='-41721' action='modify' lat='-25.2824034' lon='130.7446819' />
  <node id='-41723' action='modify' lat='-25.2823429' lon='130.7445861' />
  <node id='-41725' action='modify' lat='-25.2822204' lon='130.7444428' />
  <node id='-41727' action='modify' lat='-25.2820928' lon='130.7444402' />
  <node id='-41729' action='modify' lat='-25.2819639' lon='130.7444603' />
  <node id='-41731' action='modify' lat='-25.2818732' lon='130.7444504' />
  <node id='-41733' action='modify' lat='-25.2817553' lon='130.7443403' />
  <node id='-41735' action='modify' lat='-25.2817352' lon='130.7442239' />
  <node id='-41737' action='modify' lat='-25.2816197' lon='130.744182' />
  <node id='-41739' action='modify' lat='-25.2815485' lon='130.7441242' />
  <node id='-41741' action='modify' lat='-25.281462' lon='130.7440193' />
  <node id='-41743' action='modify' lat='-25.2811167' lon='130.7438537' />
  <node id='-41745' action='modify' lat='-25.281086' lon='130.7437762' />
  <node id='-41747' action='modify' lat='-25.2810027' lon='130.7437561' />
  <node id='-41749' action='modify' lat='-25.2809219' lon='130.7436875' />
  <node id='-41751' action='modify' lat='-25.2809488' lon='130.7434593' />
  <node id='-41753' action='modify' lat='-25.2810216' lon='130.743272' />
  <node id='-41755' action='modify' lat='-25.2812214' lon='130.7429554' />
  <node id='-41757' action='modify' lat='-25.28127' lon='130.742913' />
  <node id='-41759' action='modify' lat='-25.2826339' lon='130.7422126' />
  <node id='-41761' action='modify' lat='-25.2829078' lon='130.7421126' />
  <node id='-41763' action='modify' lat='-25.2831763' lon='130.7421284' />
  <node id='-41765' action='modify' lat='-25.2834502' lon='130.7420862' />
  <node id='-41767' action='modify' lat='-25.2837422' lon='130.742033' />
  <node id='-41769' action='modify' lat='-25.2839569' lon='130.7419484' />
  <node id='-41771' action='modify' lat='-25.2841984' lon='130.7416897' />
  <node id='-41773' action='modify' lat='-25.2844557' lon='130.7415522' />
  <node id='-41775' action='modify' lat='-25.2849167' lon='130.7411965' />
  <node id='-41777' action='modify' lat='-25.2850402' lon='130.7410654' />
  <node id='-41779' action='modify' lat='-25.2854398' lon='130.7408858' />
  <node id='-41781' action='modify' lat='-25.2857251' lon='130.7406749' />
  <node id='-41783' action='modify' lat='-25.2860301' lon='130.7405377' />
  <node id='-41785' action='modify' lat='-25.2861465' lon='130.7404691' />
  <node id='-41787' action='modify' lat='-25.2862856' lon='130.7404389' />
  <node id='-41789' action='modify' lat='-25.286489' lon='130.74028' />
  <node id='-41791' action='modify' lat='-25.2866163' lon='130.7401592' />
  <node id='-41793' action='modify' lat='-25.2867699' lon='130.7400748' />
  <node id='-41795' action='modify' lat='-25.2870425' lon='130.7399988' />
  <node id='-41797' action='modify' lat='-25.2871779' lon='130.7399851' />
  <node id='-41799' action='modify' lat='-25.2873796' lon='130.7399912' />
  <node id='-41801' action='modify' lat='-25.2874324' lon='130.7399886' />
  <node id='-41803' action='modify' lat='-25.2876651' lon='130.739927' />
  <node id='-41805' action='modify' lat='-25.287719' lon='130.7399382' />
  <node id='-41807' action='modify' lat='-25.2878054' lon='130.73997' />
  <node id='-41809' action='modify' lat='-25.2878569' lon='130.7399587' />
  <node id='-41811' action='modify' lat='-25.2879287' lon='130.739872' />
  <node id='-41813' action='modify' lat='-25.2879547' lon='130.7398221' />
  <node id='-41815' action='modify' lat='-25.2879915' lon='130.7397375' />
  <node id='-41817' action='modify' lat='-25.2879945' lon='130.7396059' />
  <node id='-41819' action='modify' lat='-25.2880184' lon='130.7395162' />
  <node id='-41821' action='modify' lat='-25.2880752' lon='130.7394414' />
  <node id='-41823' action='modify' lat='-25.2881529' lon='130.7394175' />
  <node id='-41825' action='modify' lat='-25.2882516' lon='130.7394414' />
  <node id='-41827' action='modify' lat='-25.2883437' lon='130.7394686' />
  <node id='-41829' action='modify' lat='-25.2885073' lon='130.7395207' />
  <node id='-41831' action='modify' lat='-25.2886498' lon='130.7395324' />
  <node id='-41833' action='modify' lat='-25.2888348' lon='130.7395223' />
  <node id='-41835' action='modify' lat='-25.288928' lon='130.7395361' />
  <node id='-41837' action='modify' lat='-25.2890836' lon='130.7393929' />
  <node id='-41839' action='modify' lat='-25.2891152' lon='130.7392511' />
  <node id='-41841' action='modify' lat='-25.2892657' lon='130.7390046' />
  <node id='-41843' action='modify' lat='-25.2893733' lon='130.7387742' />
  <node id='-41845' action='modify' lat='-25.2894143' lon='130.7387738' />
  <node id='-41847' action='modify' lat='-25.2894402' lon='130.7387735' />
  <node id='-41849' action='modify' lat='-25.2896019' lon='130.7387209' />
  <node id='-41851' action='modify' lat='-25.2897183' lon='130.738706' />
  <node id='-41853' action='modify' lat='-25.2898662' lon='130.7387607' />
  <node id='-41855' action='modify' lat='-25.2899683' lon='130.7387823' />
  <node id='-41857' action='modify' lat='-25.2900478' lon='130.7387362' />
  <node id='-41859' action='modify' lat='-25.2901158' lon='130.7387427' />
  <node id='-41861' action='modify' lat='-25.290325' lon='130.738798' />
  <node id='-41863' action='modify' lat='-25.2905028' lon='130.7387975' />
  <node id='-41865' action='modify' lat='-25.2906057' lon='130.7388849' />
  <node id='-41867' action='modify' lat='-25.2907965' lon='130.7389556' />
  <node id='-41869' action='modify' lat='-25.2910059' lon='130.7390622' />
  <node id='-41871' action='modify' lat='-25.2910612' lon='130.7391277' />
  <node id='-41873' action='modify' lat='-25.2910965' lon='130.7391328' />
  <node id='-41875' action='modify' lat='-25.291134' lon='130.7391554' />
  <node id='-41877' action='modify' lat='-25.2912064' lon='130.7391784' />
  <node id='-41879' action='modify' lat='-25.2913928' lon='130.7392005' />
  <node id='-41881' action='modify' lat='-25.2914245' lon='130.7392193' />
  <node id='-41883' action='modify' lat='-25.2914651' lon='130.7392105' />
  <node id='-41885' action='modify' lat='-25.2915196' lon='130.7392423' />
  <node id='-41887' action='modify' lat='-25.2915919' lon='130.739259' />
  <node id='-41889' action='modify' lat='-25.2916182' lon='130.7393178' />
  <node id='-41891' action='modify' lat='-25.2916851' lon='130.7393535' />
  <node id='-41893' action='modify' lat='-25.2916962' lon='130.7394384' />
  <node id='-41895' action='modify' lat='-25.2917245' lon='130.7394701' />
  <node id='-41897' action='modify' lat='-25.2918573' lon='130.7394789' />
  <node id='-41899' action='modify' lat='-25.2918799' lon='130.7395918' />
  <node id='-41901' action='modify' lat='-25.2918724' lon='130.7397462' />
  <node id='-41903' action='modify' lat='-25.2919213' lon='130.7400473' />
  <node id='-41905' action='modify' lat='-25.2921246' lon='130.7405593' />
  <node id='-41907' action='modify' lat='-25.2920681' lon='130.7405932' />
  <node id='-41909' action='modify' lat='-25.2919627' lon='130.7406158' />
  <node id='-41911' action='modify' lat='-25.2919176' lon='130.7406459' />
  <node id='-41913' action='modify' lat='-25.2920644' lon='130.7413838' />
  <node id='-41915' action='modify' lat='-25.2920418' lon='130.7416586' />
  <node id='-41917' action='modify' lat='-25.2920305' lon='130.7418656' />
  <node id='-41919' action='modify' lat='-25.2920945' lon='130.7419372' />
  <node id='-41921' action='modify' lat='-25.2922074' lon='130.7422685' />
  <node id='-41923' action='modify' lat='-25.2923279' lon='130.7423551' />
  <node id='-41925' action='modify' lat='-25.2923128' lon='130.7429499' />
  <node id='-41927' action='modify' lat='-25.2922639' lon='130.7432586' />
  <node id='-41929' action='modify' lat='-25.2922865' lon='130.7435409' />
  <node id='-41931' action='modify' lat='-25.2922225' lon='130.7436953' />
  <node id='-41933' action='modify' lat='-25.292215' lon='130.7437555' />
  <node id='-41935' action='modify' lat='-25.2922488' lon='130.7439851' />
  <node id='-41937' action='modify' lat='-25.292279' lon='130.7440115' />
  <node id='-41939' action='modify' lat='-25.2924032' lon='130.7439814' />
  <node id='-41941' action='modify' lat='-25.2924371' lon='130.7440491' />
  <node id='-41943' action='modify' lat='-25.2925651' lon='130.7442073' />
  <node id='-41945' action='modify' lat='-25.2925877' lon='130.744324' />
  <node id='-41947' action='modify' lat='-25.2926893' lon='130.7445235' />
  <node id='-41949' action='modify' lat='-25.292678' lon='130.7447757' />
  <node id='-41951' action='modify' lat='-25.2927044' lon='130.7448999' />
  <node id='-41953' action='modify' lat='-25.2928173' lon='130.7450392' />
  <node id='-41955' action='modify' lat='-25.2928512' lon='130.7451635' />
  <node id='-41957' action='modify' lat='-25.2928587' lon='130.7454571' />
  <node id='-41959' action='modify' lat='-25.2928888' lon='130.7456717' />
  <node id='-41961' action='modify' lat='-25.2928775' lon='130.74589' />
  <node id='-41963' action='modify' lat='-25.2928399' lon='130.7459691' />
  <node id='-41965' action='modify' lat='-25.2929001' lon='130.7462326' />
  <node id='-41967' action='modify' lat='-25.2863486' lon='130.7359684' />
  <node id='-41969' action='modify' lat='-25.2864158' lon='130.7359187' />
  <node id='-41971' action='modify' lat='-25.286501' lon='130.7358587' />
  <node id='-41973' action='modify' lat='-25.2865309' lon='130.7358577' />
  <node id='-41975' action='modify' lat='-25.2865722' lon='130.7358853' />
  <node id='-41977' action='modify' lat='-25.2866013' lon='130.7359409' />
  <node id='-41979' action='modify' lat='-25.2865911' lon='130.7360299' />
  <node id='-41981' action='modify' lat='-25.2865942' lon='130.7361945' />
  <node id='-41983' action='modify' lat='-25.2865411' lon='130.7363669' />
  <node id='-41985' action='modify' lat='-25.2865237' lon='130.7364965' />
  <node id='-41987' action='modify' lat='-25.286543' lon='130.7365581' />
  <node id='-41989' action='modify' lat='-25.2864922' lon='130.7367825' />
  <node id='-41991' action='modify' lat='-25.2864523' lon='130.7368406' />
  <node id='-41993' action='modify' lat='-25.2864002' lon='130.7368754' />
  <node id='-41995' action='modify' lat='-25.2863565' lon='130.7369395' />
  <node id='-41997' action='modify' lat='-25.286362' lon='130.7371841' />
  <node id='-41999' action='modify' lat='-25.2863743' lon='130.7373545' />
  <node id='-42001' action='modify' lat='-25.2863935' lon='130.7374679' />
  <node id='-42003' action='modify' lat='-25.2864049' lon='130.7375821' />
  <node id='-42005' action='modify' lat='-25.2864033' lon='130.7376676' />
  <node id='-42007' action='modify' lat='-25.286315' lon='130.7378519' />
  <node id='-42009' action='modify' lat='-25.2862485' lon='130.7381526' />
  <node id='-42011' action='modify' lat='-25.2862388' lon='130.7383001' />
  <node id='-42013' action='modify' lat='-25.2862009' lon='130.7384374' />
  <node id='-42015' action='modify' lat='-25.2862058' lon='130.738572' />
  <node id='-42017' action='modify' lat='-25.2861738' lon='130.7387529' />
  <node id='-42019' action='modify' lat='-25.2861511' lon='130.7392046' />
  <node id='-42021' action='modify' lat='-25.2861061' lon='130.7393022' />
  <node id='-42023' action='modify' lat='-25.2860943' lon='130.7394719' />
  <node id='-42025' action='modify' lat='-25.2860438' lon='130.7396131' />
  <node id='-42027' action='modify' lat='-25.2860506' lon='130.7397929' />
  <node id='-42029' action='modify' lat='-25.2860083' lon='130.7399302' />
  <node id='-42031' action='modify' lat='-25.2860134' lon='130.7399906' />
  <node id='-42033' action='modify' lat='-25.28471909539' lon='130.72589791371' />
  <node id='-42035' action='modify' lat='-25.28636790953' lon='130.74038537303' />
  <node id='-42037' action='modify' lat='-25.28472881731' lon='130.72597421606' />
  <node id='-42039' action='modify' lat='-25.28477085148' lon='130.72607769229' />
  <node id='-42041' action='modify' lat='-25.28487471787' lon='130.72620998528' />
  <node id='-42043' action='modify' lat='-25.28497806072' lon='130.72636499957' />
  <node id='-42045' action='modify' lat='-25.28503441605' lon='130.72644506232' />
  <node id='-42047' action='modify' lat='-25.28506939324' lon='130.72650917037' />
  <node id='-42049' action='modify' lat='-25.28513039316' lon='130.72662107022' />
  <node id='-42051' action='modify' lat='-25.28514717251' lon='130.72665184953' />
  <node id='-42053' action='modify' lat='-25.28518401919' lon='130.72676830953' />
  <node id='-42055' action='modify' lat='-25.28518962965' lon='130.72691558426' />
  <node id='-42057' action='modify' lat='-25.28521818323' lon='130.72702448863' />
  <node id='-42059' action='modify' lat='-25.28521818323' lon='130.72714811328' />
  <node id='-42061' action='modify' lat='-25.28515979065' lon='130.727355187' />
  <node id='-42063' action='modify' lat='-25.28516118528' lon='130.72764009034' />
  <node id='-42065' action='modify' lat='-25.28513176562' lon='130.72802683418' />
  <node id='-42067' action='modify' lat='-25.28520199205' lon='130.72837986165' />
  <node id='-42069' action='modify' lat='-25.28524081836' lon='130.72883637106' />
  <node id='-42071' action='modify' lat='-25.28530921386' lon='130.72932325093' />
  <node id='-42073' action='modify' lat='-25.28530346466' lon='130.72946738447' />
  <node id='-42075' action='modify' lat='-25.28528837574' lon='130.72964483023' />
  <node id='-42077' action='modify' lat='-25.28524925155' lon='130.72981070469' />
  <node id='-42079' action='modify' lat='-25.28519461684' lon='130.72996233582' />
  <node id='-42081' action='modify' lat='-25.2852034996' lon='130.73008985279' />
  <node id='-42083' action='modify' lat='-25.28519460346' lon='130.7302976627' />
  <node id='-42085' action='modify' lat='-25.28520129459' lon='130.73037535421' />
  <node id='-42087' action='modify' lat='-25.28542175012' lon='130.73051082197' />
  <node id='-42089' action='modify' lat='-25.2856676297' lon='130.73076785963' />
  <node id='-42091' action='modify' lat='-25.28581464659' lon='130.73097175389' />
  <node id='-42093' action='modify' lat='-25.28587303813' lon='130.73107523889' />
  <node id='-42095' action='modify' lat='-25.28594180789' lon='130.73116992336' />
  <node id='-42097' action='modify' lat='-25.28596598759' lon='130.73124141572' />
  <node id='-42099' action='modify' lat='-25.28596558819' lon='130.73140426927' />
  <node id='-42101' action='modify' lat='-25.28598866051' lon='130.73146367038' />
  <node id='-42103' action='modify' lat='-25.28597625191' lon='130.73155601109' />
  <node id='-42105' action='modify' lat='-25.28595700053' lon='130.73166184483' />
  <node id='-42107' action='modify' lat='-25.28599683133' lon='130.73178438601' />
  <node id='-42109' action='modify' lat='-25.28602570177' lon='130.73192184983' />
  <node id='-42111' action='modify' lat='-25.28602343614' lon='130.73206074261' />
  <node id='-42113' action='modify' lat='-25.28617157491' lon='130.73228541648' />
  <node id='-42115' action='modify' lat='-25.28625879788' lon='130.732391694' />
  <node id='-42117' action='modify' lat='-25.28628155924' lon='130.73261277519' />
  <node id='-42119' action='modify' lat='-25.28625244947' lon='130.73282820775' />
  <node id='-42121' action='modify' lat='-25.2861392342' lon='130.7330580937' />
  <node id='-42123' action='modify' lat='-25.28599670454' lon='130.73316378986' />
  <node id='-42125' action='modify' lat='-25.28595961474' lon='130.73323353482' />
  <node id='-42127' action='modify' lat='-25.28582854286' lon='130.7333074392' />
  <node id='-42129' action='modify' lat='-25.28579860424' lon='130.73334048718' />
  <node id='-42131' action='modify' lat='-25.2858002982' lon='130.73339852762' />
  <node id='-42133' action='modify' lat='-25.28583568435' lon='130.73345918959' />
  <node id='-42135' action='modify' lat='-25.28585916694' lon='130.73362667867' />
  <node id='-42137' action='modify' lat='-25.28590240291' lon='130.73372395962' />
  <node id='-42139' action='modify' lat='-25.28593253105' lon='130.73381956233' />
  <node id='-42141' action='modify' lat='-25.2860468243' lon='130.73395011239' />
  <node id='-42143' action='modify' lat='-25.28612031574' lon='130.73405685472' />
  <node id='-42145' action='modify' lat='-25.28616221812' lon='130.73410106273' />
  <node id='-42147' action='modify' lat='-25.28623322346' lon='130.73421117246' />
  <node id='-42149' action='modify' lat='-25.28624223701' lon='130.73438891166' />
  <node id='-42151' action='modify' lat='-25.28627849266' lon='130.73460523365' />
  <node id='-42153' action='modify' lat='-25.28623463913' lon='130.73473235848' />
  <node id='-42155' action='modify' lat='-25.28623035555' lon='130.73491002978' />
  <node id='-42157' action='modify' lat='-25.28627764086' lon='130.73498900848' />
  <node id='-42159' action='modify' lat='-25.28624566715' lon='130.73509122122' />
  <node id='-42161' action='modify' lat='-25.28624177602' lon='130.7354966968' />
  <node id='-42163' action='modify' lat='-25.28622405622' lon='130.73562674212' />
  <node id='-42165' action='modify' lat='-25.2862196109' lon='130.73574933411' />
  <node id='-42167' action='modify' lat='-25.28623323993' lon='130.73584674163' />
  <node id='-42169' action='modify' lat='-25.28622020685' lon='130.73602241298' />
  <node id='-42171' action='modify' lat='-25.286344207' lon='130.73595969718' />
  <node id='-42173' action='modify' lat='-25.28641089015' lon='130.73591037943' />
  <node id='-42175' action='modify' lat='-25.28649825904' lon='130.73584885204' />
  <node id='-42177' action='modify' lat='-25.28653327749' lon='130.73584768086' />
  <node id='-42179' action='modify' lat='-25.28657881938' lon='130.73587811564' />
  <node id='-42181' action='modify' lat='-25.28661059294' lon='130.73593882388' />
  <node id='-42183' action='modify' lat='-25.28660009495' lon='130.73603042402' />
  <node id='-42185' action='modify' lat='-25.28660321418' lon='130.73619604494' />
  <node id='-42187' action='modify' lat='-25.28654986604' lon='130.73636925058' />
  <node id='-42189' action='modify' lat='-25.28653290928' lon='130.73649554924' />
  <node id='-42191' action='modify' lat='-25.28655236391' lon='130.7365576428' />
  <node id='-42193' action='modify' lat='-25.28650046708' lon='130.7367868879' />
  <node id='-42195' action='modify' lat='-25.28645841462' lon='130.73684812218' />
  <node id='-42197' action='modify' lat='-25.28640632864' lon='130.73688291282' />
  <node id='-42199' action='modify' lat='-25.28636555823' lon='130.73694271564' />
  <node id='-42201' action='modify' lat='-25.28637097425' lon='130.7371835808' />
  <node id='-42203' action='modify' lat='-25.28638321693' lon='130.73735318674' />
  <node id='-42205' action='modify' lat='-25.28640239183' lon='130.73746643852' />
  <node id='-42207' action='modify' lat='-25.28641389338' lon='130.73758165577' />
  <node id='-42209' action='modify' lat='-25.28641223705' lon='130.73767016577' />
  <node id='-42211' action='modify' lat='-25.28632346059' lon='130.73785546026' />
  <node id='-42213' action='modify' lat='-25.28625740486' lon='130.73815415137' />
  <node id='-42215' action='modify' lat='-25.2862476863' lon='130.73830193364' />
  <node id='-42217' action='modify' lat='-25.28620993728' lon='130.7384386867' />
  <node id='-42219' action='modify' lat='-25.28621481826' lon='130.73857276429' />
  <node id='-42221' action='modify' lat='-25.28618273495' lon='130.73875413528' />
  <node id='-42223' action='modify' lat='-25.2861599641' lon='130.7392072451' />
  <node id='-42225' action='modify' lat='-25.28611491896' lon='130.73930494302' />
  <node id='-42227' action='modify' lat='-25.28610315265' lon='130.73947415845' />
  <node id='-42229' action='modify' lat='-25.28605285504' lon='130.73961479258' />
  <node id='-42231' action='modify' lat='-25.28605964562' lon='130.73979434344' />
  <node id='-42233' action='modify' lat='-25.28601742295' lon='130.73993139245' />
  <node id='-42235' action='modify' lat='-25.2860220611' lon='130.73998632274' />
  <node id='-42237' action='modify' lat='-25.28606979337' lon='130.74004335226' />
  <node id='-42239' action='modify' lat='-25.28615279172' lon='130.74014255029' />
  <node id='-42241' action='modify' lat='-25.28621347444' lon='130.74021503786' />
  <node id='-42243' action='modify' lat='-25.28626746633' lon='130.74023592818' />
  <way id='-42245' action='modify'>
    <nd ref='-41389' />
    <nd ref='-41391' />
    <nd ref='-41393' />
    <nd ref='-41395' />
    <nd ref='-41397' />
    <nd ref='-41399' />
    <nd ref='-41385' />
    <nd ref='-41387' />
    <nd ref='-41429' />
    <nd ref='-41431' />
    <nd ref='-41433' />
    <nd ref='-41435' />
    <nd ref='-41437' />
    <nd ref='-41439' />
    <nd ref='-41441' />
    <nd ref='-41443' />
    <nd ref='-41445' />
    <nd ref='-41447' />
    <nd ref='-41449' />
    <nd ref='-41451' />
    <nd ref='-41453' />
    <nd ref='-41455' />
    <nd ref='-41457' />
    <nd ref='-41459' />
    <nd ref='-41461' />
    <nd ref='-41463' />
    <nd ref='-41465' />
    <nd ref='-41467' />
    <nd ref='-41469' />
    <nd ref='-41471' />
    <nd ref='-41473' />
    <nd ref='-41475' />
    <nd ref='-41477' />
    <nd ref='-41479' />
    <nd ref='-41481' />
    <nd ref='-41483' />
    <nd ref='-41485' />
    <nd ref='-41487' />
    <nd ref='-41489' />
    <nd ref='-41491' />
    <nd ref='-41493' />
    <nd ref='-41495' />
    <nd ref='-41497' />
    <nd ref='-41499' />
    <nd ref='-41501' />
    <nd ref='-41503' />
    <nd ref='-41505' />
    <nd ref='-41507' />
    <nd ref='-41509' />
    <nd ref='-41511' />
    <nd ref='-41513' />
    <nd ref='-41515' />
    <nd ref='-41517' />
    <nd ref='-41519' />
    <nd ref='-41521' />
    <nd ref='-41401' />
    <nd ref='-41403' />
    <nd ref='-41405' />
    <nd ref='-41407' />
    <nd ref='-41409' />
    <nd ref='-41411' />
    <nd ref='-41413' />
    <nd ref='-41415' />
    <nd ref='-41417' />
    <nd ref='-41419' />
    <nd ref='-41421' />
    <nd ref='-41423' />
    <nd ref='-41425' />
    <nd ref='-41967' />
    <nd ref='-41969' />
    <nd ref='-41971' />
    <nd ref='-41973' />
    <nd ref='-41975' />
    <nd ref='-41977' />
    <nd ref='-41979' />
    <nd ref='-41981' />
    <nd ref='-41983' />
    <nd ref='-41985' />
    <nd ref='-41987' />
    <nd ref='-41989' />
    <nd ref='-41991' />
    <nd ref='-41993' />
    <nd ref='-41995' />
    <nd ref='-41997' />
    <nd ref='-41999' />
    <nd ref='-42001' />
    <nd ref='-42003' />
    <nd ref='-42005' />
    <nd ref='-42007' />
    <nd ref='-42009' />
    <nd ref='-42011' />
    <nd ref='-42013' />
    <nd ref='-42015' />
    <nd ref='-42017' />
    <nd ref='-42019' />
    <nd ref='-42021' />
    <nd ref='-42023' />
    <nd ref='-42025' />
    <nd ref='-42027' />
    <nd ref='-42029' />
    <nd ref='-42031' />
    <nd ref='-41427' />
    <nd ref='-41377' />
    <nd ref='-41379' />
    <nd ref='-41381' />
    <nd ref='-41383' />
    <nd ref='-41787' />
    <nd ref='-41785' />
    <nd ref='-41783' />
    <nd ref='-41781' />
    <nd ref='-41779' />
    <nd ref='-41777' />
    <nd ref='-41775' />
    <nd ref='-41773' />
    <nd ref='-41771' />
    <nd ref='-41769' />
    <nd ref='-41767' />
    <nd ref='-41765' />
    <nd ref='-41763' />
    <nd ref='-41761' />
    <nd ref='-41759' />
    <nd ref='-41757' />
    <nd ref='-41755' />
    <nd ref='-41753' />
    <nd ref='-41751' />
    <nd ref='-41749' />
    <nd ref='-41747' />
    <nd ref='-41745' />
    <nd ref='-41743' />
    <nd ref='-41741' />
    <nd ref='-41739' />
    <nd ref='-41737' />
    <nd ref='-41735' />
    <nd ref='-41733' />
    <nd ref='-41731' />
    <nd ref='-41729' />
    <nd ref='-41727' />
    <nd ref='-41725' />
    <nd ref='-41723' />
    <nd ref='-41721' />
    <nd ref='-41719' />
    <nd ref='-41717' />
    <nd ref='-41715' />
    <nd ref='-41713' />
    <nd ref='-41711' />
    <nd ref='-41709' />
    <nd ref='-41707' />
    <nd ref='-41705' />
    <nd ref='-41703' />
    <nd ref='-41701' />
    <nd ref='-41699' />
    <nd ref='-41697' />
    <nd ref='-41695' />
    <nd ref='-41693' />
    <nd ref='-41691' />
    <nd ref='-41689' />
    <nd ref='-41687' />
    <nd ref='-41685' />
    <nd ref='-41683' />
    <nd ref='-41681' />
    <nd ref='-41679' />
    <nd ref='-41677' />
    <nd ref='-41675' />
    <nd ref='-41673' />
    <nd ref='-41671' />
    <nd ref='-41669' />
    <nd ref='-41667' />
    <nd ref='-41665' />
    <nd ref='-41663' />
    <nd ref='-41661' />
    <nd ref='-41659' />
    <nd ref='-41657' />
    <nd ref='-41655' />
    <nd ref='-41653' />
    <nd ref='-41651' />
    <nd ref='-41649' />
    <nd ref='-41647' />
    <nd ref='-41645' />
    <nd ref='-41643' />
    <nd ref='-41641' />
    <nd ref='-41639' />
    <nd ref='-41637' />
    <nd ref='-41635' />
    <nd ref='-41633' />
    <nd ref='-41631' />
    <nd ref='-41629' />
    <nd ref='-41627' />
    <nd ref='-41625' />
    <nd ref='-41623' />
    <nd ref='-41621' />
    <nd ref='-41619' />
    <nd ref='-41617' />
    <nd ref='-41615' />
    <nd ref='-41613' />
    <nd ref='-41611' />
    <nd ref='-41609' />
    <nd ref='-41607' />
    <nd ref='-41605' />
    <nd ref='-41603' />
    <nd ref='-41601' />
    <nd ref='-41599' />
    <nd ref='-41597' />
    <nd ref='-41595' />
    <nd ref='-41593' />
    <nd ref='-41591' />
    <nd ref='-41589' />
    <nd ref='-41587' />
    <nd ref='-41585' />
    <nd ref='-41583' />
    <nd ref='-41581' />
    <nd ref='-41579' />
    <nd ref='-41577' />
    <nd ref='-41575' />
    <nd ref='-41573' />
    <nd ref='-41571' />
    <nd ref='-41569' />
    <nd ref='-41567' />
    <nd ref='-41565' />
    <nd ref='-41563' />
    <nd ref='-41561' />
    <nd ref='-41559' />
    <nd ref='-41557' />
    <nd ref='-41555' />
    <nd ref='-41553' />
    <nd ref='-41551' />
    <nd ref='-41549' />
    <nd ref='-41547' />
    <nd ref='-41545' />
    <nd ref='-41543' />
    <nd ref='-41541' />
    <nd ref='-41539' />
    <nd ref='-41537' />
    <nd ref='-41535' />
    <nd ref='-41533' />
    <nd ref='-41531' />
    <nd ref='-41529' />
    <nd ref='-41527' />
    <nd ref='-41525' />
    <nd ref='-41523' />
    <nd ref='-41965' />
    <nd ref='-41963' />
    <nd ref='-41961' />
    <nd ref='-41959' />
    <nd ref='-41957' />
    <nd ref='-41955' />
    <nd ref='-41953' />
    <nd ref='-41951' />
    <nd ref='-41949' />
    <nd ref='-41947' />
    <nd ref='-41945' />
    <nd ref='-41943' />
    <nd ref='-41941' />
    <nd ref='-41939' />
    <nd ref='-41937' />
    <nd ref='-41935' />
    <nd ref='-41933' />
    <nd ref='-41931' />
    <nd ref='-41929' />
    <nd ref='-41927' />
    <nd ref='-41925' />
    <nd ref='-41923' />
    <nd ref='-41921' />
    <nd ref='-41919' />
    <nd ref='-41917' />
    <nd ref='-41915' />
    <nd ref='-41913' />
    <nd ref='-41911' />
    <nd ref='-41909' />
    <nd ref='-41907' />
    <nd ref='-41905' />
    <nd ref='-41903' />
    <nd ref='-41901' />
    <nd ref='-41899' />
    <nd ref='-41897' />
    <nd ref='-41895' />
    <nd ref='-41893' />
    <nd ref='-41891' />
    <nd ref='-41889' />
    <nd ref='-41887' />
    <nd ref='-41885' />
    <nd ref='-41883' />
    <nd ref='-41881' />
    <nd ref='-41879' />
    <nd ref='-41877' />
    <nd ref='-41875' />
    <nd ref='-41873' />
    <nd ref='-41871' />
    <nd ref='-41869' />
    <nd ref='-41867' />
    <nd ref='-41865' />
    <nd ref='-41863' />
    <nd ref='-41861' />
    <nd ref='-41859' />
    <nd ref='-41857' />
    <nd ref='-41855' />
    <nd ref='-41853' />
    <nd ref='-41851' />
    <nd ref='-41849' />
    <nd ref='-41847' />
    <nd ref='-41845' />
    <nd ref='-41843' />
    <nd ref='-41841' />
    <nd ref='-41839' />
    <nd ref='-41837' />
    <nd ref='-41835' />
    <nd ref='-41833' />
    <nd ref='-41831' />
    <nd ref='-41829' />
    <nd ref='-41827' />
    <nd ref='-41825' />
    <nd ref='-41823' />
    <nd ref='-41821' />
    <nd ref='-41819' />
    <nd ref='-41817' />
    <nd ref='-41815' />
    <nd ref='-41813' />
    <nd ref='-41811' />
    <nd ref='-41809' />
    <nd ref='-41807' />
    <nd ref='-41805' />
    <nd ref='-41803' />
    <nd ref='-41801' />
    <nd ref='-41799' />
    <nd ref='-41797' />
    <nd ref='-41795' />
    <nd ref='-41793' />
    <nd ref='-41791' />
    <nd ref='-41789' />
    <nd ref='-42035' />
    <nd ref='-42243' />
    <nd ref='-42241' />
    <nd ref='-42239' />
    <nd ref='-42237' />
    <nd ref='-42235' />
    <nd ref='-42233' />
    <nd ref='-42231' />
    <nd ref='-42229' />
    <nd ref='-42227' />
    <nd ref='-42225' />
    <nd ref='-42223' />
    <nd ref='-42221' />
    <nd ref='-42219' />
    <nd ref='-42217' />
    <nd ref='-42215' />
    <nd ref='-42213' />
    <nd ref='-42211' />
    <nd ref='-42209' />
    <nd ref='-42207' />
    <nd ref='-42205' />
    <nd ref='-42203' />
    <nd ref='-42201' />
    <nd ref='-42199' />
    <nd ref='-42197' />
    <nd ref='-42195' />
    <nd ref='-42193' />
    <nd ref='-42191' />
    <nd ref='-42189' />
    <nd ref='-42187' />
    <nd ref='-42185' />
    <nd ref='-42183' />
    <nd ref='-42181' />
    <nd ref='-42179' />
    <nd ref='-42177' />
    <nd ref='-42175' />
    <nd ref='-42173' />
    <nd ref='-42171' />
    <nd ref='-42169' />
    <nd ref='-42167' />
    <nd ref='-42165' />
    <nd ref='-42163' />
    <nd ref='-42161' />
    <nd ref='-42159' />
    <nd ref='-42157' />
    <nd ref='-42155' />
    <nd ref='-42153' />
    <nd ref='-42151' />
    <nd ref='-42149' />
    <nd ref='-42147' />
    <nd ref='-42145' />
    <nd ref='-42143' />
    <nd ref='-42141' />
    <nd ref='-42139' />
    <nd ref='-42137' />
    <nd ref='-42135' />
    <nd ref='-42133' />
    <nd ref='-42131' />
    <nd ref='-42129' />
    <nd ref='-42127' />
    <nd ref='-42125' />
    <nd ref='-42123' />
    <nd ref='-42121' />
    <nd ref='-42119' />
    <nd ref='-42117' />
    <nd ref='-42115' />
    <nd ref='-42113' />
    <nd ref='-42111' />
    <nd ref='-42109' />
    <nd ref='-42107' />
    <nd ref='-42105' />
    <nd ref='-42103' />
    <nd ref='-42101' />
    <nd ref='-42099' />
    <nd ref='-42097' />
    <nd ref='-42095' />
    <nd ref='-42093' />
    <nd ref='-42091' />
    <nd ref='-42089' />
    <nd ref='-42087' />
    <nd ref='-42085' />
    <nd ref='-42083' />
    <nd ref='-42081' />
    <nd ref='-42079' />
    <nd ref='-42077' />
    <nd ref='-42075' />
    <nd ref='-42073' />
    <nd ref='-42071' />
    <nd ref='-42069' />
    <nd ref='-42067' />
    <nd ref='-42065' />
    <nd ref='-42063' />
    <nd ref='-42061' />
    <nd ref='-42059' />
    <nd ref='-42057' />
    <nd ref='-42055' />
    <nd ref='-42053' />
    <nd ref='-42051' />
    <nd ref='-42049' />
    <nd ref='-42047' />
    <nd ref='-42045' />
    <nd ref='-42043' />
    <nd ref='-42041' />
    <nd ref='-42039' />
    <nd ref='-42037' />
    <nd ref='-42033' />
    <tag k='name' v='Valley of the Winds Walk' />
    <tag k='park' v='Uluru-Kata Tjuta National Park' />
    <tag k='photo' v='155823486@N07/49646756426' />
    <tag k='role' v='primary' />
    <tag k='style' v='loop' />
    <tag k='transport' v='car' />
  </way>
</osm>
