<?xml version='1.0' encoding='UTF-8'?>
<osm version='0.6' upload='false' generator='JOSM'>
  <node id='-41209' action='modify' lat='-25.3688421' lon='131.0643618' />
  <node id='-41211' action='modify' lat='-25.3688225' lon='131.0645751' />
  <node id='-41213' action='modify' lat='-25.368786' lon='131.0646513' />
  <node id='-41215' action='modify' lat='-25.3687087' lon='131.0647339' />
  <node id='-41217' action='modify' lat='-25.3685825' lon='131.064793' />
  <node id='-41219' action='modify' lat='-25.3683217' lon='131.0648293' />
  <node id='-41221' action='modify' lat='-25.3680888' lon='131.0649222' />
  <node id='-41223' action='modify' lat='-25.3680349' lon='131.0649566' />
  <node id='-41225' action='modify' lat='-25.3679873' lon='131.0649618' />
  <node id='-41227' action='modify' lat='-25.3677746' lon='131.0649334' />
  <node id='-41229' action='modify' lat='-25.3677282' lon='131.0649499' />
  <node id='-41231' action='modify' lat='-25.3677013' lon='131.0649453' />
  <node id='-41233' action='modify' lat='-25.367675' lon='131.0649181' />
  <node id='-41235' action='modify' lat='-25.367663' lon='131.064891' />
  <node id='-41237' action='modify' lat='-25.3676408' lon='131.0648618' />
  <node id='-41239' action='modify' lat='-25.3676079' lon='131.0648466' />
  <node id='-41241' action='modify' lat='-25.367575' lon='131.0648539' />
  <node id='-41243' action='modify' lat='-25.3675426' lon='131.0648684' />
  <node id='-41245' action='modify' lat='-25.3675176' lon='131.0648982' />
  <node id='-41247' action='modify' lat='-25.367502' lon='131.0649327' />
  <node id='-41249' action='modify' lat='-25.367479' lon='131.0649592' />
  <node id='-41251' action='modify' lat='-25.367414' lon='131.0649724' />
  <node id='-41253' action='modify' lat='-25.3673844' lon='131.064987' />
  <node id='-41255' action='modify' lat='-25.3673602' lon='131.0650181' />
  <node id='-41257' action='modify' lat='-25.3673301' lon='131.0650377' />
  <node id='-41259' action='modify' lat='-25.3671995' lon='131.065085' />
  <node id='-41261' action='modify' lat='-25.3671348' lon='131.0651191' />
  <node id='-41263' action='modify' lat='-25.3671135' lon='131.0651261' />
  <node id='-41265' action='modify' lat='-25.3671055' lon='131.0651287' />
  <node id='-41267' action='modify' lat='-25.3670516' lon='131.065139' />
  <node id='-41269' action='modify' lat='-25.366993' lon='131.0651364' />
  <node id='-41271' action='modify' lat='-25.3669513' lon='131.0651426' />
  <node id='-41273' action='modify' lat='-25.3669265' lon='131.0651496' />
  <node id='-41275' action='modify' lat='-25.366908' lon='131.0651632' />
  <node id='-41277' action='modify' lat='-25.366829' lon='131.0651393' />
  <node id='-41279' action='modify' lat='-25.3667727' lon='131.0651407' />
  <node id='-41281' action='modify' lat='-25.3667859' lon='131.0633872' />
  <node id='-41283' action='modify' lat='-25.3680722' lon='131.0633984' />
  <node id='-41285' action='modify' lat='-25.3667144' lon='131.0651282' />
  <node id='-41287' action='modify' lat='-25.3662496' lon='131.0651274' />
  <node id='-41289' action='modify' lat='-25.3658304' lon='131.0649291' />
  <node id='-41291' action='modify' lat='-25.3657685' lon='131.0647592' />
  <node id='-41293' action='modify' lat='-25.3657529' lon='131.0645687' />
  <node id='-41295' action='modify' lat='-25.3658053' lon='131.0643622' />
  <node id='-41297' action='modify' lat='-25.3660384' lon='131.0641014' />
  <node id='-41299' action='modify' lat='-25.3662613' lon='131.063802' />
  <node id='-41301' action='modify' lat='-25.366309' lon='131.0637811' />
  <node id='-41303' action='modify' lat='-25.3664676' lon='131.0637454' />
  <node id='-41305' action='modify' lat='-25.3665609' lon='131.0636559' />
  <node id='-41307' action='modify' lat='-25.3666557' lon='131.063476' />
  <node id='-41309' action='modify' lat='-25.3668487' lon='131.0634797' />
  <node id='-41311' action='modify' lat='-25.3669164' lon='131.0635341' />
  <node id='-41313' action='modify' lat='-25.366956' lon='131.0635311' />
  <node id='-41315' action='modify' lat='-25.3670443' lon='131.0634321' />
  <node id='-41317' action='modify' lat='-25.3671585' lon='131.0633599' />
  <node id='-41319' action='modify' lat='-25.3672776' lon='131.0633555' />
  <node id='-41321' action='modify' lat='-25.3673568' lon='131.0634001' />
  <node id='-41323' action='modify' lat='-25.3673278' lon='131.0635247' />
  <node id='-41325' action='modify' lat='-25.3673379' lon='131.0635715' />
  <node id='-41327' action='modify' lat='-25.3673759' lon='131.0636142' />
  <node id='-41329' action='modify' lat='-25.3675571' lon='131.0636799' />
  <node id='-41331' action='modify' lat='-25.3676298' lon='131.0636316' />
  <node id='-41333' action='modify' lat='-25.3676975' lon='131.0635956' />
  <node id='-41335' action='modify' lat='-25.367798' lon='131.0635915' />
  <node id='-41337' action='modify' lat='-25.3678891' lon='131.0636314' />
  <node id='-41339' action='modify' lat='-25.3679573' lon='131.0636625' />
  <node id='-41341' action='modify' lat='-25.3680144' lon='131.0636172' />
  <node id='-41343' action='modify' lat='-25.3680345' lon='131.0634267' />
  <node id='-41345' action='modify' lat='-25.3681486' lon='131.0634577' />
  <node id='-41347' action='modify' lat='-25.368212' lon='131.0634747' />
  <node id='-41349' action='modify' lat='-25.3683509' lon='131.0634372' />
  <node id='-41351' action='modify' lat='-25.3685873' lon='131.063287' />
  <node id='-41353' action='modify' lat='-25.3687325' lon='131.063213' />
  <node id='-41355' action='modify' lat='-25.3688973' lon='131.0628375' />
  <node id='-41357' action='modify' lat='-25.3689845' lon='131.0627892' />
  <node id='-41359' action='modify' lat='-25.3691611' lon='131.062612' />
  <node id='-41361' action='modify' lat='-25.3692234' lon='131.0628736' />
  <node id='-41363' action='modify' lat='-25.3694464' lon='131.0630559' />
  <node id='-41365' action='modify' lat='-25.3694949' lon='131.06341' />
  <node id='-41367' action='modify' lat='-25.3692041' lon='131.063528' />
  <node id='-41369' action='modify' lat='-25.3690489' lon='131.0637855' />
  <node id='-41371' action='modify' lat='-25.3690199' lon='131.0640966' />
  <node id='-41373' action='modify' lat='-25.3689328' lon='131.0643744' />
  <way id='-41375' action='modify'>
    <nd ref='-41365' />
    <nd ref='-41367' />
    <nd ref='-41369' />
    <nd ref='-41371' />
    <nd ref='-41373' />
    <nd ref='-41209' />
    <nd ref='-41211' />
    <nd ref='-41213' />
    <nd ref='-41215' />
    <nd ref='-41217' />
    <nd ref='-41219' />
    <nd ref='-41221' />
    <nd ref='-41223' />
    <nd ref='-41225' />
    <nd ref='-41227' />
    <nd ref='-41229' />
    <nd ref='-41231' />
    <nd ref='-41233' />
    <nd ref='-41235' />
    <nd ref='-41237' />
    <nd ref='-41239' />
    <nd ref='-41241' />
    <nd ref='-41243' />
    <nd ref='-41245' />
    <nd ref='-41247' />
    <nd ref='-41249' />
    <nd ref='-41251' />
    <nd ref='-41253' />
    <nd ref='-41255' />
    <nd ref='-41257' />
    <nd ref='-41259' />
    <nd ref='-41261' />
    <nd ref='-41263' />
    <nd ref='-41265' />
    <nd ref='-41267' />
    <nd ref='-41269' />
    <nd ref='-41271' />
    <nd ref='-41273' />
    <nd ref='-41275' />
    <nd ref='-41277' />
    <nd ref='-41279' />
    <nd ref='-41285' />
    <nd ref='-41287' />
    <nd ref='-41289' />
    <nd ref='-41291' />
    <nd ref='-41293' />
    <nd ref='-41295' />
    <nd ref='-41297' />
    <nd ref='-41299' />
    <nd ref='-41301' />
    <nd ref='-41303' />
    <nd ref='-41305' />
    <nd ref='-41307' />
    <nd ref='-41281' />
    <nd ref='-41309' />
    <nd ref='-41311' />
    <nd ref='-41313' />
    <nd ref='-41315' />
    <nd ref='-41317' />
    <nd ref='-41319' />
    <nd ref='-41321' />
    <nd ref='-41323' />
    <nd ref='-41325' />
    <nd ref='-41327' />
    <nd ref='-41329' />
    <nd ref='-41331' />
    <nd ref='-41333' />
    <nd ref='-41335' />
    <nd ref='-41337' />
    <nd ref='-41339' />
    <nd ref='-41341' />
    <nd ref='-41343' />
    <nd ref='-41283' />
    <nd ref='-41345' />
    <nd ref='-41347' />
    <nd ref='-41349' />
    <nd ref='-41351' />
    <nd ref='-41353' />
    <nd ref='-41355' />
    <nd ref='-41357' />
    <nd ref='-41359' />
    <nd ref='-41361' />
    <nd ref='-41363' />
    <tag k='name' v='Minymaku and Watiku Walk' />
    <tag k='park' v='Uluru-Kata Tjuta National Park' />
    <tag k='photo' v='136319147@N08/28969233858' />
    <tag k='role' v='primary' />
    <tag k='style' v='loop' />
    <tag k='transport' v='car' />
  </way>
</osm>
