<?xml version='1.0' encoding='UTF-8'?>
<osm version='0.6' upload='false' generator='JOSM'>
  <node id='-51361' action='modify' visible='true' lat='-33.5536311' lon='150.2789604' />
  <node id='-51362' action='modify' visible='true' lat='-33.5537018' lon='150.2790883' />
  <node id='-51363' action='modify' visible='true' lat='-33.553704' lon='150.2791782' />
  <node id='-51364' action='modify' visible='true' lat='-33.5536817' lon='150.2792399' />
  <node id='-51365' action='modify' visible='true' lat='-33.5536817' lon='150.2792721' />
  <node id='-51366' action='modify' visible='true' lat='-33.5536962' lon='150.2792922' />
  <node id='-51367' action='modify' visible='true' lat='-33.5537186' lon='150.2792989' />
  <node id='-51368' action='modify' visible='true' lat='-33.553742' lon='150.2792801' />
  <node id='-51369' action='modify' visible='true' lat='-33.5537655' lon='150.2792774' />
  <node id='-51370' action='modify' visible='true' lat='-33.5537823' lon='150.2792908' />
  <node id='-51371' action='modify' visible='true' lat='-33.5537867' lon='150.279327' />
  <node id='-51372' action='modify' visible='true' lat='-33.5537588' lon='150.2794008' />
  <node id='-51373' action='modify' visible='true' lat='-33.553742' lon='150.2794544' />
  <node id='-51374' action='modify' visible='true' lat='-33.5537655' lon='150.2794853' />
  <node id='-51375' action='modify' visible='true' lat='-33.5538136' lon='150.2795363' />
  <node id='-51376' action='modify' visible='true' lat='-33.5538471' lon='150.279551' />
  <node id='-51377' action='modify' visible='true' lat='-33.5538504' lon='150.2795926' />
  <node id='-51378' action='modify' visible='true' lat='-33.5538102' lon='150.2797763' />
  <node id='-51379' action='modify' visible='true' lat='-33.5537554' lon='150.2798434' />
  <node id='-51380' action='modify' visible='true' lat='-33.5537085' lon='150.2798809' />
  <node id='-51381' action='modify' visible='true' lat='-33.5536526' lon='150.2798823' />
  <node id='-51382' action='modify' visible='true' lat='-33.5535979' lon='150.2799037' />
  <node id='-51383' action='modify' visible='true' lat='-33.5535453' lon='150.2799413' />
  <node id='-51384' action='modify' visible='true' lat='-33.553504' lon='150.2800338' />
  <node id='-51385' action='modify' visible='true' lat='-33.5534682' lon='150.2800646' />
  <node id='-51386' action='modify' visible='true' lat='-33.5534313' lon='150.2800499' />
  <node id='-51387' action='modify' visible='true' lat='-33.5533542' lon='150.2800365' />
  <node id='-51388' action='modify' visible='true' lat='-33.5533062' lon='150.2800512' />
  <node id='-51389' action='modify' visible='true' lat='-33.5532391' lon='150.2800915' />
  <node id='-51390' action='modify' visible='true' lat='-33.5531474' lon='150.2802189' />
  <node id='-51391' action='modify' visible='true' lat='-33.5530726' lon='150.2803168' />
  <node id='-51392' action='modify' visible='true' lat='-33.5530022' lon='150.2803811' />
  <node id='-51393' action='modify' visible='true' lat='-33.552953' lon='150.2804039' />
  <node id='-51394' action='modify' visible='true' lat='-33.5689811' lon='150.2798846' />
  <node id='-51395' action='modify' visible='true' lat='-33.5688925' lon='150.2798259' />
  <node id='-51396' action='modify' visible='true' lat='-33.5688528' lon='150.2797489' />
  <node id='-51397' action='modify' visible='true' lat='-33.5688192' lon='150.2796499' />
  <node id='-51398' action='modify' visible='true' lat='-33.5687275' lon='150.2795399' />
  <node id='-51399' action='modify' visible='true' lat='-33.5686114' lon='150.2793859' />
  <node id='-51400' action='modify' visible='true' lat='-33.5683486' lon='150.2792319' />
  <node id='-51401' action='modify' visible='true' lat='-33.5681928' lon='150.2791146' />
  <node id='-51402' action='modify' visible='true' lat='-33.5681134' lon='150.2790779' />
  <node id='-51403' action='modify' visible='true' lat='-33.5680187' lon='150.2789679' />
  <node id='-51404' action='modify' visible='true' lat='-33.5679392' lon='150.2789202' />
  <node id='-51405' action='modify' visible='true' lat='-33.567704' lon='150.2787149' />
  <node id='-51406' action='modify' visible='true' lat='-33.5675879' lon='150.2785939' />
  <node id='-51407' action='modify' visible='true' lat='-33.5674687' lon='150.2785315' />
  <node id='-51408' action='modify' visible='true' lat='-33.567319' lon='150.2784692' />
  <node id='-51409' action='modify' visible='true' lat='-33.5672365' lon='150.2784399' />
  <node id='-51410' action='modify' visible='true' lat='-33.5671785' lon='150.2784802' />
  <node id='-51411' action='modify' visible='true' lat='-33.5671357' lon='150.2785205' />
  <node id='-51412' action='modify' visible='true' lat='-33.5669218' lon='150.2785389' />
  <node id='-51413' action='modify' visible='true' lat='-33.5668363' lon='150.2785609' />
  <node id='-51414' action='modify' visible='true' lat='-33.5667263' lon='150.2784985' />
  <node id='-51415' action='modify' visible='true' lat='-33.5665552' lon='150.2785095' />
  <node id='-51416' action='modify' visible='true' lat='-33.5664696' lon='150.2784619' />
  <node id='-51417' action='modify' visible='true' lat='-33.5663383' lon='150.2783189' />
  <node id='-51418' action='modify' visible='true' lat='-33.5662527' lon='150.2782895' />
  <node id='-51419' action='modify' visible='true' lat='-33.5661488' lon='150.2782455' />
  <node id='-51420' action='modify' visible='true' lat='-33.5660938' lon='150.2781649' />
  <node id='-51421' action='modify' visible='true' lat='-33.5659991' lon='150.2780292' />
  <node id='-51422' action='modify' visible='true' lat='-33.5659533' lon='150.2779852' />
  <node id='-51423' action='modify' visible='true' lat='-33.5657791' lon='150.2779192' />
  <node id='-51424' action='modify' visible='true' lat='-33.5656814' lon='150.2778569' />
  <node id='-51425' action='modify' visible='true' lat='-33.5655592' lon='150.2777139' />
  <node id='-51426' action='modify' visible='true' lat='-33.5654767' lon='150.2775525' />
  <node id='-51427' action='modify' visible='true' lat='-33.5654156' lon='150.2774168' />
  <node id='-51428' action='modify' visible='true' lat='-33.5653331' lon='150.2772958' />
  <node id='-51429' action='modify' visible='true' lat='-33.5652353' lon='150.2772225' />
  <node id='-51430' action='modify' visible='true' lat='-33.5651131' lon='150.2771932' />
  <node id='-51431' action='modify' visible='true' lat='-33.5650306' lon='150.2771712' />
  <node id='-51432' action='modify' visible='true' lat='-33.5649542' lon='150.2771125' />
  <node id='-51433' action='modify' visible='true' lat='-33.5648473' lon='150.2771235' />
  <node id='-51434' action='modify' visible='true' lat='-33.5647342' lon='150.2771602' />
  <node id='-51435' action='modify' visible='true' lat='-33.5646456' lon='150.2770942' />
  <node id='-51436' action='modify' visible='true' lat='-33.5645295' lon='150.2770428' />
  <node id='-51437' action='modify' visible='true' lat='-33.5643431' lon='150.2770538' />
  <node id='-51438' action='modify' visible='true' lat='-33.5642423' lon='150.2769915' />
  <node id='-51439' action='modify' visible='true' lat='-33.5640712' lon='150.2769622' />
  <node id='-51440' action='modify' visible='true' lat='-33.5639215' lon='150.2769512' />
  <node id='-51441' action='modify' visible='true' lat='-33.5638359' lon='150.2769438' />
  <node id='-51442' action='modify' visible='true' lat='-33.5636312' lon='150.2768338' />
  <node id='-51443' action='modify' visible='true' lat='-33.5634204' lon='150.2767788' />
  <node id='-51444' action='modify' visible='true' lat='-33.5630812' lon='150.2767275' />
  <node id='-51445' action='modify' visible='true' lat='-33.5629529' lon='150.2766652' />
  <node id='-51446' action='modify' visible='true' lat='-33.5628521' lon='150.2766872' />
  <node id='-51447' action='modify' visible='true' lat='-33.5627512' lon='150.2767275' />
  <node id='-51448' action='modify' visible='true' lat='-33.5626779' lon='150.2767165' />
  <node id='-51449' action='modify' visible='true' lat='-33.5626199' lon='150.2766835' />
  <node id='-51450' action='modify' visible='true' lat='-33.562299' lon='150.2766725' />
  <node id='-51451' action='modify' visible='true' lat='-33.5621829' lon='150.2766175' />
  <node id='-51452' action='modify' visible='true' lat='-33.5620363' lon='150.2766725' />
  <node id='-51453' action='modify' visible='true' lat='-33.5618682' lon='150.2767128' />
  <node id='-51454' action='modify' visible='true' lat='-33.5617246' lon='150.2767495' />
  <node id='-51455' action='modify' visible='true' lat='-33.5615902' lon='150.2767495' />
  <node id='-51456' action='modify' visible='true' lat='-33.5615138' lon='150.2767128' />
  <node id='-51457' action='modify' visible='true' lat='-33.5613854' lon='150.2767495' />
  <node id='-51458' action='modify' visible='true' lat='-33.5613029' lon='150.2767312' />
  <node id='-51459' action='modify' visible='true' lat='-33.5612082' lon='150.2767495' />
  <node id='-51460' action='modify' visible='true' lat='-33.5611563' lon='150.2767275' />
  <node id='-51461' action='modify' visible='true' lat='-33.5610707' lon='150.2767422' />
  <node id='-51462' action='modify' visible='true' lat='-33.5610066' lon='150.2768155' />
  <node id='-51463' action='modify' visible='true' lat='-33.5609363' lon='150.2768595' />
  <node id='-51464' action='modify' visible='true' lat='-33.5608538' lon='150.2768632' />
  <node id='-51465' action='modify' visible='true' lat='-33.5607621' lon='150.2768742' />
  <node id='-51466' action='modify' visible='true' lat='-33.5607529' lon='150.2769292' />
  <node id='-51467' action='modify' visible='true' lat='-33.5607346' lon='150.2769842' />
  <node id='-51468' action='modify' visible='true' lat='-33.5606766' lon='150.2769915' />
  <node id='-51469' action='modify' visible='true' lat='-33.5605727' lon='150.2769218' />
  <node id='-51470' action='modify' visible='true' lat='-33.5604443' lon='150.2768815' />
  <node id='-51471' action='modify' visible='true' lat='-33.5602763' lon='150.2768558' />
  <node id='-51472' action='modify' visible='true' lat='-33.5601571' lon='150.2769402' />
  <node id='-51473' action='modify' visible='true' lat='-33.5600746' lon='150.2769475' />
  <node id='-51474' action='modify' visible='true' lat='-33.5599616' lon='150.2769402' />
  <node id='-51475' action='modify' visible='true' lat='-33.5598485' lon='150.2769768' />
  <node id='-51476' action='modify' visible='true' lat='-33.5597538' lon='150.2769842' />
  <node id='-51477' action='modify' visible='true' lat='-33.5596346' lon='150.2770832' />
  <node id='-51478' action='modify' visible='true' lat='-33.5595827' lon='150.2771088' />
  <node id='-51479' action='modify' visible='true' lat='-33.5594941' lon='150.2770722' />
  <node id='-51480' action='modify' visible='true' lat='-33.559381' lon='150.2770942' />
  <node id='-51481' action='modify' visible='true' lat='-33.5592832' lon='150.2771638' />
  <node id='-51482' action='modify' visible='true' lat='-33.5591366' lon='150.2773178' />
  <node id='-51483' action='modify' visible='true' lat='-33.5590388' lon='150.2773728' />
  <node id='-51484' action='modify' visible='true' lat='-33.5589196' lon='150.2774058' />
  <node id='-51485' action='modify' visible='true' lat='-33.558831' lon='150.2774462' />
  <node id='-51486' action='modify' visible='true' lat='-33.5587668' lon='150.2774902' />
  <node id='-51487' action='modify' visible='true' lat='-33.5587454' lon='150.2775598' />
  <node id='-51488' action='modify' visible='true' lat='-33.5587179' lon='150.2776002' />
  <node id='-51489' action='modify' visible='true' lat='-33.5586385' lon='150.2775965' />
  <node id='-51490' action='modify' visible='true' lat='-33.5585804' lon='150.2776185' />
  <node id='-51491' action='modify' visible='true' lat='-33.5585071' lon='150.2777065' />
  <node id='-51492' action='modify' visible='true' lat='-33.5584185' lon='150.2777102' />
  <node id='-51493' action='modify' visible='true' lat='-33.5582932' lon='150.2777065' />
  <node id='-51494' action='modify' visible='true' lat='-33.5581465' lon='150.2777395' />
  <node id='-51495' action='modify' visible='true' lat='-33.5580457' lon='150.2777872' />
  <node id='-51496' action='modify' visible='true' lat='-33.5579388' lon='150.2777652' />
  <node id='-51497' action='modify' visible='true' lat='-33.5578838' lon='150.2778092' />
  <node id='-51498' action='modify' visible='true' lat='-33.5578257' lon='150.2778165' />
  <node id='-51499' action='modify' visible='true' lat='-33.5577738' lon='150.2777799' />
  <node id='-51500' action='modify' visible='true' lat='-33.5577126' lon='150.2777359' />
  <node id='-51501' action='modify' visible='true' lat='-33.5576576' lon='150.2777725' />
  <node id='-51502' action='modify' visible='true' lat='-33.5575904' lon='150.2778825' />
  <node id='-51503' action='modify' visible='true' lat='-33.557514' lon='150.2779082' />
  <node id='-51504' action='modify' visible='true' lat='-33.5574315' lon='150.2778642' />
  <node id='-51505' action='modify' visible='true' lat='-33.5572971' lon='150.2778532' />
  <node id='-51506' action='modify' visible='true' lat='-33.557236' lon='150.2778092' />
  <node id='-51507' action='modify' visible='true' lat='-33.5572085' lon='150.2777505' />
  <node id='-51508' action='modify' visible='true' lat='-33.5571382' lon='150.2777542' />
  <node id='-51509' action='modify' visible='true' lat='-33.5570771' lon='150.2777945' />
  <node id='-51510' action='modify' visible='true' lat='-33.5569915' lon='150.2777909' />
  <node id='-51511' action='modify' visible='true' lat='-33.5568357' lon='150.2777652' />
  <node id='-51512' action='modify' visible='true' lat='-33.5567501' lon='150.2777505' />
  <node id='-51513' action='modify' visible='true' lat='-33.5566187' lon='150.2778642' />
  <node id='-51514' action='modify' visible='true' lat='-33.556524' lon='150.2778789' />
  <node id='-51515' action='modify' visible='true' lat='-33.5564201' lon='150.2778422' />
  <node id='-51516' action='modify' visible='true' lat='-33.5562154' lon='150.2778349' />
  <node id='-51517' action='modify' visible='true' lat='-33.5561329' lon='150.2778532' />
  <node id='-51518' action='modify' visible='true' lat='-33.5560229' lon='150.2778972' />
  <node id='-51519' action='modify' visible='true' lat='-33.5558579' lon='150.2779595' />
  <node id='-51520' action='modify' visible='true' lat='-33.555754' lon='150.2780549' />
  <node id='-51521' action='modify' visible='true' lat='-33.5556501' lon='150.2781722' />
  <node id='-51522' action='modify' visible='true' lat='-33.5555523' lon='150.2782162' />
  <node id='-51523' action='modify' visible='true' lat='-33.5554148' lon='150.2782822' />
  <node id='-51524' action='modify' visible='true' lat='-33.5553017' lon='150.2782529' />
  <node id='-51525' action='modify' visible='true' lat='-33.5552039' lon='150.2782639' />
  <node id='-51526' action='modify' visible='true' lat='-33.5550878' lon='150.2782932' />
  <node id='-51527' action='modify' visible='true' lat='-33.5549961' lon='150.2783225' />
  <node id='-51528' action='modify' visible='true' lat='-33.5549473' lon='150.2784582' />
  <node id='-51529' action='modify' visible='true' lat='-33.5548647' lon='150.2785535' />
  <node id='-51530' action='modify' visible='true' lat='-33.5547761' lon='150.2785792' />
  <node id='-51531' action='modify' visible='true' lat='-33.5546478' lon='150.2785425' />
  <node id='-51532' action='modify' visible='true' lat='-33.5545653' lon='150.2785022' />
  <node id='-51533' action='modify' visible='true' lat='-33.5544675' lon='150.2785462' />
  <node id='-51534' action='modify' visible='true' lat='-33.5543881' lon='150.2786195' />
  <node id='-51535' action='modify' visible='true' lat='-33.5543269' lon='150.2786049' />
  <node id='-51536' action='modify' visible='true' lat='-33.5542567' lon='150.2785609' />
  <node id='-51537' action='modify' visible='true' lat='-33.5541161' lon='150.2785865' />
  <node id='-51538' action='modify' visible='true' lat='-33.5539419' lon='150.2787185' />
  <node id='-51539' action='modify' visible='true' lat='-33.5537952' lon='150.2788212' />
  <node id='-51540' action='modify' visible='true' lat='-33.5534438' lon='150.2791842' />
  <node id='-51541' action='modify' visible='true' lat='-33.5533369' lon='150.2792539' />
  <node id='-51542' action='modify' visible='true' lat='-33.5532605' lon='150.2792796' />
  <node id='-51543' action='modify' visible='true' lat='-33.5531382' lon='150.2792502' />
  <node id='-51544' action='modify' visible='true' lat='-33.5529488' lon='150.2792136' />
  <node id='-51545' action='modify' visible='true' lat='-33.552851' lon='150.2792392' />
  <node id='-51546' action='modify' visible='true' lat='-33.552741' lon='150.2793786' />
  <node id='-51547' action='modify' visible='true' lat='-33.552631' lon='150.2793859' />
  <node id='-51548' action='modify' visible='true' lat='-33.5525087' lon='150.2794666' />
  <node id='-51549' action='modify' visible='true' lat='-33.5523346' lon='150.2794702' />
  <node id='-51550' action='modify' visible='true' lat='-33.5521604' lon='150.2795802' />
  <node id='-51551' action='modify' visible='true' lat='-33.5519648' lon='150.2796352' />
  <node id='-51552' action='modify' visible='true' lat='-33.5517631' lon='150.2796829' />
  <node id='-51553' action='modify' visible='true' lat='-33.5515064' lon='150.2796939' />
  <node id='-51554' action='modify' visible='true' lat='-33.5511917' lon='150.2797269' />
  <node id='-51555' action='modify' visible='true' lat='-33.5509808' lon='150.2797599' />
  <node id='-51556' action='modify' visible='true' lat='-33.5507639' lon='150.2798552' />
  <node id='-51557' action='modify' visible='true' lat='-33.5505805' lon='150.2798956' />
  <node id='-51558' action='modify' visible='true' lat='-33.5504033' lon='150.2799066' />
  <node id='-51559' action='modify' visible='true' lat='-33.550226' lon='150.2800606' />
  <node id='-51560' action='modify' visible='true' lat='-33.5500763' lon='150.2801009' />
  <node id='-51561' action='modify' visible='true' lat='-33.5499113' lon='150.2801963' />
  <node id='-51562' action='modify' visible='true' lat='-33.5496332' lon='150.2803906' />
  <node id='-51563' action='modify' visible='true' lat='-33.5493734' lon='150.2806546' />
  <node id='-51564' action='modify' visible='true' lat='-33.5491076' lon='150.2808159' />
  <node id='-51565' action='modify' visible='true' lat='-33.5486889' lon='150.2810433' />
  <node id='-51566' action='modify' visible='true' lat='-33.5483833' lon='150.281201' />
  <node id='-51567' action='modify' visible='true' lat='-33.5482947' lon='150.281245' />
  <node id='-51568' action='modify' visible='true' lat='-33.5482213' lon='150.281333' />
  <node id='-51569' action='modify' visible='true' lat='-33.5481999' lon='150.281421' />
  <node id='-51570' action='modify' visible='true' lat='-33.5480838' lon='150.2815383' />
  <node id='-51571' action='modify' visible='true' lat='-33.5479402' lon='150.2816776' />
  <node id='-51572' action='modify' visible='true' lat='-33.5478516' lon='150.2817656' />
  <node id='-51573' action='modify' visible='true' lat='-33.547766' lon='150.2819306' />
  <node id='-51574' action='modify' visible='true' lat='-33.5476804' lon='150.2819636' />
  <node id='-51575' action='modify' visible='true' lat='-33.5475887' lon='150.2819856' />
  <node id='-51576' action='modify' visible='true' lat='-33.5475123' lon='150.2820553' />
  <node id='-51577' action='modify' visible='true' lat='-33.5474176' lon='150.2820186' />
  <node id='-51578' action='modify' visible='true' lat='-33.547329' lon='150.2820773' />
  <node id='-51579' action='modify' visible='true' lat='-33.5472587' lon='150.282136' />
  <node id='-51580' action='modify' visible='true' lat='-33.547167' lon='150.282136' />
  <node id='-51581' action='modify' visible='true' lat='-33.5470845' lon='150.28218' />
  <node id='-51582' action='modify' visible='true' lat='-33.5469286' lon='150.2822203' />
  <node id='-51583' action='modify' visible='true' lat='-33.5466719' lon='150.2822753' />
  <node id='-51584' action='modify' visible='true' lat='-33.5464855' lon='150.282444' />
  <node id='-51585' action='modify' visible='true' lat='-33.5462319' lon='150.2826787' />
  <node id='-51586' action='modify' visible='true' lat='-33.5459782' lon='150.2828693' />
  <node id='-51587' action='modify' visible='true' lat='-33.5458254' lon='150.2829427' />
  <node id='-51588' action='modify' visible='true' lat='-33.5456482' lon='150.2829793' />
  <node id='-51589' action='modify' visible='true' lat='-33.5455168' lon='150.2830343' />
  <node id='-51590' action='modify' visible='true' lat='-33.5454495' lon='150.2830123' />
  <node id='-51591' action='modify' visible='true' lat='-33.5453915' lon='150.2829867' />
  <node id='-51592' action='modify' visible='true' lat='-33.5452784' lon='150.2829867' />
  <node id='-51593' action='modify' visible='true' lat='-33.5451959' lon='150.2830233' />
  <node id='-51594' action='modify' visible='true' lat='-33.5451347' lon='150.282972' />
  <node id='-51595' action='modify' visible='true' lat='-33.5450767' lon='150.282983' />
  <node id='-51596' action='modify' visible='true' lat='-33.5450156' lon='150.2830123' />
  <node id='-51597' action='modify' visible='true' lat='-33.5449025' lon='150.2829427' />
  <node id='-51598' action='modify' visible='true' lat='-33.5448047' lon='150.282972' />
  <node id='-51599' action='modify' visible='true' lat='-33.5446763' lon='150.2830087' />
  <node id='-51600' action='modify' visible='true' lat='-33.5445846' lon='150.2830087' />
  <node id='-51601' action='modify' visible='true' lat='-33.5443524' lon='150.282994' />
  <way id='-51359' action='modify' visible='true'>
    <nd ref='-51361' />
    <nd ref='-51362' />
    <nd ref='-51363' />
    <nd ref='-51364' />
    <nd ref='-51365' />
    <nd ref='-51366' />
    <nd ref='-51367' />
    <nd ref='-51368' />
    <nd ref='-51369' />
    <nd ref='-51370' />
    <nd ref='-51371' />
    <nd ref='-51372' />
    <nd ref='-51373' />
    <nd ref='-51374' />
    <nd ref='-51375' />
    <nd ref='-51376' />
    <nd ref='-51377' />
    <nd ref='-51378' />
    <nd ref='-51379' />
    <nd ref='-51380' />
    <nd ref='-51381' />
    <nd ref='-51382' />
    <nd ref='-51383' />
    <nd ref='-51384' />
    <nd ref='-51385' />
    <nd ref='-51386' />
    <nd ref='-51387' />
    <nd ref='-51388' />
    <nd ref='-51389' />
    <nd ref='-51390' />
    <nd ref='-51391' />
    <nd ref='-51392' />
    <nd ref='-51393' />
    <tag k='name' v='Girraween Cave' />
    <tag k='role' v='sidetrack' />
    <tag k='style' v='return' />
  </way>
  <way id='-51360' action='modify' visible='true'>
    <nd ref='-51394' />
    <nd ref='-51395' />
    <nd ref='-51396' />
    <nd ref='-51397' />
    <nd ref='-51398' />
    <nd ref='-51399' />
    <nd ref='-51400' />
    <nd ref='-51401' />
    <nd ref='-51402' />
    <nd ref='-51403' />
    <nd ref='-51404' />
    <nd ref='-51405' />
    <nd ref='-51406' />
    <nd ref='-51407' />
    <nd ref='-51408' />
    <nd ref='-51409' />
    <nd ref='-51410' />
    <nd ref='-51411' />
    <nd ref='-51412' />
    <nd ref='-51413' />
    <nd ref='-51414' />
    <nd ref='-51415' />
    <nd ref='-51416' />
    <nd ref='-51417' />
    <nd ref='-51418' />
    <nd ref='-51419' />
    <nd ref='-51420' />
    <nd ref='-51421' />
    <nd ref='-51422' />
    <nd ref='-51423' />
    <nd ref='-51424' />
    <nd ref='-51425' />
    <nd ref='-51426' />
    <nd ref='-51427' />
    <nd ref='-51428' />
    <nd ref='-51429' />
    <nd ref='-51430' />
    <nd ref='-51431' />
    <nd ref='-51432' />
    <nd ref='-51433' />
    <nd ref='-51434' />
    <nd ref='-51435' />
    <nd ref='-51436' />
    <nd ref='-51437' />
    <nd ref='-51438' />
    <nd ref='-51439' />
    <nd ref='-51440' />
    <nd ref='-51441' />
    <nd ref='-51442' />
    <nd ref='-51443' />
    <nd ref='-51444' />
    <nd ref='-51445' />
    <nd ref='-51446' />
    <nd ref='-51447' />
    <nd ref='-51448' />
    <nd ref='-51449' />
    <nd ref='-51450' />
    <nd ref='-51451' />
    <nd ref='-51452' />
    <nd ref='-51453' />
    <nd ref='-51454' />
    <nd ref='-51455' />
    <nd ref='-51456' />
    <nd ref='-51457' />
    <nd ref='-51458' />
    <nd ref='-51459' />
    <nd ref='-51460' />
    <nd ref='-51461' />
    <nd ref='-51462' />
    <nd ref='-51463' />
    <nd ref='-51464' />
    <nd ref='-51465' />
    <nd ref='-51466' />
    <nd ref='-51467' />
    <nd ref='-51468' />
    <nd ref='-51469' />
    <nd ref='-51470' />
    <nd ref='-51471' />
    <nd ref='-51472' />
    <nd ref='-51473' />
    <nd ref='-51474' />
    <nd ref='-51475' />
    <nd ref='-51476' />
    <nd ref='-51477' />
    <nd ref='-51478' />
    <nd ref='-51479' />
    <nd ref='-51480' />
    <nd ref='-51481' />
    <nd ref='-51482' />
    <nd ref='-51483' />
    <nd ref='-51484' />
    <nd ref='-51485' />
    <nd ref='-51486' />
    <nd ref='-51487' />
    <nd ref='-51488' />
    <nd ref='-51489' />
    <nd ref='-51490' />
    <nd ref='-51491' />
    <nd ref='-51492' />
    <nd ref='-51493' />
    <nd ref='-51494' />
    <nd ref='-51495' />
    <nd ref='-51496' />
    <nd ref='-51497' />
    <nd ref='-51498' />
    <nd ref='-51499' />
    <nd ref='-51500' />
    <nd ref='-51501' />
    <nd ref='-51502' />
    <nd ref='-51503' />
    <nd ref='-51504' />
    <nd ref='-51505' />
    <nd ref='-51506' />
    <nd ref='-51507' />
    <nd ref='-51508' />
    <nd ref='-51509' />
    <nd ref='-51510' />
    <nd ref='-51511' />
    <nd ref='-51512' />
    <nd ref='-51513' />
    <nd ref='-51514' />
    <nd ref='-51515' />
    <nd ref='-51516' />
    <nd ref='-51517' />
    <nd ref='-51518' />
    <nd ref='-51519' />
    <nd ref='-51520' />
    <nd ref='-51521' />
    <nd ref='-51522' />
    <nd ref='-51523' />
    <nd ref='-51524' />
    <nd ref='-51525' />
    <nd ref='-51526' />
    <nd ref='-51527' />
    <nd ref='-51528' />
    <nd ref='-51529' />
    <nd ref='-51530' />
    <nd ref='-51531' />
    <nd ref='-51532' />
    <nd ref='-51533' />
    <nd ref='-51534' />
    <nd ref='-51535' />
    <nd ref='-51536' />
    <nd ref='-51537' />
    <nd ref='-51538' />
    <nd ref='-51539' />
    <nd ref='-51361' />
    <nd ref='-51540' />
    <nd ref='-51541' />
    <nd ref='-51542' />
    <nd ref='-51543' />
    <nd ref='-51544' />
    <nd ref='-51545' />
    <nd ref='-51546' />
    <nd ref='-51547' />
    <nd ref='-51548' />
    <nd ref='-51549' />
    <nd ref='-51550' />
    <nd ref='-51551' />
    <nd ref='-51552' />
    <nd ref='-51553' />
    <nd ref='-51554' />
    <nd ref='-51555' />
    <nd ref='-51556' />
    <nd ref='-51557' />
    <nd ref='-51558' />
    <nd ref='-51559' />
    <nd ref='-51560' />
    <nd ref='-51561' />
    <nd ref='-51562' />
    <nd ref='-51563' />
    <nd ref='-51564' />
    <nd ref='-51565' />
    <nd ref='-51566' />
    <nd ref='-51567' />
    <nd ref='-51568' />
    <nd ref='-51569' />
    <nd ref='-51570' />
    <nd ref='-51571' />
    <nd ref='-51572' />
    <nd ref='-51573' />
    <nd ref='-51574' />
    <nd ref='-51575' />
    <nd ref='-51576' />
    <nd ref='-51577' />
    <nd ref='-51578' />
    <nd ref='-51579' />
    <nd ref='-51580' />
    <nd ref='-51581' />
    <nd ref='-51582' />
    <nd ref='-51583' />
    <nd ref='-51584' />
    <nd ref='-51585' />
    <nd ref='-51586' />
    <nd ref='-51587' />
    <nd ref='-51588' />
    <nd ref='-51589' />
    <nd ref='-51590' />
    <nd ref='-51591' />
    <nd ref='-51592' />
    <nd ref='-51593' />
    <nd ref='-51594' />
    <nd ref='-51595' />
    <nd ref='-51596' />
    <nd ref='-51597' />
    <nd ref='-51598' />
    <nd ref='-51599' />
    <nd ref='-51600' />
    <nd ref='-51601' />
    <tag k='name' v='Ikara Head' />
    <tag k='park' v='Blue Mountains National Park' />
    <tag k='role' v='primary' />
    <tag k='style' v='return' />
    <tag k='transport' v='car' />
  </way>
</osm>
