<?xml version='1.0' encoding='UTF-8'?>
<osm version='0.6' upload='false' generator='JOSM'>
  <node id='-40154' action='modify' visible='true' lat='-34.2026612' lon='150.6320195' />
  <node id='-40155' action='modify' visible='true' lat='-34.2026661' lon='150.6322028' />
  <node id='-40156' action='modify' visible='true' lat='-34.2026441' lon='150.6323766' />
  <node id='-40157' action='modify' visible='true' lat='-34.2025821' lon='150.6324393' />
  <node id='-40158' action='modify' visible='true' lat='-34.2025742' lon='150.632332' />
  <node id='-40159' action='modify' visible='true' lat='-34.2025601' lon='150.6322617' />
  <node id='-40160' action='modify' visible='true' lat='-34.2025075' lon='150.6321838' />
  <node id='-40161' action='modify' visible='true' lat='-34.2024603' lon='150.632068' />
  <node id='-40162' action='modify' visible='true' lat='-34.2024179' lon='150.6318277' />
  <node id='-40163' action='modify' visible='true' lat='-34.2022949' lon='150.6315321' />
  <node id='-40164' action='modify' visible='true' lat='-34.2021818' lon='150.6313156' />
  <node id='-40165' action='modify' visible='true' lat='-34.2022101' lon='150.6310782' />
  <node id='-40166' action='modify' visible='true' lat='-34.2022698' lon='150.6309794' />
  <node id='-40167' action='modify' visible='true' lat='-34.2024096' lon='150.630837' />
  <node id='-40168' action='modify' visible='true' lat='-34.2026043' lon='150.6305768' />
  <node id='-40169' action='modify' visible='true' lat='-34.2027866' lon='150.6304571' />
  <node id='-40170' action='modify' visible='true' lat='-34.2030787' lon='150.6303242' />
  <node id='-40171' action='modify' visible='true' lat='-34.2035116' lon='150.6302036' />
  <node id='-40172' action='modify' visible='true' lat='-34.2036373' lon='150.6301808' />
  <node id='-40173' action='modify' visible='true' lat='-34.2036978' lon='150.630177' />
  <way id='-40153' action='modify' visible='true'>
    <nd ref='-40154' />
    <nd ref='-40155' />
    <nd ref='-40156' />
    <nd ref='-40157' />
    <nd ref='-40158' />
    <nd ref='-40159' />
    <nd ref='-40160' />
    <nd ref='-40161' />
    <nd ref='-40162' />
    <nd ref='-40163' />
    <nd ref='-40164' />
    <nd ref='-40165' />
    <nd ref='-40166' />
    <nd ref='-40167' />
    <nd ref='-40168' />
    <nd ref='-40169' />
    <nd ref='-40170' />
    <nd ref='-40171' />
    <nd ref='-40172' />
    <nd ref='-40173' />
    <tag k='name' v='Maldon Weir' />
    <tag k='role' v='primary' />
    <tag k='style' v='return' />
    <tag k='transport' v='car' />
  </way>
</osm>
