<?xml version='1.0' encoding='UTF-8'?>
<osm version='0.6' upload='false' generator='JOSM'>
  <node id='-166325' action='modify' lat='-35.72600779442' lon='148.48894977917' />
  <node id='-166327' action='modify' lat='-35.7262949' lon='148.4878635' />
  <node id='-166329' action='modify' lat='-35.7264212' lon='148.4871447' />
  <node id='-166331' action='modify' lat='-35.7260467' lon='148.4870106' />
  <node id='-166333' action='modify' lat='-35.725694' lon='148.4868175' />
  <node id='-166335' action='modify' lat='-35.7254312' lon='148.4865263' />
  <node id='-166337' action='modify' lat='-35.7252702' lon='148.4863728' />
  <node id='-166339' action='modify' lat='-35.7313094104' lon='148.48551555337' />
  <node id='-166341' action='modify' lat='-35.7313534' lon='148.4853484' />
  <node id='-166345' action='modify' lat='-35.7313389' lon='148.4849896' />
  <node id='-166347' action='modify' lat='-35.7313171' lon='148.4846752' />
  <node id='-166349' action='modify' lat='-35.7313394' lon='148.4844554' />
  <node id='-166351' action='modify' lat='-35.7314203' lon='148.4842425' />
  <node id='-166353' action='modify' lat='-35.7314342' lon='148.4841257' />
  <node id='-166355' action='modify' lat='-35.7313868' lon='148.4838921' />
  <node id='-166357' action='modify' lat='-35.7310885' lon='148.4834937' />
  <node id='-166359' action='modify' lat='-35.7308989' lon='148.4832224' />
  <node id='-166361' action='modify' lat='-35.7307762' lon='148.4831262' />
  <node id='-166363' action='modify' lat='-35.7305922' lon='148.483061' />
  <node id='-166365' action='modify' lat='-35.7302549' lon='148.4830266' />
  <node id='-166367' action='modify' lat='-35.7300737' lon='148.4830576' />
  <node id='-166369' action='modify' lat='-35.7299621' lon='148.4831194' />
  <node id='-166371' action='modify' lat='-35.7298478' lon='148.4832121' />
  <node id='-166373' action='modify' lat='-35.7297558' lon='148.4833495' />
  <node id='-166375' action='modify' lat='-35.7297112' lon='148.48348' />
  <node id='-166377' action='modify' lat='-35.7296192' lon='148.4836208' />
  <node id='-166379' action='modify' lat='-35.7295244' lon='148.4836689' />
  <node id='-166381' action='modify' lat='-35.7294213' lon='148.4837101' />
  <node id='-166383' action='modify' lat='-35.7293153' lon='148.4837582' />
  <node id='-166385' action='modify' lat='-35.7291898' lon='148.4838441' />
  <node id='-166387' action='modify' lat='-35.7290309' lon='148.4839196' />
  <node id='-166389' action='modify' lat='-35.7288358' lon='148.4839608' />
  <node id='-166391' action='modify' lat='-35.7286936' lon='148.4839849' />
  <node id='-166393' action='modify' lat='-35.7285681' lon='148.4840639' />
  <node id='-166395' action='modify' lat='-35.7284399' lon='148.4841806' />
  <node id='-166397' action='modify' lat='-35.7283506' lon='148.4842012' />
  <node id='-166399' action='modify' lat='-35.7282029' lon='148.4842837' />
  <node id='-166401' action='modify' lat='-35.7281053' lon='148.4844348' />
  <node id='-166403' action='modify' lat='-35.7279854' lon='148.4845138' />
  <node id='-166405' action='modify' lat='-35.7278906' lon='148.484555' />
  <node id='-166407' action='modify' lat='-35.7277623' lon='148.4846202' />
  <node id='-166409' action='modify' lat='-35.72757' lon='148.4846615' />
  <node id='-166411' action='modify' lat='-35.7274278' lon='148.4846889' />
  <node id='-166413' action='modify' lat='-35.7272716' lon='148.4847782' />
  <node id='-166415' action='modify' lat='-35.7270988' lon='148.4848023' />
  <node id='-166417' action='modify' lat='-35.7269705' lon='148.4848881' />
  <node id='-166419' action='modify' lat='-35.7268227' lon='148.4849568' />
  <node id='-166421' action='modify' lat='-35.7267001' lon='148.4849912' />
  <node id='-166423' action='modify' lat='-35.7266081' lon='148.4850358' />
  <node id='-166425' action='modify' lat='-35.72653' lon='148.4850496' />
  <node id='-166427' action='modify' lat='-35.7264129' lon='148.4850358' />
  <node id='-166429' action='modify' lat='-35.7263627' lon='148.4851045' />
  <node id='-166431' action='modify' lat='-35.7264157' lon='148.4852282' />
  <node id='-166433' action='modify' lat='-35.7264603' lon='148.4854274' />
  <node id='-166435' action='modify' lat='-35.7264352' lon='148.4855476' />
  <node id='-166437' action='modify' lat='-35.7263376' lon='148.485655' />
  <node id='-166439' action='modify' lat='-35.7264138' lon='148.4858362' />
  <node id='-166441' action='modify' lat='-35.7264083' lon='148.4859837' />
  <node id='-166443' action='modify' lat='-35.7263364' lon='148.4859743' />
  <node id='-166445' action='modify' lat='-35.726343' lon='148.4861179' />
  <node id='-166447' action='modify' lat='-35.7263321' lon='148.4863594' />
  <node id='-166449' action='modify' lat='-35.7263539' lon='148.4864399' />
  <node id='-166451' action='modify' lat='-35.7263006' lon='148.4864027' />
  <node id='-166453' action='modify' lat='-35.7261905' lon='148.4863258' />
  <node id='-166455' action='modify' lat='-35.7260435' lon='148.4862185' />
  <node id='-166457' action='modify' lat='-35.7259455' lon='148.4860978' />
  <node id='-166459' action='modify' lat='-35.7258366' lon='148.4860978' />
  <node id='-166461' action='modify' lat='-35.7256895' lon='148.4862386' />
  <node id='-166463' action='modify' lat='-35.7255752' lon='148.4863191' />
  <node id='-166465' action='modify' lat='-35.7254445' lon='148.4863191' />
  <node id='-167607' action='modify' lat='-35.72592476899' lon='148.48898470134' />
  <node id='-167609' action='modify' lat='-35.72591605911' lon='148.48916172713' />
  <node id='-167619' action='modify' lat='-35.73139002951' lon='148.48557293147' />
  <node id='-167621' action='modify' lat='-35.7316055839' lon='148.48538249463' />
  <node id='-167625' action='modify' lat='-35.73171227221' lon='148.48541199893' />
  <node id='-167627' action='modify' lat='-35.73167961254' lon='148.48553269833' />
  <node id='-167629' action='modify' lat='-35.73130293667' lon='148.4862676236' />
  <node id='-167631' action='modify' lat='-35.73093279102' lon='148.48650097579' />
  <node id='-167633' action='modify' lat='-35.73037103727' lon='148.48662703961' />
  <node id='-167635' action='modify' lat='-35.72967428293' lon='148.48666995496' />
  <node id='-167637' action='modify' lat='-35.72897752032' lon='148.48624884546' />
  <node id='-167639' action='modify' lat='-35.72885558661' lon='148.48608791292' />
  <node id='-167641' action='modify' lat='-35.72850284878' lon='148.48553001344' />
  <node id='-167643' action='modify' lat='-35.72830688264' lon='148.48550319135' />
  <node id='-167645' action='modify' lat='-35.72852026797' lon='148.48625420988' />
  <node id='-167647' action='modify' lat='-35.72845059119' lon='148.4863507694' />
  <node id='-167649' action='modify' lat='-35.72764494901' lon='148.48697840631' />
  <node id='-167651' action='modify' lat='-35.72767543291' lon='148.4871822542' />
  <node id='-167653' action='modify' lat='-35.72780172326' lon='148.48774015367' />
  <node id='-167655' action='modify' lat='-35.72762752963' lon='148.48826586664' />
  <node id='-167657' action='modify' lat='-35.72764494901' lon='148.48859846056' />
  <node id='-167659' action='modify' lat='-35.72743591619' lon='148.4887003845' />
  <node id='-167661' action='modify' lat='-35.7272443023' lon='148.48861991823' />
  <node id='-167663' action='modify' lat='-35.72700913916' lon='148.48784207761' />
  <node id='-167665' action='modify' lat='-35.72661719905' lon='148.48799764574' />
  <node id='-167667' action='modify' lat='-35.72626009638' lon='148.48866819799' />
  <node id='-167669' action='modify' lat='-35.72593456869' lon='148.48918452725' />
  <node id='-169778' action='modify' lat='-35.7316774' lon='148.4853657' />
  <node id='-169780' action='modify' lat='-35.7318055' lon='148.485158' />
  <node id='-169782' action='modify' lat='-35.7319446' lon='148.4853667' />
  <node id='-169784' action='modify' lat='-35.7320736' lon='148.4853667' />
  <node id='-169786' action='modify' lat='-35.7322557' lon='148.4854321' />
  <node id='-169788' action='modify' lat='-35.7324074' lon='148.4854882' />
  <node id='-169790' action='modify' lat='-35.7325819' lon='148.4854227' />
  <node id='-169792' action='modify' lat='-35.7327185' lon='148.4854414' />
  <node id='-169794' action='modify' lat='-35.7329006' lon='148.4854134' />
  <node id='-169796' action='modify' lat='-35.7330903' lon='148.4853854' />
  <node id='-169798' action='modify' lat='-35.7332648' lon='148.485376' />
  <node id='-169800' action='modify' lat='-35.7334393' lon='148.485348' />
  <node id='-169802' action='modify' lat='-35.7336821' lon='148.4853293' />
  <node id='-169804' action='modify' lat='-35.7337848' lon='148.4852841' />
  <node id='-169806' action='modify' lat='-35.7338945' lon='148.4852358' />
  <node id='-169808' action='modify' lat='-35.7340387' lon='148.4850769' />
  <node id='-169810' action='modify' lat='-35.7341449' lon='148.4850489' />
  <node id='-169812' action='modify' lat='-35.7342511' lon='148.4852358' />
  <node id='-169814' action='modify' lat='-35.7344029' lon='148.4854975' />
  <node id='-169816' action='modify' lat='-35.7345319' lon='148.4856938' />
  <node id='-169818' action='modify' lat='-35.7348202' lon='148.4861331' />
  <node id='-169820' action='modify' lat='-35.7349719' lon='148.4862079' />
  <node id='-169822' action='modify' lat='-35.735154' lon='148.4861892' />
  <node id='-169824' action='modify' lat='-35.7353285' lon='148.4861424' />
  <node id='-169826' action='modify' lat='-35.7354802' lon='148.4860583' />
  <node id='-169828' action='modify' lat='-35.7356168' lon='148.486077' />
  <node id='-169830' action='modify' lat='-35.7357913' lon='148.4862733' />
  <node id='-169832' action='modify' lat='-35.7359127' lon='148.4861424' />
  <node id='-169834' action='modify' lat='-35.7361707' lon='148.4856377' />
  <way id='-169835' action='modify'>
    <nd ref='-167609' />
    <nd ref='-167607' />
    <nd ref='-166325' />
    <nd ref='-166327' />
    <nd ref='-166329' />
    <nd ref='-166331' />
    <nd ref='-166333' />
    <nd ref='-166335' />
    <nd ref='-166337' />
    <nd ref='-166465' />
    <nd ref='-166463' />
    <nd ref='-166461' />
    <nd ref='-166459' />
    <nd ref='-166457' />
    <nd ref='-166455' />
    <nd ref='-166453' />
    <nd ref='-166451' />
    <nd ref='-166449' />
    <nd ref='-166447' />
    <nd ref='-166445' />
    <nd ref='-166443' />
    <nd ref='-166441' />
    <nd ref='-166439' />
    <nd ref='-166437' />
    <nd ref='-166435' />
    <nd ref='-166433' />
    <nd ref='-166431' />
    <nd ref='-166429' />
    <nd ref='-166427' />
    <nd ref='-166425' />
    <nd ref='-166423' />
    <nd ref='-166421' />
    <nd ref='-166419' />
    <nd ref='-166417' />
    <nd ref='-166415' />
    <nd ref='-166413' />
    <nd ref='-166411' />
    <nd ref='-166409' />
    <nd ref='-166407' />
    <nd ref='-166405' />
    <nd ref='-166403' />
    <nd ref='-166401' />
    <nd ref='-166399' />
    <nd ref='-166397' />
    <nd ref='-166395' />
    <nd ref='-166393' />
    <nd ref='-166391' />
    <nd ref='-166389' />
    <nd ref='-166387' />
    <nd ref='-166385' />
    <nd ref='-166383' />
    <nd ref='-166381' />
    <nd ref='-166379' />
    <nd ref='-166377' />
    <nd ref='-166375' />
    <nd ref='-166373' />
    <nd ref='-166371' />
    <nd ref='-166369' />
    <nd ref='-166367' />
    <nd ref='-166365' />
    <nd ref='-166363' />
    <nd ref='-166361' />
    <nd ref='-166359' />
    <nd ref='-166357' />
    <nd ref='-166355' />
    <nd ref='-166353' />
    <nd ref='-166351' />
    <nd ref='-166349' />
    <nd ref='-166347' />
    <nd ref='-166345' />
    <nd ref='-166341' />
    <nd ref='-166339' />
    <nd ref='-167619' />
    <nd ref='-167621' />
    <nd ref='-169778' />
    <nd ref='-167625' />
    <nd ref='-167627' />
    <nd ref='-167629' />
    <nd ref='-167631' />
    <nd ref='-167633' />
    <nd ref='-167635' />
    <nd ref='-167637' />
    <nd ref='-167639' />
    <nd ref='-167641' />
    <nd ref='-167643' />
    <nd ref='-167645' />
    <nd ref='-167647' />
    <nd ref='-167649' />
    <nd ref='-167651' />
    <nd ref='-167653' />
    <nd ref='-167655' />
    <nd ref='-167657' />
    <nd ref='-167659' />
    <nd ref='-167661' />
    <nd ref='-167663' />
    <nd ref='-167665' />
    <nd ref='-167667' />
    <nd ref='-167669' />
    <tag k='name' v='Yarrangobilly Caves River Walk' />
    <tag k='park' v='Kosciuszko National Park' />
    <tag k='photo' v='136319147@N08/33563033678' />
    <tag k='role' v='primary' />
    <tag k='style' v='loop' />
    <tag k='transport' v='car' />
  </way>
  <way id='-169836' action='modify'>
    <nd ref='-169778' />
    <nd ref='-169780' />
    <nd ref='-169782' />
    <nd ref='-169784' />
    <nd ref='-169786' />
    <nd ref='-169788' />
    <nd ref='-169790' />
    <nd ref='-169792' />
    <nd ref='-169794' />
    <nd ref='-169796' />
    <nd ref='-169798' />
    <nd ref='-169800' />
    <nd ref='-169802' />
    <nd ref='-169804' />
    <nd ref='-169806' />
    <nd ref='-169808' />
    <nd ref='-169810' />
    <nd ref='-169812' />
    <nd ref='-169814' />
    <nd ref='-169816' />
    <nd ref='-169818' />
    <nd ref='-169820' />
    <nd ref='-169822' />
    <nd ref='-169824' />
    <nd ref='-169826' />
    <nd ref='-169828' />
    <nd ref='-169830' />
    <nd ref='-169832' />
    <nd ref='-169834' />
    <tag k='name' v='Glory Hole Farm' />
    <tag k='role' v='sidetrack' />
    <tag k='style' v='return' />
  </way>
</osm>
