<?xml version='1.0' encoding='UTF-8'?>
<osm version='0.6' upload='false' generator='JOSM'>
  <node id='-128412' action='modify' visible='true' lat='-36.3139257' lon='148.5144346' />
  <node id='-128414' action='modify' visible='true' lat='-36.3137528' lon='148.5144561' />
  <node id='-128416' action='modify' visible='true' lat='-36.3138565' lon='148.5138553' />
  <node id='-128418' action='modify' visible='true' lat='-36.3142715' lon='148.5138553' />
  <node id='-128420' action='modify' visible='true' lat='-36.3147037' lon='148.5138553' />
  <node id='-128422' action='modify' visible='true' lat='-36.3151187' lon='148.5137694' />
  <node id='-128424' action='modify' visible='true' lat='-36.3154991' lon='148.5138767' />
  <node id='-128426' action='modify' visible='true' lat='-36.3157411' lon='148.5140913' />
  <node id='-128428' action='modify' visible='true' lat='-36.316208' lon='148.5140484' />
  <node id='-128430' action='modify' visible='true' lat='-36.3164673' lon='148.5139626' />
  <node id='-128432' action='modify' visible='true' lat='-36.3169168' lon='148.5135978' />
  <node id='-128434' action='modify' visible='true' lat='-36.316986' lon='148.5133188' />
  <node id='-128436' action='modify' visible='true' lat='-36.3172453' lon='148.5131257' />
  <node id='-128438' action='modify' visible='true' lat='-36.3175047' lon='148.5129326' />
  <node id='-128440' action='modify' visible='true' lat='-36.3176257' lon='148.5125464' />
  <node id='-128442' action='modify' visible='true' lat='-36.3179542' lon='148.5122459' />
  <node id='-128444' action='modify' visible='true' lat='-36.3183346' lon='148.5116666' />
  <node id='-128446' action='modify' visible='true' lat='-36.3186285' lon='148.5115593' />
  <node id='-128448' action='modify' visible='true' lat='-36.318836' lon='148.5112589' />
  <node id='-128450' action='modify' visible='true' lat='-36.3191817' lon='148.5111731' />
  <node id='-128452' action='modify' visible='true' lat='-36.3195275' lon='148.5106795' />
  <node id='-128454' action='modify' visible='true' lat='-36.319856' lon='148.510422' />
  <node id='-128456' action='modify' visible='true' lat='-36.3200808' lon='148.5105508' />
  <node id='-128458' action='modify' visible='true' lat='-36.3202364' lon='148.5104864' />
  <node id='-128460' action='modify' visible='true' lat='-36.3205476' lon='148.5104006' />
  <node id='-128462' action='modify' visible='true' lat='-36.3207377' lon='148.5101002' />
  <node id='-128464' action='modify' visible='true' lat='-36.321291' lon='148.5098641' />
  <node id='-128466' action='modify' visible='true' lat='-36.3213947' lon='148.5095423' />
  <node id='-128468' action='modify' visible='true' lat='-36.3217578' lon='148.5093706' />
  <node id='-128470' action='modify' visible='true' lat='-36.3219998' lon='148.5087698' />
  <node id='-128472' action='modify' visible='true' lat='-36.3220171' lon='148.508405' />
  <node id='-128474' action='modify' visible='true' lat='-36.3221208' lon='148.5081261' />
  <node id='-128476' action='modify' visible='true' lat='-36.3220171' lon='148.5075467' />
  <node id='-128478' action='modify' visible='true' lat='-36.3224493' lon='148.5073107' />
  <node id='-128480' action='modify' visible='true' lat='-36.3228297' lon='148.5070961' />
  <node id='-128482' action='modify' visible='true' lat='-36.3235385' lon='148.5075682' />
  <node id='-128484' action='modify' visible='true' lat='-36.3237805' lon='148.5076755' />
  <node id='-128486' action='modify' visible='true' lat='-36.3239707' lon='148.5077184' />
  <node id='-128488' action='modify' visible='true' lat='-36.3244547' lon='148.508169' />
  <node id='-128490' action='modify' visible='true' lat='-36.3247486' lon='148.5082119' />
  <node id='-128492' action='modify' visible='true' lat='-36.3248696' lon='148.508405' />
  <node id='-128494' action='modify' visible='true' lat='-36.3256822' lon='148.5084909' />
  <node id='-128496' action='modify' visible='true' lat='-36.3263045' lon='148.5088771' />
  <node id='-128498' action='modify' visible='true' lat='-36.3266676' lon='148.50892' />
  <node id='-128500' action='modify' visible='true' lat='-36.3269096' lon='148.509156' />
  <node id='-128502' action='modify' visible='true' lat='-36.327117' lon='148.509156' />
  <node id='-128504' action='modify' visible='true' lat='-36.3272208' lon='148.5093492' />
  <node id='-128506' action='modify' visible='true' lat='-36.3275492' lon='148.5095423' />
  <node id='-128508' action='modify' visible='true' lat='-36.3278085' lon='148.5097783' />
  <node id='-128510' action='modify' visible='true' lat='-36.3285864' lon='148.5098427' />
  <node id='-128512' action='modify' visible='true' lat='-36.3291569' lon='148.5100358' />
  <node id='-128514' action='modify' visible='true' lat='-36.3295199' lon='148.5102504' />
  <node id='-128516' action='modify' visible='true' lat='-36.329883' lon='148.5108512' />
  <node id='-128518' action='modify' visible='true' lat='-36.3303497' lon='148.510937' />
  <node id='-128520' action='modify' visible='true' lat='-36.3306609' lon='148.5109585' />
  <node id='-128522' action='modify' visible='true' lat='-36.3309201' lon='148.511216' />
  <node id='-128524' action='modify' visible='true' lat='-36.3311967' lon='148.511216' />
  <node id='-128526' action='modify' visible='true' lat='-36.3313523' lon='148.5113018' />
  <node id='-128528' action='modify' visible='true' lat='-36.3315425' lon='148.5110872' />
  <node id='-128530' action='modify' visible='true' lat='-36.3320265' lon='148.5106795' />
  <node id='-128532' action='modify' visible='true' lat='-36.3323031' lon='148.5108941' />
  <node id='-128534' action='modify' visible='true' lat='-36.3329081' lon='148.5109585' />
  <node id='-128536' action='modify' visible='true' lat='-36.3334094' lon='148.5108941' />
  <node id='-128538' action='modify' visible='true' lat='-36.3339452' lon='148.5111731' />
  <node id='-128540' action='modify' visible='true' lat='-36.3340662' lon='148.5110443' />
  <node id='-128542' action='modify' visible='true' lat='-36.3341008' lon='148.5106366' />
  <node id='-128544' action='modify' visible='true' lat='-36.3342909' lon='148.5102718' />
  <node id='-128546' action='modify' visible='true' lat='-36.3347231' lon='148.5102289' />
  <node id='-128548' action='modify' visible='true' lat='-36.3350342' lon='148.5099285' />
  <node id='-128550' action='modify' visible='true' lat='-36.3362442' lon='148.5103362' />
  <node id='-128552' action='modify' visible='true' lat='-36.3364689' lon='148.5101646' />
  <node id='-128554' action='modify' visible='true' lat='-36.3367109' lon='148.5101646' />
  <node id='-128556' action='modify' visible='true' lat='-36.3371603' lon='148.5101646' />
  <node id='-128558' action='modify' visible='true' lat='-36.3374196' lon='148.5097139' />
  <node id='-128560' action='modify' visible='true' lat='-36.337627' lon='148.5095637' />
  <node id='-128562' action='modify' visible='true' lat='-36.3379036' lon='148.5078686' />
  <node id='-128564' action='modify' visible='true' lat='-36.3380073' lon='148.5076969' />
  <node id='-128566' action='modify' visible='true' lat='-36.3385085' lon='148.5076755' />
  <node id='-128568' action='modify' visible='true' lat='-36.3387505' lon='148.5078042' />
  <node id='-128570' action='modify' visible='true' lat='-36.3390617' lon='148.5078257' />
  <node id='-128572' action='modify' visible='true' lat='-36.3398222' lon='148.5079759' />
  <node id='-128574' action='modify' visible='true' lat='-36.340116' lon='148.5077828' />
  <node id='-128576' action='modify' visible='true' lat='-36.3402889' lon='148.50789' />
  <node id='-128578' action='modify' visible='true' lat='-36.3405136' lon='148.5083407' />
  <node id='-128580' action='modify' visible='true' lat='-36.3407555' lon='148.5085552' />
  <node id='-128582' action='modify' visible='true' lat='-36.3411012' lon='148.5083621' />
  <node id='-128584' action='modify' visible='true' lat='-36.3415679' lon='148.5085981' />
  <node id='-128586' action='modify' visible='true' lat='-36.3418963' lon='148.5090273' />
  <node id='-128588' action='modify' visible='true' lat='-36.3418963' lon='148.5092848' />
  <node id='-128590' action='modify' visible='true' lat='-36.3417235' lon='148.5096496' />
  <node id='-128592' action='modify' visible='true' lat='-36.3416716' lon='148.50995' />
  <node id='-128594' action='modify' visible='true' lat='-36.3416543' lon='148.5102718' />
  <node id='-128596' action='modify' visible='true' lat='-36.3419654' lon='148.5105293' />
  <node id='-128598' action='modify' visible='true' lat='-36.3424321' lon='148.5106366' />
  <node id='-128600' action='modify' visible='true' lat='-36.3427259' lon='148.5110658' />
  <node id='-128602' action='modify' visible='true' lat='-36.3431926' lon='148.5110872' />
  <node id='-128604' action='modify' visible='true' lat='-36.3434518' lon='148.5108727' />
  <node id='-128606' action='modify' visible='true' lat='-36.3439358' lon='148.5106581' />
  <node id='-128608' action='modify' visible='true' lat='-36.3442987' lon='148.5106795' />
  <node id='-128610' action='modify' visible='true' lat='-36.3445926' lon='148.5108083' />
  <node id='-128612' action='modify' visible='true' lat='-36.3448172' lon='148.5110443' />
  <node id='-128614' action='modify' visible='true' lat='-36.3450592' lon='148.5111516' />
  <node id='-128616' action='modify' visible='true' lat='-36.3453876' lon='148.5110014' />
  <node id='-128618' action='modify' visible='true' lat='-36.3462863' lon='148.5102933' />
  <node id='-128620' action='modify' visible='true' lat='-36.3465456' lon='148.5102933' />
  <node id='-128622' action='modify' visible='true' lat='-36.3469258' lon='148.510422' />
  <node id='-128624' action='modify' visible='true' lat='-36.3476517' lon='148.5102933' />
  <node id='-128626' action='modify' visible='true' lat='-36.3482566' lon='148.5100144' />
  <node id='-128628' action='modify' visible='true' lat='-36.3484467' lon='148.50995' />
  <node id='-128630' action='modify' visible='true' lat='-36.348896' lon='148.5099929' />
  <node id='-128632' action='modify' visible='true' lat='-36.349138' lon='148.5098427' />
  <node id='-128634' action='modify' visible='true' lat='-36.34957' lon='148.5098427' />
  <node id='-128636' action='modify' visible='true' lat='-36.3498293' lon='148.5095852' />
  <node id='-128638' action='modify' visible='true' lat='-36.3501058' lon='148.5094994' />
  <node id='-128640' action='modify' visible='true' lat='-36.350486' lon='148.5089629' />
  <node id='-128642' action='modify' visible='true' lat='-36.350607' lon='148.5086625' />
  <node id='-128644' action='modify' visible='true' lat='-36.3507452' lon='148.5081904' />
  <node id='-128646' action='modify' visible='true' lat='-36.3509526' lon='148.5081475' />
  <node id='-128648' action='modify' visible='true' lat='-36.3510736' lon='148.5079544' />
  <node id='-128650' action='modify' visible='true' lat='-36.3515229' lon='148.5074609' />
  <node id='-128652' action='modify' visible='true' lat='-36.3535622' lon='148.5065811' />
  <node id='-128654' action='modify' visible='true' lat='-36.3537177' lon='148.506388' />
  <node id='-128656' action='modify' visible='true' lat='-36.3539596' lon='148.5063665' />
  <node id='-128658' action='modify' visible='true' lat='-36.3544435' lon='148.5064309' />
  <node id='-128660' action='modify' visible='true' lat='-36.3549447' lon='148.5062807' />
  <node id='-128662' action='modify' visible='true' lat='-36.3555495' lon='148.5060232' />
  <node id='-128664' action='modify' visible='true' lat='-36.3574158' lon='148.5056155' />
  <node id='-128666' action='modify' visible='true' lat='-36.3576923' lon='148.5057014' />
  <node id='-128668' action='modify' visible='true' lat='-36.3582799' lon='148.505873' />
  <node id='-128670' action='modify' visible='true' lat='-36.3587119' lon='148.5059589' />
  <node id='-128672' action='modify' visible='true' lat='-36.3589192' lon='148.5059589' />
  <node id='-128674' action='modify' visible='true' lat='-36.359128' lon='148.5059589' />
  <node id='-128676' action='modify' visible='true' lat='-36.3593685' lon='148.5059589' />
  <node id='-128678' action='modify' visible='true' lat='-36.3596104' lon='148.5060903' />
  <node id='-128680' action='modify' visible='true' lat='-36.3598178' lon='148.5062163' />
  <node id='-128682' action='modify' visible='true' lat='-36.3602498' lon='148.5063236' />
  <node id='-128684' action='modify' visible='true' lat='-36.3605333' lon='148.5065876' />
  <way id='-128685' action='modify' visible='true'>
    <nd ref='-128684' />
    <nd ref='-128682' />
    <nd ref='-128680' />
    <nd ref='-128678' />
    <nd ref='-128676' />
    <nd ref='-128674' />
    <nd ref='-128672' />
    <nd ref='-128670' />
    <nd ref='-128668' />
    <nd ref='-128666' />
    <nd ref='-128664' />
    <nd ref='-128662' />
    <nd ref='-128660' />
    <nd ref='-128658' />
    <nd ref='-128656' />
    <nd ref='-128654' />
    <nd ref='-128652' />
    <nd ref='-128650' />
    <nd ref='-128648' />
    <nd ref='-128646' />
    <nd ref='-128644' />
    <nd ref='-128642' />
    <nd ref='-128640' />
    <nd ref='-128638' />
    <nd ref='-128636' />
    <nd ref='-128634' />
    <nd ref='-128632' />
    <nd ref='-128630' />
    <nd ref='-128628' />
    <nd ref='-128626' />
    <nd ref='-128624' />
    <nd ref='-128622' />
    <nd ref='-128620' />
    <nd ref='-128618' />
    <nd ref='-128616' />
    <nd ref='-128614' />
    <nd ref='-128612' />
    <nd ref='-128610' />
    <nd ref='-128608' />
    <nd ref='-128606' />
    <nd ref='-128604' />
    <nd ref='-128602' />
    <nd ref='-128600' />
    <nd ref='-128598' />
    <nd ref='-128596' />
    <nd ref='-128594' />
    <nd ref='-128592' />
    <nd ref='-128590' />
    <nd ref='-128588' />
    <nd ref='-128586' />
    <nd ref='-128584' />
    <nd ref='-128582' />
    <nd ref='-128580' />
    <nd ref='-128578' />
    <nd ref='-128576' />
    <nd ref='-128574' />
    <nd ref='-128572' />
    <nd ref='-128570' />
    <nd ref='-128568' />
    <nd ref='-128566' />
    <nd ref='-128564' />
    <nd ref='-128562' />
    <nd ref='-128560' />
    <nd ref='-128558' />
    <nd ref='-128556' />
    <nd ref='-128554' />
    <nd ref='-128552' />
    <nd ref='-128550' />
    <nd ref='-128548' />
    <nd ref='-128546' />
    <nd ref='-128544' />
    <nd ref='-128542' />
    <nd ref='-128540' />
    <nd ref='-128538' />
    <nd ref='-128536' />
    <nd ref='-128534' />
    <nd ref='-128532' />
    <nd ref='-128530' />
    <nd ref='-128528' />
    <nd ref='-128526' />
    <nd ref='-128524' />
    <nd ref='-128522' />
    <nd ref='-128520' />
    <nd ref='-128518' />
    <nd ref='-128516' />
    <nd ref='-128514' />
    <nd ref='-128512' />
    <nd ref='-128510' />
    <nd ref='-128508' />
    <nd ref='-128506' />
    <nd ref='-128504' />
    <nd ref='-128502' />
    <nd ref='-128500' />
    <nd ref='-128498' />
    <nd ref='-128496' />
    <nd ref='-128494' />
    <nd ref='-128492' />
    <nd ref='-128490' />
    <nd ref='-128488' />
    <nd ref='-128486' />
    <nd ref='-128484' />
    <nd ref='-128482' />
    <nd ref='-128480' />
    <nd ref='-128478' />
    <nd ref='-128476' />
    <nd ref='-128474' />
    <nd ref='-128472' />
    <nd ref='-128470' />
    <nd ref='-128468' />
    <nd ref='-128466' />
    <nd ref='-128464' />
    <nd ref='-128462' />
    <nd ref='-128460' />
    <nd ref='-128458' />
    <nd ref='-128456' />
    <nd ref='-128454' />
    <nd ref='-128452' />
    <nd ref='-128450' />
    <nd ref='-128448' />
    <nd ref='-128446' />
    <nd ref='-128444' />
    <nd ref='-128442' />
    <nd ref='-128440' />
    <nd ref='-128438' />
    <nd ref='-128436' />
    <nd ref='-128434' />
    <nd ref='-128432' />
    <nd ref='-128430' />
    <nd ref='-128428' />
    <nd ref='-128426' />
    <nd ref='-128424' />
    <nd ref='-128422' />
    <nd ref='-128420' />
    <nd ref='-128418' />
    <nd ref='-128416' />
    <nd ref='-128414' />
    <nd ref='-128412' />
    <tag k='name' v='Rennix Walk' />
    <tag k='park' v='Kosciuszko National Park' />
    <tag k='role' v='primary' />
    <tag k='style' v='return' />
    <tag k='transport' v='car' />
  </way>
</osm>
