<?xml version='1.0' encoding='UTF-8'?>
<osm version='0.6' upload='false' generator='JOSM'>
  <node id='-106996' action='modify' visible='true' lat='-36.3992357' lon='148.5991005' />
  <node id='-106997' action='modify' visible='true' lat='-36.3991677' lon='148.5993024' />
  <node id='-106998' action='modify' visible='true' lat='-36.3993577' lon='148.5996403' />
  <node id='-106999' action='modify' visible='true' lat='-36.3996858' lon='148.6002304' />
  <node id='-107000' action='modify' visible='true' lat='-36.4002255' lon='148.6009171' />
  <node id='-107001' action='modify' visible='true' lat='-36.4002515' lon='148.6010297' />
  <node id='-107002' action='modify' visible='true' lat='-36.4001392' lon='148.601255' />
  <node id='-107003' action='modify' visible='true' lat='-36.4001526' lon='148.6014209' />
  <node id='-107004' action='modify' visible='true' lat='-36.4001651' lon='148.6014481' />
  <node id='-107005' action='modify' visible='true' lat='-36.4002989' lon='148.601593' />
  <node id='-107006' action='modify' visible='true' lat='-36.4003119' lon='148.6017968' />
  <node id='-107007' action='modify' visible='true' lat='-36.4003637' lon='148.6022313' />
  <node id='-107008' action='modify' visible='true' lat='-36.4003594' lon='148.6026015' />
  <node id='-107009' action='modify' visible='true' lat='-36.4004458' lon='148.6032077' />
  <node id='-107010' action='modify' visible='true' lat='-36.4004803' lon='148.6036905' />
  <node id='-107011' action='modify' visible='true' lat='-36.400381' lon='148.6037709' />
  <node id='-107012' action='modify' visible='true' lat='-36.400204' lon='148.6037334' />
  <node id='-107013' action='modify' visible='true' lat='-36.4001271' lon='148.6037733' />
  <node id='-107014' action='modify' visible='true' lat='-36.4001003' lon='148.6038246' />
  <node id='-107015' action='modify' visible='true' lat='-36.4000764' lon='148.6039423' />
  <node id='-107016' action='modify' visible='true' lat='-36.4000722' lon='148.6041263' />
  <node id='-107017' action='modify' visible='true' lat='-36.4001198' lon='148.604589' />
  <node id='-107018' action='modify' visible='true' lat='-36.3999751' lon='148.6047151' />
  <node id='-107019' action='modify' visible='true' lat='-36.3998067' lon='148.604699' />
  <node id='-107020' action='modify' visible='true' lat='-36.3995304' lon='148.6044468' />
  <node id='-107021' action='modify' visible='true' lat='-36.3992713' lon='148.6043181' />
  <node id='-107022' action='modify' visible='true' lat='-36.3991461' lon='148.6042484' />
  <node id='-107023' action='modify' visible='true' lat='-36.3990554' lon='148.6042859' />
  <node id='-107024' action='modify' visible='true' lat='-36.3989777' lon='148.6044147' />
  <node id='-107025' action='modify' visible='true' lat='-36.3990166' lon='148.6046346' />
  <node id='-107026' action='modify' visible='true' lat='-36.399159' lon='148.6050798' />
  <node id='-107027' action='modify' visible='true' lat='-36.3992584' lon='148.6053105' />
  <node id='-107028' action='modify' visible='true' lat='-36.3992238' lon='148.6055036' />
  <node id='-107029' action='modify' visible='true' lat='-36.3990554' lon='148.6056431' />
  <node id='-107030' action='modify' visible='true' lat='-36.3988223' lon='148.6057075' />
  <node id='-107031' action='modify' visible='true' lat='-36.3987057' lon='148.6058094' />
  <node id='-107032' action='modify' visible='true' lat='-36.398792' lon='148.6065014' />
  <node id='-107033' action='modify' visible='true' lat='-36.3988957' lon='148.6070808' />
  <node id='-107034' action='modify' visible='true' lat='-36.3988827' lon='148.6072471' />
  <node id='-107035' action='modify' visible='true' lat='-36.3987014' lon='148.607585' />
  <node id='-107036' action='modify' visible='true' lat='-36.3985718' lon='148.6076494' />
  <node id='-107037' action='modify' visible='true' lat='-36.3983127' lon='148.6076387' />
  <node id='-107038' action='modify' visible='true' lat='-36.3981875' lon='148.6077138' />
  <node id='-107039' action='modify' visible='true' lat='-36.397976' lon='148.6081858' />
  <node id='-107040' action='modify' visible='true' lat='-36.3977773' lon='148.6083199' />
  <node id='-107041' action='modify' visible='true' lat='-36.3975312' lon='148.6083039' />
  <node id='-107042' action='modify' visible='true' lat='-36.3971124' lon='148.608336' />
  <node id='-107043' action='modify' visible='true' lat='-36.3968274' lon='148.6081161' />
  <node id='-107044' action='modify' visible='true' lat='-36.3965597' lon='148.6078372' />
  <node id='-107045' action='modify' visible='true' lat='-36.3963783' lon='148.6076762' />
  <node id='-107046' action='modify' visible='true' lat='-36.3962142' lon='148.6075475' />
  <node id='-107047' action='modify' visible='true' lat='-36.3961063' lon='148.6075542' />
  <node id='-107048' action='modify' visible='true' lat='-36.3959551' lon='148.6078425' />
  <node id='-107049' action='modify' visible='true' lat='-36.3959638' lon='148.6081161' />
  <node id='-107050' action='modify' visible='true' lat='-36.3960329' lon='148.6083682' />
  <node id='-107051' action='modify' visible='true' lat='-36.3960804' lon='148.6086633' />
  <node id='-107052' action='modify' visible='true' lat='-36.3959897' lon='148.608792' />
  <node id='-107053' action='modify' visible='true' lat='-36.396007' lon='148.6089422' />
  <node id='-107054' action='modify' visible='true' lat='-36.3961149' lon='148.6091246' />
  <node id='-107055' action='modify' visible='true' lat='-36.3962315' lon='148.6094143' />
  <node id='-107056' action='modify' visible='true' lat='-36.3962747' lon='148.6096611' />
  <node id='-107057' action='modify' visible='true' lat='-36.3962531' lon='148.6100473' />
  <node id='-107058' action='modify' visible='true' lat='-36.396266' lon='148.610337' />
  <node id='-107059' action='modify' visible='true' lat='-36.3962369' lon='148.6104335' />
  <node id='-107060' action='modify' visible='true' lat='-36.3960663' lon='148.6106173' />
  <node id='-107061' action='modify' visible='true' lat='-36.3958817' lon='148.6109217' />
  <node id='-107062' action='modify' visible='true' lat='-36.3957986' lon='148.6109692' />
  <node id='-107063' action='modify' visible='true' lat='-36.3957263' lon='148.6110022' />
  <node id='-107064' action='modify' visible='true' lat='-36.3956097' lon='148.6109807' />
  <node id='-107065' action='modify' visible='true' lat='-36.3954845' lon='148.6108198' />
  <node id='-107066' action='modify' visible='true' lat='-36.3953506' lon='148.6107822' />
  <node id='-107067' action='modify' visible='true' lat='-36.3952168' lon='148.6107608' />
  <node id='-107068' action='modify' visible='true' lat='-36.3949112' lon='148.610577' />
  <node id='-107069' action='modify' visible='true' lat='-36.3947288' lon='148.6105355' />
  <node id='-107070' action='modify' visible='true' lat='-36.3943747' lon='148.6103209' />
  <node id='-107071' action='modify' visible='true' lat='-36.3940077' lon='148.6100258' />
  <node id='-107072' action='modify' visible='true' lat='-36.3937054' lon='148.6098274' />
  <node id='-107073' action='modify' visible='true' lat='-36.3935673' lon='148.609822' />
  <node id='-107074' action='modify' visible='true' lat='-36.3935198' lon='148.6099185' />
  <node id='-107075' action='modify' visible='true' lat='-36.393537' lon='148.6101331' />
  <node id='-107076' action='modify' visible='true' lat='-36.3936666' lon='148.6106213' />
  <node id='-107077' action='modify' visible='true' lat='-36.3937788' lon='148.6111577' />
  <node id='-107078' action='modify' visible='true' lat='-36.3937357' lon='148.6113938' />
  <node id='-107079' action='modify' visible='true' lat='-36.3936234' lon='148.611501' />
  <node id='-107080' action='modify' visible='true' lat='-36.393537' lon='148.6115654' />
  <node id='-107081' action='modify' visible='true' lat='-36.3934161' lon='148.6115601' />
  <node id='-107082' action='modify' visible='true' lat='-36.3929973' lon='148.6114313' />
  <node id='-107083' action='modify' visible='true' lat='-36.39279' lon='148.6112436' />
  <node id='-107084' action='modify' visible='true' lat='-36.3925611' lon='148.6110934' />
  <node id='-107085' action='modify' visible='true' lat='-36.3922977' lon='148.6108573' />
  <node id='-107086' action='modify' visible='true' lat='-36.3919954' lon='148.6107339' />
  <node id='-107087' action='modify' visible='true' lat='-36.3918076' lon='148.6106937' />
  <node id='-107088' action='modify' visible='true' lat='-36.391721' lon='148.6107115' />
  <node id='-107089' action='modify' visible='true' lat='-36.3916586' lon='148.6107769' />
  <node id='-107090' action='modify' visible='true' lat='-36.3916629' lon='148.61097' />
  <node id='-107091' action='modify' visible='true' lat='-36.3916197' lon='148.6111738' />
  <node id='-107092' action='modify' visible='true' lat='-36.3915247' lon='148.611265' />
  <node id='-107093' action='modify' visible='true' lat='-36.3913693' lon='148.6111845' />
  <node id='-107094' action='modify' visible='true' lat='-36.3910929' lon='148.6111202' />
  <node id='-107095' action='modify' visible='true' lat='-36.3909029' lon='148.6111416' />
  <node id='-107096' action='modify' visible='true' lat='-36.3907775' lon='148.6111661' />
  <node id='-107097' action='modify' visible='true' lat='-36.3907302' lon='148.6112328' />
  <node id='-107098' action='modify' visible='true' lat='-36.3906697' lon='148.6114528' />
  <node id='-107099' action='modify' visible='true' lat='-36.3906913' lon='148.6116191' />
  <node id='-107100' action='modify' visible='true' lat='-36.3908511' lon='148.612118' />
  <node id='-107101' action='modify' visible='true' lat='-36.3909936' lon='148.6124291' />
  <node id='-107102' action='modify' visible='true' lat='-36.3911275' lon='148.6126598' />
  <node id='-107103' action='modify' visible='true' lat='-36.3912743' lon='148.6131479' />
  <node id='-107104' action='modify' visible='true' lat='-36.3913304' lon='148.6134644' />
  <node id='-107105' action='modify' visible='true' lat='-36.3913002' lon='148.6136629' />
  <node id='-107106' action='modify' visible='true' lat='-36.391162' lon='148.6138238' />
  <node id='-107107' action='modify' visible='true' lat='-36.3910066' lon='148.6140277' />
  <node id='-107108' action='modify' visible='true' lat='-36.3908554' lon='148.6141403' />
  <node id='-107109' action='modify' visible='true' lat='-36.3907215' lon='148.614135' />
  <node id='-107110' action='modify' visible='true' lat='-36.3906136' lon='148.6139901' />
  <node id='-107111' action='modify' visible='true' lat='-36.3905488' lon='148.6137595' />
  <node id='-107112' action='modify' visible='true' lat='-36.3905056' lon='148.6135234' />
  <node id='-107113' action='modify' visible='true' lat='-36.3904149' lon='148.6133464' />
  <node id='-107114' action='modify' visible='true' lat='-36.390212' lon='148.6131747' />
  <node id='-107115' action='modify' visible='true' lat='-36.3898061' lon='148.6127939' />
  <node id='-107116' action='modify' visible='true' lat='-36.3896549' lon='148.6126866' />
  <node id='-107117' action='modify' visible='true' lat='-36.3895081' lon='148.6124774' />
  <node id='-107118' action='modify' visible='true' lat='-36.3894347' lon='148.6123272' />
  <node id='-107119' action='modify' visible='true' lat='-36.3894131' lon='148.6120482' />
  <node id='-107120' action='modify' visible='true' lat='-36.389331' lon='148.6118336' />
  <node id='-107121' action='modify' visible='true' lat='-36.3891928' lon='148.6116459' />
  <node id='-107122' action='modify' visible='true' lat='-36.3889942' lon='148.6115279' />
  <node id='-107123' action='modify' visible='true' lat='-36.3888301' lon='148.6114259' />
  <node id='-107124' action='modify' visible='true' lat='-36.3888128' lon='148.6111255' />
  <node id='-107125' action='modify' visible='true' lat='-36.3888012' lon='148.610962' />
  <node id='-107126' action='modify' visible='true' lat='-36.3887956' lon='148.6108841' />
  <node id='-107127' action='modify' visible='true' lat='-36.3883292' lon='148.6103799' />
  <node id='-107128' action='modify' visible='true' lat='-36.3881651' lon='148.6100902' />
  <node id='-107129' action='modify' visible='true' lat='-36.3880269' lon='148.6096932' />
  <node id='-107130' action='modify' visible='true' lat='-36.3878628' lon='148.6092426' />
  <node id='-107131' action='modify' visible='true' lat='-36.3877462' lon='148.608792' />
  <node id='-107132' action='modify' visible='true' lat='-36.387595' lon='148.608379' />
  <node id='-107133' action='modify' visible='true' lat='-36.3874784' lon='148.6081429' />
  <node id='-107134' action='modify' visible='true' lat='-36.3873964' lon='148.607923' />
  <node id='-107135' action='modify' visible='true' lat='-36.3873662' lon='148.6077084' />
  <node id='-107136' action='modify' visible='true' lat='-36.3875087' lon='148.607231' />
  <node id='-107137' action='modify' visible='true' lat='-36.3875562' lon='148.6068716' />
  <node id='-107138' action='modify' visible='true' lat='-36.3875175' lon='148.6066486' />
  <node id='-107142' action='modify' visible='true' lat='-36.4054103' lon='148.6008925' />
  <node id='-107143' action='modify' visible='true' lat='-36.4052823' lon='148.6013344' />
  <node id='-107144' action='modify' visible='true' lat='-36.405269' lon='148.6013918' />
  <node id='-107145' action='modify' visible='true' lat='-36.4051449' lon='148.601928' />
  <node id='-107146' action='modify' visible='true' lat='-36.4050598' lon='148.6021068' />
  <node id='-107147' action='modify' visible='true' lat='-36.4050108' lon='148.6022247' />
  <node id='-107148' action='modify' visible='true' lat='-36.4050566' lon='148.6024646' />
  <node id='-107149' action='modify' visible='true' lat='-36.4050631' lon='148.6027126' />
  <node id='-107150' action='modify' visible='true' lat='-36.4050467' lon='148.6028915' />
  <node id='-107151' action='modify' visible='true' lat='-36.4050762' lon='148.6030338' />
  <node id='-107152' action='modify' visible='true' lat='-36.4050697' lon='148.6032167' />
  <node id='-107153' action='modify' visible='true' lat='-36.4051024' lon='148.6033915' />
  <node id='-107154' action='modify' visible='true' lat='-36.4050435' lon='148.6035257' />
  <node id='-107155' action='modify' visible='true' lat='-36.4049486' lon='148.6036314' />
  <node id='-107156' action='modify' visible='true' lat='-36.4049322' lon='148.6037859' />
  <node id='-107157' action='modify' visible='true' lat='-36.4049224' lon='148.60392' />
  <node id='-107158' action='modify' visible='true' lat='-36.4048962' lon='148.6042941' />
  <node id='-107159' action='modify' visible='true' lat='-36.404893' lon='148.6044689' />
  <node id='-107160' action='modify' visible='true' lat='-36.4047294' lon='148.6046884' />
  <node id='-107161' action='modify' visible='true' lat='-36.4045396' lon='148.6050136' />
  <node id='-107168' action='modify' visible='true' lat='-36.3994521' lon='148.5989403' />
  <node id='-107169' action='modify' visible='true' lat='-36.4082813' lon='148.5999233' />
  <node id='-107170' action='modify' visible='true' lat='-36.4080165' lon='148.6004731' />
  <node id='-107171' action='modify' visible='true' lat='-36.4077488' lon='148.6005268' />
  <node id='-107172' action='modify' visible='true' lat='-36.407602' lon='148.6004839' />
  <node id='-107173' action='modify' visible='true' lat='-36.4074895' lon='148.6005413' />
  <node id='-107174' action='modify' visible='true' lat='-36.4070661' lon='148.6005996' />
  <node id='-107175' action='modify' visible='true' lat='-36.4069119' lon='148.6007646' />
  <node id='-107176' action='modify' visible='true' lat='-36.4067455' lon='148.6008463' />
  <node id='-107177' action='modify' visible='true' lat='-36.4065113' lon='148.6007938' />
  <node id='-107178' action='modify' visible='true' lat='-36.4063627' lon='148.6009114' />
  <node id='-107179' action='modify' visible='true' lat='-36.4060907' lon='148.6009919' />
  <node id='-107180' action='modify' visible='true' lat='-36.4057874' lon='148.6010291' />
  <node id='-107181' action='modify' visible='true' lat='-36.4054788' lon='148.6009302' />
  <node id='-107182' action='modify' visible='true' lat='-36.4053557' lon='148.6008624' />
  <node id='-107183' action='modify' visible='true' lat='-36.4052351' lon='148.6006957' />
  <node id='-107184' action='modify' visible='true' lat='-36.4051454' lon='148.6005233' />
  <node id='-107185' action='modify' visible='true' lat='-36.4049887' lon='148.6001416' />
  <node id='-107186' action='modify' visible='true' lat='-36.4048509' lon='148.599975' />
  <node id='-107187' action='modify' visible='true' lat='-36.4047099' lon='148.5997505' />
  <node id='-107188' action='modify' visible='true' lat='-36.4045452' lon='148.5994968' />
  <node id='-107189' action='modify' visible='true' lat='-36.4044928' lon='148.5993209' />
  <node id='-107190' action='modify' visible='true' lat='-36.4043455' lon='148.5991419' />
  <node id='-107191' action='modify' visible='true' lat='-36.4041666' lon='148.5988864' />
  <node id='-107192' action='modify' visible='true' lat='-36.4041039' lon='148.5986566' />
  <node id='-107193' action='modify' visible='true' lat='-36.4040596' lon='148.5984561' />
  <node id='-107194' action='modify' visible='true' lat='-36.4039621' lon='148.5981584' />
  <node id='-107195' action='modify' visible='true' lat='-36.4037888' lon='148.5978545' />
  <node id='-107196' action='modify' visible='true' lat='-36.403578' lon='148.5976632' />
  <node id='-107197' action='modify' visible='true' lat='-36.4033592' lon='148.5976959' />
  <node id='-107198' action='modify' visible='true' lat='-36.4031832' lon='148.597717' />
  <node id='-107199' action='modify' visible='true' lat='-36.4030021' lon='148.5976518' />
  <node id='-107200' action='modify' visible='true' lat='-36.4027245' lon='148.5975299' />
  <node id='-107201' action='modify' visible='true' lat='-36.4027056' lon='148.5970686' />
  <node id='-107202' action='modify' visible='true' lat='-36.4026184' lon='148.5969584' />
  <node id='-107203' action='modify' visible='true' lat='-36.4022677' lon='148.5972074' />
  <node id='-107204' action='modify' visible='true' lat='-36.4019897' lon='148.5976518' />
  <node id='-107205' action='modify' visible='true' lat='-36.4017785' lon='148.5976779' />
  <node id='-107206' action='modify' visible='true' lat='-36.4016819' lon='148.5975378' />
  <node id='-107207' action='modify' visible='true' lat='-36.4016036' lon='148.5974412' />
  <node id='-107208' action='modify' visible='true' lat='-36.4015036' lon='148.5972961' />
  <node id='-107209' action='modify' visible='true' lat='-36.4011409' lon='148.5974516' />
  <node id='-107210' action='modify' visible='true' lat='-36.4007372' lon='148.5974832' />
  <node id='-107211' action='modify' visible='true' lat='-36.4007024' lon='148.5975502' />
  <node id='-107212' action='modify' visible='true' lat='-36.4007207' lon='148.5977058' />
  <node id='-107213' action='modify' visible='true' lat='-36.4006967' lon='148.5977232' />
  <node id='-107214' action='modify' visible='true' lat='-36.400666' lon='148.5977467' />
  <node id='-107215' action='modify' visible='true' lat='-36.4006012' lon='148.5983958' />
  <node id='-107216' action='modify' visible='true' lat='-36.400096' lon='148.5989376' />
  <node id='-107217' action='modify' visible='true' lat='-36.3999147' lon='148.5989698' />
  <node id='-107218' action='modify' visible='true' lat='-36.3996254' lon='148.5988249' />
  <way id='-106993' action='modify' visible='true'>
    <nd ref='-107142' />
    <nd ref='-107143' />
    <nd ref='-107144' />
    <nd ref='-107145' />
    <nd ref='-107146' />
    <nd ref='-107147' />
    <nd ref='-107148' />
    <nd ref='-107149' />
    <nd ref='-107150' />
    <nd ref='-107151' />
    <nd ref='-107152' />
    <nd ref='-107153' />
    <nd ref='-107154' />
    <nd ref='-107155' />
    <nd ref='-107156' />
    <nd ref='-107157' />
    <nd ref='-107158' />
    <nd ref='-107159' />
    <nd ref='-107160' />
    <nd ref='-107161' />
    <tag k='role' v='sidetrack' />
    <tag k='style' v='return' />
  </way>
  <way id='-106995' action='modify' visible='true'>
    <nd ref='-107169' />
    <nd ref='-107170' />
    <nd ref='-107171' />
    <nd ref='-107172' />
    <nd ref='-107173' />
    <nd ref='-107174' />
    <nd ref='-107175' />
    <nd ref='-107176' />
    <nd ref='-107177' />
    <nd ref='-107178' />
    <nd ref='-107179' />
    <nd ref='-107180' />
    <nd ref='-107181' />
    <nd ref='-107142' />
    <nd ref='-107182' />
    <nd ref='-107183' />
    <nd ref='-107184' />
    <nd ref='-107185' />
    <nd ref='-107186' />
    <nd ref='-107187' />
    <nd ref='-107188' />
    <nd ref='-107189' />
    <nd ref='-107190' />
    <nd ref='-107191' />
    <nd ref='-107192' />
    <nd ref='-107193' />
    <nd ref='-107194' />
    <nd ref='-107195' />
    <nd ref='-107196' />
    <nd ref='-107197' />
    <nd ref='-107198' />
    <nd ref='-107199' />
    <nd ref='-107200' />
    <nd ref='-107201' />
    <nd ref='-107202' />
    <nd ref='-107203' />
    <nd ref='-107204' />
    <nd ref='-107205' />
    <nd ref='-107206' />
    <nd ref='-107207' />
    <nd ref='-107208' />
    <nd ref='-107209' />
    <nd ref='-107210' />
    <nd ref='-107211' />
    <nd ref='-107212' />
    <nd ref='-107213' />
    <nd ref='-107214' />
    <nd ref='-107215' />
    <nd ref='-107216' />
    <nd ref='-107217' />
    <nd ref='-107218' />
    <nd ref='-107168' />
    <nd ref='-106996' />
    <nd ref='-106997' />
    <nd ref='-106998' />
    <nd ref='-106999' />
    <nd ref='-107000' />
    <nd ref='-107001' />
    <nd ref='-107002' />
    <nd ref='-107003' />
    <nd ref='-107004' />
    <nd ref='-107005' />
    <nd ref='-107006' />
    <nd ref='-107007' />
    <nd ref='-107008' />
    <nd ref='-107009' />
    <nd ref='-107010' />
    <nd ref='-107011' />
    <nd ref='-107012' />
    <nd ref='-107013' />
    <nd ref='-107014' />
    <nd ref='-107015' />
    <nd ref='-107016' />
    <nd ref='-107017' />
    <nd ref='-107018' />
    <nd ref='-107019' />
    <nd ref='-107020' />
    <nd ref='-107021' />
    <nd ref='-107022' />
    <nd ref='-107023' />
    <nd ref='-107024' />
    <nd ref='-107025' />
    <nd ref='-107026' />
    <nd ref='-107027' />
    <nd ref='-107028' />
    <nd ref='-107029' />
    <nd ref='-107030' />
    <nd ref='-107031' />
    <nd ref='-107032' />
    <nd ref='-107033' />
    <nd ref='-107034' />
    <nd ref='-107035' />
    <nd ref='-107036' />
    <nd ref='-107037' />
    <nd ref='-107038' />
    <nd ref='-107039' />
    <nd ref='-107040' />
    <nd ref='-107041' />
    <nd ref='-107042' />
    <nd ref='-107043' />
    <nd ref='-107044' />
    <nd ref='-107045' />
    <nd ref='-107046' />
    <nd ref='-107047' />
    <nd ref='-107048' />
    <nd ref='-107049' />
    <nd ref='-107050' />
    <nd ref='-107051' />
    <nd ref='-107052' />
    <nd ref='-107053' />
    <nd ref='-107054' />
    <nd ref='-107055' />
    <nd ref='-107056' />
    <nd ref='-107057' />
    <nd ref='-107058' />
    <nd ref='-107059' />
    <nd ref='-107060' />
    <nd ref='-107061' />
    <nd ref='-107062' />
    <nd ref='-107063' />
    <nd ref='-107064' />
    <nd ref='-107065' />
    <nd ref='-107066' />
    <nd ref='-107067' />
    <nd ref='-107068' />
    <nd ref='-107069' />
    <nd ref='-107070' />
    <nd ref='-107071' />
    <nd ref='-107072' />
    <nd ref='-107073' />
    <nd ref='-107074' />
    <nd ref='-107075' />
    <nd ref='-107076' />
    <nd ref='-107077' />
    <nd ref='-107078' />
    <nd ref='-107079' />
    <nd ref='-107080' />
    <nd ref='-107081' />
    <nd ref='-107082' />
    <nd ref='-107083' />
    <nd ref='-107084' />
    <nd ref='-107085' />
    <nd ref='-107086' />
    <nd ref='-107087' />
    <nd ref='-107088' />
    <nd ref='-107089' />
    <nd ref='-107090' />
    <nd ref='-107091' />
    <nd ref='-107092' />
    <nd ref='-107093' />
    <nd ref='-107094' />
    <nd ref='-107095' />
    <nd ref='-107096' />
    <nd ref='-107097' />
    <nd ref='-107098' />
    <nd ref='-107099' />
    <nd ref='-107100' />
    <nd ref='-107101' />
    <nd ref='-107102' />
    <nd ref='-107103' />
    <nd ref='-107104' />
    <nd ref='-107105' />
    <nd ref='-107106' />
    <nd ref='-107107' />
    <nd ref='-107108' />
    <nd ref='-107109' />
    <nd ref='-107110' />
    <nd ref='-107111' />
    <nd ref='-107112' />
    <nd ref='-107113' />
    <nd ref='-107114' />
    <nd ref='-107115' />
    <nd ref='-107116' />
    <nd ref='-107117' />
    <nd ref='-107118' />
    <nd ref='-107119' />
    <nd ref='-107120' />
    <nd ref='-107121' />
    <nd ref='-107122' />
    <nd ref='-107123' />
    <nd ref='-107124' />
    <nd ref='-107125' />
    <nd ref='-107126' />
    <nd ref='-107127' />
    <nd ref='-107128' />
    <nd ref='-107129' />
    <nd ref='-107130' />
    <nd ref='-107131' />
    <nd ref='-107132' />
    <nd ref='-107133' />
    <nd ref='-107134' />
    <nd ref='-107135' />
    <nd ref='-107136' />
    <nd ref='-107137' />
    <nd ref='-107138' />
    <tag k='name' v='Hatchery Link' />
    <tag k='photo' v='136319147@N08/32496932917' />
    <tag k='role' v='primary' />
    <tag k='style' v='return' />
    <tag k='transport' v='car' />
  </way>
</osm>
