<?xml version='1.0' encoding='UTF-8'?>
<osm version='0.6' upload='false' generator='JOSM'>
  <node id='-103414' action='modify' visible='true' lat='-34.1344459' lon='146.1986846' />
  <node id='-103415' action='modify' visible='true' lat='-34.1343038' lon='146.1990815' />
  <node id='-103416' action='modify' visible='true' lat='-34.1341528' lon='146.1992961' />
  <node id='-103417' action='modify' visible='true' lat='-34.1340551' lon='146.1993712' />
  <node id='-103418' action='modify' visible='true' lat='-34.1340204' lon='146.1993551' />
  <node id='-103419' action='modify' visible='true' lat='-34.1339397' lon='146.1993176' />
  <node id='-103420' action='modify' visible='true' lat='-34.1338153' lon='146.1991674' />
  <node id='-103421' action='modify' visible='true' lat='-34.1335489' lon='146.1990279' />
  <node id='-103422' action='modify' visible='true' lat='-34.133247' lon='146.1989528' />
  <node id='-103423' action='modify' visible='true' lat='-34.1331848' lon='146.1988455' />
  <node id='-103424' action='modify' visible='true' lat='-34.1330782' lon='146.1988777' />
  <node id='-103425' action='modify' visible='true' lat='-34.1328562' lon='146.199221' />
  <node id='-103426' action='modify' visible='true' lat='-34.1325454' lon='146.1993176' />
  <node id='-103427' action='modify' visible='true' lat='-34.1322879' lon='146.199339' />
  <node id='-103428' action='modify' visible='true' lat='-34.132128' lon='146.1994356' />
  <node id='-103429' action='modify' visible='true' lat='-34.1319859' lon='146.1997467' />
  <node id='-103430' action='modify' visible='true' lat='-34.1319859' lon='146.1999506' />
  <node id='-103431' action='modify' visible='true' lat='-34.1318882' lon='146.2001008' />
  <node id='-103432' action='modify' visible='true' lat='-34.1316218' lon='146.2004441' />
  <node id='-103433' action='modify' visible='true' lat='-34.1314353' lon='146.201002' />
  <node id='-103434' action='modify' visible='true' lat='-34.1312755' lon='146.2015706' />
  <node id='-103435' action='modify' visible='true' lat='-34.1314531' lon='146.2017101' />
  <node id='-103436' action='modify' visible='true' lat='-34.131977' lon='146.2019247' />
  <node id='-103437' action='modify' visible='true' lat='-34.132128' lon='146.2019032' />
  <node id='-103438' action='modify' visible='true' lat='-34.1325454' lon='146.2022251' />
  <node id='-103439' action='modify' visible='true' lat='-34.1326431' lon='146.2025469' />
  <node id='-103440' action='modify' visible='true' lat='-34.1326253' lon='146.2029546' />
  <node id='-103441' action='modify' visible='true' lat='-34.1327408' lon='146.2030941' />
  <node id='-103442' action='modify' visible='true' lat='-34.132874' lon='146.2033516' />
  <node id='-103443' action='modify' visible='true' lat='-34.1329095' lon='146.2035769' />
  <node id='-103444' action='modify' visible='true' lat='-34.1327585' lon='146.2037915' />
  <node id='-103445' action='modify' visible='true' lat='-34.1326076' lon='146.2038988' />
  <node id='-103446' action='modify' visible='true' lat='-34.1325809' lon='146.2041455' />
  <node id='-103447' action='modify' visible='true' lat='-34.1325188' lon='146.2045318' />
  <node id='-103448' action='modify' visible='true' lat='-34.1325632' lon='146.2048' />
  <node id='-103449' action='modify' visible='true' lat='-34.1327319' lon='146.205197' />
  <node id='-103450' action='modify' visible='true' lat='-34.1325188' lon='146.2052935' />
  <node id='-103451' action='modify' visible='true' lat='-34.1324122' lon='146.205433' />
  <node id='-103452' action='modify' visible='true' lat='-34.1321991' lon='146.2054223' />
  <node id='-103453' action='modify' visible='true' lat='-34.1318349' lon='146.2056047' />
  <node id='-103454' action='modify' visible='true' lat='-34.1317017' lon='146.2059051' />
  <node id='-103455' action='modify' visible='true' lat='-34.1316396' lon='146.2061626' />
  <node id='-103456' action='modify' visible='true' lat='-34.1315863' lon='146.206581' />
  <node id='-103457' action='modify' visible='true' lat='-34.1314708' lon='146.2069458' />
  <node id='-103458' action='modify' visible='true' lat='-34.1314886' lon='146.2073856' />
  <node id='-103459' action='modify' visible='true' lat='-34.1315508' lon='146.2076324' />
  <node id='-103460' action='modify' visible='true' lat='-34.1316751' lon='146.2079328' />
  <node id='-103461' action='modify' visible='true' lat='-34.1318083' lon='146.2077504' />
  <node id='-103462' action='modify' visible='true' lat='-34.1318971' lon='146.2075573' />
  <node id='-103463' action='modify' visible='true' lat='-34.1319948' lon='146.2078577' />
  <node id='-103464' action='modify' visible='true' lat='-34.1321014' lon='146.2080294' />
  <node id='-103465' action='modify' visible='true' lat='-34.1322257' lon='146.2078899' />
  <node id='-103466' action='modify' visible='true' lat='-34.1323767' lon='146.2076539' />
  <node id='-103467' action='modify' visible='true' lat='-34.1325188' lon='146.2074286' />
  <node id='-103468' action='modify' visible='true' lat='-34.1325235' lon='146.2074241' />
  <node id='-103469' action='modify' visible='true' lat='-34.1326431' lon='146.2073105' />
  <node id='-103470' action='modify' visible='true' lat='-34.1326431' lon='146.2069994' />
  <node id='-103471' action='modify' visible='true' lat='-34.1326431' lon='146.2067526' />
  <node id='-103472' action='modify' visible='true' lat='-34.1327319' lon='146.206302' />
  <node id='-103473' action='modify' visible='true' lat='-34.1329628' lon='146.2059802' />
  <node id='-103474' action='modify' visible='true' lat='-34.1330427' lon='146.2057549' />
  <node id='-103475' action='modify' visible='true' lat='-34.1331493' lon='146.205315' />
  <node id='-103476' action='modify' visible='true' lat='-34.1332825' lon='146.2047893' />
  <node id='-103477' action='modify' visible='true' lat='-34.133318' lon='146.2045318' />
  <node id='-103478' action='modify' visible='true' lat='-34.1334512' lon='146.2042636' />
  <node id='-103479' action='modify' visible='true' lat='-34.1334956' lon='146.2039095' />
  <node id='-103480' action='modify' visible='true' lat='-34.1333891' lon='146.2035984' />
  <node id='-103481' action='modify' visible='true' lat='-34.1333535' lon='146.2027722' />
  <node id='-103482' action='modify' visible='true' lat='-34.13328' lon='146.2026612' />
  <node id='-103483' action='modify' visible='true' lat='-34.1331404' lon='146.2024504' />
  <node id='-103484' action='modify' visible='true' lat='-34.1330605' lon='146.2021929' />
  <node id='-103485' action='modify' visible='true' lat='-34.1331226' lon='146.2019247' />
  <node id='-103486' action='modify' visible='true' lat='-34.1331493' lon='146.2017852' />
  <node id='-103487' action='modify' visible='true' lat='-34.1332292' lon='146.2014526' />
  <node id='-103488' action='modify' visible='true' lat='-34.1334157' lon='146.200884' />
  <node id='-103489' action='modify' visible='true' lat='-34.1334779' lon='146.2003583' />
  <node id='-103490' action='modify' visible='true' lat='-34.13362' lon='146.2000042' />
  <node id='-103491' action='modify' visible='true' lat='-34.1337176' lon='146.1997253' />
  <node id='-103492' action='modify' visible='true' lat='-34.1340179' lon='146.1994103' />
  <node id='-103509' action='modify' visible='true' lat='-34.13443353265' lon='146.19867813722' />
  <node id='-103510' action='modify' visible='true' lat='-34.1340478666' lon='146.19935746517' />
  <node id='-103512' action='modify' visible='true' lat='-34.13429223099' lon='146.19907280731' />
  <node id='-103513' action='modify' visible='true' lat='-34.13414385072' lon='146.19928368415' />
  <way id='-103502' action='modify' visible='true'>
    <nd ref='-103509' />
    <nd ref='-103512' />
    <nd ref='-103513' />
    <nd ref='-103510' />
    <nd ref='-103418' />
    <nd ref='-103419' />
    <nd ref='-103420' />
    <nd ref='-103421' />
    <nd ref='-103422' />
    <nd ref='-103423' />
    <nd ref='-103424' />
    <nd ref='-103425' />
    <nd ref='-103426' />
    <nd ref='-103427' />
    <nd ref='-103428' />
    <nd ref='-103429' />
    <nd ref='-103430' />
    <nd ref='-103431' />
    <nd ref='-103432' />
    <nd ref='-103433' />
    <nd ref='-103434' />
    <nd ref='-103435' />
    <nd ref='-103436' />
    <nd ref='-103437' />
    <nd ref='-103438' />
    <nd ref='-103439' />
    <nd ref='-103440' />
    <nd ref='-103441' />
    <nd ref='-103442' />
    <nd ref='-103443' />
    <nd ref='-103444' />
    <nd ref='-103445' />
    <nd ref='-103446' />
    <nd ref='-103447' />
    <nd ref='-103448' />
    <nd ref='-103449' />
    <nd ref='-103450' />
    <nd ref='-103451' />
    <nd ref='-103452' />
    <nd ref='-103453' />
    <nd ref='-103454' />
    <nd ref='-103455' />
    <nd ref='-103456' />
    <nd ref='-103457' />
    <nd ref='-103458' />
    <nd ref='-103459' />
    <nd ref='-103460' />
    <nd ref='-103461' />
    <nd ref='-103462' />
    <nd ref='-103463' />
    <nd ref='-103464' />
    <nd ref='-103465' />
    <nd ref='-103466' />
    <nd ref='-103467' />
    <nd ref='-103468' />
    <nd ref='-103469' />
    <nd ref='-103470' />
    <nd ref='-103471' />
    <nd ref='-103472' />
    <nd ref='-103473' />
    <nd ref='-103474' />
    <nd ref='-103475' />
    <nd ref='-103476' />
    <nd ref='-103477' />
    <nd ref='-103478' />
    <nd ref='-103479' />
    <nd ref='-103480' />
    <nd ref='-103481' />
    <nd ref='-103482' />
    <nd ref='-103483' />
    <nd ref='-103484' />
    <nd ref='-103485' />
    <nd ref='-103486' />
    <nd ref='-103487' />
    <nd ref='-103488' />
    <nd ref='-103489' />
    <nd ref='-103490' />
    <nd ref='-103491' />
    <nd ref='-103492' />
    <nd ref='-103417' />
    <nd ref='-103416' />
    <nd ref='-103415' />
    <nd ref='-103414' />
    <tag k='name' v='Jacks Creek' />
    <tag k='park' v='Cocoparra National Park' />
    <tag k='role' v='primary' />
    <tag k='style' v='loop' />
    <tag k='transport' v='car' />
  </way>
</osm>
