<?xml version='1.0' encoding='UTF-8'?>
<osm version='0.6' upload='false' generator='JOSM'>
  <node id='-110646' action='modify' visible='true' lat='-30.2829388' lon='150.0856614' />
  <node id='-110647' action='modify' visible='true' lat='-30.2828977' lon='150.085724' />
  <node id='-110648' action='modify' visible='true' lat='-30.2830763' lon='150.0861594' />
  <node id='-110649' action='modify' visible='true' lat='-30.283127' lon='150.0861739' />
  <node id='-110650' action='modify' visible='true' lat='-30.2832644' lon='150.0860762' />
  <node id='-110651' action='modify' visible='true' lat='-30.2833329' lon='150.0860566' />
  <node id='-110652' action='modify' visible='true' lat='-30.283463' lon='150.0861075' />
  <node id='-110653' action='modify' visible='true' lat='-30.2835006' lon='150.085999' />
  <node id='-110654' action='modify' visible='true' lat='-30.2835122' lon='150.085899' />
  <node id='-110655' action='modify' visible='true' lat='-30.283563' lon='150.0857207' />
  <node id='-110656' action='modify' visible='true' lat='-30.2835491' lon='150.0856352' />
  <node id='-110657' action='modify' visible='true' lat='-30.2836336' lon='150.0853184' />
  <node id='-110658' action='modify' visible='true' lat='-30.2836649' lon='150.0852687' />
  <node id='-110659' action='modify' visible='true' lat='-30.2837134' lon='150.0852831' />
  <node id='-110660' action='modify' visible='true' lat='-30.2838684' lon='150.0853646' />
  <node id='-110661' action='modify' visible='true' lat='-30.2840844' lon='150.0852722' />
  <node id='-110662' action='modify' visible='true' lat='-30.2841228' lon='150.0852266' />
  <node id='-110663' action='modify' visible='true' lat='-30.2841361' lon='150.0851417' />
  <node id='-110664' action='modify' visible='true' lat='-30.2842699' lon='150.0850003' />
  <node id='-110665' action='modify' visible='true' lat='-30.2843106' lon='150.0848513' />
  <node id='-110666' action='modify' visible='true' lat='-30.2842652' lon='150.0846604' />
  <node id='-110667' action='modify' visible='true' lat='-30.2842723' lon='150.0844483' />
  <node id='-110668' action='modify' visible='true' lat='-30.2842863' lon='150.084413' />
  <node id='-110669' action='modify' visible='true' lat='-30.2842699' lon='150.0843069' />
  <node id='-110670' action='modify' visible='true' lat='-30.2842707' lon='150.0841729' />
  <node id='-110671' action='modify' visible='true' lat='-30.2841924' lon='150.0840513' />
  <node id='-110672' action='modify' visible='true' lat='-30.2841596' lon='150.0838746' />
  <node id='-110673' action='modify' visible='true' lat='-30.2841721' lon='150.0837651' />
  <node id='-110674' action='modify' visible='true' lat='-30.2842417' lon='150.0837441' />
  <node id='-110675' action='modify' visible='true' lat='-30.2842934' lon='150.0837468' />
  <node id='-110676' action='modify' visible='true' lat='-30.2843764' lon='150.0836998' />
  <node id='-110677' action='modify' visible='true' lat='-30.2843779' lon='150.0835864' />
  <node id='-110678' action='modify' visible='true' lat='-30.2844061' lon='150.0834994' />
  <node id='-110679' action='modify' visible='true' lat='-30.2843803' lon='150.0834178' />
  <node id='-110680' action='modify' visible='true' lat='-30.2843928' lon='150.0833042' />
  <node id='-110681' action='modify' visible='true' lat='-30.2844272' lon='150.083222' />
  <node id='-110682' action='modify' visible='true' lat='-30.2847606' lon='150.0829664' />
  <node id='-110683' action='modify' visible='true' lat='-30.2848154' lon='150.0829521' />
  <node id='-110684' action='modify' visible='true' lat='-30.2848334' lon='150.082893' />
  <node id='-110685' action='modify' visible='true' lat='-30.2849227' lon='150.0828631' />
  <node id='-110686' action='modify' visible='true' lat='-30.2849915' lon='150.0829113' />
  <node id='-110687' action='modify' visible='true' lat='-30.2850917' lon='150.0828495' />
  <node id='-110688' action='modify' visible='true' lat='-30.2851575' lon='150.0828713' />
  <node id='-110689' action='modify' visible='true' lat='-30.2852866' lon='150.0828658' />
  <node id='-110690' action='modify' visible='true' lat='-30.28535' lon='150.0829039' />
  <node id='-110691' action='modify' visible='true' lat='-30.285433' lon='150.0829167' />
  <node id='-110692' action='modify' visible='true' lat='-30.2855003' lon='150.0828414' />
  <node id='-110693' action='modify' visible='true' lat='-30.2855707' lon='150.0828468' />
  <node id='-110694' action='modify' visible='true' lat='-30.2855942' lon='150.0829284' />
  <node id='-110695' action='modify' visible='true' lat='-30.2856372' lon='150.0829439' />
  <node id='-110696' action='modify' visible='true' lat='-30.2858478' lon='150.0826864' />
  <node id='-110697' action='modify' visible='true' lat='-30.2858767' lon='150.0826095' />
  <node id='-110698' action='modify' visible='true' lat='-30.285998' lon='150.0825694' />
  <node id='-110699' action='modify' visible='true' lat='-30.2860614' lon='150.0825667' />
  <node id='-110700' action='modify' visible='true' lat='-30.2861272' lon='150.0825178' />
  <node id='-110701' action='modify' visible='true' lat='-30.286207' lon='150.0824987' />
  <node id='-110702' action='modify' visible='true' lat='-30.2863792' lon='150.0822451' />
  <node id='-110703' action='modify' visible='true' lat='-30.2864958' lon='150.0822078' />
  <node id='-110704' action='modify' visible='true' lat='-30.2866132' lon='150.0821942' />
  <node id='-110705' action='modify' visible='true' lat='-30.2866778' lon='150.0821629' />
  <node id='-110706' action='modify' visible='true' lat='-30.2868609' lon='150.0821711' />
  <node id='-110707' action='modify' visible='true' lat='-30.2869102' lon='150.0821086' />
  <node id='-110708' action='modify' visible='true' lat='-30.2869853' lon='150.0820691' />
  <node id='-110709' action='modify' visible='true' lat='-30.2870319' lon='150.0820711' />
  <node id='-110710' action='modify' visible='true' lat='-30.2871544' lon='150.08194' />
  <node id='-110711' action='modify' visible='true' lat='-30.2872198' lon='150.0818073' />
  <node id='-110712' action='modify' visible='true' lat='-30.2871544' lon='150.0815892' />
  <node id='-110713' action='modify' visible='true' lat='-30.2870648' lon='150.081462' />
  <node id='-110714' action='modify' visible='true' lat='-30.2869971' lon='150.081456' />
  <node id='-110715' action='modify' visible='true' lat='-30.2869196' lon='150.0813608' />
  <node id='-110716' action='modify' visible='true' lat='-30.2868934' lon='150.0812703' />
  <node id='-110717' action='modify' visible='true' lat='-30.2869243' lon='150.081195' />
  <node id='-110718' action='modify' visible='true' lat='-30.2868985' lon='150.0808741' />
  <node id='-110719' action='modify' visible='true' lat='-30.2869384' lon='150.0807409' />
  <node id='-110720' action='modify' visible='true' lat='-30.2869594' lon='150.0807028' />
  <node id='-110721' action='modify' visible='true' lat='-30.2869923' lon='150.0806875' />
  <node id='-110722' action='modify' visible='true' lat='-30.2828514' lon='150.0857605' />
  <node id='-110723' action='modify' visible='true' lat='-30.2828631' lon='150.0858278' />
  <node id='-110724' action='modify' visible='true' lat='-30.2828481' lon='150.0858663' />
  <node id='-110725' action='modify' visible='true' lat='-30.2828913' lon='150.0859528' />
  <node id='-110726' action='modify' visible='true' lat='-30.2829095' lon='150.0860355' />
  <node id='-110727' action='modify' visible='true' lat='-30.2828108' lon='150.0853814' />
  <node id='-110728' action='modify' visible='true' lat='-30.2828714' lon='150.0854395' />
  <node id='-110729' action='modify' visible='true' lat='-30.2829378' lon='150.0856125' />
  <node id='-110730' action='modify' visible='true' lat='-30.2792731' lon='150.0842822' />
  <node id='-110731' action='modify' visible='true' lat='-30.2793101' lon='150.084399' />
  <node id='-110732' action='modify' visible='true' lat='-30.2795634' lon='150.0844187' />
  <node id='-110733' action='modify' visible='true' lat='-30.2796432' lon='150.0844867' />
  <node id='-110734' action='modify' visible='true' lat='-30.2798005' lon='150.0844377' />
  <node id='-110735' action='modify' visible='true' lat='-30.2799485' lon='150.0844405' />
  <node id='-110736' action='modify' visible='true' lat='-30.2800212' lon='150.0843779' />
  <node id='-110737' action='modify' visible='true' lat='-30.2801011' lon='150.084348' />
  <node id='-110738' action='modify' visible='true' lat='-30.2801977' lon='150.0841738' />
  <node id='-110739' action='modify' visible='true' lat='-30.2802608' lon='150.0841577' />
  <node id='-110740' action='modify' visible='true' lat='-30.2803922' lon='150.0842637' />
  <node id='-110741' action='modify' visible='true' lat='-30.2807092' lon='150.0842066' />
  <node id='-110742' action='modify' visible='true' lat='-30.2810568' lon='150.0842338' />
  <node id='-110743' action='modify' visible='true' lat='-30.2811596' lon='150.0842186' />
  <node id='-110744' action='modify' visible='true' lat='-30.2820218' lon='150.0848075' />
  <node id='-110745' action='modify' visible='true' lat='-30.2820923' lon='150.0849598' />
  <node id='-110746' action='modify' visible='true' lat='-30.2823636' lon='150.0850376' />
  <node id='-110747' action='modify' visible='true' lat='-30.2824231' lon='150.0851165' />
  <node id='-110748' action='modify' visible='true' lat='-30.2824961' lon='150.0851703' />
  <node id='-110749' action='modify' visible='true' lat='-30.2825725' lon='150.0852587' />
  <node id='-110750' action='modify' visible='true' lat='-30.2827551' lon='150.0853279' />
  <way id='-110645' action='modify' visible='true'>
    <nd ref='-110730' />
    <nd ref='-110731' />
    <nd ref='-110732' />
    <nd ref='-110733' />
    <nd ref='-110734' />
    <nd ref='-110735' />
    <nd ref='-110736' />
    <nd ref='-110737' />
    <nd ref='-110738' />
    <nd ref='-110739' />
    <nd ref='-110740' />
    <nd ref='-110741' />
    <nd ref='-110742' />
    <nd ref='-110743' />
    <nd ref='-110744' />
    <nd ref='-110745' />
    <nd ref='-110746' />
    <nd ref='-110747' />
    <nd ref='-110748' />
    <nd ref='-110749' />
    <nd ref='-110750' />
    <nd ref='-110727' />
    <nd ref='-110728' />
    <nd ref='-110729' />
    <nd ref='-110646' />
    <nd ref='-110647' />
    <nd ref='-110722' />
    <nd ref='-110723' />
    <nd ref='-110724' />
    <nd ref='-110725' />
    <nd ref='-110726' />
    <nd ref='-110648' />
    <nd ref='-110649' />
    <nd ref='-110650' />
    <nd ref='-110651' />
    <nd ref='-110652' />
    <nd ref='-110653' />
    <nd ref='-110654' />
    <nd ref='-110655' />
    <nd ref='-110656' />
    <nd ref='-110657' />
    <nd ref='-110658' />
    <nd ref='-110659' />
    <nd ref='-110660' />
    <nd ref='-110661' />
    <nd ref='-110662' />
    <nd ref='-110663' />
    <nd ref='-110664' />
    <nd ref='-110665' />
    <nd ref='-110666' />
    <nd ref='-110667' />
    <nd ref='-110668' />
    <nd ref='-110669' />
    <nd ref='-110670' />
    <nd ref='-110671' />
    <nd ref='-110672' />
    <nd ref='-110673' />
    <nd ref='-110674' />
    <nd ref='-110675' />
    <nd ref='-110676' />
    <nd ref='-110677' />
    <nd ref='-110678' />
    <nd ref='-110679' />
    <nd ref='-110680' />
    <nd ref='-110681' />
    <nd ref='-110682' />
    <nd ref='-110683' />
    <nd ref='-110684' />
    <nd ref='-110685' />
    <nd ref='-110686' />
    <nd ref='-110687' />
    <nd ref='-110688' />
    <nd ref='-110689' />
    <nd ref='-110690' />
    <nd ref='-110691' />
    <nd ref='-110692' />
    <nd ref='-110693' />
    <nd ref='-110694' />
    <nd ref='-110695' />
    <nd ref='-110696' />
    <nd ref='-110697' />
    <nd ref='-110698' />
    <nd ref='-110699' />
    <nd ref='-110700' />
    <nd ref='-110701' />
    <nd ref='-110702' />
    <nd ref='-110703' />
    <nd ref='-110704' />
    <nd ref='-110705' />
    <nd ref='-110706' />
    <nd ref='-110707' />
    <nd ref='-110708' />
    <nd ref='-110709' />
    <nd ref='-110710' />
    <nd ref='-110711' />
    <nd ref='-110712' />
    <nd ref='-110713' />
    <nd ref='-110714' />
    <nd ref='-110715' />
    <nd ref='-110716' />
    <nd ref='-110717' />
    <nd ref='-110718' />
    <nd ref='-110719' />
    <nd ref='-110720' />
    <nd ref='-110721' />
    <tag k='name' v='Mount Yulludunida' />
    <tag k='park' v='Mount Kaputar National Park' />
    <tag k='role' v='primary' />
    <tag k='style' v='return' />
    <tag k='transport' v='car' />
  </way>
</osm>
