<?xml version='1.0' encoding='UTF-8'?>
<osm version='0.6' upload='false' generator='JOSM'>
  <node id='-118284' action='modify' visible='true' lat='-28.2227407' lon='153.2776051' />
  <node id='-118285' action='modify' visible='true' lat='-28.2227308' lon='153.2775634' />
  <node id='-118286' action='modify' visible='true' lat='-28.2226791' lon='153.2776459' />
  <node id='-118287' action='modify' visible='true' lat='-28.2227078' lon='153.2776465' />
  <node id='-118288' action='modify' visible='true' lat='-28.2247082' lon='153.2737188' />
  <node id='-118289' action='modify' visible='true' lat='-28.2247026' lon='153.2739168' />
  <node id='-118290' action='modify' visible='true' lat='-28.2247787' lon='153.27357' />
  <node id='-118291' action='modify' visible='true' lat='-28.2247452' lon='153.27366' />
  <node id='-118292' action='modify' visible='true' lat='-28.2248096' lon='153.2734225' />
  <node id='-118293' action='modify' visible='true' lat='-28.2247948' lon='153.2735026' />
  <node id='-118294' action='modify' visible='true' lat='-28.2248505' lon='153.2731545' />
  <node id='-118295' action='modify' visible='true' lat='-28.2248418' lon='153.2733677' />
  <node id='-118296' action='modify' visible='true' lat='-28.2248134' lon='153.2729657' />
  <node id='-118297' action='modify' visible='true' lat='-28.2248356' lon='153.273088' />
  <node id='-118298' action='modify' visible='true' lat='-28.2247873' lon='153.2727536' />
  <node id='-118299' action='modify' visible='true' lat='-28.2247873' lon='153.2728548' />
  <node id='-118300' action='modify' visible='true' lat='-28.224775' lon='153.2726496' />
  <node id='-118301' action='modify' visible='true' lat='-28.2247774' lon='153.2727044' />
  <node id='-118302' action='modify' visible='true' lat='-28.2248653' lon='153.2725442' />
  <node id='-118303' action='modify' visible='true' lat='-28.2247985' lon='153.2726075' />
  <node id='-118304' action='modify' visible='true' lat='-28.2249124' lon='153.2724459' />
  <node id='-118305' action='modify' visible='true' lat='-28.2248938' lon='153.2724979' />
  <node id='-118306' action='modify' visible='true' lat='-28.2250238' lon='153.2723377' />
  <node id='-118307' action='modify' visible='true' lat='-28.2249545' lon='153.2723883' />
  <node id='-118308' action='modify' visible='true' lat='-28.2250758' lon='153.272259' />
  <node id='-118309' action='modify' visible='true' lat='-28.2250498' lon='153.2723082' />
  <node id='-118310' action='modify' visible='true' lat='-28.2250808' lon='153.2721662' />
  <node id='-118311' action='modify' visible='true' lat='-28.2250857' lon='153.2722112' />
  <node id='-118312' action='modify' visible='true' lat='-28.2249817' lon='153.2720173' />
  <node id='-118313' action='modify' visible='true' lat='-28.2250585' lon='153.2721143' />
  <node id='-118314' action='modify' visible='true' lat='-28.2249433' lon='153.2719232' />
  <node id='-118315' action='modify' visible='true' lat='-28.2249669' lon='153.2719794' />
  <node id='-118316' action='modify' visible='true' lat='-28.2248592' lon='153.2718093' />
  <node id='-118317' action='modify' visible='true' lat='-28.2248938' lon='153.2718698' />
  <node id='-118318' action='modify' visible='true' lat='-28.2247985' lon='153.2717138' />
  <node id='-118319' action='modify' visible='true' lat='-28.2248232' lon='153.2717728' />
  <node id='-118320' action='modify' visible='true' lat='-28.224709' lon='153.2713583' />
  <node id='-118321' action='modify' visible='true' lat='-28.2247363' lon='153.2715181' />
  <node id='-118322' action='modify' visible='true' lat='-28.2235901' lon='153.2731503' />
  <node id='-118323' action='modify' visible='true' lat='-28.2247389' lon='153.2711012' />
  <node id='-118324' action='modify' visible='true' lat='-28.2241478' lon='153.2733279' />
  <node id='-118325' action='modify' visible='true' lat='-28.2238753' lon='153.2731394' />
  <node id='-118326' action='modify' visible='true' lat='-28.2245642' lon='153.2735535' />
  <node id='-118327' action='modify' visible='true' lat='-28.2243527' lon='153.2734662' />
  <node id='-118328' action='modify' visible='true' lat='-28.2246177' lon='153.2737985' />
  <node id='-118329' action='modify' visible='true' lat='-28.2246222' lon='153.2736298' />
  <node id='-118330' action='modify' visible='true' lat='-28.2246617' lon='153.2741274' />
  <node id='-118331' action='modify' visible='true' lat='-28.2246983' lon='153.2740336' />
  <node id='-118332' action='modify' visible='true' lat='-28.2233038' lon='153.2764884' />
  <node id='-118333' action='modify' visible='true' lat='-28.22345' lon='153.2763772' />
  <node id='-118334' action='modify' visible='true' lat='-28.2229621' lon='153.2767262' />
  <node id='-118335' action='modify' visible='true' lat='-28.2231469' lon='153.2765886' />
  <node id='-118336' action='modify' visible='true' lat='-28.2227316' lon='153.2774696' />
  <node id='-118337' action='modify' visible='true' lat='-28.2227978' lon='153.2770338' />
  <node id='-118338' action='modify' visible='true' lat='-28.2240144' lon='153.2746052' />
  <node id='-118339' action='modify' visible='true' lat='-28.2246073' lon='153.2742229' />
  <node id='-118340' action='modify' visible='true' lat='-28.2238743' lon='153.2751099' />
  <node id='-118341' action='modify' visible='true' lat='-28.2238619' lon='153.2748992' />
  <node id='-118342' action='modify' visible='true' lat='-28.2241719' lon='153.2753277' />
  <node id='-118343' action='modify' visible='true' lat='-28.2239813' lon='153.2752185' />
  <node id='-118344' action='modify' visible='true' lat='-28.2242195' lon='153.2755409' />
  <node id='-118345' action='modify' visible='true' lat='-28.2242286' lon='153.2754058' />
  <node id='-118346' action='modify' visible='true' lat='-28.2242029' lon='153.2759466' />
  <node id='-118347' action='modify' visible='true' lat='-28.2242378' lon='153.2757906' />
  <node id='-118348' action='modify' visible='true' lat='-28.2240371' lon='153.2761392' />
  <node id='-118349' action='modify' visible='true' lat='-28.2241217' lon='153.2759714' />
  <node id='-118350' action='modify' visible='true' lat='-28.2239947' lon='153.2761391' />
  <node id='-118351' action='modify' visible='true' lat='-28.2240529' lon='153.276019' />
  <node id='-118352' action='modify' visible='true' lat='-28.2238254' lon='153.2762057' />
  <node id='-118353' action='modify' visible='true' lat='-28.2239829' lon='153.2760305' />
  <node id='-118376' action='modify' visible='true' lat='-28.2142243' lon='153.2721063' />
  <node id='-118377' action='modify' visible='true' lat='-28.2141479' lon='153.2720451' />
  <node id='-118382' action='modify' visible='true' lat='-28.2221862' lon='153.278022' />
  <node id='-118383' action='modify' visible='true' lat='-28.2224218' lon='153.2777103' />
  <node id='-118384' action='modify' visible='true' lat='-28.2217597' lon='153.2785795' />
  <node id='-118385' action='modify' visible='true' lat='-28.2219974' lon='153.2781937' />
  <node id='-118386' action='modify' visible='true' lat='-28.2213753' lon='153.2789998' />
  <node id='-118387' action='modify' visible='true' lat='-28.2216243' lon='153.2787705' />
  <node id='-118388' action='modify' visible='true' lat='-28.2207553' lon='153.2797329' />
  <node id='-118389' action='modify' visible='true' lat='-28.2210768' lon='153.279203' />
  <node id='-118390' action='modify' visible='true' lat='-28.2202778' lon='153.2803206' />
  <node id='-118391' action='modify' visible='true' lat='-28.2204759' lon='153.2799705' />
  <node id='-118392' action='modify' visible='true' lat='-28.2198846' lon='153.2809886' />
  <node id='-118393' action='modify' visible='true' lat='-28.2201277' lon='153.2806339' />
  <node id='-118394' action='modify' visible='true' lat='-28.2198754' lon='153.2813613' />
  <node id='-118395' action='modify' visible='true' lat='-28.2198347' lon='153.2811922' />
  <node id='-118396' action='modify' visible='true' lat='-28.2209878' lon='153.2815853' />
  <node id='-118397' action='modify' visible='true' lat='-28.2206009' lon='153.2814447' />
  <node id='-118398' action='modify' visible='true' lat='-28.2214405' lon='153.2818004' />
  <node id='-118399' action='modify' visible='true' lat='-28.2212141' lon='153.2817324' />
  <node id='-118400' action='modify' visible='true' lat='-28.2218595' lon='153.2821844' />
  <node id='-118401' action='modify' visible='true' lat='-28.2216531' lon='153.2819965' />
  <node id='-118402' action='modify' visible='true' lat='-28.2223684' lon='153.2831572' />
  <node id='-118403' action='modify' visible='true' lat='-28.2222091' lon='153.282806' />
  <node id='-118404' action='modify' visible='true' lat='-28.2225747' lon='153.283737' />
  <node id='-118405' action='modify' visible='true' lat='-28.2224763' lon='153.2834302' />
  <node id='-118406' action='modify' visible='true' lat='-28.2226281' lon='153.2844813' />
  <node id='-118407' action='modify' visible='true' lat='-28.2226138' lon='153.2840452' />
  <node id='-118409' action='modify' visible='true' lat='-28.2225465' lon='153.2845949' />
  <node id='-118436' action='modify' visible='true' lat='-28.2141341' lon='153.2723629' />
  <node id='-118439' action='modify' visible='true' lat='-28.2141861' lon='153.2722066' />
  <node id='-118446' action='modify' visible='true' lat='-28.2150461' lon='153.2724335' />
  <node id='-118447' action='modify' visible='true' lat='-28.2145212' lon='153.2724054' />
  <node id='-118448' action='modify' visible='true' lat='-28.215708' lon='153.2728167' />
  <node id='-118449' action='modify' visible='true' lat='-28.215476' lon='153.2726023' />
  <node id='-118450' action='modify' visible='true' lat='-28.2166811' lon='153.2725916' />
  <node id='-118451' action='modify' visible='true' lat='-28.2160989' lon='153.272873' />
  <node id='-118452' action='modify' visible='true' lat='-28.2178437' lon='153.2728983' />
  <node id='-118453' action='modify' visible='true' lat='-28.2170608' lon='153.2726077' />
  <node id='-118454' action='modify' visible='true' lat='-28.2183058' lon='153.2730892' />
  <node id='-118455' action='modify' visible='true' lat='-28.2180898' lon='153.2730436' />
  <node id='-118456' action='modify' visible='true' lat='-28.2188438' lon='153.2730336' />
  <node id='-118457' action='modify' visible='true' lat='-28.2185841' lon='153.2730321' />
  <node id='-118458' action='modify' visible='true' lat='-28.2193709' lon='153.2729036' />
  <node id='-118459' action='modify' visible='true' lat='-28.2190455' lon='153.2729259' />
  <node id='-118460' action='modify' visible='true' lat='-28.2199046' lon='153.2726922' />
  <node id='-118461' action='modify' visible='true' lat='-28.2196871' lon='153.2727337' />
  <node id='-118462' action='modify' visible='true' lat='-28.2204151' lon='153.2729148' />
  <node id='-118463' action='modify' visible='true' lat='-28.2200723' lon='153.2727257' />
  <node id='-118464' action='modify' visible='true' lat='-28.2207832' lon='153.2729864' />
  <node id='-118465' action='modify' visible='true' lat='-28.2206253' lon='153.2730135' />
  <node id='-118466' action='modify' visible='true' lat='-28.2213017' lon='153.2728964' />
  <node id='-118467' action='modify' visible='true' lat='-28.2210573' lon='153.2729219' />
  <node id='-118468' action='modify' visible='true' lat='-28.2217685' lon='153.2729817' />
  <node id='-118469' action='modify' visible='true' lat='-28.2215044' lon='153.2729195' />
  <node id='-118470' action='modify' visible='true' lat='-28.2220786' lon='153.2730818' />
  <node id='-118471' action='modify' visible='true' lat='-28.2219327' lon='153.2729983' />
  <node id='-118472' action='modify' visible='true' lat='-28.2225794' lon='153.2731849' />
  <node id='-118473' action='modify' visible='true' lat='-28.2222859' lon='153.2730996' />
  <node id='-118474' action='modify' visible='true' lat='-28.2232266' lon='153.2733348' />
  <node id='-118475' action='modify' visible='true' lat='-28.2230675' lon='153.2733409' />
  <node id='-118476' action='modify' visible='true' lat='-28.2225051' lon='153.2847802' />
  <node id='-118477' action='modify' visible='true' lat='-28.2225276' lon='153.2846913' />
  <node id='-118478' action='modify' visible='true' lat='-28.2222433' lon='153.2851443' />
  <node id='-118479' action='modify' visible='true' lat='-28.222434' lon='153.2849138' />
  <node id='-118480' action='modify' visible='true' lat='-28.2217872' lon='153.2861663' />
  <node id='-118481' action='modify' visible='true' lat='-28.2220544' lon='153.2854766' />
  <node id='-118482' action='modify' visible='true' lat='-28.2212794' lon='153.2866239' />
  <node id='-118483' action='modify' visible='true' lat='-28.221572' lon='153.2864211' />
  <node id='-118484' action='modify' visible='true' lat='-28.2202043' lon='153.2875287' />
  <node id='-118485' action='modify' visible='true' lat='-28.2207092' lon='153.2869601' />
  <node id='-118486' action='modify' visible='true' lat='-28.219152' lon='153.2882498' />
  <node id='-118487' action='modify' visible='true' lat='-28.2195794' lon='153.2878605' />
  <node id='-118488' action='modify' visible='true' lat='-28.21922' lon='153.2886624' />
  <node id='-118489' action='modify' visible='true' lat='-28.2190617' lon='153.2884805' />
  <node id='-118490' action='modify' visible='true' lat='-28.2191594' lon='153.2889022' />
  <node id='-118491' action='modify' visible='true' lat='-28.2192537' lon='153.2887922' />
  <node id='-118492' action='modify' visible='true' lat='-28.2184237' lon='153.2890278' />
  <node id='-118493' action='modify' visible='true' lat='-28.218764' lon='153.2888966' />
  <node id='-118494' action='modify' visible='true' lat='-28.2177028' lon='153.2891601' />
  <node id='-118495' action='modify' visible='true' lat='-28.2181716' lon='153.2892167' />
  <node id='-118496' action='modify' visible='true' lat='-28.2173274' lon='153.2899764' />
  <node id='-118497' action='modify' visible='true' lat='-28.2173371' lon='153.2893796' />
  <node id='-118498' action='modify' visible='true' lat='-28.217131' lon='153.2905901' />
  <node id='-118499' action='modify' visible='true' lat='-28.2172142' lon='153.2903158' />
  <node id='-118500' action='modify' visible='true' lat='-28.2169495' lon='153.2909507' />
  <node id='-118501' action='modify' visible='true' lat='-28.2170624' lon='153.2907894' />
  <node id='-118502' action='modify' visible='true' lat='-28.2166948' lon='153.2911602' />
  <node id='-118503' action='modify' visible='true' lat='-28.2168137' lon='153.2910366' />
  <node id='-118504' action='modify' visible='true' lat='-28.2164673' lon='153.2910696' />
  <node id='-118505' action='modify' visible='true' lat='-28.2165791' lon='153.2913113' />
  <node id='-118506' action='modify' visible='true' lat='-28.2164083' lon='153.2915476' />
  <node id='-118507' action='modify' visible='true' lat='-28.2163797' lon='153.2913383' />
  <node id='-118508' action='modify' visible='true' lat='-28.2162726' lon='153.2919557' />
  <node id='-118509' action='modify' visible='true' lat='-28.2163841' lon='153.2918131' />
  <node id='-118510' action='modify' visible='true' lat='-28.2160858' lon='153.2923793' />
  <node id='-118511' action='modify' visible='true' lat='-28.2161816' lon='153.2922462' />
  <node id='-118512' action='modify' visible='true' lat='-28.2155983' lon='153.2925454' />
  <node id='-118513' action='modify' visible='true' lat='-28.2158198' lon='153.2925386' />
  <node id='-118514' action='modify' visible='true' lat='-28.2152006' lon='153.2926755' />
  <node id='-118515' action='modify' visible='true' lat='-28.2154509' lon='153.2925501' />
  <node id='-118516' action='modify' visible='true' lat='-28.2148413' lon='153.2931357' />
  <node id='-118517' action='modify' visible='true' lat='-28.2150865' lon='153.2928214' />
  <node id='-118518' action='modify' visible='true' lat='-28.2143364' lon='153.2934327' />
  <node id='-118519' action='modify' visible='true' lat='-28.2146846' lon='153.2933383' />
  <node id='-118520' action='modify' visible='true' lat='-28.2137192' lon='153.293571' />
  <node id='-118521' action='modify' visible='true' lat='-28.2141255' lon='153.2933866' />
  <node id='-118522' action='modify' visible='true' lat='-28.2138121' lon='153.2933756' />
  <node id='-118523' action='modify' visible='true' lat='-28.2136147' lon='153.2934942' />
  <node id='-118524' action='modify' visible='true' lat='-28.2142913' lon='153.2930703' />
  <node id='-118525' action='modify' visible='true' lat='-28.213992' lon='153.2931494' />
  <node id='-118526' action='modify' visible='true' lat='-28.2145724' lon='153.2925842' />
  <node id='-118527' action='modify' visible='true' lat='-28.2144215' lon='153.2927567' />
  <node id='-118528' action='modify' visible='true' lat='-28.2150586' lon='153.2918876' />
  <node id='-118529' action='modify' visible='true' lat='-28.2147297' lon='153.2923698' />
  <node id='-118530' action='modify' visible='true' lat='-28.215248' lon='153.2913828' />
  <node id='-118531' action='modify' visible='true' lat='-28.2151313' lon='153.2917518' />
  <node id='-118532' action='modify' visible='true' lat='-28.2153508' lon='153.2908346' />
  <node id='-118533' action='modify' visible='true' lat='-28.2153529' lon='153.2910197' />
  <node id='-118534' action='modify' visible='true' lat='-28.2156261' lon='153.2900995' />
  <node id='-118535' action='modify' visible='true' lat='-28.2153612' lon='153.2904841' />
  <node id='-118536' action='modify' visible='true' lat='-28.2153428' lon='153.2892713' />
  <node id='-118537' action='modify' visible='true' lat='-28.2154441' lon='153.2896831' />
  <node id='-118538' action='modify' visible='true' lat='-28.2156285' lon='153.288575' />
  <node id='-118539' action='modify' visible='true' lat='-28.2154527' lon='153.2888834' />
  <node id='-118540' action='modify' visible='true' lat='-28.2165497' lon='153.2884728' />
  <node id='-118541' action='modify' visible='true' lat='-28.2159484' lon='153.2884759' />
  <node id='-118542' action='modify' visible='true' lat='-28.2172217' lon='153.288476' />
  <node id='-118543' action='modify' visible='true' lat='-28.2167597' lon='153.2884399' />
  <node id='-118544' action='modify' visible='true' lat='-28.2176133' lon='153.2884071' />
  <node id='-118545' action='modify' visible='true' lat='-28.2174132' lon='153.2884179' />
  <node id='-118546' action='modify' visible='true' lat='-28.2177449' lon='153.2878865' />
  <node id='-118547' action='modify' visible='true' lat='-28.2178666' lon='153.2883443' />
  <node id='-118548' action='modify' visible='true' lat='-28.2175504' lon='153.2875012' />
  <node id='-118549' action='modify' visible='true' lat='-28.2176127' lon='153.287711' />
  <node id='-118550' action='modify' visible='true' lat='-28.2174446' lon='153.2872226' />
  <node id='-118551' action='modify' visible='true' lat='-28.2174938' lon='153.2874343' />
  <node id='-118552' action='modify' visible='true' lat='-28.2176742' lon='153.2866744' />
  <node id='-118553' action='modify' visible='true' lat='-28.2176135' lon='153.2870304' />
  <node id='-118554' action='modify' visible='true' lat='-28.2177028' lon='153.2863936' />
  <node id='-118555' action='modify' visible='true' lat='-28.2176467' lon='153.2865078' />
  <node id='-118556' action='modify' visible='true' lat='-28.21791' lon='153.2860035' />
  <node id='-118557' action='modify' visible='true' lat='-28.2178036' lon='153.2862551' />
  <node id='-118558' action='modify' visible='true' lat='-28.2184762' lon='153.2855085' />
  <node id='-118559' action='modify' visible='true' lat='-28.2181049' lon='153.2857147' />
  <node id='-118560' action='modify' visible='true' lat='-28.2186346' lon='153.2853902' />
  <node id='-118561' action='modify' visible='true' lat='-28.2186439' lon='153.2855203' />
  <node id='-118562' action='modify' visible='true' lat='-28.2183802' lon='153.2854381' />
  <node id='-118563' action='modify' visible='true' lat='-28.2185288' lon='153.2853504' />
  <node id='-118564' action='modify' visible='true' lat='-28.2180196' lon='153.2854856' />
  <node id='-118565' action='modify' visible='true' lat='-28.2182564' lon='153.2854154' />
  <node id='-118566' action='modify' visible='true' lat='-28.2174351' lon='153.2857442' />
  <node id='-118567' action='modify' visible='true' lat='-28.2176921' lon='153.2856828' />
  <node id='-118568' action='modify' visible='true' lat='-28.2170687' lon='153.2860994' />
  <node id='-118569' action='modify' visible='true' lat='-28.2172148' lon='153.2858914' />
  <node id='-118570' action='modify' visible='true' lat='-28.2167845' lon='153.2869417' />
  <node id='-118571' action='modify' visible='true' lat='-28.2169021' lon='153.2864952' />
  <node id='-118572' action='modify' visible='true' lat='-28.2166067' lon='153.2873923' />
  <node id='-118573' action='modify' visible='true' lat='-28.2167102' lon='153.2872193' />
  <node id='-118574' action='modify' visible='true' lat='-28.216418' lon='153.2872264' />
  <node id='-118575' action='modify' visible='true' lat='-28.2164991' lon='153.2874607' />
  <node id='-118576' action='modify' visible='true' lat='-28.2161363' lon='153.2869137' />
  <node id='-118577' action='modify' visible='true' lat='-28.2162784' lon='153.2870471' />
  <node id='-118578' action='modify' visible='true' lat='-28.2159704' lon='153.2866256' />
  <node id='-118579' action='modify' visible='true' lat='-28.216054' lon='153.2867134' />
  <node id='-118580' action='modify' visible='true' lat='-28.215712' lon='153.2861881' />
  <node id='-118581' action='modify' visible='true' lat='-28.2158605' lon='153.2864903' />
  <node id='-118582' action='modify' visible='true' lat='-28.215017' lon='153.2858193' />
  <node id='-118583' action='modify' visible='true' lat='-28.2153603' lon='153.28593' />
  <node id='-118584' action='modify' visible='true' lat='-28.2143223' lon='153.2857753' />
  <node id='-118585' action='modify' visible='true' lat='-28.2147653' lon='153.2858022' />
  <node id='-118586' action='modify' visible='true' lat='-28.213845' lon='153.2859856' />
  <node id='-118587' action='modify' visible='true' lat='-28.2141546' lon='153.2858559' />
  <node id='-118588' action='modify' visible='true' lat='-28.2132305' lon='153.2859239' />
  <node id='-118589' action='modify' visible='true' lat='-28.2135344' lon='153.2859815' />
  <node id='-118590' action='modify' visible='true' lat='-28.2126709' lon='153.2859636' />
  <node id='-118591' action='modify' visible='true' lat='-28.2129244' lon='153.2859282' />
  <node id='-118592' action='modify' visible='true' lat='-28.2124327' lon='153.2859643' />
  <node id='-118593' action='modify' visible='true' lat='-28.2125595' lon='153.2858746' />
  <node id='-118594' action='modify' visible='true' lat='-28.2121' lon='153.2864499' />
  <node id='-118595' action='modify' visible='true' lat='-28.2122079' lon='153.2863571' />
  <node id='-118596' action='modify' visible='true' lat='-28.212053' lon='153.2865272' />
  <node id='-118597' action='modify' visible='true' lat='-28.2121613' lon='153.2865658' />
  <node id='-118598' action='modify' visible='true' lat='-28.2116756' lon='153.286303' />
  <node id='-118599' action='modify' visible='true' lat='-28.2119199' lon='153.2863726' />
  <node id='-118600' action='modify' visible='true' lat='-28.2114044' lon='153.2862233' />
  <node id='-118601' action='modify' visible='true' lat='-28.2115332' lon='153.2862323' />
  <node id='-118602' action='modify' visible='true' lat='-28.2109682' lon='153.2860277' />
  <node id='-118603' action='modify' visible='true' lat='-28.2111534' lon='153.2861663' />
  <node id='-118604' action='modify' visible='true' lat='-28.2113514' lon='153.2860326' />
  <node id='-118605' action='modify' visible='true' lat='-28.2110474' lon='153.2859953' />
  <node id='-118606' action='modify' visible='true' lat='-28.2116822' lon='153.2861233' />
  <node id='-118607' action='modify' visible='true' lat='-28.2116583' lon='153.2861461' />
  <node id='-118608' action='modify' visible='true' lat='-28.211097' lon='153.2858071' />
  <node id='-118609' action='modify' visible='true' lat='-28.2113205' lon='153.2858477' />
  <node id='-118610' action='modify' visible='true' lat='-28.2106873' lon='153.2856717' />
  <node id='-118611' action='modify' visible='true' lat='-28.2109819' lon='153.285714' />
  <node id='-118612' action='modify' visible='true' lat='-28.2104501' lon='153.2855592' />
  <node id='-118613' action='modify' visible='true' lat='-28.2105148' lon='153.285621' />
  <node id='-118614' action='modify' visible='true' lat='-28.2110304' lon='153.2856194' />
  <node id='-118615' action='modify' visible='true' lat='-28.2107227' lon='153.2855054' />
  <node id='-118616' action='modify' visible='true' lat='-28.2115353' lon='153.2856611' />
  <node id='-118617' action='modify' visible='true' lat='-28.2112425' lon='153.2856353' />
  <node id='-118618' action='modify' visible='true' lat='-28.2117972' lon='153.2853822' />
  <node id='-118619' action='modify' visible='true' lat='-28.2116321' lon='153.2855849' />
  <node id='-118620' action='modify' visible='true' lat='-28.2122003' lon='153.284785' />
  <node id='-118621' action='modify' visible='true' lat='-28.2119106' lon='153.2851376' />
  <node id='-118622' action='modify' visible='true' lat='-28.2119443' lon='153.2848509' />
  <node id='-118623' action='modify' visible='true' lat='-28.2120215' lon='153.2847932' />
  <node id='-118624' action='modify' visible='true' lat='-28.2116985' lon='153.2852046' />
  <node id='-118625' action='modify' visible='true' lat='-28.2118149' lon='153.2850601' />
  <node id='-118626' action='modify' visible='true' lat='-28.2113008' lon='153.2853624' />
  <node id='-118627' action='modify' visible='true' lat='-28.2115972' lon='153.2853096' />
  <node id='-118628' action='modify' visible='true' lat='-28.2112167' lon='153.2851245' />
  <node id='-118629' action='modify' visible='true' lat='-28.2111544' lon='153.2852444' />
  <node id='-118630' action='modify' visible='true' lat='-28.2115193' lon='153.2844858' />
  <node id='-118631' action='modify' visible='true' lat='-28.2114212' lon='153.2848971' />
  <node id='-118632' action='modify' visible='true' lat='-28.2115606' lon='153.2833823' />
  <node id='-118633' action='modify' visible='true' lat='-28.2115713' lon='153.2839471' />
  <node id='-118634' action='modify' visible='true' lat='-28.2118251' lon='153.2826072' />
  <node id='-118635' action='modify' visible='true' lat='-28.2116293' lon='153.2828999' />
  <node id='-118636' action='modify' visible='true' lat='-28.2119799' lon='153.2821423' />
  <node id='-118637' action='modify' visible='true' lat='-28.2119113' lon='153.2824047' />
  <node id='-118638' action='modify' visible='true' lat='-28.2122991' lon='153.2823979' />
  <node id='-118639' action='modify' visible='true' lat='-28.2121939' lon='153.282005' />
  <node id='-118640' action='modify' visible='true' lat='-28.2128466' lon='153.2820607' />
  <node id='-118641' action='modify' visible='true' lat='-28.2124897' lon='153.2823245' />
  <node id='-118642' action='modify' visible='true' lat='-28.2132364' lon='153.2813982' />
  <node id='-118643' action='modify' visible='true' lat='-28.2130251' lon='153.2817754' />
  <node id='-118644' action='modify' visible='true' lat='-28.2132532' lon='153.2809098' />
  <node id='-118645' action='modify' visible='true' lat='-28.213185' lon='153.2811238' />
  <node id='-118646' action='modify' visible='true' lat='-28.213533' lon='153.28081' />
  <node id='-118647' action='modify' visible='true' lat='-28.2134417' lon='153.2809095' />
  <node id='-118648' action='modify' visible='true' lat='-28.2134052' lon='153.2803014' />
  <node id='-118649' action='modify' visible='true' lat='-28.213544' lon='153.2806708' />
  <node id='-118650' action='modify' visible='true' lat='-28.2136311' lon='153.2798615' />
  <node id='-118651' action='modify' visible='true' lat='-28.213476' lon='153.2800374' />
  <node id='-118652' action='modify' visible='true' lat='-28.2141613' lon='153.2797535' />
  <node id='-118653' action='modify' visible='true' lat='-28.2138626' lon='153.2797701' />
  <node id='-118654' action='modify' visible='true' lat='-28.2136444' lon='153.2794714' />
  <node id='-118655' action='modify' visible='true' lat='-28.2140377' lon='153.2796675' />
  <node id='-118656' action='modify' visible='true' lat='-28.2138666' lon='153.2793039' />
  <node id='-118657' action='modify' visible='true' lat='-28.2140489' lon='153.2794552' />
  <node id='-118658' action='modify' visible='true' lat='-28.2142851' lon='153.2791045' />
  <node id='-118659' action='modify' visible='true' lat='-28.2137445' lon='153.2790638' />
  <node id='-118660' action='modify' visible='true' lat='-28.2148708' lon='153.2789797' />
  <node id='-118661' action='modify' visible='true' lat='-28.2145652' lon='153.2791059' />
  <node id='-118662' action='modify' visible='true' lat='-28.2142821' lon='153.2787309' />
  <node id='-118663' action='modify' visible='true' lat='-28.2145665' lon='153.2788665' />
  <node id='-118664' action='modify' visible='true' lat='-28.2143184' lon='153.278524' />
  <node id='-118665' action='modify' visible='true' lat='-28.2141744' lon='153.2785156' />
  <node id='-118666' action='modify' visible='true' lat='-28.2146231' lon='153.27851' />
  <node id='-118667' action='modify' visible='true' lat='-28.2144299' lon='153.2785519' />
  <node id='-118668' action='modify' visible='true' lat='-28.2154991' lon='153.2779018' />
  <node id='-118669' action='modify' visible='true' lat='-28.2150541' lon='153.2783095' />
  <node id='-118670' action='modify' visible='true' lat='-28.2159062' lon='153.2775646' />
  <node id='-118671' action='modify' visible='true' lat='-28.2157171' lon='153.2777169' />
  <node id='-118672' action='modify' visible='true' lat='-28.2163168' lon='153.2771271' />
  <node id='-118673' action='modify' visible='true' lat='-28.216033' lon='153.2772847' />
  <node id='-118674' action='modify' visible='true' lat='-28.2163531' lon='153.2769179' />
  <node id='-118675' action='modify' visible='true' lat='-28.2165401' lon='153.2770245' />
  <node id='-118676' action='modify' visible='true' lat='-28.2160115' lon='153.2767841' />
  <node id='-118677' action='modify' visible='true' lat='-28.2161385' lon='153.2768767' />
  <node id='-118678' action='modify' visible='true' lat='-28.2157544' lon='153.2769105' />
  <node id='-118679' action='modify' visible='true' lat='-28.2159148' lon='153.2767875' />
  <node id='-118680' action='modify' visible='true' lat='-28.2148049' lon='153.2764334' />
  <node id='-118681' action='modify' visible='true' lat='-28.2155504' lon='153.276945' />
  <node id='-118682' action='modify' visible='true' lat='-28.2142945' lon='153.2758647' />
  <node id='-118683' action='modify' visible='true' lat='-28.2145794' lon='153.276168' />
  <node id='-118684' action='modify' visible='true' lat='-28.2141947' lon='153.2755662' />
  <node id='-118685' action='modify' visible='true' lat='-28.2143066' lon='153.2757892' />
  <node id='-118686' action='modify' visible='true' lat='-28.2148991' lon='153.2759127' />
  <node id='-118687' action='modify' visible='true' lat='-28.2146167' lon='153.2758' />
  <node id='-118688' action='modify' visible='true' lat='-28.2151826' lon='153.2759354' />
  <node id='-118689' action='modify' visible='true' lat='-28.2150186' lon='153.2759615' />
  <node id='-118690' action='modify' visible='true' lat='-28.2159398' lon='153.2756374' />
  <node id='-118691' action='modify' visible='true' lat='-28.2155325' lon='153.2757814' />
  <node id='-118692' action='modify' visible='true' lat='-28.2164737' lon='153.2753346' />
  <node id='-118693' action='modify' visible='true' lat='-28.2163108' lon='153.2754873' />
  <node id='-118694' action='modify' visible='true' lat='-28.2162825' lon='153.2751095' />
  <node id='-118695' action='modify' visible='true' lat='-28.2167098' lon='153.2751872' />
  <node id='-118696' action='modify' visible='true' lat='-28.2156613' lon='153.2751953' />
  <node id='-118697' action='modify' visible='true' lat='-28.2159542' lon='153.2751577' />
  <node id='-118698' action='modify' visible='true' lat='-28.215045' lon='153.2753105' />
  <node id='-118699' action='modify' visible='true' lat='-28.2153283' lon='153.27534' />
  <node id='-118700' action='modify' visible='true' lat='-28.2143695' lon='153.2749487' />
  <node id='-118701' action='modify' visible='true' lat='-28.2148371' lon='153.2752542' />
  <node id='-118702' action='modify' visible='true' lat='-28.2145349' lon='153.2748817' />
  <node id='-118703' action='modify' visible='true' lat='-28.2142824' lon='153.2747411' />
  <node id='-118704' action='modify' visible='true' lat='-28.2149291' lon='153.2749781' />
  <node id='-118705' action='modify' visible='true' lat='-28.2146953' lon='153.2749191' />
  <node id='-118706' action='modify' visible='true' lat='-28.2148134' lon='153.2745947' />
  <node id='-118707' action='modify' visible='true' lat='-28.2150944' lon='153.2749862' />
  <node id='-118708' action='modify' visible='true' lat='-28.214497' lon='153.2739436' />
  <node id='-118709' action='modify' visible='true' lat='-28.2147001' lon='153.2742786' />
  <node id='-118710' action='modify' visible='true' lat='-28.213949' lon='153.2733753' />
  <node id='-118711' action='modify' visible='true' lat='-28.2142419' lon='153.2736515' />
  <node id='-118712' action='modify' visible='true' lat='-28.214582' lon='153.2737024' />
  <node id='-118713' action='modify' visible='true' lat='-28.2142608' lon='153.2734451' />
  <node id='-118714' action='modify' visible='true' lat='-28.2150601' lon='153.2744993' />
  <node id='-118715' action='modify' visible='true' lat='-28.2148663' lon='153.2742204' />
  <node id='-118716' action='modify' visible='true' lat='-28.215711' lon='153.2742865' />
  <node id='-118717' action='modify' visible='true' lat='-28.2153094' lon='153.2744716' />
  <node id='-118718' action='modify' visible='true' lat='-28.2166992' lon='153.2735565' />
  <node id='-118719' action='modify' visible='true' lat='-28.2160599' lon='153.274046' />
  <node id='-118720' action='modify' visible='true' lat='-28.216919' lon='153.2732695' />
  <node id='-118721' action='modify' visible='true' lat='-28.2171805' lon='153.2733428' />
  <node id='-118722' action='modify' visible='true' lat='-28.2162502' lon='153.2734573' />
  <node id='-118723' action='modify' visible='true' lat='-28.2166401' lon='153.2732803' />
  <node id='-118724' action='modify' visible='true' lat='-28.2154486' lon='153.2736033' />
  <node id='-118725' action='modify' visible='true' lat='-28.2156401' lon='153.273746' />
  <node id='-118726' action='modify' visible='true' lat='-28.2144937' lon='153.272821' />
  <node id='-118727' action='modify' visible='true' lat='-28.215168' lon='153.2731817' />
  <node id='-118728' action='modify' visible='true' lat='-28.2141081' lon='153.2721236' />
  <node id='-118729' action='modify' visible='true' lat='-28.2143437' lon='153.2727534' />
  <node id='-118730' action='modify' visible='true' lat='-28.2128967' lon='153.2717677' />
  <node id='-118731' action='modify' visible='true' lat='-28.2134977' lon='153.2722081' />
  <node id='-118732' action='modify' visible='true' lat='-28.2126242' lon='153.2719374' />
  <node id='-118733' action='modify' visible='true' lat='-28.2126549' lon='153.2717416' />
  <node id='-118734' action='modify' visible='true' lat='-28.212431' lon='153.2713108' />
  <node id='-118735' action='modify' visible='true' lat='-28.2125046' lon='153.2719265' />
  <node id='-118736' action='modify' visible='true' lat='-28.2131392' lon='153.2714458' />
  <node id='-118737' action='modify' visible='true' lat='-28.212803' lon='153.2713305' />
  <node id='-118738' action='modify' visible='true' lat='-28.2137957' lon='153.2719568' />
  <node id='-118739' action='modify' visible='true' lat='-28.2134194' lon='153.2717518' />
  <node id='-118740' action='modify' visible='true' lat='-28.2141936' lon='153.2721841' />
  <node id='-118741' action='modify' visible='true' lat='-28.2139326' lon='153.2720113' />
  <node id='-118742' action='modify' visible='true' lat='-28.2141297' lon='153.2721206' />
  <node id='-118827' action='modify' visible='true' lat='-28.22469598477' lon='153.27390641462' />
  <node id='-118828' action='modify' visible='true' lat='-28.22472999409' lon='153.27109986587' />
  <node id='-118830' action='modify' visible='true' lat='-28.22469930875' lon='153.27371538713' />
  <node id='-118831' action='modify' visible='true' lat='-28.22473731187' lon='153.27365499298' />
  <node id='-118832' action='modify' visible='true' lat='-28.22477018869' lon='153.2735666672' />
  <node id='-118833' action='modify' visible='true' lat='-28.2247860616' lon='153.27350021788' />
  <node id='-118834' action='modify' visible='true' lat='-28.22480116405' lon='153.27341848099' />
  <node id='-118835' action='modify' visible='true' lat='-28.22483294192' lon='153.27336439941' />
  <node id='-118836' action='modify' visible='true' lat='-28.22484146467' lon='153.27315554308' />
  <node id='-118837' action='modify' visible='true' lat='-28.22482684319' lon='153.27309028615' />
  <node id='-118838' action='modify' visible='true' lat='-28.22480465406' lon='153.27296804608' />
  <node id='-118839' action='modify' visible='true' lat='-28.22477831685' lon='153.27285613817' />
  <node id='-118840' action='modify' visible='true' lat='-28.22477831685' lon='153.27275474938' />
  <node id='-118841' action='modify' visible='true' lat='-28.22476846702' lon='153.27270579869' />
  <node id='-118842' action='modify' visible='true' lat='-28.22476588646' lon='153.2726468759' />
  <node id='-118843' action='modify' visible='true' lat='-28.22479166371' lon='153.27260069623' />
  <node id='-118844' action='modify' visible='true' lat='-28.22485862246' lon='153.2725372458' />
  <node id='-118845' action='modify' visible='true' lat='-28.2248858569' lon='153.27249300178' />
  <node id='-118846' action='modify' visible='true' lat='-28.22490459913' lon='153.27244060416' />
  <node id='-118847' action='modify' visible='true' lat='-28.22494847233' lon='153.27238057813' />
  <node id='-118848' action='modify' visible='true' lat='-28.2250181299' lon='153.27232971704' />
  <node id='-118849' action='modify' visible='true' lat='-28.2250426658' lon='153.27230187824' />
  <node id='-118850' action='modify' visible='true' lat='-28.22506737576' lon='153.27225511939' />
  <node id='-118851' action='modify' visible='true' lat='-28.22507658772' lon='153.27221064145' />
  <node id='-118852' action='modify' visible='true' lat='-28.2250720686' lon='153.2721691393' />
  <node id='-118853' action='modify' visible='true' lat='-28.22505097727' lon='153.27212005232' />
  <node id='-118854' action='modify' visible='true' lat='-28.22497406512' lon='153.27202291067' />
  <node id='-118855' action='modify' visible='true' lat='-28.22495873749' lon='153.27198365953' />
  <node id='-118856' action='modify' visible='true' lat='-28.22493590606' lon='153.27192928975' />
  <node id='-118857' action='modify' visible='true' lat='-28.22488684239' lon='153.27187636047' />
  <node id='-118858' action='modify' visible='true' lat='-28.22485231918' lon='153.27181599475' />
  <node id='-118859' action='modify' visible='true' lat='-28.22481586387' lon='153.27177903311' />
  <node id='-118860' action='modify' visible='true' lat='-28.22479019833' lon='153.27171772678' />
  <node id='-118861' action='modify' visible='true' lat='-28.2247276136' lon='153.27152081631' />
  <node id='-118862' action='modify' visible='true' lat='-28.22469990273' lon='153.27135861131' />
  <node id='-118902' action='modify' visible='true' lat='-28.22326677144' lon='153.27333748206' />
  <node id='-118904' action='modify' visible='true' lat='-28.22340029922' lon='153.27329590783' />
  <node id='-118906' action='modify' visible='true' lat='-28.22344165735' lon='153.27328383788' />
  <node id='-118908' action='modify' visible='true' lat='-28.22355509672' lon='153.27316716179' />
  <way id='-119343' action='modify' visible='true'>
    <nd ref='-118323' />
    <nd ref='-118320' />
    <nd ref='-118321' />
    <nd ref='-118318' />
    <nd ref='-118319' />
    <nd ref='-118316' />
    <nd ref='-118317' />
    <nd ref='-118314' />
    <nd ref='-118315' />
    <nd ref='-118312' />
    <nd ref='-118313' />
    <nd ref='-118310' />
    <nd ref='-118311' />
    <nd ref='-118308' />
    <nd ref='-118309' />
    <nd ref='-118306' />
    <nd ref='-118307' />
    <nd ref='-118304' />
    <nd ref='-118305' />
    <nd ref='-118302' />
    <nd ref='-118303' />
    <nd ref='-118300' />
    <nd ref='-118301' />
    <nd ref='-118298' />
    <nd ref='-118299' />
    <nd ref='-118296' />
    <nd ref='-118297' />
    <nd ref='-118294' />
    <nd ref='-118295' />
    <nd ref='-118292' />
    <nd ref='-118293' />
    <nd ref='-118290' />
    <nd ref='-118291' />
    <nd ref='-118288' />
    <nd ref='-118289' />
    <nd ref='-118331' />
    <nd ref='-118330' />
    <nd ref='-118339' />
    <nd ref='-118338' />
    <nd ref='-118341' />
    <nd ref='-118340' />
    <nd ref='-118343' />
    <nd ref='-118342' />
    <nd ref='-118345' />
    <nd ref='-118344' />
    <nd ref='-118347' />
    <nd ref='-118346' />
    <nd ref='-118349' />
    <nd ref='-118348' />
    <nd ref='-118351' />
    <nd ref='-118350' />
    <nd ref='-118353' />
    <nd ref='-118352' />
    <nd ref='-118333' />
    <nd ref='-118332' />
    <nd ref='-118335' />
    <nd ref='-118334' />
    <nd ref='-118337' />
    <nd ref='-118336' />
    <nd ref='-118285' />
    <nd ref='-118284' />
    <nd ref='-118287' />
    <nd ref='-118286' />
    <nd ref='-118383' />
    <nd ref='-118382' />
    <nd ref='-118385' />
    <nd ref='-118384' />
    <nd ref='-118387' />
    <nd ref='-118386' />
    <nd ref='-118389' />
    <nd ref='-118388' />
    <nd ref='-118391' />
    <nd ref='-118390' />
    <nd ref='-118393' />
    <nd ref='-118392' />
    <nd ref='-118395' />
    <nd ref='-118394' />
    <nd ref='-118397' />
    <nd ref='-118396' />
    <nd ref='-118399' />
    <nd ref='-118398' />
    <nd ref='-118401' />
    <nd ref='-118400' />
    <nd ref='-118403' />
    <nd ref='-118402' />
    <nd ref='-118405' />
    <nd ref='-118404' />
    <nd ref='-118407' />
    <nd ref='-118406' />
    <nd ref='-118409' />
    <nd ref='-118477' />
    <nd ref='-118476' />
    <nd ref='-118479' />
    <nd ref='-118478' />
    <nd ref='-118481' />
    <nd ref='-118480' />
    <nd ref='-118483' />
    <nd ref='-118482' />
    <nd ref='-118485' />
    <nd ref='-118484' />
    <nd ref='-118487' />
    <nd ref='-118486' />
    <nd ref='-118489' />
    <nd ref='-118488' />
    <nd ref='-118491' />
    <nd ref='-118490' />
    <nd ref='-118493' />
    <nd ref='-118492' />
    <nd ref='-118495' />
    <nd ref='-118494' />
    <nd ref='-118497' />
    <nd ref='-118496' />
    <nd ref='-118499' />
    <nd ref='-118498' />
    <nd ref='-118501' />
    <nd ref='-118500' />
    <nd ref='-118503' />
    <nd ref='-118502' />
    <nd ref='-118505' />
    <nd ref='-118504' />
    <nd ref='-118507' />
    <nd ref='-118506' />
    <nd ref='-118509' />
    <nd ref='-118508' />
    <nd ref='-118511' />
    <nd ref='-118510' />
    <nd ref='-118513' />
    <nd ref='-118512' />
    <nd ref='-118515' />
    <nd ref='-118514' />
    <nd ref='-118517' />
    <nd ref='-118516' />
    <nd ref='-118519' />
    <nd ref='-118518' />
    <nd ref='-118521' />
    <nd ref='-118520' />
    <nd ref='-118523' />
    <nd ref='-118522' />
    <nd ref='-118525' />
    <nd ref='-118524' />
    <nd ref='-118527' />
    <nd ref='-118526' />
    <nd ref='-118529' />
    <nd ref='-118528' />
    <nd ref='-118531' />
    <nd ref='-118530' />
    <nd ref='-118533' />
    <nd ref='-118532' />
    <nd ref='-118535' />
    <nd ref='-118534' />
    <nd ref='-118537' />
    <nd ref='-118536' />
    <nd ref='-118539' />
    <nd ref='-118538' />
    <nd ref='-118541' />
    <nd ref='-118540' />
    <nd ref='-118543' />
    <nd ref='-118542' />
    <nd ref='-118545' />
    <nd ref='-118544' />
    <nd ref='-118547' />
    <nd ref='-118546' />
    <nd ref='-118549' />
    <nd ref='-118548' />
    <nd ref='-118551' />
    <nd ref='-118550' />
    <nd ref='-118553' />
    <nd ref='-118552' />
    <nd ref='-118555' />
    <nd ref='-118554' />
    <nd ref='-118557' />
    <nd ref='-118556' />
    <nd ref='-118559' />
    <nd ref='-118558' />
    <nd ref='-118561' />
    <nd ref='-118560' />
    <nd ref='-118563' />
    <nd ref='-118562' />
    <nd ref='-118565' />
    <nd ref='-118564' />
    <nd ref='-118567' />
    <nd ref='-118566' />
    <nd ref='-118569' />
    <nd ref='-118568' />
    <nd ref='-118571' />
    <nd ref='-118570' />
    <nd ref='-118573' />
    <nd ref='-118572' />
    <nd ref='-118575' />
    <nd ref='-118574' />
    <nd ref='-118577' />
    <nd ref='-118576' />
    <nd ref='-118579' />
    <nd ref='-118578' />
    <nd ref='-118581' />
    <nd ref='-118580' />
    <nd ref='-118583' />
    <nd ref='-118582' />
    <nd ref='-118585' />
    <nd ref='-118584' />
    <nd ref='-118587' />
    <nd ref='-118586' />
    <nd ref='-118589' />
    <nd ref='-118588' />
    <nd ref='-118591' />
    <nd ref='-118590' />
    <nd ref='-118593' />
    <nd ref='-118592' />
    <nd ref='-118595' />
    <nd ref='-118594' />
    <nd ref='-118597' />
    <nd ref='-118596' />
    <nd ref='-118599' />
    <nd ref='-118598' />
    <nd ref='-118601' />
    <nd ref='-118600' />
    <nd ref='-118603' />
    <nd ref='-118602' />
    <nd ref='-118605' />
    <nd ref='-118604' />
    <nd ref='-118607' />
    <nd ref='-118606' />
    <nd ref='-118609' />
    <nd ref='-118608' />
    <nd ref='-118611' />
    <nd ref='-118610' />
    <nd ref='-118613' />
    <nd ref='-118612' />
    <nd ref='-118615' />
    <nd ref='-118614' />
    <nd ref='-118617' />
    <nd ref='-118616' />
    <nd ref='-118619' />
    <nd ref='-118618' />
    <nd ref='-118621' />
    <nd ref='-118620' />
    <nd ref='-118623' />
    <nd ref='-118622' />
    <nd ref='-118625' />
    <nd ref='-118624' />
    <nd ref='-118627' />
    <nd ref='-118626' />
    <nd ref='-118629' />
    <nd ref='-118628' />
    <nd ref='-118631' />
    <nd ref='-118630' />
    <nd ref='-118633' />
    <nd ref='-118632' />
    <nd ref='-118635' />
    <nd ref='-118634' />
    <nd ref='-118637' />
    <nd ref='-118636' />
    <nd ref='-118639' />
    <nd ref='-118638' />
    <nd ref='-118641' />
    <nd ref='-118640' />
    <nd ref='-118643' />
    <nd ref='-118642' />
    <nd ref='-118645' />
    <nd ref='-118644' />
    <nd ref='-118647' />
    <nd ref='-118646' />
    <nd ref='-118649' />
    <nd ref='-118648' />
    <nd ref='-118651' />
    <nd ref='-118650' />
    <nd ref='-118653' />
    <nd ref='-118652' />
    <nd ref='-118655' />
    <nd ref='-118654' />
    <nd ref='-118657' />
    <nd ref='-118656' />
    <nd ref='-118659' />
    <nd ref='-118658' />
    <nd ref='-118661' />
    <nd ref='-118660' />
    <nd ref='-118663' />
    <nd ref='-118662' />
    <nd ref='-118665' />
    <nd ref='-118664' />
    <nd ref='-118667' />
    <nd ref='-118666' />
    <nd ref='-118669' />
    <nd ref='-118668' />
    <nd ref='-118671' />
    <nd ref='-118670' />
    <nd ref='-118673' />
    <nd ref='-118672' />
    <nd ref='-118675' />
    <nd ref='-118674' />
    <nd ref='-118677' />
    <nd ref='-118676' />
    <nd ref='-118679' />
    <nd ref='-118678' />
    <nd ref='-118681' />
    <nd ref='-118680' />
    <nd ref='-118683' />
    <nd ref='-118682' />
    <nd ref='-118685' />
    <nd ref='-118684' />
    <nd ref='-118687' />
    <nd ref='-118686' />
    <nd ref='-118689' />
    <nd ref='-118688' />
    <nd ref='-118691' />
    <nd ref='-118690' />
    <nd ref='-118693' />
    <nd ref='-118692' />
    <nd ref='-118695' />
    <nd ref='-118694' />
    <nd ref='-118697' />
    <nd ref='-118696' />
    <nd ref='-118699' />
    <nd ref='-118698' />
    <nd ref='-118701' />
    <nd ref='-118700' />
    <nd ref='-118703' />
    <nd ref='-118702' />
    <nd ref='-118705' />
    <nd ref='-118704' />
    <nd ref='-118707' />
    <nd ref='-118706' />
    <nd ref='-118709' />
    <nd ref='-118708' />
    <nd ref='-118711' />
    <nd ref='-118710' />
    <nd ref='-118713' />
    <nd ref='-118712' />
    <nd ref='-118715' />
    <nd ref='-118714' />
    <nd ref='-118717' />
    <nd ref='-118716' />
    <nd ref='-118719' />
    <nd ref='-118718' />
    <nd ref='-118721' />
    <nd ref='-118720' />
    <nd ref='-118723' />
    <nd ref='-118722' />
    <nd ref='-118725' />
    <nd ref='-118724' />
    <nd ref='-118727' />
    <nd ref='-118726' />
    <nd ref='-118729' />
    <nd ref='-118436' />
    <nd ref='-118439' />
    <nd ref='-118740' />
    <nd ref='-118742' />
    <nd ref='-118728' />
    <nd ref='-118731' />
    <nd ref='-118730' />
    <nd ref='-118733' />
    <nd ref='-118732' />
    <nd ref='-118735' />
    <nd ref='-118734' />
    <nd ref='-118737' />
    <nd ref='-118736' />
    <nd ref='-118739' />
    <nd ref='-118738' />
    <nd ref='-118741' />
    <nd ref='-118377' />
    <nd ref='-118376' />
    <nd ref='-118447' />
    <nd ref='-118446' />
    <nd ref='-118449' />
    <nd ref='-118448' />
    <nd ref='-118451' />
    <nd ref='-118450' />
    <nd ref='-118453' />
    <nd ref='-118452' />
    <nd ref='-118455' />
    <nd ref='-118454' />
    <nd ref='-118457' />
    <nd ref='-118456' />
    <nd ref='-118459' />
    <nd ref='-118458' />
    <nd ref='-118461' />
    <nd ref='-118460' />
    <nd ref='-118463' />
    <nd ref='-118462' />
    <nd ref='-118465' />
    <nd ref='-118464' />
    <nd ref='-118467' />
    <nd ref='-118466' />
    <nd ref='-118469' />
    <nd ref='-118468' />
    <nd ref='-118471' />
    <nd ref='-118470' />
    <nd ref='-118473' />
    <nd ref='-118472' />
    <nd ref='-118475' />
    <nd ref='-118474' />
    <nd ref='-118902' />
    <nd ref='-118904' />
    <nd ref='-118906' />
    <nd ref='-118908' />
    <nd ref='-118322' />
    <nd ref='-118325' />
    <nd ref='-118324' />
    <nd ref='-118327' />
    <nd ref='-118326' />
    <nd ref='-118329' />
    <nd ref='-118328' />
    <nd ref='-118827' />
    <nd ref='-118830' />
    <nd ref='-118831' />
    <nd ref='-118832' />
    <nd ref='-118833' />
    <nd ref='-118834' />
    <nd ref='-118835' />
    <nd ref='-118836' />
    <nd ref='-118837' />
    <nd ref='-118838' />
    <nd ref='-118839' />
    <nd ref='-118840' />
    <nd ref='-118841' />
    <nd ref='-118842' />
    <nd ref='-118843' />
    <nd ref='-118844' />
    <nd ref='-118845' />
    <nd ref='-118846' />
    <nd ref='-118847' />
    <nd ref='-118848' />
    <nd ref='-118849' />
    <nd ref='-118850' />
    <nd ref='-118851' />
    <nd ref='-118852' />
    <nd ref='-118853' />
    <nd ref='-118854' />
    <nd ref='-118855' />
    <nd ref='-118856' />
    <nd ref='-118857' />
    <nd ref='-118858' />
    <nd ref='-118859' />
    <nd ref='-118860' />
    <nd ref='-118861' />
    <nd ref='-118862' />
    <nd ref='-118828' />
    <tag k='name' v='Warrie Circuit' />
    <tag k='park' v='Springbrook National Park' />
    <tag k='role' v='primary' />
    <tag k='style' v='loop' />
    <tag k='transport' v='car' />
  </way>
</osm>
