<?xml version='1.0' encoding='UTF-8'?>
<osm version='0.6' upload='false' generator='JOSM'>
  <node id='-130275' action='modify' visible='true' lat='-29.4714992' lon='152.3204917' />
  <node id='-130276' action='modify' visible='true' lat='-29.4711825' lon='152.3201817' />
  <node id='-130277' action='modify' visible='true' lat='-29.4709315' lon='152.3201129' />
  <node id='-130278' action='modify' visible='true' lat='-29.4702984' lon='152.3196674' />
  <node id='-130279' action='modify' visible='true' lat='-29.4700284' lon='152.319352' />
  <node id='-130280' action='modify' visible='true' lat='-29.4700702' lon='152.3191039' />
  <node id='-130281' action='modify' visible='true' lat='-29.469842' lon='152.3188681' />
  <node id='-130282' action='modify' visible='true' lat='-29.4698164' lon='152.3182718' />
  <node id='-130283' action='modify' visible='true' lat='-29.4699247' lon='152.3180753' />
  <node id='-130284' action='modify' visible='true' lat='-29.4699105' lon='152.3179573' />
  <node id='-130285' action='modify' visible='true' lat='-29.4697422' lon='152.3178755' />
  <node id='-130286' action='modify' visible='true' lat='-29.4696196' lon='152.3175118' />
  <node id='-130287' action='modify' visible='true' lat='-29.4697137' lon='152.3174987' />
  <node id='-130288' action='modify' visible='true' lat='-29.4696903' lon='152.3173861' />
  <node id='-130289' action='modify' visible='true' lat='-29.469623' lon='152.3173262' />
  <node id='-130290' action='modify' visible='true' lat='-29.4694741' lon='152.3171842' />
  <node id='-130291' action='modify' visible='true' lat='-29.4695625' lon='152.3169385' />
  <node id='-130292' action='modify' visible='true' lat='-29.4698049' lon='152.3166273' />
  <node id='-130293' action='modify' visible='true' lat='-29.4698856' lon='152.3166135' />
  <node id='-130294' action='modify' visible='true' lat='-29.4719309' lon='152.3174199' />
  <node id='-130295' action='modify' visible='true' lat='-29.4717349' lon='152.3176071' />
  <node id='-130296' action='modify' visible='true' lat='-29.471507' lon='152.3176094' />
  <node id='-130297' action='modify' visible='true' lat='-29.4712342' lon='152.317415' />
  <node id='-130298' action='modify' visible='true' lat='-29.4707918' lon='152.3175135' />
  <node id='-130299' action='modify' visible='true' lat='-29.4703665' lon='152.3179179' />
  <node id='-130300' action='modify' visible='true' lat='-29.470463' lon='152.3184794' />
  <node id='-130301' action='modify' visible='true' lat='-29.4707594' lon='152.3192908' />
  <node id='-130302' action='modify' visible='true' lat='-29.4711682' lon='152.3197214' />
  <node id='-130303' action='modify' visible='true' lat='-29.4716217' lon='152.3200032' />
  <node id='-130304' action='modify' visible='true' lat='-29.4716896' lon='152.3202525' />
  <node id='-130305' action='modify' visible='true' lat='-29.4703612' lon='152.3167731' />
  <node id='-130306' action='modify' visible='true' lat='-29.4709491' lon='152.316306' />
  <node id='-130307' action='modify' visible='true' lat='-29.4712206' lon='152.3163191' />
  <node id='-130308' action='modify' visible='true' lat='-29.4713047' lon='152.3164407' />
  <node id='-130309' action='modify' visible='true' lat='-29.4716207' lon='152.3168981' />
  <node id='-130310' action='modify' visible='true' lat='-29.4715554' lon='152.3171415' />
  <node id='-130311' action='modify' visible='true' lat='-29.4717934' lon='152.3173592' />
  <node id='-130312' action='modify' visible='true' lat='-29.4721418' lon='152.3174969' />
  <node id='-130313' action='modify' visible='true' lat='-29.4703432' lon='152.3167892' />
  <node id='-130314' action='modify' visible='true' lat='-29.4700417' lon='152.3167387' />
  <node id='-130325' action='modify' visible='true' lat='-29.4719157217' lon='152.31743331105' />
  <node id='-130331' action='modify' visible='true' lat='-29.47213506423' lon='152.31750782546' />
  <way id='-130332' action='modify' visible='true'>
    <nd ref='-130312' />
    <nd ref='-130294' />
    <nd ref='-130311' />
    <nd ref='-130310' />
    <nd ref='-130309' />
    <nd ref='-130308' />
    <nd ref='-130307' />
    <nd ref='-130306' />
    <nd ref='-130305' />
    <nd ref='-130313' />
    <nd ref='-130314' />
    <nd ref='-130293' />
    <nd ref='-130292' />
    <nd ref='-130291' />
    <nd ref='-130290' />
    <nd ref='-130289' />
    <nd ref='-130288' />
    <nd ref='-130287' />
    <nd ref='-130286' />
    <nd ref='-130285' />
    <nd ref='-130284' />
    <nd ref='-130283' />
    <nd ref='-130282' />
    <nd ref='-130281' />
    <nd ref='-130280' />
    <nd ref='-130279' />
    <nd ref='-130278' />
    <nd ref='-130277' />
    <nd ref='-130276' />
    <nd ref='-130275' />
    <nd ref='-130304' />
    <nd ref='-130303' />
    <nd ref='-130302' />
    <nd ref='-130301' />
    <nd ref='-130300' />
    <nd ref='-130299' />
    <nd ref='-130298' />
    <nd ref='-130297' />
    <nd ref='-130296' />
    <nd ref='-130295' />
    <nd ref='-130325' />
    <nd ref='-130331' />
    <tag k='name' v='Coachwood Walk' />
    <tag k='park' v='Washpool National Park' />
    <tag k='role' v='primary' />
    <tag k='style' v='loop' />
    <tag k='transport' v='car' />
  </way>
</osm>
