<?xml version='1.0' encoding='UTF-8'?>
<osm version='0.6' upload='false' generator='JOSM'>
  <node id='-110473' action='modify' visible='true' lat='-30.3573257' lon='152.7709961' />
  <node id='-110474' action='modify' visible='true' lat='-30.3573526' lon='152.7710672' />
  <node id='-110475' action='modify' visible='true' lat='-30.3580206' lon='152.7718998' />
  <node id='-110476' action='modify' visible='true' lat='-30.3584851' lon='152.7721922' />
  <node id='-110477' action='modify' visible='true' lat='-30.3587686' lon='152.7727763' />
  <node id='-110478' action='modify' visible='true' lat='-30.3589796' lon='152.7729794' />
  <node id='-110479' action='modify' visible='true' lat='-30.359072' lon='152.7729979' />
  <node id='-110480' action='modify' visible='true' lat='-30.3597337' lon='152.7726978' />
  <node id='-110481' action='modify' visible='true' lat='-30.3599946' lon='152.7726752' />
  <node id='-110482' action='modify' visible='true' lat='-30.3603122' lon='152.7728031' />
  <node id='-110483' action='modify' visible='true' lat='-30.3604517' lon='152.7728967' />
  <node id='-110484' action='modify' visible='true' lat='-30.3606636' lon='152.7733061' />
  <node id='-110485' action='modify' visible='true' lat='-30.3606844' lon='152.7735662' />
  <node id='-110486' action='modify' visible='true' lat='-30.3608091' lon='152.7740102' />
  <node id='-110487' action='modify' visible='true' lat='-30.3607218' lon='152.7739996' />
  <node id='-110488' action='modify' visible='true' lat='-30.360593' lon='152.7738648' />
  <node id='-110489' action='modify' visible='true' lat='-30.3605057' lon='152.7737155' />
  <node id='-110490' action='modify' visible='true' lat='-30.3603045' lon='152.7735536' />
  <node id='-110491' action='modify' visible='true' lat='-30.3602273' lon='152.7733494' />
  <node id='-110492' action='modify' visible='true' lat='-30.3600194' lon='152.773206' />
  <node id='-110493' action='modify' visible='true' lat='-30.3597618' lon='152.7732868' />
  <node id='-110494' action='modify' visible='true' lat='-30.3594406' lon='152.7735825' />
  <node id='-110495' action='modify' visible='true' lat='-30.359392' lon='152.773701' />
  <node id='-110496' action='modify' visible='true' lat='-30.3591381' lon='152.7738928' />
  <node id='-110497' action='modify' visible='true' lat='-30.3590886' lon='152.7740381' />
  <node id='-110498' action='modify' visible='true' lat='-30.359072' lon='152.7741888' />
  <node id='-110499' action='modify' visible='true' lat='-30.3589598' lon='152.7743704' />
  <node id='-110500' action='modify' visible='true' lat='-30.3588348' lon='152.7745002' />
  <node id='-110501' action='modify' visible='true' lat='-30.3586855' lon='152.7745342' />
  <node id='-110502' action='modify' visible='true' lat='-30.3583868' lon='152.7744035' />
  <node id='-110503' action='modify' visible='true' lat='-30.3581604' lon='152.7742567' />
  <node id='-110504' action='modify' visible='true' lat='-30.3580583' lon='152.7742826' />
  <node id='-110505' action='modify' visible='true' lat='-30.3579583' lon='152.7744042' />
  <node id='-110506' action='modify' visible='true' lat='-30.3578544' lon='152.7746305' />
  <node id='-110507' action='modify' visible='true' lat='-30.3576606' lon='152.7748339' />
  <node id='-110508' action='modify' visible='true' lat='-30.3572352' lon='152.7750447' />
  <node id='-110509' action='modify' visible='true' lat='-30.3569413' lon='152.7751079' />
  <node id='-110510' action='modify' visible='true' lat='-30.3568749' lon='152.7751767' />
  <node id='-110511' action='modify' visible='true' lat='-30.3568861' lon='152.7752373' />
  <node id='-110512' action='modify' visible='true' lat='-30.3569817' lon='152.7754107' />
  <node id='-110513' action='modify' visible='true' lat='-30.357285' lon='152.7757479' />
  <node id='-110514' action='modify' visible='true' lat='-30.3574146' lon='152.7759525' />
  <node id='-110515' action='modify' visible='true' lat='-30.357418' lon='152.7760657' />
  <node id='-110516' action='modify' visible='true' lat='-30.3573474' lon='152.7761909' />
  <node id='-110517' action='modify' visible='true' lat='-30.3571883' lon='152.776321' />
  <node id='-110518' action='modify' visible='true' lat='-30.3571628' lon='152.7763971' />
  <node id='-110519' action='modify' visible='true' lat='-30.3572061' lon='152.7765088' />
  <node id='-110520' action='modify' visible='true' lat='-30.3574139' lon='152.7767255' />
  <node id='-110521' action='modify' visible='true' lat='-30.3576299' lon='152.7770926' />
  <node id='-110522' action='modify' visible='true' lat='-30.3576383' lon='152.7773083' />
  <node id='-110523' action='modify' visible='true' lat='-30.3576965' lon='152.7775924' />
  <node id='-110524' action='modify' visible='true' lat='-30.3576351' lon='152.778063' />
  <node id='-110525' action='modify' visible='true' lat='-30.357711' lon='152.7783919' />
  <node id='-110526' action='modify' visible='true' lat='-30.3577055' lon='152.7785552' />
  <node id='-110527' action='modify' visible='true' lat='-30.3576602' lon='152.7786209' />
  <node id='-110528' action='modify' visible='true' lat='-30.3576841' lon='152.7787529' />
  <node id='-110529' action='modify' visible='true' lat='-30.3579006' lon='152.7786393' />
  <node id='-110530' action='modify' visible='true' lat='-30.3579063' lon='152.7785677' />
  <node id='-110531' action='modify' visible='true' lat='-30.3578679' lon='152.7784413' />
  <node id='-110532' action='modify' visible='true' lat='-30.35787' lon='152.7782568' />
  <node id='-110533' action='modify' visible='true' lat='-30.3579166' lon='152.7781562' />
  <node id='-110534' action='modify' visible='true' lat='-30.3579891' lon='152.7781904' />
  <node id='-110535' action='modify' visible='true' lat='-30.3581807' lon='152.7781538' />
  <node id='-110536' action='modify' visible='true' lat='-30.358351' lon='152.7779175' />
  <node id='-110537' action='modify' visible='true' lat='-30.3584694' lon='152.7778075' />
  <node id='-110538' action='modify' visible='true' lat='-30.3585314' lon='152.7776903' />
  <node id='-110539' action='modify' visible='true' lat='-30.3585692' lon='152.7776936' />
  <node id='-110540' action='modify' visible='true' lat='-30.3586086' lon='152.7777923' />
  <node id='-110541' action='modify' visible='true' lat='-30.3586721' lon='152.7778928' />
  <node id='-110542' action='modify' visible='true' lat='-30.3587396' lon='152.7779031' />
  <node id='-110543' action='modify' visible='true' lat='-30.3588354' lon='152.7778575' />
  <node id='-110544' action='modify' visible='true' lat='-30.3591813' lon='152.7779588' />
  <node id='-110545' action='modify' visible='true' lat='-30.359281' lon='152.778073' />
  <node id='-110546' action='modify' visible='true' lat='-30.3595097' lon='152.7781221' />
  <node id='-110547' action='modify' visible='true' lat='-30.3597016' lon='152.778074' />
  <node id='-110548' action='modify' visible='true' lat='-30.3599057' lon='152.7779908' />
  <node id='-110549' action='modify' visible='true' lat='-30.3599509' lon='152.7779946' />
  <node id='-110550' action='modify' visible='true' lat='-30.3600174' lon='152.7780548' />
  <node id='-110551' action='modify' visible='true' lat='-30.3601774' lon='152.7783245' />
  <node id='-110552' action='modify' visible='true' lat='-30.3601775' lon='152.778389' />
  <node id='-110553' action='modify' visible='true' lat='-30.3600153' lon='152.7785436' />
  <node id='-110554' action='modify' visible='true' lat='-30.3599723' lon='152.7786629' />
  <node id='-110555' action='modify' visible='true' lat='-30.3599842' lon='152.7788639' />
  <node id='-110556' action='modify' visible='true' lat='-30.3600174' lon='152.7789771' />
  <node id='-110557' action='modify' visible='true' lat='-30.3600278' lon='152.7790975' />
  <node id='-110558' action='modify' visible='true' lat='-30.3599889' lon='152.779194' />
  <node id='-110559' action='modify' visible='true' lat='-30.3599883' lon='152.7792805' />
  <node id='-110560' action='modify' visible='true' lat='-30.3600403' lon='152.7793648' />
  <node id='-110561' action='modify' visible='true' lat='-30.3600673' lon='152.7795887' />
  <node id='-110562' action='modify' visible='true' lat='-30.360034' lon='152.7796513' />
  <node id='-110563' action='modify' visible='true' lat='-30.3600507' lon='152.7797236' />
  <node id='-110564' action='modify' visible='true' lat='-30.3600922' lon='152.779803' />
  <node id='-110565' action='modify' visible='true' lat='-30.3600922' lon='152.7798753' />
  <node id='-110566' action='modify' visible='true' lat='-30.3600569' lon='152.7799331' />
  <node id='-110567' action='modify' visible='true' lat='-30.36006' lon='152.7799907' />
  <node id='-110568' action='modify' visible='true' lat='-30.3600673' lon='152.780039' />
  <node id='-110569' action='modify' visible='true' lat='-30.3604579' lon='152.7801892' />
  <node id='-110570' action='modify' visible='true' lat='-30.3606901' lon='152.780057' />
  <node id='-110571' action='modify' visible='true' lat='-30.3607738' lon='152.7802365' />
  <node id='-110572' action='modify' visible='true' lat='-30.3607571' lon='152.7805375' />
  <node id='-110573' action='modify' visible='true' lat='-30.3607875' lon='152.7806187' />
  <node id='-110574' action='modify' visible='true' lat='-30.3608922' lon='152.7806603' />
  <node id='-110575' action='modify' visible='true' lat='-30.361048' lon='152.7806025' />
  <node id='-110576' action='modify' visible='true' lat='-30.3611228' lon='152.7806338' />
  <node id='-110577' action='modify' visible='true' lat='-30.361368' lon='152.7805327' />
  <node id='-110578' action='modify' visible='true' lat='-30.3615738' lon='152.7804755' />
  <node id='-110579' action='modify' visible='true' lat='-30.3616444' lon='152.7804773' />
  <node id='-110580' action='modify' visible='true' lat='-30.361821' lon='152.7805736' />
  <node id='-110581' action='modify' visible='true' lat='-30.3619427' lon='152.7807421' />
  <node id='-110582' action='modify' visible='true' lat='-30.3619664' lon='152.7808144' />
  <node id='-110583' action='modify' visible='true' lat='-30.3619249' lon='152.7810022' />
  <node id='-110584' action='modify' visible='true' lat='-30.3618043' lon='152.781166' />
  <node id='-110585' action='modify' visible='true' lat='-30.3616984' lon='152.7814838' />
  <node id='-110586' action='modify' visible='true' lat='-30.3616591' lon='152.7817344' />
  <node id='-110587' action='modify' visible='true' lat='-30.3617358' lon='152.7816657' />
  <node id='-110588' action='modify' visible='true' lat='-30.3620911' lon='152.7816789' />
  <node id='-110589' action='modify' visible='true' lat='-30.3621973' lon='152.7817282' />
  <node id='-110590' action='modify' visible='true' lat='-30.3623155' lon='152.7816789' />
  <node id='-110591' action='modify' visible='true' lat='-30.3624221' lon='152.7815051' />
  <node id='-110592' action='modify' visible='true' lat='-30.362544' lon='152.7814453' />
  <node id='-110593' action='modify' visible='true' lat='-30.3627758' lon='152.7814015' />
  <node id='-110594' action='modify' visible='true' lat='-30.3628931' lon='152.7813923' />
  <node id='-110595' action='modify' visible='true' lat='-30.3630448' lon='152.7814285' />
  <node id='-110596' action='modify' visible='true' lat='-30.3631958' lon='152.7815199' />
  <node id='-110597' action='modify' visible='true' lat='-30.3633814' lon='152.7817728' />
  <node id='-110598' action='modify' visible='true' lat='-30.363538' lon='152.7821295' />
  <node id='-110599' action='modify' visible='true' lat='-30.3636188' lon='152.7824638' />
  <node id='-110600' action='modify' visible='true' lat='-30.3636037' lon='152.7827216' />
  <node id='-110601' action='modify' visible='true' lat='-30.3634915' lon='152.7830587' />
  <node id='-110602' action='modify' visible='true' lat='-30.3634048' lon='152.7832087' />
  <node id='-110603' action='modify' visible='true' lat='-30.3636037' lon='152.7833886' />
  <node id='-110604' action='modify' visible='true' lat='-30.3637114' lon='152.7834325' />
  <node id='-110605' action='modify' visible='true' lat='-30.3637367' lon='152.7835283' />
  <node id='-110606' action='modify' visible='true' lat='-30.3636827' lon='152.7837089' />
  <node id='-110607' action='modify' visible='true' lat='-30.3635559' lon='152.7839738' />
  <node id='-110608' action='modify' visible='true' lat='-30.3635537' lon='152.7840451' />
  <node id='-110609' action='modify' visible='true' lat='-30.363612' lon='152.7842483' />
  <node id='-110610' action='modify' visible='true' lat='-30.3635985' lon='152.7844562' />
  <node id='-110611' action='modify' visible='true' lat='-30.3634998' lon='152.7846577' />
  <node id='-110612' action='modify' visible='true' lat='-30.3633855' lon='152.7848118' />
  <node id='-110613' action='modify' visible='true' lat='-30.3633481' lon='152.7849153' />
  <node id='-110614' action='modify' visible='true' lat='-30.3632983' lon='152.7849587' />
  <node id='-110615' action='modify' visible='true' lat='-30.3632387' lon='152.7850789' />
  <node id='-110616' action='modify' visible='true' lat='-30.3634063' lon='152.7852886' />
  <node id='-110617' action='modify' visible='true' lat='-30.3635331' lon='152.7853078' />
  <node id='-110618' action='modify' visible='true' lat='-30.3636369' lon='152.7854258' />
  <node id='-110619' action='modify' visible='true' lat='-30.3637284' lon='152.7854337' />
  <node id='-110620' action='modify' visible='true' lat='-30.3637949' lon='152.7854836' />
  <node id='-110621' action='modify' visible='true' lat='-30.3638186' lon='152.7856556' />
  <node id='-110622' action='modify' visible='true' lat='-30.3639257' lon='152.7857485' />
  <node id='-110623' action='modify' visible='true' lat='-30.3641003' lon='152.7858208' />
  <node id='-110624' action='modify' visible='true' lat='-30.3642312' lon='152.785905' />
  <node id='-110625' action='modify' visible='true' lat='-30.3643351' lon='152.7860206' />
  <node id='-110626' action='modify' visible='true' lat='-30.3643953' lon='152.7861386' />
  <node id='-110627' action='modify' visible='true' lat='-30.364547' lon='152.7862518' />
  <node id='-110628' action='modify' visible='true' lat='-30.3647194' lon='152.7862951' />
  <node id='-110629' action='modify' visible='true' lat='-30.3649002' lon='152.7863891' />
  <node id='-110630' action='modify' visible='true' lat='-30.3650519' lon='152.7865263' />
  <node id='-110631' action='modify' visible='true' lat='-30.3651246' lon='152.7866636' />
  <node id='-110632' action='modify' visible='true' lat='-30.3652721' lon='152.7867719' />
  <node id='-110633' action='modify' visible='true' lat='-30.3653573' lon='152.7869357' />
  <node id='-110634' action='modify' visible='true' lat='-30.3655268' lon='152.7871293' />
  <node id='-110635' action='modify' visible='true' lat='-30.3658331' lon='152.7873138' />
  <node id='-110636' action='modify' visible='true' lat='-30.3661385' lon='152.7874101' />
  <node id='-110637' action='modify' visible='true' lat='-30.3664707' lon='152.7875613' />
  <node id='-110638' action='modify' visible='true' lat='-30.3670288' lon='152.7874615' />
  <node id='-110639' action='modify' visible='true' lat='-30.3672044' lon='152.7874775' />
  <node id='-110640' action='modify' visible='true' lat='-30.3673858' lon='152.7875574' />
  <node id='-110641' action='modify' visible='true' lat='-30.3674236' lon='152.787557' />
  <node id='-110642' action='modify' visible='true' lat='-30.3674568' lon='152.787547' />
  <node id='-110643' action='modify' visible='true' lat='-30.3674942' lon='152.7875052' />
  <node id='-110644' action='modify' visible='true' lat='-30.3675212' lon='152.7874486' />
  <node id='-110645' action='modify' visible='true' lat='-30.3675166' lon='152.7874245' />
  <node id='-110646' action='modify' visible='true' lat='-30.3674942' lon='152.7874095' />
  <node id='-110647' action='modify' visible='true' lat='-30.3675027' lon='152.7873859' />
  <node id='-110648' action='modify' visible='true' lat='-30.3675228' lon='152.787377' />
  <node id='-110649' action='modify' visible='true' lat='-30.3675436' lon='152.7873782' />
  <node id='-110650' action='modify' visible='true' lat='-30.3675781' lon='152.7873907' />
  <node id='-110651' action='modify' visible='true' lat='-30.3675929' lon='152.7874287' />
  <node id='-110652' action='modify' visible='true' lat='-30.3675794' lon='152.7875144' />
  <node id='-110653' action='modify' visible='true' lat='-30.3675332' lon='152.787575' />
  <node id='-110654' action='modify' visible='true' lat='-30.3674729' lon='152.787609' />
  <node id='-110655' action='modify' visible='true' lat='-30.3673348' lon='152.7876213' />
  <node id='-110656' action='modify' visible='true' lat='-30.3673527' lon='152.7876689' />
  <node id='-110657' action='modify' visible='true' lat='-30.3673758' lon='152.78769' />
  <node id='-110658' action='modify' visible='true' lat='-30.3674631' lon='152.7877141' />
  <node id='-110659' action='modify' visible='true' lat='-30.3676224' lon='152.7877866' />
  <node id='-110660' action='modify' visible='true' lat='-30.3676968' lon='152.7878977' />
  <node id='-110661' action='modify' visible='true' lat='-30.3678029' lon='152.7882024' />
  <node id='-110662' action='modify' visible='true' lat='-30.3678079' lon='152.7882902' />
  <node id='-110663' action='modify' visible='true' lat='-30.3677903' lon='152.7883661' />
  <node id='-110664' action='modify' visible='true' lat='-30.367798' lon='152.7884404' />
  <node id='-110665' action='modify' visible='true' lat='-30.3678349' lon='152.7885047' />
  <node id='-110666' action='modify' visible='true' lat='-30.3678537' lon='152.7885238' />
  <node id='-110667' action='modify' visible='true' lat='-30.3679056' lon='152.7885153' />
  <node id='-110668' action='modify' visible='true' lat='-30.3679277' lon='152.7884112' />
  <node id='-110669' action='modify' visible='true' lat='-30.3679087' lon='152.788289' />
  <node id='-110670' action='modify' visible='true' lat='-30.367952' lon='152.7876939' />
  <node id='-110671' action='modify' visible='true' lat='-30.3679679' lon='152.7875871' />
  <node id='-110672' action='modify' visible='true' lat='-30.3680147' lon='152.7874522' />
  <node id='-110673' action='modify' visible='true' lat='-30.3680178' lon='152.787398' />
  <node id='-110674' action='modify' visible='true' lat='-30.3680559' lon='152.7873091' />
  <node id='-110675' action='modify' visible='true' lat='-30.368049' lon='152.7872596' />
  <node id='-110676' action='modify' visible='true' lat='-30.3680209' lon='152.7871825' />
  <node id='-110677' action='modify' visible='true' lat='-30.3679792' lon='152.7871187' />
  <node id='-110678' action='modify' visible='true' lat='-30.3679222' lon='152.7871175' />
  <node id='-110679' action='modify' visible='true' lat='-30.367828' lon='152.7870637' />
  <node id='-110680' action='modify' visible='true' lat='-30.3678685' lon='152.7870021' />
  <node id='-110681' action='modify' visible='true' lat='-30.3679534' lon='152.7869754' />
  <node id='-110682' action='modify' visible='true' lat='-30.3679931' lon='152.7869768' />
  <node id='-110683' action='modify' visible='true' lat='-30.3680282' lon='152.7870134' />
  <node id='-110684' action='modify' visible='true' lat='-30.3680843' lon='152.7870392' />
  <node id='-110685' action='modify' visible='true' lat='-30.3681457' lon='152.7871131' />
  <node id='-110686' action='modify' visible='true' lat='-30.3681414' lon='152.787138' />
  <node id='-110687' action='modify' visible='true' lat='-30.368145' lon='152.7871608' />
  <node id='-110688' action='modify' visible='true' lat='-30.3681576' lon='152.7871791' />
  <node id='-110689' action='modify' visible='true' lat='-30.3681984' lon='152.7871043' />
  <node id='-110690' action='modify' visible='true' lat='-30.368197' lon='152.7870826' />
  <node id='-110691' action='modify' visible='true' lat='-30.3681809' lon='152.7870501' />
  <node id='-110692' action='modify' visible='true' lat='-30.3681492' lon='152.7870438' />
  <node id='-110693' action='modify' visible='true' lat='-30.3680038' lon='152.7869068' />
  <node id='-110694' action='modify' visible='true' lat='-30.3679258' lon='152.7868623' />
  <node id='-110695' action='modify' visible='true' lat='-30.367822' lon='152.7868508' />
  <node id='-110696' action='modify' visible='true' lat='-30.3677664' lon='152.7868159' />
  <node id='-110697' action='modify' visible='true' lat='-30.3677207' lon='152.7868032' />
  <node id='-110698' action='modify' visible='true' lat='-30.3676998' lon='152.7867794' />
  <node id='-110699' action='modify' visible='true' lat='-30.3677058' lon='152.7867617' />
  <node id='-110700' action='modify' visible='true' lat='-30.3677581' lon='152.7867527' />
  <node id='-110701' action='modify' visible='true' lat='-30.3677929' lon='152.7867593' />
  <node id='-110702' action='modify' visible='true' lat='-30.3678999' lon='152.7867485' />
  <node id='-110703' action='modify' visible='true' lat='-30.3679468' lon='152.7867359' />
  <node id='-110704' action='modify' visible='true' lat='-30.3680651' lon='152.7867701' />
  <node id='-110705' action='modify' visible='true' lat='-30.3681731' lon='152.7867822' />
  <node id='-110706' action='modify' visible='true' lat='-30.3684656' lon='152.7868461' />
  <node id='-110707' action='modify' visible='true' lat='-30.3685313' lon='152.7868991' />
  <node id='-110708' action='modify' visible='true' lat='-30.3685455' lon='152.7869363' />
  <node id='-110709' action='modify' visible='true' lat='-30.3685481' lon='152.7869766' />
  <node id='-110710' action='modify' visible='true' lat='-30.3685633' lon='152.7870056' />
  <node id='-110711' action='modify' visible='true' lat='-30.3687273' lon='152.7870645' />
  <node id='-110712' action='modify' visible='true' lat='-30.3687509' lon='152.7870882' />
  <node id='-110713' action='modify' visible='true' lat='-30.3687226' lon='152.7871169' />
  <node id='-110714' action='modify' visible='true' lat='-30.3686935' lon='152.7871241' />
  <node id='-110715' action='modify' visible='true' lat='-30.3686629' lon='152.7871506' />
  <node id='-110716' action='modify' visible='true' lat='-30.3685917' lon='152.7872335' />
  <node id='-110717' action='modify' visible='true' lat='-30.3685954' lon='152.787265' />
  <node id='-110718' action='modify' visible='true' lat='-30.3686167' lon='152.787324' />
  <node id='-110719' action='modify' visible='true' lat='-30.3686037' lon='152.7873752' />
  <node id='-110720' action='modify' visible='true' lat='-30.3686084' lon='152.7874072' />
  <node id='-110721' action='modify' visible='true' lat='-30.3686411' lon='152.7874097' />
  <node id='-110722' action='modify' visible='true' lat='-30.368663' lon='152.7874088' />
  <node id='-110723' action='modify' visible='true' lat='-30.3687834' lon='152.7874432' />
  <node id='-110724' action='modify' visible='true' lat='-30.368923' lon='152.7875034' />
  <node id='-110725' action='modify' visible='true' lat='-30.3690917' lon='152.7875161' />
  <node id='-110726' action='modify' visible='true' lat='-30.3691501' lon='152.7875558' />
  <node id='-110727' action='modify' visible='true' lat='-30.3692322' lon='152.7875823' />
  <node id='-110728' action='modify' visible='true' lat='-30.3693153' lon='152.7876629' />
  <node id='-110729' action='modify' visible='true' lat='-30.3694607' lon='152.7877364' />
  <node id='-110730' action='modify' visible='true' lat='-30.3695047' lon='152.7877708' />
  <node id='-110731' action='modify' visible='true' lat='-30.369522' lon='152.7878243' />
  <node id='-110732' action='modify' visible='true' lat='-30.3695073' lon='152.7878971' />
  <node id='-110733' action='modify' visible='true' lat='-30.369355' lon='152.7878014' />
  <node id='-110734' action='modify' visible='true' lat='-30.3692261' lon='152.7877788' />
  <node id='-110735' action='modify' visible='true' lat='-30.368986' lon='152.7878182' />
  <node id='-110736' action='modify' visible='true' lat='-30.3688771' lon='152.7878595' />
  <node id='-110737' action='modify' visible='true' lat='-30.3687631' lon='152.7879441' />
  <node id='-110738' action='modify' visible='true' lat='-30.3686406' lon='152.7881036' />
  <node id='-110739' action='modify' visible='true' lat='-30.3686328' lon='152.7881256' />
  <node id='-110740' action='modify' visible='true' lat='-30.3686468' lon='152.7881241' />
  <node id='-110741' action='modify' visible='true' lat='-30.3688281' lon='152.7880043' />
  <node id='-110742' action='modify' visible='true' lat='-30.368915' lon='152.7879715' />
  <node id='-110743' action='modify' visible='true' lat='-30.3689481' lon='152.7879706' />
  <node id='-110744' action='modify' visible='true' lat='-30.3690229' lon='152.7879934' />
  <node id='-110745' action='modify' visible='true' lat='-30.3690396' lon='152.7880042' />
  <node id='-110746' action='modify' visible='true' lat='-30.3690457' lon='152.7880241' />
  <node id='-110747' action='modify' visible='true' lat='-30.3690447' lon='152.78805' />
  <node id='-110748' action='modify' visible='true' lat='-30.3690234' lon='152.7880976' />
  <node id='-110749' action='modify' visible='true' lat='-30.368986' lon='152.7881403' />
  <node id='-110750' action='modify' visible='true' lat='-30.3688892' lon='152.7882204' />
  <node id='-110751' action='modify' visible='true' lat='-30.3688156' lon='152.7883601' />
  <node id='-110752' action='modify' visible='true' lat='-30.3687802' lon='152.7883983' />
  <node id='-110753' action='modify' visible='true' lat='-30.3687309' lon='152.7884124' />
  <node id='-110754' action='modify' visible='true' lat='-30.3687028' lon='152.7884466' />
  <node id='-110755' action='modify' visible='true' lat='-30.3686671' lon='152.7885509' />
  <node id='-110756' action='modify' visible='true' lat='-30.3684735' lon='152.7889411' />
  <node id='-110757' action='modify' visible='true' lat='-30.3684198' lon='152.7890066' />
  <node id='-110758' action='modify' visible='true' lat='-30.36829' lon='152.7891234' />
  <node id='-110759' action='modify' visible='true' lat='-30.3682484' lon='152.7891908' />
  <node id='-110760' action='modify' visible='true' lat='-30.3681643' lon='152.7892522' />
  <node id='-110761' action='modify' visible='true' lat='-30.3681497' lon='152.7892811' />
  <node id='-110762' action='modify' visible='true' lat='-30.3681447' lon='152.7893115' />
  <node id='-110763' action='modify' visible='true' lat='-30.3681538' lon='152.7893395' />
  <node id='-110764' action='modify' visible='true' lat='-30.3681414' lon='152.7893654' />
  <node id='-110765' action='modify' visible='true' lat='-30.3680763' lon='152.7894249' />
  <node id='-110766' action='modify' visible='true' lat='-30.3677926' lon='152.7892501' />
  <node id='-110767' action='modify' visible='true' lat='-30.3676359' lon='152.7892267' />
  <node id='-110768' action='modify' visible='true' lat='-30.367595' lon='152.7892318' />
  <node id='-110769' action='modify' visible='true' lat='-30.367431' lon='152.7893033' />
  <node id='-110770' action='modify' visible='true' lat='-30.3672967' lon='152.7892783' />
  <node id='-110771' action='modify' visible='true' lat='-30.3672553' lon='152.7892101' />
  <node id='-110772' action='modify' visible='true' lat='-30.3672449' lon='152.7891029' />
  <node id='-110773' action='modify' visible='true' lat='-30.3671358' lon='152.7888934' />
  <node id='-110774' action='modify' visible='true' lat='-30.3670078' lon='152.78885' />
  <node id='-110775' action='modify' visible='true' lat='-30.3669187' lon='152.7888621' />
  <node id='-110776' action='modify' visible='true' lat='-30.3668408' lon='152.7888898' />
  <node id='-110777' action='modify' visible='true' lat='-30.3666351' lon='152.7889332' />
  <node id='-110778' action='modify' visible='true' lat='-30.3665874' lon='152.7889324' />
  <node id='-110779' action='modify' visible='true' lat='-30.3664782' lon='152.7889765' />
  <node id='-110780' action='modify' visible='true' lat='-30.3663282' lon='152.7890088' />
  <node id='-110781' action='modify' visible='true' lat='-30.3662912' lon='152.7889609' />
  <node id='-110782' action='modify' visible='true' lat='-30.3662185' lon='152.7889019' />
  <node id='-110783' action='modify' visible='true' lat='-30.3660544' lon='152.7888384' />
  <node id='-110784' action='modify' visible='true' lat='-30.3659606' lon='152.7888268' />
  <node id='-110785' action='modify' visible='true' lat='-30.3658466' lon='152.7888501' />
  <node id='-110786' action='modify' visible='true' lat='-30.365765' lon='152.7888411' />
  <node id='-110787' action='modify' visible='true' lat='-30.3657292' lon='152.7888585' />
  <node id='-110788' action='modify' visible='true' lat='-30.3656377' lon='152.7889919' />
  <node id='-110789' action='modify' visible='true' lat='-30.3656518' lon='152.7890548' />
  <node id='-110790' action='modify' visible='true' lat='-30.3656476' lon='152.7891376' />
  <node id='-110791' action='modify' visible='true' lat='-30.3656223' lon='152.7892275' />
  <node id='-110792' action='modify' visible='true' lat='-30.365629' lon='152.7892559' />
  <node id='-110793' action='modify' visible='true' lat='-30.3656508' lon='152.7892938' />
  <node id='-110794' action='modify' visible='true' lat='-30.3657355' lon='152.7893425' />
  <node id='-110795' action='modify' visible='true' lat='-30.3658179' lon='152.7894016' />
  <node id='-110796' action='modify' visible='true' lat='-30.3659308' lon='152.789772' />
  <node id='-110797' action='modify' visible='true' lat='-30.3659432' lon='152.7900688' />
  <node id='-110798' action='modify' visible='true' lat='-30.3660429' lon='152.7902235' />
  <node id='-110799' action='modify' visible='true' lat='-30.3660305' lon='152.7902564' />
  <node id='-110800' action='modify' visible='true' lat='-30.3659682' lon='152.7903166' />
  <node id='-110801' action='modify' visible='true' lat='-30.3659266' lon='152.7904755' />
  <node id='-110802' action='modify' visible='true' lat='-30.3657907' lon='152.7907377' />
  <node id='-110803' action='modify' visible='true' lat='-30.3657001' lon='152.7907958' />
  <node id='-110804' action='modify' visible='true' lat='-30.365642' lon='152.7909499' />
  <node id='-110805' action='modify' visible='true' lat='-30.365536' lon='152.791092' />
  <node id='-110806' action='modify' visible='true' lat='-30.365519' lon='152.7911711' />
  <node id='-110807' action='modify' visible='true' lat='-30.3655048' lon='152.7913858' />
  <node id='-110808' action='modify' visible='true' lat='-30.3655234' lon='152.7915914' />
  <node id='-110809' action='modify' visible='true' lat='-30.3655734' lon='152.7917277' />
  <node id='-110810' action='modify' visible='true' lat='-30.3657189' lon='152.7918938' />
  <node id='-110811' action='modify' visible='true' lat='-30.3658061' lon='152.7919348' />
  <node id='-110812' action='modify' visible='true' lat='-30.3658844' lon='152.7919448' />
  <node id='-110813' action='modify' visible='true' lat='-30.3660061' lon='152.7920685' />
  <node id='-110814' action='modify' visible='true' lat='-30.3661076' lon='152.7920997' />
  <node id='-110815' action='modify' visible='true' lat='-30.3661759' lon='152.7921732' />
  <node id='-110816' action='modify' visible='true' lat='-30.3662147' lon='152.7923026' />
  <node id='-110817' action='modify' visible='true' lat='-30.3662944' lon='152.7923514' />
  <node id='-110818' action='modify' visible='true' lat='-30.366481' lon='152.7926042' />
  <node id='-110819' action='modify' visible='true' lat='-30.3667143' lon='152.7927165' />
  <node id='-110820' action='modify' visible='true' lat='-30.3668512' lon='152.7926717' />
  <node id='-110821' action='modify' visible='true' lat='-30.3669489' lon='152.7926635' />
  <node id='-110822' action='modify' visible='true' lat='-30.3670757' lon='152.792713' />
  <node id='-110823' action='modify' visible='true' lat='-30.3671628' lon='152.7929269' />
  <node id='-110824' action='modify' visible='true' lat='-30.367179' lon='152.7930304' />
  <node id='-110825' action='modify' visible='true' lat='-30.36714' lon='152.7930618' />
  <node id='-110826' action='modify' visible='true' lat='-30.3671254' lon='152.793134' />
  <node id='-110827' action='modify' visible='true' lat='-30.3671545' lon='152.7932496' />
  <node id='-110828' action='modify' visible='true' lat='-30.3671245' lon='152.7933949' />
  <node id='-110829' action='modify' visible='true' lat='-30.3670289' lon='152.7935391' />
  <node id='-110830' action='modify' visible='true' lat='-30.3670236' lon='152.7937698' />
  <node id='-110831' action='modify' visible='true' lat='-30.3670541' lon='152.7938931' />
  <node id='-110832' action='modify' visible='true' lat='-30.3669717' lon='152.794367' />
  <node id='-110833' action='modify' visible='true' lat='-30.3669114' lon='152.7944898' />
  <node id='-110834' action='modify' visible='true' lat='-30.3669053' lon='152.7945688' />
  <node id='-110835' action='modify' visible='true' lat='-30.3669785' lon='152.7947203' />
  <node id='-110836' action='modify' visible='true' lat='-30.3669696' lon='152.7947667' />
  <node id='-110837' action='modify' visible='true' lat='-30.3668809' lon='152.794783' />
  <node id='-110838' action='modify' visible='true' lat='-30.3668138' lon='152.7948293' />
  <node id='-110839' action='modify' visible='true' lat='-30.3665146' lon='152.795231' />
  <node id='-110840' action='modify' visible='true' lat='-30.3665219' lon='152.7953169' />
  <node id='-110841' action='modify' visible='true' lat='-30.3666109' lon='152.7954206' />
  <node id='-110842' action='modify' visible='true' lat='-30.3666434' lon='152.7956432' />
  <node id='-110843' action='modify' visible='true' lat='-30.3666076' lon='152.7958037' />
  <node id='-110844' action='modify' visible='true' lat='-30.3664509' lon='152.7957668' />
  <node id='-110845' action='modify' visible='true' lat='-30.3658949' lon='152.79617' />
  <node id='-110846' action='modify' visible='true' lat='-30.3657897' lon='152.7961656' />
  <node id='-110847' action='modify' visible='true' lat='-30.3656752' lon='152.7962428' />
  <node id='-110848' action='modify' visible='true' lat='-30.3655443' lon='152.796421' />
  <node id='-110849' action='modify' visible='true' lat='-30.3654504' lon='152.7966371' />
  <node id='-110850' action='modify' visible='true' lat='-30.365322' lon='152.7967509' />
  <node id='-110851' action='modify' visible='true' lat='-30.3651703' lon='152.796999' />
  <node id='-110852' action='modify' visible='true' lat='-30.3651101' lon='152.7971531' />
  <node id='-110853' action='modify' visible='true' lat='-30.3650526' lon='152.7971815' />
  <node id='-110854' action='modify' visible='true' lat='-30.3649792' lon='152.7971916' />
  <node id='-110855' action='modify' visible='true' lat='-30.3648898' lon='152.7970447' />
  <node id='-110856' action='modify' visible='true' lat='-30.3647839' lon='152.7969399' />
  <node id='-110857' action='modify' visible='true' lat='-30.3647319' lon='152.7969171' />
  <node id='-110858' action='modify' visible='true' lat='-30.3645553' lon='152.7969291' />
  <node id='-110859' action='modify' visible='true' lat='-30.364414' lon='152.7970279' />
  <node id='-110860' action='modify' visible='true' lat='-30.3642977' lon='152.7971627' />
  <node id='-110861' action='modify' visible='true' lat='-30.3641626' lon='152.7972494' />
  <node id='-110862' action='modify' visible='true' lat='-30.364094' lon='152.797259' />
  <node id='-110863' action='modify' visible='true' lat='-30.3640483' lon='152.7972301' />
  <node id='-110864' action='modify' visible='true' lat='-30.3639195' lon='152.7972494' />
  <node id='-110865' action='modify' visible='true' lat='-30.3638699' lon='152.7972941' />
  <node id='-110866' action='modify' visible='true' lat='-30.3638156' lon='152.7975095' />
  <node id='-110867' action='modify' visible='true' lat='-30.3637608' lon='152.7976257' />
  <node id='-110868' action='modify' visible='true' lat='-30.3636827' lon='152.7977045' />
  <node id='-110869' action='modify' visible='true' lat='-30.3634292' lon='152.7974637' />
  <node id='-110870' action='modify' visible='true' lat='-30.363103' lon='152.7973313' />
  <node id='-110871' action='modify' visible='true' lat='-30.3630074' lon='152.7973168' />
  <node id='-110872' action='modify' visible='true' lat='-30.3629326' lon='152.7972759' />
  <node id='-110873' action='modify' visible='true' lat='-30.3627416' lon='152.7972293' />
  <node id='-110874' action='modify' visible='true' lat='-30.362623' lon='152.797247' />
  <node id='-110875' action='modify' visible='true' lat='-30.3625194' lon='152.7973307' />
  <node id='-110876' action='modify' visible='true' lat='-30.3623633' lon='152.7973048' />
  <node id='-110877' action='modify' visible='true' lat='-30.3622146' lon='152.7973184' />
  <node id='-110878' action='modify' visible='true' lat='-30.3621181' lon='152.797365' />
  <node id='-110879' action='modify' visible='true' lat='-30.3619747' lon='152.7975191' />
  <node id='-110880' action='modify' visible='true' lat='-30.3618501' lon='152.7975986' />
  <node id='-110881' action='modify' visible='true' lat='-30.3617745' lon='152.7977203' />
  <node id='-110882' action='modify' visible='true' lat='-30.3617094' lon='152.7979695' />
  <node id='-110883' action='modify' visible='true' lat='-30.3622674' lon='152.7981757' />
  <way id='-110472' action='modify' visible='true'>
    <nd ref='-110473' />
    <nd ref='-110474' />
    <nd ref='-110475' />
    <nd ref='-110476' />
    <nd ref='-110477' />
    <nd ref='-110478' />
    <nd ref='-110479' />
    <nd ref='-110480' />
    <nd ref='-110481' />
    <nd ref='-110482' />
    <nd ref='-110483' />
    <nd ref='-110484' />
    <nd ref='-110485' />
    <nd ref='-110486' />
    <nd ref='-110487' />
    <nd ref='-110488' />
    <nd ref='-110489' />
    <nd ref='-110490' />
    <nd ref='-110491' />
    <nd ref='-110492' />
    <nd ref='-110493' />
    <nd ref='-110494' />
    <nd ref='-110495' />
    <nd ref='-110496' />
    <nd ref='-110497' />
    <nd ref='-110498' />
    <nd ref='-110499' />
    <nd ref='-110500' />
    <nd ref='-110501' />
    <nd ref='-110502' />
    <nd ref='-110503' />
    <nd ref='-110504' />
    <nd ref='-110505' />
    <nd ref='-110506' />
    <nd ref='-110507' />
    <nd ref='-110508' />
    <nd ref='-110509' />
    <nd ref='-110510' />
    <nd ref='-110511' />
    <nd ref='-110512' />
    <nd ref='-110513' />
    <nd ref='-110514' />
    <nd ref='-110515' />
    <nd ref='-110516' />
    <nd ref='-110517' />
    <nd ref='-110518' />
    <nd ref='-110519' />
    <nd ref='-110520' />
    <nd ref='-110521' />
    <nd ref='-110522' />
    <nd ref='-110523' />
    <nd ref='-110524' />
    <nd ref='-110525' />
    <nd ref='-110526' />
    <nd ref='-110527' />
    <nd ref='-110528' />
    <nd ref='-110529' />
    <nd ref='-110530' />
    <nd ref='-110531' />
    <nd ref='-110532' />
    <nd ref='-110533' />
    <nd ref='-110534' />
    <nd ref='-110535' />
    <nd ref='-110536' />
    <nd ref='-110537' />
    <nd ref='-110538' />
    <nd ref='-110539' />
    <nd ref='-110540' />
    <nd ref='-110541' />
    <nd ref='-110542' />
    <nd ref='-110543' />
    <nd ref='-110544' />
    <nd ref='-110545' />
    <nd ref='-110546' />
    <nd ref='-110547' />
    <nd ref='-110548' />
    <nd ref='-110549' />
    <nd ref='-110550' />
    <nd ref='-110551' />
    <nd ref='-110552' />
    <nd ref='-110553' />
    <nd ref='-110554' />
    <nd ref='-110555' />
    <nd ref='-110556' />
    <nd ref='-110557' />
    <nd ref='-110558' />
    <nd ref='-110559' />
    <nd ref='-110560' />
    <nd ref='-110561' />
    <nd ref='-110562' />
    <nd ref='-110563' />
    <nd ref='-110564' />
    <nd ref='-110565' />
    <nd ref='-110566' />
    <nd ref='-110567' />
    <nd ref='-110568' />
    <nd ref='-110569' />
    <nd ref='-110570' />
    <nd ref='-110571' />
    <nd ref='-110572' />
    <nd ref='-110573' />
    <nd ref='-110574' />
    <nd ref='-110575' />
    <nd ref='-110576' />
    <nd ref='-110577' />
    <nd ref='-110578' />
    <nd ref='-110579' />
    <nd ref='-110580' />
    <nd ref='-110581' />
    <nd ref='-110582' />
    <nd ref='-110583' />
    <nd ref='-110584' />
    <nd ref='-110585' />
    <nd ref='-110586' />
    <nd ref='-110587' />
    <nd ref='-110588' />
    <nd ref='-110589' />
    <nd ref='-110590' />
    <nd ref='-110591' />
    <nd ref='-110592' />
    <nd ref='-110593' />
    <nd ref='-110594' />
    <nd ref='-110595' />
    <nd ref='-110596' />
    <nd ref='-110597' />
    <nd ref='-110598' />
    <nd ref='-110599' />
    <nd ref='-110600' />
    <nd ref='-110601' />
    <nd ref='-110602' />
    <nd ref='-110603' />
    <nd ref='-110604' />
    <nd ref='-110605' />
    <nd ref='-110606' />
    <nd ref='-110607' />
    <nd ref='-110608' />
    <nd ref='-110609' />
    <nd ref='-110610' />
    <nd ref='-110611' />
    <nd ref='-110612' />
    <nd ref='-110613' />
    <nd ref='-110614' />
    <nd ref='-110615' />
    <nd ref='-110616' />
    <nd ref='-110617' />
    <nd ref='-110618' />
    <nd ref='-110619' />
    <nd ref='-110620' />
    <nd ref='-110621' />
    <nd ref='-110622' />
    <nd ref='-110623' />
    <nd ref='-110624' />
    <nd ref='-110625' />
    <nd ref='-110626' />
    <nd ref='-110627' />
    <nd ref='-110628' />
    <nd ref='-110629' />
    <nd ref='-110630' />
    <nd ref='-110631' />
    <nd ref='-110632' />
    <nd ref='-110633' />
    <nd ref='-110634' />
    <nd ref='-110635' />
    <nd ref='-110636' />
    <nd ref='-110637' />
    <nd ref='-110638' />
    <nd ref='-110639' />
    <nd ref='-110640' />
    <nd ref='-110641' />
    <nd ref='-110642' />
    <nd ref='-110643' />
    <nd ref='-110644' />
    <nd ref='-110645' />
    <nd ref='-110646' />
    <nd ref='-110647' />
    <nd ref='-110648' />
    <nd ref='-110649' />
    <nd ref='-110650' />
    <nd ref='-110651' />
    <nd ref='-110652' />
    <nd ref='-110653' />
    <nd ref='-110654' />
    <nd ref='-110655' />
    <nd ref='-110656' />
    <nd ref='-110657' />
    <nd ref='-110658' />
    <nd ref='-110659' />
    <nd ref='-110660' />
    <nd ref='-110661' />
    <nd ref='-110662' />
    <nd ref='-110663' />
    <nd ref='-110664' />
    <nd ref='-110665' />
    <nd ref='-110666' />
    <nd ref='-110667' />
    <nd ref='-110668' />
    <nd ref='-110669' />
    <nd ref='-110670' />
    <nd ref='-110671' />
    <nd ref='-110672' />
    <nd ref='-110673' />
    <nd ref='-110674' />
    <nd ref='-110675' />
    <nd ref='-110676' />
    <nd ref='-110677' />
    <nd ref='-110678' />
    <nd ref='-110679' />
    <nd ref='-110680' />
    <nd ref='-110681' />
    <nd ref='-110682' />
    <nd ref='-110683' />
    <nd ref='-110684' />
    <nd ref='-110685' />
    <nd ref='-110686' />
    <nd ref='-110687' />
    <nd ref='-110688' />
    <nd ref='-110689' />
    <nd ref='-110690' />
    <nd ref='-110691' />
    <nd ref='-110692' />
    <nd ref='-110693' />
    <nd ref='-110694' />
    <nd ref='-110695' />
    <nd ref='-110696' />
    <nd ref='-110697' />
    <nd ref='-110698' />
    <nd ref='-110699' />
    <nd ref='-110700' />
    <nd ref='-110701' />
    <nd ref='-110702' />
    <nd ref='-110703' />
    <nd ref='-110704' />
    <nd ref='-110705' />
    <nd ref='-110706' />
    <nd ref='-110707' />
    <nd ref='-110708' />
    <nd ref='-110709' />
    <nd ref='-110710' />
    <nd ref='-110711' />
    <nd ref='-110712' />
    <nd ref='-110713' />
    <nd ref='-110714' />
    <nd ref='-110715' />
    <nd ref='-110716' />
    <nd ref='-110717' />
    <nd ref='-110718' />
    <nd ref='-110719' />
    <nd ref='-110720' />
    <nd ref='-110721' />
    <nd ref='-110722' />
    <nd ref='-110723' />
    <nd ref='-110724' />
    <nd ref='-110725' />
    <nd ref='-110726' />
    <nd ref='-110727' />
    <nd ref='-110728' />
    <nd ref='-110729' />
    <nd ref='-110730' />
    <nd ref='-110731' />
    <nd ref='-110732' />
    <nd ref='-110733' />
    <nd ref='-110734' />
    <nd ref='-110735' />
    <nd ref='-110736' />
    <nd ref='-110737' />
    <nd ref='-110738' />
    <nd ref='-110739' />
    <nd ref='-110740' />
    <nd ref='-110741' />
    <nd ref='-110742' />
    <nd ref='-110743' />
    <nd ref='-110744' />
    <nd ref='-110745' />
    <nd ref='-110746' />
    <nd ref='-110747' />
    <nd ref='-110748' />
    <nd ref='-110749' />
    <nd ref='-110750' />
    <nd ref='-110751' />
    <nd ref='-110752' />
    <nd ref='-110753' />
    <nd ref='-110754' />
    <nd ref='-110755' />
    <nd ref='-110756' />
    <nd ref='-110757' />
    <nd ref='-110758' />
    <nd ref='-110759' />
    <nd ref='-110760' />
    <nd ref='-110761' />
    <nd ref='-110762' />
    <nd ref='-110763' />
    <nd ref='-110764' />
    <nd ref='-110765' />
    <nd ref='-110766' />
    <nd ref='-110767' />
    <nd ref='-110768' />
    <nd ref='-110769' />
    <nd ref='-110770' />
    <nd ref='-110771' />
    <nd ref='-110772' />
    <nd ref='-110773' />
    <nd ref='-110774' />
    <nd ref='-110775' />
    <nd ref='-110776' />
    <nd ref='-110777' />
    <nd ref='-110778' />
    <nd ref='-110779' />
    <nd ref='-110780' />
    <nd ref='-110781' />
    <nd ref='-110782' />
    <nd ref='-110783' />
    <nd ref='-110784' />
    <nd ref='-110785' />
    <nd ref='-110786' />
    <nd ref='-110787' />
    <nd ref='-110788' />
    <nd ref='-110789' />
    <nd ref='-110790' />
    <nd ref='-110791' />
    <nd ref='-110792' />
    <nd ref='-110793' />
    <nd ref='-110794' />
    <nd ref='-110795' />
    <nd ref='-110796' />
    <nd ref='-110797' />
    <nd ref='-110798' />
    <nd ref='-110799' />
    <nd ref='-110800' />
    <nd ref='-110801' />
    <nd ref='-110802' />
    <nd ref='-110803' />
    <nd ref='-110804' />
    <nd ref='-110805' />
    <nd ref='-110806' />
    <nd ref='-110807' />
    <nd ref='-110808' />
    <nd ref='-110809' />
    <nd ref='-110810' />
    <nd ref='-110811' />
    <nd ref='-110812' />
    <nd ref='-110813' />
    <nd ref='-110814' />
    <nd ref='-110815' />
    <nd ref='-110816' />
    <nd ref='-110817' />
    <nd ref='-110818' />
    <nd ref='-110819' />
    <nd ref='-110820' />
    <nd ref='-110821' />
    <nd ref='-110822' />
    <nd ref='-110823' />
    <nd ref='-110824' />
    <nd ref='-110825' />
    <nd ref='-110826' />
    <nd ref='-110827' />
    <nd ref='-110828' />
    <nd ref='-110829' />
    <nd ref='-110830' />
    <nd ref='-110831' />
    <nd ref='-110832' />
    <nd ref='-110833' />
    <nd ref='-110834' />
    <nd ref='-110835' />
    <nd ref='-110836' />
    <nd ref='-110837' />
    <nd ref='-110838' />
    <nd ref='-110839' />
    <nd ref='-110840' />
    <nd ref='-110841' />
    <nd ref='-110842' />
    <nd ref='-110843' />
    <nd ref='-110844' />
    <nd ref='-110845' />
    <nd ref='-110846' />
    <nd ref='-110847' />
    <nd ref='-110848' />
    <nd ref='-110849' />
    <nd ref='-110850' />
    <nd ref='-110851' />
    <nd ref='-110852' />
    <nd ref='-110853' />
    <nd ref='-110854' />
    <nd ref='-110855' />
    <nd ref='-110856' />
    <nd ref='-110857' />
    <nd ref='-110858' />
    <nd ref='-110859' />
    <nd ref='-110860' />
    <nd ref='-110861' />
    <nd ref='-110862' />
    <nd ref='-110863' />
    <nd ref='-110864' />
    <nd ref='-110865' />
    <nd ref='-110866' />
    <nd ref='-110867' />
    <nd ref='-110868' />
    <nd ref='-110869' />
    <nd ref='-110870' />
    <nd ref='-110871' />
    <nd ref='-110872' />
    <nd ref='-110873' />
    <nd ref='-110874' />
    <nd ref='-110875' />
    <nd ref='-110876' />
    <nd ref='-110877' />
    <nd ref='-110878' />
    <nd ref='-110879' />
    <nd ref='-110880' />
    <nd ref='-110881' />
    <nd ref='-110882' />
    <nd ref='-110883' />
    <tag k='name' v='Blackbutt Track' />
    <tag k='park' v='Dorrigo National Park' />
    <tag k='role' v='primary' />
    <tag k='style' v='return' />
    <tag k='transport' v='car' />
  </way>
</osm>
