<?xml version='1.0' encoding='UTF-8'?>
<osm version='0.6' upload='false' generator='JOSM'>
  <node id='-136165' action='modify' visible='true' lat='-30.5330203' lon='152.0333323' />
  <node id='-136166' action='modify' visible='true' lat='-30.5329903' lon='152.0333753' />
  <node id='-136167' action='modify' visible='true' lat='-30.532951' lon='152.0334209' />
  <node id='-136168' action='modify' visible='true' lat='-30.5329141' lon='152.0334557' />
  <node id='-136169' action='modify' visible='true' lat='-30.5328794' lon='152.033496' />
  <node id='-136170' action='modify' visible='true' lat='-30.532858' lon='152.033528' />
  <node id='-136171' action='modify' visible='true' lat='-30.5353711' lon='152.0331541' />
  <node id='-136172' action='modify' visible='true' lat='-30.535423' lon='152.0333082' />
  <node id='-136173' action='modify' visible='true' lat='-30.5353907' lon='152.0334396' />
  <node id='-136174' action='modify' visible='true' lat='-30.535356' lon='152.0335121' />
  <node id='-136175' action='modify' visible='true' lat='-30.5353652' lon='152.0336328' />
  <node id='-136176' action='modify' visible='true' lat='-30.5352682' lon='152.0339519' />
  <node id='-136177' action='modify' visible='true' lat='-30.5313199' lon='152.0333846' />
  <node id='-136178' action='modify' visible='true' lat='-30.531301' lon='152.033455' />
  <node id='-136179' action='modify' visible='true' lat='-30.531421' lon='152.033461' />
  <node id='-136180' action='modify' visible='true' lat='-30.531469' lon='152.033489' />
  <node id='-136181' action='modify' visible='true' lat='-30.53164' lon='152.033526' />
  <node id='-136182' action='modify' visible='true' lat='-30.531716' lon='152.033513' />
  <node id='-136183' action='modify' visible='true' lat='-30.531806' lon='152.03347' />
  <node id='-136184' action='modify' visible='true' lat='-30.53197' lon='152.033438' />
  <node id='-136185' action='modify' visible='true' lat='-30.5320099' lon='152.033364' />
  <node id='-136186' action='modify' visible='true' lat='-30.5321286' lon='152.033394' />
  <node id='-136187' action='modify' visible='true' lat='-30.5322556' lon='152.0334074' />
  <node id='-136188' action='modify' visible='true' lat='-30.532348' lon='152.0333618' />
  <node id='-136189' action='modify' visible='true' lat='-30.5325066' lon='152.0333555' />
  <node id='-136190' action='modify' visible='true' lat='-30.5326946' lon='152.0333136' />
  <node id='-136191' action='modify' visible='true' lat='-30.5329141' lon='152.0333109' />
  <node id='-136192' action='modify' visible='true' lat='-30.533189' lon='152.033217' />
  <node id='-136193' action='modify' visible='true' lat='-30.5333854' lon='152.032989' />
  <node id='-136194' action='modify' visible='true' lat='-30.5335194' lon='152.032804' />
  <node id='-136195' action='modify' visible='true' lat='-30.5337804' lon='152.0327557' />
  <node id='-136196' action='modify' visible='true' lat='-30.5339722' lon='152.0327852' />
  <node id='-136197' action='modify' visible='true' lat='-30.53412' lon='152.0327557' />
  <node id='-136198' action='modify' visible='true' lat='-30.5347184' lon='152.0328817' />
  <node id='-136199' action='modify' visible='true' lat='-30.5350646' lon='152.0330114' />
  <node id='-136200' action='modify' visible='true' lat='-30.5352148' lon='152.0330684' />
  <node id='-136201' action='modify' visible='true' lat='-30.535423' lon='152.0330663' />
  <node id='-136202' action='modify' visible='true' lat='-30.5354945' lon='152.0328762' />
  <node id='-136203' action='modify' visible='true' lat='-30.5356353' lon='152.0326866' />
  <node id='-136204' action='modify' visible='true' lat='-30.5357281' lon='152.0326292' />
  <node id='-136205' action='modify' visible='true' lat='-30.5359009' lon='152.0323975' />
  <node id='-136206' action='modify' visible='true' lat='-30.536022' lon='152.0323154' />
  <node id='-136207' action='modify' visible='true' lat='-30.5360444' lon='152.0322687' />
  <node id='-136208' action='modify' visible='true' lat='-30.5360691' lon='152.032272' />
  <node id='-136209' action='modify' visible='true' lat='-30.536071' lon='152.0322315' />
  <node id='-136210' action='modify' visible='true' lat='-30.5361189' lon='152.032239' />
  <node id='-136211' action='modify' visible='true' lat='-30.5361512' lon='152.0321036' />
  <node id='-136212' action='modify' visible='true' lat='-30.5362438' lon='152.0319661' />
  <node id='-136213' action='modify' visible='true' lat='-30.5364158' lon='152.0319314' />
  <node id='-136214' action='modify' visible='true' lat='-30.5364394' lon='152.0318647' />
  <node id='-136215' action='modify' visible='true' lat='-30.5364238' lon='152.0318274' />
  <node id='-136216' action='modify' visible='true' lat='-30.5364799' lon='152.0317495' />
  <node id='-136217' action='modify' visible='true' lat='-30.5365262' lon='152.031352' />
  <node id='-136218' action='modify' visible='true' lat='-30.5365636' lon='152.0312327' />
  <node id='-136219' action='modify' visible='true' lat='-30.5369384' lon='152.0308275' />
  <node id='-136220' action='modify' visible='true' lat='-30.5370101' lon='152.0305164' />
  <node id='-136221' action='modify' visible='true' lat='-30.53712' lon='152.0303705' />
  <node id='-136222' action='modify' visible='true' lat='-30.5371601' lon='152.0302096' />
  <node id='-136223' action='modify' visible='true' lat='-30.5371371' lon='152.0300229' />
  <node id='-136224' action='modify' visible='true' lat='-30.5371724' lon='152.0297999' />
  <node id='-136225' action='modify' visible='true' lat='-30.5372093' lon='152.029733' />
  <node id='-136226' action='modify' visible='true' lat='-30.5373987' lon='152.0295709' />
  <node id='-136227' action='modify' visible='true' lat='-30.5377676' lon='152.0291516' />
  <node id='-136228' action='modify' visible='true' lat='-30.5378054' lon='152.0291551' />
  <node id='-136229' action='modify' visible='true' lat='-30.5378879' lon='152.0293134' />
  <node id='-136230' action='modify' visible='true' lat='-30.5381669' lon='152.02972' />
  <node id='-136231' action='modify' visible='true' lat='-30.5380297' lon='152.0294023' />
  <node id='-136232' action='modify' visible='true' lat='-30.5380185' lon='152.0292616' />
  <node id='-136233' action='modify' visible='true' lat='-30.5380357' lon='152.0292355' />
  <node id='-136234' action='modify' visible='true' lat='-30.5382401' lon='152.0295128' />
  <node id='-136235' action='modify' visible='true' lat='-30.5383399' lon='152.0295813' />
  <node id='-136236' action='modify' visible='true' lat='-30.5382489' lon='152.0294434' />
  <node id='-136237' action='modify' visible='true' lat='-30.5382158' lon='152.029317' />
  <node id='-136238' action='modify' visible='true' lat='-30.5382311' lon='152.0292713' />
  <node id='-136239' action='modify' visible='true' lat='-30.5382622' lon='152.0293056' />
  <node id='-136240' action='modify' visible='true' lat='-30.5385815' lon='152.0294606' />
  <node id='-136241' action='modify' visible='true' lat='-30.5388764' lon='152.0294956' />
  <node id='-136242' action='modify' visible='true' lat='-30.5393231' lon='152.0295246' />
  <node id='-136243' action='modify' visible='true' lat='-30.5396429' lon='152.0294582' />
  <node id='-136244' action='modify' visible='true' lat='-30.5399851' lon='152.0294743' />
  <node id='-136245' action='modify' visible='true' lat='-30.5402172' lon='152.0296568' />
  <node id='-136246' action='modify' visible='true' lat='-30.5402941' lon='152.0296915' />
  <node id='-136247' action='modify' visible='true' lat='-30.5404534' lon='152.0297371' />
  <node id='-136248' action='modify' visible='true' lat='-30.5406191' lon='152.029708' />
  <node id='-136249' action='modify' visible='true' lat='-30.5409018' lon='152.0297796' />
  <node id='-136250' action='modify' visible='true' lat='-30.5411097' lon='152.0298733' />
  <node id='-136251' action='modify' visible='true' lat='-30.5412444' lon='152.0299064' />
  <node id='-136252' action='modify' visible='true' lat='-30.5413226' lon='152.0298632' />
  <node id='-136253' action='modify' visible='true' lat='-30.541482' lon='152.0298428' />
  <node id='-136254' action='modify' visible='true' lat='-30.5416354' lon='152.0297701' />
  <node id='-136255' action='modify' visible='true' lat='-30.5416984' lon='152.0297008' />
  <node id='-136256' action='modify' visible='true' lat='-30.5418267' lon='152.0296355' />
  <node id='-136257' action='modify' visible='true' lat='-30.5419816' lon='152.0295919' />
  <node id='-136258' action='modify' visible='true' lat='-30.5421616' lon='152.0296776' />
  <node id='-136259' action='modify' visible='true' lat='-30.5423292' lon='152.0296685' />
  <node id='-136260' action='modify' visible='true' lat='-30.5425254' lon='152.0295984' />
  <node id='-136261' action='modify' visible='true' lat='-30.5426466' lon='152.0296385' />
  <node id='-136262' action='modify' visible='true' lat='-30.5427507' lon='152.0296236' />
  <node id='-136263' action='modify' visible='true' lat='-30.5428893' lon='152.0294288' />
  <node id='-136264' action='modify' visible='true' lat='-30.543105' lon='152.0293636' />
  <node id='-136265' action='modify' visible='true' lat='-30.5431919' lon='152.0292828' />
  <node id='-136266' action='modify' visible='true' lat='-30.5432471' lon='152.0292895' />
  <node id='-136267' action='modify' visible='true' lat='-30.5433608' lon='152.0292281' />
  <node id='-136268' action='modify' visible='true' lat='-30.5434798' lon='152.0292189' />
  <node id='-136269' action='modify' visible='true' lat='-30.5435791' lon='152.0291549' />
  <node id='-136270' action='modify' visible='true' lat='-30.5437379' lon='152.0289968' />
  <node id='-136271' action='modify' visible='true' lat='-30.5438364' lon='152.0289363' />
  <node id='-136272' action='modify' visible='true' lat='-30.5436511' lon='152.0289762' />
  <node id='-136273' action='modify' visible='true' lat='-30.5432253' lon='152.029013' />
  <node id='-136274' action='modify' visible='true' lat='-30.542524' lon='152.0290323' />
  <node id='-136275' action='modify' visible='true' lat='-30.5423786' lon='152.0290101' />
  <node id='-136276' action='modify' visible='true' lat='-30.5422266' lon='152.0289233' />
  <node id='-136277' action='modify' visible='true' lat='-30.5421896' lon='152.0288762' />
  <node id='-136278' action='modify' visible='true' lat='-30.542195' lon='152.0288583' />
  <node id='-136279' action='modify' visible='true' lat='-30.5422241' lon='152.0288752' />
  <node id='-136280' action='modify' visible='true' lat='-30.5425328' lon='152.0287938' />
  <node id='-136281' action='modify' visible='true' lat='-30.5428081' lon='152.0286109' />
  <node id='-136282' action='modify' visible='true' lat='-30.5429021' lon='152.0284799' />
  <node id='-136283' action='modify' visible='true' lat='-30.5430399' lon='152.0284249' />
  <node id='-136284' action='modify' visible='true' lat='-30.5432574' lon='152.0282638' />
  <node id='-136285' action='modify' visible='true' lat='-30.5435164' lon='152.0282366' />
  <node id='-136286' action='modify' visible='true' lat='-30.5438534' lon='152.028052' />
  <node id='-136287' action='modify' visible='true' lat='-30.5436579' lon='152.0280889' />
  <node id='-136288' action='modify' visible='true' lat='-30.5435331' lon='152.0280802' />
  <node id='-136289' action='modify' visible='true' lat='-30.5431034' lon='152.0279952' />
  <node id='-136290' action='modify' visible='true' lat='-30.5428259' lon='152.0279114' />
  <node id='-136291' action='modify' visible='true' lat='-30.5429202' lon='152.0277874' />
  <node id='-136292' action='modify' visible='true' lat='-30.5430331' lon='152.0277647' />
  <node id='-136293' action='modify' visible='true' lat='-30.543299' lon='152.0276162' />
  <node id='-136294' action='modify' visible='true' lat='-30.5433512' lon='152.0276153' />
  <node id='-136295' action='modify' visible='true' lat='-30.5433748' lon='152.0276479' />
  <node id='-136296' action='modify' visible='true' lat='-30.5435452' lon='152.0275555' />
  <node id='-136297' action='modify' visible='true' lat='-30.5437093' lon='152.0275604' />
  <node id='-136298' action='modify' visible='true' lat='-30.5437399' lon='152.0275414' />
  <node id='-136299' action='modify' visible='true' lat='-30.5437081' lon='152.0275065' />
  <node id='-136300' action='modify' visible='true' lat='-30.5434134' lon='152.0274775' />
  <node id='-136301' action='modify' visible='true' lat='-30.5431652' lon='152.0273901' />
  <node id='-136302' action='modify' visible='true' lat='-30.5430316' lon='152.0273708' />
  <node id='-136303' action='modify' visible='true' lat='-30.5428595' lon='152.0272791' />
  <node id='-136304' action='modify' visible='true' lat='-30.5427694' lon='152.0272697' />
  <node id='-136305' action='modify' visible='true' lat='-30.5427935' lon='152.0272322' />
  <node id='-136306' action='modify' visible='true' lat='-30.5428859' lon='152.0272004' />
  <node id='-136307' action='modify' visible='true' lat='-30.5429655' lon='152.0271941' />
  <node id='-136308' action='modify' visible='true' lat='-30.5430013' lon='152.027215' />
  <node id='-136309' action='modify' visible='true' lat='-30.5430423' lon='152.0271603' />
  <node id='-136310' action='modify' visible='true' lat='-30.5433401' lon='152.0271013' />
  <node id='-136311' action='modify' visible='true' lat='-30.5426695' lon='152.0268473' />
  <node id='-136312' action='modify' visible='true' lat='-30.5428001' lon='152.0267461' />
  <node id='-136313' action='modify' visible='true' lat='-30.5428691' lon='152.0267642' />
  <node id='-136314' action='modify' visible='true' lat='-30.5429255' lon='152.0267181' />
  <node id='-136315' action='modify' visible='true' lat='-30.5430344' lon='152.0266997' />
  <node id='-136316' action='modify' visible='true' lat='-30.5430602' lon='152.0266535' />
  <node id='-136317' action='modify' visible='true' lat='-30.5431541' lon='152.0266585' />
  <node id='-136318' action='modify' visible='true' lat='-30.5428939' lon='152.0265658' />
  <node id='-136319' action='modify' visible='true' lat='-30.542778' lon='152.026484' />
  <node id='-136320' action='modify' visible='true' lat='-30.542595' lon='152.0264482' />
  <node id='-136321' action='modify' visible='true' lat='-30.5423496' lon='152.0263502' />
  <node id='-136322' action='modify' visible='true' lat='-30.5425444' lon='152.0261591' />
  <node id='-136323' action='modify' visible='true' lat='-30.5426239' lon='152.0261219' />
  <node id='-136324' action='modify' visible='true' lat='-30.5424281' lon='152.0260491' />
  <node id='-136325' action='modify' visible='true' lat='-30.5425703' lon='152.0259516' />
  <node id='-136326' action='modify' visible='true' lat='-30.5423283' lon='152.0258605' />
  <node id='-136327' action='modify' visible='true' lat='-30.5424055' lon='152.0257917' />
  <node id='-136328' action='modify' visible='true' lat='-30.5425058' lon='152.0257852' />
  <node id='-136329' action='modify' visible='true' lat='-30.5424332' lon='152.0257145' />
  <node id='-136330' action='modify' visible='true' lat='-30.5423404' lon='152.0256873' />
  <node id='-136331' action='modify' visible='true' lat='-30.5424679' lon='152.0256231' />
  <node id='-136332' action='modify' visible='true' lat='-30.5422479' lon='152.0256031' />
  <node id='-136333' action='modify' visible='true' lat='-30.5423696' lon='152.0254643' />
  <node id='-136334' action='modify' visible='true' lat='-30.5423319' lon='152.0254661' />
  <node id='-136335' action='modify' visible='true' lat='-30.5423228' lon='152.0254935' />
  <node id='-136336' action='modify' visible='true' lat='-30.5422624' lon='152.0254295' />
  <node id='-136337' action='modify' visible='true' lat='-30.5422468' lon='152.0253521' />
  <node id='-136338' action='modify' visible='true' lat='-30.5423184' lon='152.0252492' />
  <node id='-136339' action='modify' visible='true' lat='-30.5423561' lon='152.0252936' />
  <node id='-136340' action='modify' visible='true' lat='-30.5423562' lon='152.0252026' />
  <node id='-136341' action='modify' visible='true' lat='-30.5422488' lon='152.0251097' />
  <node id='-136342' action='modify' visible='true' lat='-30.5422069' lon='152.0251538' />
  <node id='-136343' action='modify' visible='true' lat='-30.5421413' lon='152.0251603' />
  <node id='-136344' action='modify' visible='true' lat='-30.5421296' lon='152.0251025' />
  <way id='-136162' action='modify' visible='true'>
    <nd ref='-136165' />
    <nd ref='-136166' />
    <nd ref='-136167' />
    <nd ref='-136168' />
    <nd ref='-136169' />
    <nd ref='-136170' />
    <tag k='name' v='Wollomombi Falls Lookout' />
    <tag k='role' v='sidetrack' />
    <tag k='style' v='return' />
  </way>
  <way id='-136163' action='modify' visible='true'>
    <nd ref='-136171' />
    <nd ref='-136172' />
    <nd ref='-136173' />
    <nd ref='-136174' />
    <nd ref='-136175' />
    <nd ref='-136176' />
    <tag k='name' v='Checks Lookout' />
    <tag k='role' v='sidetrack' />
    <tag k='style' v='return' />
  </way>
  <way id='-136164' action='modify' visible='true'>
    <nd ref='-136177' />
    <nd ref='-136178' />
    <nd ref='-136179' />
    <nd ref='-136180' />
    <nd ref='-136181' />
    <nd ref='-136182' />
    <nd ref='-136183' />
    <nd ref='-136184' />
    <nd ref='-136185' />
    <nd ref='-136186' />
    <nd ref='-136187' />
    <nd ref='-136188' />
    <nd ref='-136189' />
    <nd ref='-136190' />
    <nd ref='-136191' />
    <nd ref='-136165' />
    <nd ref='-136192' />
    <nd ref='-136193' />
    <nd ref='-136194' />
    <nd ref='-136195' />
    <nd ref='-136196' />
    <nd ref='-136197' />
    <nd ref='-136198' />
    <nd ref='-136199' />
    <nd ref='-136200' />
    <nd ref='-136171' />
    <nd ref='-136201' />
    <nd ref='-136202' />
    <nd ref='-136203' />
    <nd ref='-136204' />
    <nd ref='-136205' />
    <nd ref='-136206' />
    <nd ref='-136207' />
    <nd ref='-136208' />
    <nd ref='-136209' />
    <nd ref='-136210' />
    <nd ref='-136211' />
    <nd ref='-136212' />
    <nd ref='-136213' />
    <nd ref='-136214' />
    <nd ref='-136215' />
    <nd ref='-136216' />
    <nd ref='-136217' />
    <nd ref='-136218' />
    <nd ref='-136219' />
    <nd ref='-136220' />
    <nd ref='-136221' />
    <nd ref='-136222' />
    <nd ref='-136223' />
    <nd ref='-136224' />
    <nd ref='-136225' />
    <nd ref='-136226' />
    <nd ref='-136227' />
    <nd ref='-136228' />
    <nd ref='-136229' />
    <nd ref='-136230' />
    <nd ref='-136231' />
    <nd ref='-136232' />
    <nd ref='-136233' />
    <nd ref='-136234' />
    <nd ref='-136235' />
    <nd ref='-136236' />
    <nd ref='-136237' />
    <nd ref='-136238' />
    <nd ref='-136239' />
    <nd ref='-136240' />
    <nd ref='-136241' />
    <nd ref='-136242' />
    <nd ref='-136243' />
    <nd ref='-136244' />
    <nd ref='-136245' />
    <nd ref='-136246' />
    <nd ref='-136247' />
    <nd ref='-136248' />
    <nd ref='-136249' />
    <nd ref='-136250' />
    <nd ref='-136251' />
    <nd ref='-136252' />
    <nd ref='-136253' />
    <nd ref='-136254' />
    <nd ref='-136255' />
    <nd ref='-136256' />
    <nd ref='-136257' />
    <nd ref='-136258' />
    <nd ref='-136259' />
    <nd ref='-136260' />
    <nd ref='-136261' />
    <nd ref='-136262' />
    <nd ref='-136263' />
    <nd ref='-136264' />
    <nd ref='-136265' />
    <nd ref='-136266' />
    <nd ref='-136267' />
    <nd ref='-136268' />
    <nd ref='-136269' />
    <nd ref='-136270' />
    <nd ref='-136271' />
    <nd ref='-136272' />
    <nd ref='-136273' />
    <nd ref='-136274' />
    <nd ref='-136275' />
    <nd ref='-136276' />
    <nd ref='-136277' />
    <nd ref='-136278' />
    <nd ref='-136279' />
    <nd ref='-136280' />
    <nd ref='-136281' />
    <nd ref='-136282' />
    <nd ref='-136283' />
    <nd ref='-136284' />
    <nd ref='-136285' />
    <nd ref='-136286' />
    <nd ref='-136287' />
    <nd ref='-136288' />
    <nd ref='-136289' />
    <nd ref='-136290' />
    <nd ref='-136291' />
    <nd ref='-136292' />
    <nd ref='-136293' />
    <nd ref='-136294' />
    <nd ref='-136295' />
    <nd ref='-136296' />
    <nd ref='-136297' />
    <nd ref='-136298' />
    <nd ref='-136299' />
    <nd ref='-136300' />
    <nd ref='-136301' />
    <nd ref='-136302' />
    <nd ref='-136303' />
    <nd ref='-136304' />
    <nd ref='-136305' />
    <nd ref='-136306' />
    <nd ref='-136307' />
    <nd ref='-136308' />
    <nd ref='-136309' />
    <nd ref='-136310' />
    <nd ref='-136311' />
    <nd ref='-136312' />
    <nd ref='-136313' />
    <nd ref='-136314' />
    <nd ref='-136315' />
    <nd ref='-136316' />
    <nd ref='-136317' />
    <nd ref='-136318' />
    <nd ref='-136319' />
    <nd ref='-136320' />
    <nd ref='-136321' />
    <nd ref='-136322' />
    <nd ref='-136323' />
    <nd ref='-136324' />
    <nd ref='-136325' />
    <nd ref='-136326' />
    <nd ref='-136327' />
    <nd ref='-136328' />
    <nd ref='-136329' />
    <nd ref='-136330' />
    <nd ref='-136331' />
    <nd ref='-136332' />
    <nd ref='-136333' />
    <nd ref='-136334' />
    <nd ref='-136335' />
    <nd ref='-136336' />
    <nd ref='-136337' />
    <nd ref='-136338' />
    <nd ref='-136339' />
    <nd ref='-136340' />
    <nd ref='-136341' />
    <nd ref='-136342' />
    <nd ref='-136343' />
    <nd ref='-136344' />
    <tag k='name' v='Chandler Track' />
    <tag k='park' v='Oxley Wild Rivers National Park' />
    <tag k='role' v='primary' />
    <tag k='style' v='return' />
    <tag k='transport' v='car' />
  </way>
</osm>
