<?xml version='1.0' encoding='UTF-8'?>
<osm version='0.6' upload='false' generator='JOSM'>
  <node id='-105560' action='modify' visible='true' lat='-33.1037126' lon='151.2312036' />
  <node id='-105561' action='modify' visible='true' lat='-33.1037186' lon='151.2311518' />
  <node id='-105562' action='modify' visible='true' lat='-33.1037107' lon='151.2311069' />
  <node id='-105563' action='modify' visible='true' lat='-33.1036714' lon='151.2309775' />
  <node id='-105564' action='modify' visible='true' lat='-33.103672' lon='151.2309279' />
  <node id='-105565' action='modify' visible='true' lat='-33.1036826' lon='151.2308876' />
  <node id='-105566' action='modify' visible='true' lat='-33.103713' lon='151.2308159' />
  <node id='-105567' action='modify' visible='true' lat='-33.1037978' lon='151.2307274' />
  <node id='-105568' action='modify' visible='true' lat='-33.1038846' lon='151.2306714' />
  <node id='-105569' action='modify' visible='true' lat='-33.1037204' lon='151.2312218' />
  <node id='-105570' action='modify' visible='true' lat='-33.103602' lon='151.2304793' />
  <node id='-105571' action='modify' visible='true' lat='-33.1035697' lon='151.2305208' />
  <node id='-105572' action='modify' visible='true' lat='-33.1038281' lon='151.2305222' />
  <node id='-105573' action='modify' visible='true' lat='-33.1037074' lon='151.2304491' />
  <node id='-105576' action='modify' visible='true' lat='-33.1038958' lon='151.2340481' />
  <node id='-105577' action='modify' visible='true' lat='-33.1038697' lon='151.2337489' />
  <node id='-105578' action='modify' visible='true' lat='-33.1038412' lon='151.2336406' />
  <node id='-105579' action='modify' visible='true' lat='-33.103845' lon='151.23348' />
  <node id='-105580' action='modify' visible='true' lat='-33.1038158' lon='151.2333177' />
  <node id='-105581' action='modify' visible='true' lat='-33.103827' lon='151.2332185' />
  <node id='-105582' action='modify' visible='true' lat='-33.1037461' lon='151.2327008' />
  <node id='-105583' action='modify' visible='true' lat='-33.103709' lon='151.2322783' />
  <node id='-105584' action='modify' visible='true' lat='-33.1037057' lon='151.2320986' />
  <node id='-105585' action='modify' visible='true' lat='-33.1037293' lon='151.2318867' />
  <node id='-105586' action='modify' visible='true' lat='-33.1037203' lon='151.2317392' />
  <node id='-105587' action='modify' visible='true' lat='-33.1037472' lon='151.2316722' />
  <node id='-105588' action='modify' visible='true' lat='-33.1037214' lon='151.2315957' />
  <node id='-105589' action='modify' visible='true' lat='-33.1037001' lon='151.2314697' />
  <node id='-105590' action='modify' visible='true' lat='-33.1037124' lon='151.2314207' />
  <node id='-105591' action='modify' visible='true' lat='-33.1037152' lon='151.2313711' />
  <node id='-105592' action='modify' visible='true' lat='-33.1037068' lon='151.2312651' />
  <node id='-105593' action='modify' visible='true' lat='-33.103556' lon='151.2305228' />
  <node id='-105594' action='modify' visible='true' lat='-33.1035363' lon='151.2304769' />
  <node id='-105595' action='modify' visible='true' lat='-33.103454' lon='151.2304504' />
  <node id='-105596' action='modify' visible='true' lat='-33.1032159' lon='151.2304115' />
  <node id='-105597' action='modify' visible='true' lat='-33.1031541' lon='151.23037' />
  <node id='-105598' action='modify' visible='true' lat='-33.1029451' lon='151.2303311' />
  <node id='-105599' action='modify' visible='true' lat='-33.1027957' lon='151.2302627' />
  <node id='-105600' action='modify' visible='true' lat='-33.1021705' lon='151.2301105' />
  <node id='-105601' action='modify' visible='true' lat='-33.1017543' lon='151.2301111' />
  <node id='-105602' action='modify' visible='true' lat='-33.1017071' lon='151.2301245' />
  <node id='-105603' action='modify' visible='true' lat='-33.1016914' lon='151.2302157' />
  <node id='-105604' action='modify' visible='true' lat='-33.1018127' lon='151.2304625' />
  <node id='-105605' action='modify' visible='true' lat='-33.1019879' lon='151.2306368' />
  <node id='-105606' action='modify' visible='true' lat='-33.1022036' lon='151.2310633' />
  <node id='-105607' action='modify' visible='true' lat='-33.1023519' lon='151.2311974' />
  <node id='-105608' action='modify' visible='true' lat='-33.1024553' lon='151.2313852' />
  <node id='-105609' action='modify' visible='true' lat='-33.1025721' lon='151.2319055' />
  <node id='-105610' action='modify' visible='true' lat='-33.1023991' lon='151.2324071' />
  <node id='-105611' action='modify' visible='true' lat='-33.1024665' lon='151.23256' />
  <node id='-105612' action='modify' visible='true' lat='-33.102316' lon='151.2332225' />
  <node id='-105613' action='modify' visible='true' lat='-33.1021048' lon='151.2335604' />
  <node id='-105614' action='modify' visible='true' lat='-33.102134' lon='151.2340674' />
  <node id='-105615' action='modify' visible='true' lat='-33.1022598' lon='151.2342873' />
  <node id='-105616' action='modify' visible='true' lat='-33.1023587' lon='151.2343302' />
  <node id='-105617' action='modify' visible='true' lat='-33.1025901' lon='151.2346306' />
  <node id='-105618' action='modify' visible='true' lat='-33.1030552' lon='151.2347969' />
  <node id='-105619' action='modify' visible='true' lat='-33.103317' lon='151.234693' />
  <node id='-105620' action='modify' visible='true' lat='-33.1033406' lon='151.234642' />
  <node id='-105621' action='modify' visible='true' lat='-33.1033338' lon='151.2346239' />
  <node id='-105622' action='modify' visible='true' lat='-33.1032288' lon='151.2346327' />
  <node id='-105623' action='modify' visible='true' lat='-33.1031204' lon='151.2346213' />
  <node id='-105624' action='modify' visible='true' lat='-33.1030417' lon='151.234569' />
  <node id='-105625' action='modify' visible='true' lat='-33.1029923' lon='151.2344858' />
  <node id='-105626' action='modify' visible='true' lat='-33.1028339' lon='151.2343463' />
  <node id='-105627' action='modify' visible='true' lat='-33.1028103' lon='151.234294' />
  <node id='-105628' action='modify' visible='true' lat='-33.1028092' lon='151.2342229' />
  <node id='-105629' action='modify' visible='true' lat='-33.1028204' lon='151.234121' />
  <node id='-105630' action='modify' visible='true' lat='-33.1028519' lon='151.2340419' />
  <node id='-105631' action='modify' visible='true' lat='-33.1028069' lon='151.2337133' />
  <node id='-105632' action='modify' visible='true' lat='-33.1028856' lon='151.2333553' />
  <node id='-105633' action='modify' visible='true' lat='-33.1028822' lon='151.2332936' />
  <node id='-105634' action='modify' visible='true' lat='-33.1028867' lon='151.2330582' />
  <node id='-105635' action='modify' visible='true' lat='-33.1029215' lon='151.233016' />
  <node id='-105636' action='modify' visible='true' lat='-33.1030844' lon='151.2331051' />
  <node id='-105637' action='modify' visible='true' lat='-33.1031423' lon='151.2332889' />
  <node id='-105638' action='modify' visible='true' lat='-33.1032597' lon='151.2333646' />
  <node id='-105639' action='modify' visible='true' lat='-33.1033024' lon='151.2334223' />
  <node id='-105640' action='modify' visible='true' lat='-33.1033203' lon='151.2335296' />
  <node id='-105641' action='modify' visible='true' lat='-33.1034495' lon='151.2337576' />
  <node id='-105642' action='modify' visible='true' lat='-33.1034731' lon='151.2339118' />
  <node id='-105643' action='modify' visible='true' lat='-33.1035877' lon='151.2340298' />
  <node id='-105644' action='modify' visible='true' lat='-33.1036461' lon='151.2339829' />
  <node id='-105645' action='modify' visible='true' lat='-33.1037023' lon='151.2339802' />
  <node id='-105646' action='modify' visible='true' lat='-33.1038495' lon='151.2340419' />
  <way id='-105555' action='modify' visible='true'>
    <nd ref='-105572' />
    <nd ref='-105573' />
    <nd ref='-105570' />
    <nd ref='-105571' />
    <nd ref='-105593' />
    <nd ref='-105594' />
    <nd ref='-105595' />
    <nd ref='-105596' />
    <nd ref='-105597' />
    <nd ref='-105598' />
    <nd ref='-105599' />
    <nd ref='-105600' />
    <nd ref='-105601' />
    <nd ref='-105602' />
    <nd ref='-105603' />
    <nd ref='-105604' />
    <nd ref='-105605' />
    <nd ref='-105606' />
    <nd ref='-105607' />
    <nd ref='-105608' />
    <nd ref='-105609' />
    <nd ref='-105610' />
    <nd ref='-105611' />
    <nd ref='-105612' />
    <nd ref='-105613' />
    <nd ref='-105614' />
    <nd ref='-105615' />
    <nd ref='-105616' />
    <nd ref='-105617' />
    <nd ref='-105618' />
    <nd ref='-105619' />
    <nd ref='-105620' />
    <nd ref='-105621' />
    <nd ref='-105622' />
    <nd ref='-105623' />
    <nd ref='-105624' />
    <nd ref='-105625' />
    <nd ref='-105626' />
    <nd ref='-105627' />
    <nd ref='-105628' />
    <nd ref='-105629' />
    <nd ref='-105630' />
    <nd ref='-105631' />
    <nd ref='-105632' />
    <nd ref='-105633' />
    <nd ref='-105634' />
    <nd ref='-105635' />
    <nd ref='-105636' />
    <nd ref='-105637' />
    <nd ref='-105638' />
    <nd ref='-105639' />
    <nd ref='-105640' />
    <nd ref='-105641' />
    <nd ref='-105642' />
    <nd ref='-105643' />
    <nd ref='-105644' />
    <nd ref='-105645' />
    <nd ref='-105646' />
    <nd ref='-105576' />
    <nd ref='-105577' />
    <nd ref='-105578' />
    <nd ref='-105579' />
    <nd ref='-105580' />
    <nd ref='-105581' />
    <nd ref='-105582' />
    <nd ref='-105583' />
    <nd ref='-105584' />
    <nd ref='-105585' />
    <nd ref='-105586' />
    <nd ref='-105587' />
    <nd ref='-105588' />
    <nd ref='-105589' />
    <nd ref='-105590' />
    <nd ref='-105591' />
    <nd ref='-105592' />
    <nd ref='-105569' />
    <nd ref='-105560' />
    <nd ref='-105561' />
    <nd ref='-105562' />
    <nd ref='-105563' />
    <nd ref='-105564' />
    <nd ref='-105565' />
    <nd ref='-105566' />
    <nd ref='-105567' />
    <nd ref='-105568' />
    <tag k='name' v='Rock Lilly Walking Trail' />
    <tag k='role' v='primary' />
    <tag k='style' v='loop' />
    <tag k='transport' v='car' />
  </way>
</osm>
