<?xml version='1.0' encoding='UTF-8'?>
<osm version='0.6' upload='false' generator='JOSM'>
  <node id='-135431' action='modify' visible='true' lat='-42.6770878' lon='146.6253269' />
  <node id='-135489' action='modify' visible='true' lat='-42.6767685' lon='146.6253637' />
  <node id='-135490' action='modify' visible='true' lat='-42.6764982' lon='146.6252786' />
  <node id='-135491' action='modify' visible='true' lat='-42.67637' lon='146.6253081' />
  <node id='-135492' action='modify' visible='true' lat='-42.6763419' lon='146.6255638' />
  <node id='-135501' action='modify' visible='true' lat='-42.6778053' lon='146.6262249' />
  <node id='-135502' action='modify' visible='true' lat='-42.6778864' lon='146.6260725' />
  <node id='-135503' action='modify' visible='true' lat='-42.6775867' lon='146.6255321' />
  <node id='-135504' action='modify' visible='true' lat='-42.6774624' lon='146.6255535' />
  <node id='-135505' action='modify' visible='true' lat='-42.6773599' lon='146.6255133' />
  <node id='-135506' action='modify' visible='true' lat='-42.6772702' lon='146.6254328' />
  <node id='-135507' action='modify' visible='true' lat='-42.6769754' lon='146.6252759' />
  <node id='-135512' action='modify' visible='true' lat='-42.6760106' lon='146.6257998' />
  <node id='-135513' action='modify' visible='true' lat='-42.675632' lon='146.6258642' />
  <node id='-135514' action='modify' visible='true' lat='-42.6753007' lon='146.6259286' />
  <node id='-135515' action='modify' visible='true' lat='-42.674859' lon='146.6261646' />
  <node id='-135516' action='modify' visible='true' lat='-42.6744015' lon='146.6261002' />
  <node id='-135517' action='modify' visible='true' lat='-42.6741806' lon='146.6261861' />
  <node id='-135518' action='modify' visible='true' lat='-42.6739913' lon='146.6264221' />
  <node id='-135519' action='modify' visible='true' lat='-42.6737704' lon='146.6266152' />
  <node id='-135520' action='modify' visible='true' lat='-42.6737389' lon='146.6270444' />
  <node id='-135521' action='modify' visible='true' lat='-42.6736127' lon='146.6272375' />
  <node id='-135522' action='modify' visible='true' lat='-42.6736048' lon='146.6274306' />
  <node id='-135523' action='modify' visible='true' lat='-42.6735298' lon='146.6275754' />
  <node id='-135524' action='modify' visible='true' lat='-42.6733524' lon='146.6280046' />
  <node id='-135525' action='modify' visible='true' lat='-42.6735219' lon='146.6284391' />
  <node id='-135526' action='modify' visible='true' lat='-42.6734983' lon='146.6289165' />
  <node id='-135527' action='modify' visible='true' lat='-42.6734588' lon='146.6290775' />
  <node id='-135528' action='modify' visible='true' lat='-42.6735456' lon='146.629335' />
  <node id='-135529' action='modify' visible='true' lat='-42.6734549' lon='146.6295549' />
  <node id='-135530' action='modify' visible='true' lat='-42.6733918' lon='146.6297051' />
  <node id='-135531' action='modify' visible='true' lat='-42.6734312' lon='146.62985' />
  <node id='-135532' action='modify' visible='true' lat='-42.67338' lon='146.6302094' />
  <node id='-135533' action='modify' visible='true' lat='-42.6733517' lon='146.6302323' />
  <node id='-135534' action='modify' visible='true' lat='-42.6732301' lon='146.6303274' />
  <node id='-135535' action='modify' visible='true' lat='-42.6730526' lon='146.6303167' />
  <node id='-135536' action='modify' visible='true' lat='-42.6722874' lon='146.6300753' />
  <node id='-135537' action='modify' visible='true' lat='-42.6720271' lon='146.6299948' />
  <node id='-135538' action='modify' visible='true' lat='-42.6718812' lon='146.6298607' />
  <node id='-135539' action='modify' visible='true' lat='-42.6716012' lon='146.6298553' />
  <node id='-135540' action='modify' visible='true' lat='-42.6709425' lon='146.629453' />
  <node id='-135541' action='modify' visible='true' lat='-42.6703272' lon='146.6296354' />
  <node id='-135542' action='modify' visible='true' lat='-42.6702207' lon='146.6297427' />
  <node id='-135543' action='modify' visible='true' lat='-42.6699288' lon='146.6295871' />
  <node id='-135544' action='modify' visible='true' lat='-42.6698539' lon='146.6296515' />
  <node id='-135545' action='modify' visible='true' lat='-42.6698105' lon='146.6300163' />
  <node id='-135546' action='modify' visible='true' lat='-42.6694436' lon='146.6305205' />
  <node id='-135547' action='modify' visible='true' lat='-42.6693293' lon='146.631116' />
  <node id='-135548' action='modify' visible='true' lat='-42.6692898' lon='146.6312286' />
  <node id='-135549' action='modify' visible='true' lat='-42.6688993' lon='146.6315237' />
  <node id='-135550' action='modify' visible='true' lat='-42.6688559' lon='146.6316953' />
  <node id='-135551' action='modify' visible='true' lat='-42.6687337' lon='146.6318509' />
  <node id='-135552' action='modify' visible='true' lat='-42.6686232' lon='146.6321191' />
  <node id='-135553' action='modify' visible='true' lat='-42.6683037' lon='146.6321674' />
  <node id='-135554' action='modify' visible='true' lat='-42.6680237' lon='146.6321996' />
  <node id='-135555' action='modify' visible='true' lat='-42.6676371' lon='146.6319904' />
  <node id='-135556' action='modify' visible='true' lat='-42.6671756' lon='146.6320976' />
  <node id='-135557' action='modify' visible='true' lat='-42.6667812' lon='146.6319045' />
  <node id='-135558' action='modify' visible='true' lat='-42.6656136' lon='146.6315612' />
  <node id='-135559' action='modify' visible='true' lat='-42.6649509' lon='146.6319796' />
  <node id='-135560' action='modify' visible='true' lat='-42.6644302' lon='146.6327736' />
  <node id='-135561' action='modify' visible='true' lat='-42.6640673' lon='146.6332456' />
  <node id='-135562' action='modify' visible='true' lat='-42.6610535' lon='146.6374728' />
  <node id='-135563' action='modify' visible='true' lat='-42.6576135' lon='146.6422579' />
  <node id='-135564' action='modify' visible='true' lat='-42.6571401' lon='146.6432449' />
  <node id='-135565' action='modify' visible='true' lat='-42.6571085' lon='146.6439584' />
  <node id='-135566' action='modify' visible='true' lat='-42.65442' lon='146.64643' />
  <node id='-135567' action='modify' visible='true' lat='-42.6543271' lon='146.6462222' />
  <node id='-135568' action='modify' visible='true' lat='-42.6544416' lon='146.6462704' />
  <node id='-135569' action='modify' visible='true' lat='-42.6546151' lon='146.64597' />
  <node id='-135570' action='modify' visible='true' lat='-42.6548676' lon='146.645734' />
  <node id='-135571' action='modify' visible='true' lat='-42.6549465' lon='146.6453048' />
  <node id='-135572' action='modify' visible='true' lat='-42.6551044' lon='146.6447899' />
  <node id='-135573' action='modify' visible='true' lat='-42.6553569' lon='146.6444251' />
  <node id='-135574' action='modify' visible='true' lat='-42.6556251' lon='146.6443312' />
  <node id='-135575' action='modify' visible='true' lat='-42.6563313' lon='146.6443768' />
  <node id='-135576' action='modify' visible='true' lat='-42.6567454' lon='146.6445588' />
  <node id='-135577' action='modify' visible='true' lat='-42.6568414' lon='146.6444661' />
  <node id='-135578' action='modify' visible='true' lat='-42.6569033' lon='146.6441907' />
  <node id='-135688' action='modify' visible='true' lat='-42.673363' lon='146.630452' />
  <node id='-135689' action='modify' visible='true' lat='-42.6734051' lon='146.630537' />
  <node id='-135690' action='modify' visible='true' lat='-42.673468' lon='146.6307149' />
  <node id='-135691' action='modify' visible='true' lat='-42.673535' lon='146.630882' />
  <node id='-135692' action='modify' visible='true' lat='-42.673483' lon='146.6309499' />
  <node id='-135693' action='modify' visible='true' lat='-42.673407' lon='146.6311169' />
  <node id='-135694' action='modify' visible='true' lat='-42.673315' lon='146.63126' />
  <node id='-135695' action='modify' visible='true' lat='-42.673238' lon='146.631422' />
  <node id='-135696' action='modify' visible='true' lat='-42.6731651' lon='146.6315879' />
  <node id='-135697' action='modify' visible='true' lat='-42.67307' lon='146.631733' />
  <node id='-135698' action='modify' visible='true' lat='-42.673047' lon='146.6318419' />
  <node id='-135699' action='modify' visible='true' lat='-42.673027' lon='146.6320299' />
  <node id='-135700' action='modify' visible='true' lat='-42.673035' lon='146.6321349' />
  <node id='-135701' action='modify' visible='true' lat='-42.673023' lon='146.632232' />
  <node id='-135702' action='modify' visible='true' lat='-42.673033' lon='146.6324169' />
  <node id='-135703' action='modify' visible='true' lat='-42.673043' lon='146.6325219' />
  <node id='-135704' action='modify' visible='true' lat='-42.6730831' lon='146.632603' />
  <node id='-135705' action='modify' visible='true' lat='-42.673138' lon='146.632782' />
  <node id='-135706' action='modify' visible='true' lat='-42.6731931' lon='146.6329629' />
  <node id='-135707' action='modify' visible='true' lat='-42.673265' lon='146.633135' />
  <node id='-135708' action='modify' visible='true' lat='-42.673282' lon='146.633245' />
  <node id='-135709' action='modify' visible='true' lat='-42.673272' lon='146.633348' />
  <node id='-135710' action='modify' visible='true' lat='-42.673253' lon='146.633537' />
  <node id='-135711' action='modify' visible='true' lat='-42.673253' lon='146.6337349' />
  <node id='-135712' action='modify' visible='true' lat='-42.673262' lon='146.6339319' />
  <node id='-135713' action='modify' visible='true' lat='-42.673257' lon='146.634125' />
  <node id='-135714' action='modify' visible='true' lat='-42.673262' lon='146.63431' />
  <node id='-135715' action='modify' visible='true' lat='-42.6733424' lon='146.6344549' />
  <node id='-135716' action='modify' visible='true' lat='-42.673373' lon='146.6345579' />
  <node id='-135717' action='modify' visible='true' lat='-42.6733601' lon='146.634668' />
  <node id='-135718' action='modify' visible='true' lat='-42.6733751' lon='146.634855' />
  <node id='-135719' action='modify' visible='true' lat='-42.6733981' lon='146.634958' />
  <node id='-135720' action='modify' visible='true' lat='-42.6734631' lon='146.635122' />
  <node id='-135721' action='modify' visible='true' lat='-42.673525' lon='146.635178' />
  <node id='-135722' action='modify' visible='true' lat='-42.673652' lon='146.6352279' />
  <node id='-135723' action='modify' visible='true' lat='-42.6737281' lon='146.635185' />
  <node id='-135724' action='modify' visible='true' lat='-42.673857' lon='146.635103' />
  <node id='-135725' action='modify' visible='true' lat='-42.673885' lon='146.635012' />
  <node id='-135726' action='modify' visible='true' lat='-42.6739521' lon='146.634957' />
  <node id='-135727' action='modify' visible='true' lat='-42.67405' lon='146.634918' />
  <node id='-135728' action='modify' visible='true' lat='-42.6741081' lon='146.6348579' />
  <node id='-135729' action='modify' visible='true' lat='-42.674135' lon='146.634762' />
  <node id='-135730' action='modify' visible='true' lat='-42.674193' lon='146.634595' />
  <node id='-135731' action='modify' visible='true' lat='-42.674248' lon='146.634532' />
  <node id='-135732' action='modify' visible='true' lat='-42.674318' lon='146.634488' />
  <node id='-135733' action='modify' visible='true' lat='-42.6744001' lon='146.634495' />
  <node id='-135734' action='modify' visible='true' lat='-42.6744771' lon='146.6344679' />
  <node id='-135735' action='modify' visible='true' lat='-42.6745131' lon='146.634382' />
  <node id='-135736' action='modify' visible='true' lat='-42.674483' lon='146.634277' />
  <node id='-135737' action='modify' visible='true' lat='-42.67441' lon='146.634117' />
  <node id='-135738' action='modify' visible='true' lat='-42.674428' lon='146.634022' />
  <node id='-135739' action='modify' visible='true' lat='-42.67455' lon='146.63411' />
  <way id='-135429' action='modify' visible='true'>
    <nd ref='-135501' />
    <nd ref='-135502' />
    <nd ref='-135503' />
    <nd ref='-135504' />
    <nd ref='-135505' />
    <nd ref='-135506' />
    <nd ref='-135431' />
    <nd ref='-135507' />
    <nd ref='-135489' />
    <nd ref='-135490' />
    <nd ref='-135491' />
    <nd ref='-135492' />
    <nd ref='-135512' />
    <nd ref='-135513' />
    <nd ref='-135514' />
    <nd ref='-135515' />
    <nd ref='-135516' />
    <nd ref='-135517' />
    <nd ref='-135518' />
    <nd ref='-135519' />
    <nd ref='-135520' />
    <nd ref='-135521' />
    <nd ref='-135522' />
    <nd ref='-135523' />
    <nd ref='-135524' />
    <nd ref='-135525' />
    <nd ref='-135526' />
    <nd ref='-135527' />
    <nd ref='-135528' />
    <nd ref='-135529' />
    <nd ref='-135530' />
    <nd ref='-135531' />
    <nd ref='-135532' />
    <nd ref='-135533' />
    <nd ref='-135534' />
    <nd ref='-135535' />
    <nd ref='-135536' />
    <nd ref='-135537' />
    <nd ref='-135538' />
    <nd ref='-135539' />
    <nd ref='-135540' />
    <nd ref='-135541' />
    <nd ref='-135542' />
    <nd ref='-135543' />
    <nd ref='-135544' />
    <nd ref='-135545' />
    <nd ref='-135546' />
    <nd ref='-135547' />
    <nd ref='-135548' />
    <nd ref='-135549' />
    <nd ref='-135550' />
    <nd ref='-135551' />
    <nd ref='-135552' />
    <nd ref='-135553' />
    <nd ref='-135554' />
    <nd ref='-135555' />
    <nd ref='-135556' />
    <nd ref='-135557' />
    <nd ref='-135558' />
    <nd ref='-135559' />
    <nd ref='-135560' />
    <nd ref='-135561' />
    <nd ref='-135562' />
    <nd ref='-135563' />
    <nd ref='-135564' />
    <nd ref='-135565' />
    <nd ref='-135578' />
    <nd ref='-135577' />
    <nd ref='-135576' />
    <nd ref='-135575' />
    <nd ref='-135574' />
    <nd ref='-135573' />
    <nd ref='-135572' />
    <nd ref='-135571' />
    <nd ref='-135570' />
    <nd ref='-135569' />
    <nd ref='-135568' />
    <nd ref='-135567' />
    <nd ref='-135566' />
    <tag k='name' v='Mount Field East' />
    <tag k='park' v='Mount Field National Park' />
    <tag k='role' v='primary' />
    <tag k='style' v='return' />
    <tag k='transport' v='car' />
  </way>
  <way id='-135433' action='modify' visible='true'>
    <nd ref='-135533' />
    <nd ref='-135688' />
    <nd ref='-135689' />
    <nd ref='-135690' />
    <nd ref='-135691' />
    <nd ref='-135692' />
    <nd ref='-135693' />
    <nd ref='-135694' />
    <nd ref='-135695' />
    <nd ref='-135696' />
    <nd ref='-135697' />
    <nd ref='-135698' />
    <nd ref='-135699' />
    <nd ref='-135700' />
    <nd ref='-135701' />
    <nd ref='-135702' />
    <nd ref='-135703' />
    <nd ref='-135704' />
    <nd ref='-135705' />
    <nd ref='-135706' />
    <nd ref='-135707' />
    <nd ref='-135708' />
    <nd ref='-135709' />
    <nd ref='-135710' />
    <nd ref='-135711' />
    <nd ref='-135712' />
    <nd ref='-135713' />
    <nd ref='-135714' />
    <nd ref='-135715' />
    <nd ref='-135716' />
    <nd ref='-135717' />
    <nd ref='-135718' />
    <nd ref='-135719' />
    <nd ref='-135720' />
    <nd ref='-135721' />
    <nd ref='-135722' />
    <nd ref='-135723' />
    <nd ref='-135724' />
    <nd ref='-135725' />
    <nd ref='-135726' />
    <nd ref='-135727' />
    <nd ref='-135728' />
    <nd ref='-135729' />
    <nd ref='-135730' />
    <nd ref='-135731' />
    <nd ref='-135732' />
    <nd ref='-135733' />
    <nd ref='-135734' />
    <nd ref='-135735' />
    <nd ref='-135736' />
    <nd ref='-135737' />
    <nd ref='-135738' />
    <nd ref='-135739' />
    <tag k='name' v='Seagers Lookout' />
    <tag k='role' v='sidetrack' />
    <tag k='style' v='return' />
  </way>
</osm>
