<?xml version='1.0' encoding='UTF-8'?>
<osm version='0.6' upload='false' generator='JOSM'>
  <node id='-176220' action='modify' visible='true' lat='-42.6764894' lon='146.7115148' />
  <node id='-176221' action='modify' visible='true' lat='-42.6764198' lon='146.7113898' />
  <node id='-176222' action='modify' visible='true' lat='-42.6762671' lon='146.7113732' />
  <node id='-176223' action='modify' visible='true' lat='-42.6772236' lon='146.7131765' />
  <node id='-176224' action='modify' visible='true' lat='-42.6772911' lon='146.713621' />
  <node id='-176225' action='modify' visible='true' lat='-42.6772403' lon='146.7137178' />
  <node id='-176226' action='modify' visible='true' lat='-42.6770826' lon='146.713565' />
  <node id='-176227' action='modify' visible='true' lat='-42.6767986' lon='146.7134603' />
  <node id='-176228' action='modify' visible='true' lat='-42.6766665' lon='146.7134738' />
  <node id='-176229' action='modify' visible='true' lat='-42.676353' lon='146.7133986' />
  <node id='-176230' action='modify' visible='true' lat='-42.6762642' lon='146.7129481' />
  <node id='-176231' action='modify' visible='true' lat='-42.676491' lon='146.7126771' />
  <node id='-176232' action='modify' visible='true' lat='-42.6765699' lon='146.7125645' />
  <node id='-176233' action='modify' visible='true' lat='-42.6765482' lon='146.7121783' />
  <node id='-176234' action='modify' visible='true' lat='-42.6766724' lon='146.7120871' />
  <node id='-176235' action='modify' visible='true' lat='-42.6767434' lon='146.7119368' />
  <node id='-176236' action='modify' visible='true' lat='-42.6766724' lon='146.7118188' />
  <node id='-176237' action='modify' visible='true' lat='-42.6765206' lon='146.7115869' />
  <node id='-176238' action='modify' visible='true' lat='-42.6772719' lon='146.7128059' />
  <node id='-176239' action='modify' visible='true' lat='-42.6772737' lon='146.7128674' />
  <node id='-176240' action='modify' visible='true' lat='-42.6772778' lon='146.7130097' />
  <node id='-176241' action='modify' visible='true' lat='-42.6776055' lon='146.7134546' />
  <node id='-176242' action='modify' visible='true' lat='-42.6779302' lon='146.7137304' />
  <node id='-176243' action='modify' visible='true' lat='-42.6783388' lon='146.7139281' />
  <node id='-176244' action='modify' visible='true' lat='-42.6786235' lon='146.7139797' />
  <node id='-176245' action='modify' visible='true' lat='-42.6789082' lon='146.7137861' />
  <node id='-176246' action='modify' visible='true' lat='-42.6791928' lon='146.7138506' />
  <node id='-176247' action='modify' visible='true' lat='-42.6794491' lon='146.7139926' />
  <node id='-176248' action='modify' visible='true' lat='-42.6796199' lon='146.7141991' />
  <node id='-176249' action='modify' visible='true' lat='-42.6800279' lon='146.7143411' />
  <node id='-176250' action='modify' visible='true' lat='-42.680436' lon='146.7142766' />
  <node id='-176251' action='modify' visible='true' lat='-42.6807285' lon='146.7141577' />
  <node id='-176252' action='modify' visible='true' lat='-42.6810913' lon='146.7141631' />
  <node id='-176253' action='modify' visible='true' lat='-42.6812294' lon='146.7140075' />
  <node id='-176255' action='modify' visible='true' lat='-42.6774618' lon='146.7127082' />
  <node id='-176256' action='modify' visible='true' lat='-42.6779486' lon='146.7128905' />
  <node id='-176257' action='modify' visible='true' lat='-42.6788946' lon='146.7131341' />
  <node id='-176258' action='modify' visible='true' lat='-42.6793257' lon='146.7135021' />
  <node id='-176259' action='modify' visible='true' lat='-42.6796009' lon='146.7136054' />
  <node id='-176260' action='modify' visible='true' lat='-42.6799425' lon='146.7137603' />
  <node id='-176261' action='modify' visible='true' lat='-42.6801323' lon='146.7138248' />
  <node id='-176262' action='modify' visible='true' lat='-42.6804288' lon='146.7138734' />
  <node id='-176263' action='modify' visible='true' lat='-42.680697' lon='146.7138198' />
  <node id='-176264' action='modify' visible='true' lat='-42.6808666' lon='146.7137929' />
  <node id='-176265' action='modify' visible='true' lat='-42.6811426' lon='146.7138573' />
  <node id='-176266' action='modify' visible='true' lat='-42.6814265' lon='146.7143669' />
  <node id='-176267' action='modify' visible='true' lat='-42.6816277' lon='146.7147424' />
  <node id='-176268' action='modify' visible='true' lat='-42.6817381' lon='146.7149677' />
  <node id='-176269' action='modify' visible='true' lat='-42.6821127' lon='146.7153003' />
  <node id='-176270' action='modify' visible='true' lat='-42.6821877' lon='146.715413' />
  <node id='-176271' action='modify' visible='true' lat='-42.6823257' lon='146.7155471' />
  <node id='-176272' action='modify' visible='true' lat='-42.6822862' lon='146.7157724' />
  <node id='-176273' action='modify' visible='true' lat='-42.682254' lon='146.7159313' />
  <node id='-176274' action='modify' visible='true' lat='-42.6820006' lon='146.7160901' />
  <node id='-176275' action='modify' visible='true' lat='-42.6818959' lon='146.7165623' />
  <node id='-176370' action='modify' visible='true' lat='-42.68187869925' lon='146.71655524265' />
  <node id='-176371' action='modify' visible='true' lat='-42.68121499937' lon='146.71402211351' />
  <node id='-176373' action='modify' visible='true' lat='-42.68198573528' lon='146.7160725072' />
  <node id='-176374' action='modify' visible='true' lat='-42.68223889891' lon='146.71591385537' />
  <node id='-176375' action='modify' visible='true' lat='-42.68226879676' lon='146.715766316' />
  <node id='-176376' action='modify' visible='true' lat='-42.68230541952' lon='146.71555742725' />
  <node id='-176377' action='modify' visible='true' lat='-42.68217568076' lon='146.71543135505' />
  <node id='-176378' action='modify' visible='true' lat='-42.68210093761' lon='146.71531904104' />
  <node id='-176379' action='modify' visible='true' lat='-42.68172519432' lon='146.71498542599' />
  <node id='-176380' action='modify' visible='true' lat='-42.68161295936' lon='146.71475638133' />
  <node id='-176381' action='modify' visible='true' lat='-42.68141203981' lon='146.71438140482' />
  <way id='-176215' action='modify' visible='true'>
    <nd ref='-176223' />
    <nd ref='-176224' />
    <nd ref='-176225' />
    <nd ref='-176226' />
    <nd ref='-176227' />
    <nd ref='-176228' />
    <nd ref='-176229' />
    <nd ref='-176230' />
    <nd ref='-176231' />
    <nd ref='-176232' />
    <nd ref='-176233' />
    <nd ref='-176234' />
    <nd ref='-176235' />
    <nd ref='-176236' />
    <nd ref='-176237' />
    <nd ref='-176220' />
    <nd ref='-176221' />
    <nd ref='-176222' />
    <tag k='name' v='Horseshoe Falls' />
    <tag k='photo' v='136319147@N08/46879911725' />
    <tag k='role' v='sidetrack' />
    <tag k='style' v='return' />
  </way>
  <way id='-176218' action='modify' visible='true'>
    <nd ref='-176275' />
    <nd ref='-176274' />
    <nd ref='-176273' />
    <nd ref='-176272' />
    <nd ref='-176271' />
    <nd ref='-176270' />
    <nd ref='-176269' />
    <nd ref='-176268' />
    <nd ref='-176267' />
    <nd ref='-176266' />
    <nd ref='-176253' />
    <nd ref='-176265' />
    <nd ref='-176264' />
    <nd ref='-176263' />
    <nd ref='-176262' />
    <nd ref='-176261' />
    <nd ref='-176260' />
    <nd ref='-176259' />
    <nd ref='-176258' />
    <nd ref='-176257' />
    <nd ref='-176256' />
    <nd ref='-176255' />
    <nd ref='-176238' />
    <nd ref='-176239' />
    <nd ref='-176240' />
    <nd ref='-176223' />
    <nd ref='-176241' />
    <nd ref='-176242' />
    <nd ref='-176243' />
    <nd ref='-176244' />
    <nd ref='-176245' />
    <nd ref='-176246' />
    <nd ref='-176247' />
    <nd ref='-176248' />
    <nd ref='-176249' />
    <nd ref='-176250' />
    <nd ref='-176251' />
    <nd ref='-176252' />
    <nd ref='-176371' />
    <nd ref='-176381' />
    <nd ref='-176380' />
    <nd ref='-176379' />
    <nd ref='-176378' />
    <nd ref='-176377' />
    <nd ref='-176376' />
    <nd ref='-176375' />
    <nd ref='-176374' />
    <nd ref='-176373' />
    <nd ref='-176370' />
    <tag k='name' v='Russell Falls Loop' />
    <tag k='park' v='Mount Field National Park' />
    <tag k='photo' v='155823486@N07/47788620992' />
    <tag k='role' v='primary' />
    <tag k='style' v='loop' />
    <tag k='transport' v='car' />
  </way>
</osm>
