<?xml version='1.0' encoding='UTF-8'?>
<osm version='0.6' upload='false' generator='JOSM'>
  <node id='-186958' action='modify' visible='true' lat='-42.6069115' lon='147.8776619' />
  <node id='-186959' action='modify' visible='true' lat='-42.60666' lon='147.8774532' />
  <node id='-186960' action='modify' visible='true' lat='-42.6065842' lon='147.8773158' />
  <node id='-186961' action='modify' visible='true' lat='-42.6063315' lon='147.8769296' />
  <node id='-186962' action='modify' visible='true' lat='-42.606262' lon='147.8766292' />
  <node id='-186963' action='modify' visible='true' lat='-42.6060725' lon='147.8762601' />
  <node id='-186964' action='modify' visible='true' lat='-42.6059019' lon='147.8759683' />
  <node id='-186965' action='modify' visible='true' lat='-42.6057819' lon='147.8758396' />
  <node id='-186966' action='modify' visible='true' lat='-42.6056808' lon='147.8755992' />
  <node id='-186967' action='modify' visible='true' lat='-42.6055544' lon='147.8754104' />
  <node id='-186968' action='modify' visible='true' lat='-42.6055039' lon='147.8749727' />
  <node id='-186969' action='modify' visible='true' lat='-42.6055165' lon='147.8748353' />
  <node id='-186970' action='modify' visible='true' lat='-42.6056366' lon='147.8746036' />
  <node id='-186971' action='modify' visible='true' lat='-42.605586' lon='147.8744319' />
  <node id='-186972' action='modify' visible='true' lat='-42.6055039' lon='147.8742517' />
  <node id='-186973' action='modify' visible='true' lat='-42.6055734' lon='147.8741401' />
  <node id='-186974' action='modify' visible='true' lat='-42.6054723' lon='147.8738225' />
  <node id='-186975' action='modify' visible='true' lat='-42.6054218' lon='147.8737539' />
  <node id='-186976' action='modify' visible='true' lat='-42.6054218' lon='147.8735565' />
  <node id='-186977' action='modify' visible='true' lat='-42.6055039' lon='147.8733676' />
  <node id='-186978' action='modify' visible='true' lat='-42.6055102' lon='147.8731359' />
  <node id='-186979' action='modify' visible='true' lat='-42.6054786' lon='147.8728097' />
  <node id='-186980' action='modify' visible='true' lat='-42.6054913' lon='147.8726724' />
  <node id='-186981' action='modify' visible='true' lat='-42.6055102' lon='147.8725522' />
  <node id='-186982' action='modify' visible='true' lat='-42.6055544' lon='147.8724664' />
  <node id='-186983' action='modify' visible='true' lat='-42.6056492' lon='147.8724063' />
  <node id='-186984' action='modify' visible='true' lat='-42.6056492' lon='147.8722776' />
  <node id='-186985' action='modify' visible='true' lat='-42.605605' lon='147.872166' />
  <node id='-186986' action='modify' visible='true' lat='-42.605586' lon='147.8720973' />
  <node id='-186987' action='modify' visible='true' lat='-42.6054786' lon='147.8719686' />
  <node id='-186988' action='modify' visible='true' lat='-42.6054723' lon='147.8717798' />
  <node id='-186989' action='modify' visible='true' lat='-42.6054028' lon='147.8716253' />
  <node id='-186990' action='modify' visible='true' lat='-42.6053965' lon='147.8714364' />
  <node id='-186991' action='modify' visible='true' lat='-42.605346' lon='147.8712133' />
  <node id='-186992' action='modify' visible='true' lat='-42.6053333' lon='147.87087' />
  <node id='-186993' action='modify' visible='true' lat='-42.6053523' lon='147.8706468' />
  <node id='-186994' action='modify' visible='true' lat='-42.6053333' lon='147.8702777' />
  <node id='-186995' action='modify' visible='true' lat='-42.6053839' lon='147.8699516' />
  <node id='-186996' action='modify' visible='true' lat='-42.6054534' lon='147.8696769' />
  <node id='-186997' action='modify' visible='true' lat='-42.6054407' lon='147.8692821' />
  <node id='-186998' action='modify' visible='true' lat='-42.6054723' lon='147.8689731' />
  <node id='-186999' action='modify' visible='true' lat='-42.6054281' lon='147.8688186' />
  <node id='-187000' action='modify' visible='true' lat='-42.6054786' lon='147.8685096' />
  <node id='-187001' action='modify' visible='true' lat='-42.6055544' lon='147.8682779' />
  <node id='-187002' action='modify' visible='true' lat='-42.6055355' lon='147.8681749' />
  <node id='-187003' action='modify' visible='true' lat='-42.6054534' lon='147.8680633' />
  <node id='-187004' action='modify' visible='true' lat='-42.6053333' lon='147.8678573' />
  <node id='-187005' action='modify' visible='true' lat='-42.6052828' lon='147.8676771' />
  <node id='-187006' action='modify' visible='true' lat='-42.6052765' lon='147.8675655' />
  <node id='-187007' action='modify' visible='true' lat='-42.6051185' lon='147.8672565' />
  <node id='-187008' action='modify' visible='true' lat='-42.605068' lon='147.8672736' />
  <node id='-187009' action='modify' visible='true' lat='-42.6049669' lon='147.8672307' />
  <node id='-187010' action='modify' visible='true' lat='-42.6049795' lon='147.8671192' />
  <node id='-187011' action='modify' visible='true' lat='-42.6049606' lon='147.8670333' />
  <node id='-187012' action='modify' visible='true' lat='-42.6048469' lon='147.8669389' />
  <node id='-187013' action='modify' visible='true' lat='-42.6048153' lon='147.8666728' />
  <node id='-187014' action='modify' visible='true' lat='-42.6047711' lon='147.8665269' />
  <node id='-187015' action='modify' visible='true' lat='-42.6046447' lon='147.8664411' />
  <node id='-187016' action='modify' visible='true' lat='-42.6045184' lon='147.8662694' />
  <node id='-187017' action='modify' visible='true' lat='-42.6043036' lon='147.866175' />
  <node id='-187018' action='modify' visible='true' lat='-42.6040825' lon='147.8659862' />
  <node id='-187019' action='modify' visible='true' lat='-42.6038992' lon='147.8659347' />
  <node id='-187020' action='modify' visible='true' lat='-42.6038171' lon='147.8659862' />
  <node id='-187021' action='modify' visible='true' lat='-42.6037539' lon='147.8660892' />
  <node id='-187022' action='modify' visible='true' lat='-42.6036718' lon='147.8660634' />
  <node id='-187023' action='modify' visible='true' lat='-42.6035518' lon='147.8661493' />
  <node id='-187024' action='modify' visible='true' lat='-42.6035076' lon='147.8662265' />
  <node id='-187025' action='modify' visible='true' lat='-42.6033243' lon='147.8663038' />
  <node id='-187026' action='modify' visible='true' lat='-42.6032169' lon='147.8664239' />
  <node id='-187027' action='modify' visible='true' lat='-42.6031032' lon='147.8664325' />
  <node id='-187028' action='modify' visible='true' lat='-42.6029074' lon='147.8665956' />
  <node id='-187029' action='modify' visible='true' lat='-42.6028505' lon='147.8668016' />
  <node id='-187030' action='modify' visible='true' lat='-42.6028884' lon='147.8669647' />
  <node id='-187031' action='modify' visible='true' lat='-42.6029327' lon='147.8670762' />
  <node id='-187032' action='modify' visible='true' lat='-42.6029958' lon='147.8670076' />
  <node id='-187033' action='modify' visible='true' lat='-42.6030716' lon='147.8669046' />
  <node id='-187034' action='modify' visible='true' lat='-42.6031285' lon='147.8670247' />
  <node id='-187035' action='modify' visible='true' lat='-42.6032043' lon='147.8672221' />
  <node id='-187036' action='modify' visible='true' lat='-42.6031727' lon='147.867308' />
  <node id='-187037' action='modify' visible='true' lat='-42.6033117' lon='147.8677371' />
  <node id='-187038' action='modify' visible='true' lat='-42.6032991' lon='147.8678401' />
  <node id='-187039' action='modify' visible='true' lat='-42.6032549' lon='147.8679345' />
  <node id='-187040' action='modify' visible='true' lat='-42.6032928' lon='147.8681835' />
  <node id='-187041' action='modify' visible='true' lat='-42.6033307' lon='147.8683637' />
  <node id='-187042' action='modify' visible='true' lat='-42.6033307' lon='147.8685354' />
  <way id='-186957' action='modify' visible='true'>
    <nd ref='-186958' />
    <nd ref='-186959' />
    <nd ref='-186960' />
    <nd ref='-186961' />
    <nd ref='-186962' />
    <nd ref='-186963' />
    <nd ref='-186964' />
    <nd ref='-186965' />
    <nd ref='-186966' />
    <nd ref='-186967' />
    <nd ref='-186968' />
    <nd ref='-186969' />
    <nd ref='-186970' />
    <nd ref='-186971' />
    <nd ref='-186972' />
    <nd ref='-186973' />
    <nd ref='-186974' />
    <nd ref='-186975' />
    <nd ref='-186976' />
    <nd ref='-186977' />
    <nd ref='-186978' />
    <nd ref='-186979' />
    <nd ref='-186980' />
    <nd ref='-186981' />
    <nd ref='-186982' />
    <nd ref='-186983' />
    <nd ref='-186984' />
    <nd ref='-186985' />
    <nd ref='-186986' />
    <nd ref='-186987' />
    <nd ref='-186988' />
    <nd ref='-186989' />
    <nd ref='-186990' />
    <nd ref='-186991' />
    <nd ref='-186992' />
    <nd ref='-186993' />
    <nd ref='-186994' />
    <nd ref='-186995' />
    <nd ref='-186996' />
    <nd ref='-186997' />
    <nd ref='-186998' />
    <nd ref='-186999' />
    <nd ref='-187000' />
    <nd ref='-187001' />
    <nd ref='-187002' />
    <nd ref='-187003' />
    <nd ref='-187004' />
    <nd ref='-187005' />
    <nd ref='-187006' />
    <nd ref='-187007' />
    <nd ref='-187008' />
    <nd ref='-187009' />
    <nd ref='-187010' />
    <nd ref='-187011' />
    <nd ref='-187012' />
    <nd ref='-187013' />
    <nd ref='-187014' />
    <nd ref='-187015' />
    <nd ref='-187016' />
    <nd ref='-187017' />
    <nd ref='-187018' />
    <nd ref='-187019' />
    <nd ref='-187020' />
    <nd ref='-187021' />
    <nd ref='-187022' />
    <nd ref='-187023' />
    <nd ref='-187024' />
    <nd ref='-187025' />
    <nd ref='-187026' />
    <nd ref='-187027' />
    <nd ref='-187028' />
    <nd ref='-187029' />
    <nd ref='-187030' />
    <nd ref='-187031' />
    <nd ref='-187032' />
    <nd ref='-187033' />
    <nd ref='-187034' />
    <nd ref='-187035' />
    <nd ref='-187036' />
    <nd ref='-187037' />
    <nd ref='-187038' />
    <nd ref='-187039' />
    <nd ref='-187040' />
    <nd ref='-187041' />
    <nd ref='-187042' />
    <tag k='name' v='Second Thumb' />
    <tag k='park' v='Three Thumbs State Reserve' />
    <tag k='role' v='primary' />
    <tag k='style' v='return' />
    <tag k='transport' v='car' />
  </way>
</osm>
