<?xml version='1.0' encoding='UTF-8'?>
<osm version='0.6' upload='false' generator='JOSM'>
  <node id='-104453' action='modify' visible='true' lat='-41.311869' lon='147.8426837' />
  <node id='-104454' action='modify' visible='true' lat='-41.3117752' lon='147.8424362' />
  <node id='-104455' action='modify' visible='true' lat='-41.3116221' lon='147.8420607' />
  <node id='-104456' action='modify' visible='true' lat='-41.3113239' lon='147.841771' />
  <node id='-104457' action='modify' visible='true' lat='-41.3111144' lon='147.8413204' />
  <node id='-104458' action='modify' visible='true' lat='-41.3103565' lon='147.8412255' />
  <node id='-104459' action='modify' visible='true' lat='-41.3102275' lon='147.8410967' />
  <node id='-104460' action='modify' visible='true' lat='-41.3097122' lon='147.8407947' />
  <node id='-104461' action='modify' visible='true' lat='-41.3091641' lon='147.840387' />
  <node id='-104462' action='modify' visible='true' lat='-41.3088821' lon='147.8403763' />
  <node id='-104463' action='modify' visible='true' lat='-41.3086242' lon='147.8403012' />
  <node id='-104464' action='modify' visible='true' lat='-41.3082535' lon='147.8403656' />
  <node id='-104465' action='modify' visible='true' lat='-41.3080681' lon='147.8405694' />
  <node id='-104466' action='modify' visible='true' lat='-41.3077453' lon='147.8404101' />
  <node id='-104467' action='modify' visible='true' lat='-41.3074959' lon='147.8406552' />
  <node id='-104468' action='modify' visible='true' lat='-41.3072219' lon='147.8407089' />
  <node id='-104469' action='modify' visible='true' lat='-41.3067947' lon='147.8409234' />
  <node id='-104470' action='modify' visible='true' lat='-41.3062145' lon='147.8422646' />
  <node id='-104471' action='modify' visible='true' lat='-41.3062225' lon='147.8424899' />
  <node id='-104472' action='modify' visible='true' lat='-41.3058111' lon='147.8436609' />
  <node id='-104473' action='modify' visible='true' lat='-41.3058756' lon='147.8439184' />
  <node id='-104474' action='modify' visible='true' lat='-41.3060533' lon='147.844067' />
  <node id='-104475' action='modify' visible='true' lat='-41.3061016' lon='147.8443245' />
  <node id='-104476' action='modify' visible='true' lat='-41.3063353' lon='147.8447107' />
  <node id='-104477' action='modify' visible='true' lat='-41.3065207' lon='147.8447858' />
  <node id='-104478' action='modify' visible='true' lat='-41.3066738' lon='147.8452364' />
  <node id='-104479' action='modify' visible='true' lat='-41.3070204' lon='147.845569' />
  <node id='-104480' action='modify' visible='true' lat='-41.3070929' lon='147.8459982' />
  <node id='-104481' action='modify' visible='true' lat='-41.3074068' lon='147.8465684' />
  <node id='-104482' action='modify' visible='true' lat='-41.3077538' lon='147.8467599' />
  <node id='-104483' action='modify' visible='true' lat='-41.30806' lon='147.8476397' />
  <node id='-104484' action='modify' visible='true' lat='-41.3080036' lon='147.8479187' />
  <node id='-104485' action='modify' visible='true' lat='-41.3081805' lon='147.8481134' />
  <node id='-104486' action='modify' visible='true' lat='-41.3082373' lon='147.8485731' />
  <node id='-104487' action='modify' visible='true' lat='-41.3084545' lon='147.8486713' />
  <node id='-104488' action='modify' visible='true' lat='-41.3085113' lon='147.8489057' />
  <node id='-104489' action='modify' visible='true' lat='-41.3085919' lon='147.8490023' />
  <node id='-104490' action='modify' visible='true' lat='-41.3086645' lon='147.8495172' />
  <node id='-104491' action='modify' visible='true' lat='-41.3088821' lon='147.8495709' />
  <node id='-104492' action='modify' visible='true' lat='-41.3090271' lon='147.8495387' />
  <node id='-104493' action='modify' visible='true' lat='-41.3092447' lon='147.8499035' />
  <node id='-104494' action='modify' visible='true' lat='-41.3093414' lon='147.8497318' />
  <node id='-104495' action='modify' visible='true' lat='-41.309688' lon='147.8494958' />
  <node id='-104496' action='modify' visible='true' lat='-41.3099455' lon='147.8488429' />
  <node id='-104497' action='modify' visible='true' lat='-41.3104935' lon='147.8481456' />
  <node id='-104498' action='modify' visible='true' lat='-41.3108319' lon='147.8474053' />
  <node id='-104499' action='modify' visible='true' lat='-41.3109448' lon='147.847019' />
  <node id='-104500' action='modify' visible='true' lat='-41.3110012' lon='147.8464397' />
  <node id='-104501' action='modify' visible='true' lat='-41.3110979' lon='147.8459676' />
  <node id='-104502' action='modify' visible='true' lat='-41.3112192' lon='147.8454296' />
  <node id='-104503' action='modify' visible='true' lat='-41.3112188' lon='147.8450664' />
  <node id='-104504' action='modify' visible='true' lat='-41.311066' lon='147.8446034' />
  <node id='-104505' action='modify' visible='true' lat='-41.311066' lon='147.8442172' />
  <node id='-104506' action='modify' visible='true' lat='-41.3111305' lon='147.8439812' />
  <node id='-104507' action='modify' visible='true' lat='-41.3112188' lon='147.8439184' />
  <node id='-104508' action='modify' visible='true' lat='-41.3112756' lon='147.8436486' />
  <node id='-104509' action='modify' visible='true' lat='-41.3114529' lon='147.8433804' />
  <node id='-104510' action='modify' visible='true' lat='-41.3115895' lon='147.8432747' />
  <node id='-104511' action='modify' visible='true' lat='-41.3118256' lon='147.8429056' />
  <way id='-104452' action='modify' visible='true'>
    <nd ref='-104453' />
    <nd ref='-104454' />
    <nd ref='-104455' />
    <nd ref='-104456' />
    <nd ref='-104457' />
    <nd ref='-104458' />
    <nd ref='-104459' />
    <nd ref='-104460' />
    <nd ref='-104461' />
    <nd ref='-104462' />
    <nd ref='-104463' />
    <nd ref='-104464' />
    <nd ref='-104465' />
    <nd ref='-104466' />
    <nd ref='-104467' />
    <nd ref='-104468' />
    <nd ref='-104469' />
    <nd ref='-104470' />
    <nd ref='-104471' />
    <nd ref='-104472' />
    <nd ref='-104473' />
    <nd ref='-104474' />
    <nd ref='-104475' />
    <nd ref='-104476' />
    <nd ref='-104477' />
    <nd ref='-104478' />
    <nd ref='-104479' />
    <nd ref='-104480' />
    <nd ref='-104481' />
    <nd ref='-104482' />
    <nd ref='-104483' />
    <nd ref='-104484' />
    <nd ref='-104485' />
    <nd ref='-104486' />
    <nd ref='-104487' />
    <nd ref='-104488' />
    <nd ref='-104489' />
    <nd ref='-104490' />
    <nd ref='-104491' />
    <nd ref='-104492' />
    <nd ref='-104493' />
    <nd ref='-104494' />
    <nd ref='-104495' />
    <nd ref='-104496' />
    <nd ref='-104497' />
    <nd ref='-104498' />
    <nd ref='-104499' />
    <nd ref='-104500' />
    <nd ref='-104501' />
    <nd ref='-104502' />
    <nd ref='-104503' />
    <nd ref='-104504' />
    <nd ref='-104505' />
    <nd ref='-104506' />
    <nd ref='-104507' />
    <nd ref='-104508' />
    <nd ref='-104509' />
    <nd ref='-104510' />
    <nd ref='-104511' />
    <tag k='name' v='Ralphs Falls' />
    <tag k='park' v='Mount Victoria Regional Reserve' />
    <tag k='role' v='primary' />
    <tag k='style' v='loop' />
    <tag k='transport' v='car' />
  </way>
</osm>
