<?xml version='1.0' encoding='UTF-8'?>
<osm version='0.6' upload='false' generator='JOSM'>
  <node id='-106816' action='modify' lat='-40.2042136' lon='148.0479581' />
  <node id='-106818' action='modify' lat='-40.2042174' lon='148.048099' />
  <node id='-106820' action='modify' lat='-40.2042217' lon='148.0485693' />
  <node id='-106822' action='modify' lat='-40.2043755' lon='148.0490771' />
  <node id='-106824' action='modify' lat='-40.2043791' lon='148.0492667' />
  <node id='-106826' action='modify' lat='-40.2045066' lon='148.0496695' />
  <node id='-106828' action='modify' lat='-40.2045138' lon='148.0498125' />
  <node id='-106830' action='modify' lat='-40.204571' lon='148.0499162' />
  <node id='-106832' action='modify' lat='-40.2045853' lon='148.0504598' />
  <node id='-106834' action='modify' lat='-40.2046087' lon='148.0505945' />
  <node id='-106836' action='modify' lat='-40.2045801' lon='148.0507375' />
  <node id='-106838' action='modify' lat='-40.2045801' lon='148.0512418' />
  <node id='-106840' action='modify' lat='-40.2045944' lon='148.051485' />
  <node id='-106842' action='modify' lat='-40.2043855' lon='148.0522964' />
  <node id='-106844' action='modify' lat='-40.2044143' lon='148.0524052' />
  <node id='-106846' action='modify' lat='-40.2044428' lon='148.0525126' />
  <node id='-106848' action='modify' lat='-40.2043354' lon='148.0528435' />
  <node id='-106850' action='modify' lat='-40.2043946' lon='148.0530356' />
  <node id='-106852' action='modify' lat='-40.2044702' lon='148.0531754' />
  <node id='-106854' action='modify' lat='-40.2044982' lon='148.0534268' />
  <node id='-106856' action='modify' lat='-40.204427' lon='148.0536897' />
  <node id='-106858' action='modify' lat='-40.2044398' lon='148.05377' />
  <node id='-106860' action='modify' lat='-40.2045018' lon='148.0538908' />
  <node id='-106862' action='modify' lat='-40.2045834' lon='148.0539348' />
  <node id='-106864' action='modify' lat='-40.2045955' lon='148.0540164' />
  <node id='-106866' action='modify' lat='-40.2046621' lon='148.054067' />
  <node id='-106868' action='modify' lat='-40.2046367' lon='148.0542365' />
  <node id='-106870' action='modify' lat='-40.2045962' lon='148.0544' />
  <node id='-106872' action='modify' lat='-40.2044413' lon='148.0546538' />
  <node id='-106874' action='modify' lat='-40.2046745' lon='148.0546596' />
  <node id='-106876' action='modify' lat='-40.2047425' lon='148.0548635' />
  <node id='-106878' action='modify' lat='-40.2047009' lon='148.0553205' />
  <node id='-106880' action='modify' lat='-40.2047755' lon='148.055408' />
  <node id='-106882' action='modify' lat='-40.2049355' lon='148.0553966' />
  <node id='-106884' action='modify' lat='-40.2051598' lon='148.0554966' />
  <node id='-106886' action='modify' lat='-40.2057427' lon='148.0558596' />
  <node id='-106888' action='modify' lat='-40.2058296' lon='148.056086' />
  <node id='-106890' action='modify' lat='-40.2057243' lon='148.0562073' />
  <node id='-106892' action='modify' lat='-40.2059326' lon='148.0563607' />
  <node id='-106894' action='modify' lat='-40.2058359' lon='148.0567366' />
  <node id='-106896' action='modify' lat='-40.2058737' lon='148.0569584' />
  <node id='-106898' action='modify' lat='-40.2059863' lon='148.0573003' />
  <node id='-106900' action='modify' lat='-40.2061526' lon='148.0579135' />
  <node id='-106902' action='modify' lat='-40.2063327' lon='148.058101' />
  <node id='-106904' action='modify' lat='-40.2065292' lon='148.0586751' />
  <node id='-106906' action='modify' lat='-40.206632' lon='148.0593903' />
  <node id='-106908' action='modify' lat='-40.2066398' lon='148.060243' />
  <node id='-106910' action='modify' lat='-40.2067314' lon='148.0607808' />
  <node id='-106912' action='modify' lat='-40.2065421' lon='148.0611027' />
  <node id='-106914' action='modify' lat='-40.2061274' lon='148.0614301' />
  <node id='-106916' action='modify' lat='-40.2059964' lon='148.0617576' />
  <node id='-106918' action='modify' lat='-40.2052652' lon='148.0624888' />
  <node id='-106920' action='modify' lat='-40.2050891' lon='148.0625762' />
  <node id='-106922' action='modify' lat='-40.2050343' lon='148.0626653' />
  <node id='-106924' action='modify' lat='-40.2049016' lon='148.0626889' />
  <node id='-106926' action='modify' lat='-40.2047296' lon='148.06276' />
  <node id='-106928' action='modify' lat='-40.2045962' lon='148.0627726' />
  <node id='-106930' action='modify' lat='-40.2045585' lon='148.0628968' />
  <node id='-106932' action='modify' lat='-40.2043881' lon='148.0631191' />
  <node id='-106934' action='modify' lat='-40.2042708' lon='148.0635046' />
  <node id='-106936' action='modify' lat='-40.204444' lon='148.0635382' />
  <node id='-106938' action='modify' lat='-40.2044356' lon='148.0636853' />
  <node id='-106940' action='modify' lat='-40.2043881' lon='148.0638064' />
  <node id='-106942' action='modify' lat='-40.2044563' lon='148.0639427' />
  <node id='-106944' action='modify' lat='-40.204399' lon='148.0639885' />
  <node id='-106946' action='modify' lat='-40.2044219' lon='148.0641001' />
  <node id='-106948' action='modify' lat='-40.2043533' lon='148.0641602' />
  <node id='-106950' action='modify' lat='-40.2044048' lon='148.0642202' />
  <node id='-106952' action='modify' lat='-40.2043561' lon='148.0643004' />
  <node id='-106954' action='modify' lat='-40.2043733' lon='148.0643976' />
  <node id='-106956' action='modify' lat='-40.2044591' lon='148.0645435' />
  <node id='-106958' action='modify' lat='-40.2043649' lon='148.0645866' />
  <node id='-106960' action='modify' lat='-40.2041787' lon='148.0647324' />
  <node id='-106962' action='modify' lat='-40.2042653' lon='148.0649841' />
  <node id='-106964' action='modify' lat='-40.2042116' lon='148.065163' />
  <node id='-106966' action='modify' lat='-40.2042545' lon='148.0652559' />
  <node id='-106968' action='modify' lat='-40.204188' lon='148.0653092' />
  <node id='-106970' action='modify' lat='-40.2041057' lon='148.0656167' />
  <node id='-106972' action='modify' lat='-40.2039055' lon='148.0657598' />
  <node id='-106974' action='modify' lat='-40.2038304' lon='148.0657526' />
  <node id='-106976' action='modify' lat='-40.2036899' lon='148.0658566' />
  <node id='-106978' action='modify' lat='-40.2035276' lon='148.0660004' />
  <node id='-106980' action='modify' lat='-40.2034165' lon='148.0661181' />
  <node id='-106982' action='modify' lat='-40.203226' lon='148.0662676' />
  <node id='-106984' action='modify' lat='-40.2031403' lon='148.0663056' />
  <node id='-106986' action='modify' lat='-40.2030974' lon='148.0663027' />
  <node id='-106988' action='modify' lat='-40.2030659' lon='148.0662855' />
  <node id='-106990' action='modify' lat='-40.2029781' lon='148.0662978' />
  <node id='-106992' action='modify' lat='-40.20292' lon='148.066317' />
  <node id='-106994' action='modify' lat='-40.2027569' lon='148.0662998' />
  <node id='-106996' action='modify' lat='-40.2026797' lon='148.0663857' />
  <node id='-106998' action='modify' lat='-40.2026687' lon='148.0664641' />
  <node id='-107000' action='modify' lat='-40.2026368' lon='148.0665602' />
  <node id='-107002' action='modify' lat='-40.202591' lon='148.0665974' />
  <node id='-107004' action='modify' lat='-40.2024808' lon='148.0667706' />
  <node id='-107006' action='modify' lat='-40.2024007' lon='148.0668106' />
  <node id='-107008' action='modify' lat='-40.2023663' lon='148.0668793' />
  <node id='-107010' action='modify' lat='-40.2022862' lon='148.0669279' />
  <node id='-107012' action='modify' lat='-40.2022204' lon='148.0670481' />
  <node id='-107014' action='modify' lat='-40.2020545' lon='148.0671053' />
  <node id='-107016' action='modify' lat='-40.2020058' lon='148.067071' />
  <node id='-107018' action='modify' lat='-40.2018943' lon='148.0671768' />
  <node id='-107020' action='modify' lat='-40.2016664' lon='148.0671583' />
  <node id='-107022' action='modify' lat='-40.2010334' lon='148.0673729' />
  <node id='-107024' action='modify' lat='-40.2009368' lon='148.0675266' />
  <node id='-107026' action='modify' lat='-40.2006838' lon='148.0677825' />
  <node id='-107028' action='modify' lat='-40.2006698' lon='148.0683902' />
  <node id='-107030' action='modify' lat='-40.2005441' lon='148.0688233' />
  <node id='-107032' action='modify' lat='-40.2002857' lon='148.0692633' />
  <node id='-107034' action='modify' lat='-40.1997688' lon='148.0695497' />
  <node id='-107036' action='modify' lat='-40.1996919' lon='148.0698082' />
  <node id='-107038' action='modify' lat='-40.1998984' lon='148.069919' />
  <node id='-107040' action='modify' lat='-40.1998801' lon='148.0701498' />
  <node id='-107042' action='modify' lat='-40.2000064' lon='148.0702743' />
  <node id='-107044' action='modify' lat='-40.1999881' lon='148.0703878' />
  <node id='-107046' action='modify' lat='-40.2000833' lon='148.0704702' />
  <node id='-107048' action='modify' lat='-40.2000284' lon='148.0706386' />
  <node id='-107050' action='modify' lat='-40.2001145' lon='148.0707009' />
  <node id='-107052' action='modify' lat='-40.2000984' lon='148.0708604' />
  <node id='-107054' action='modify' lat='-40.1997551' lon='148.0712324' />
  <node id='-107056' action='modify' lat='-40.1997379' lon='148.0714498' />
  <node id='-107058' action='modify' lat='-40.1999353' lon='148.0713869' />
  <node id='-107060' action='modify' lat='-40.2002672' lon='148.0714641' />
  <node id='-107062' action='modify' lat='-40.2007049' lon='148.0712696' />
  <node id='-107064' action='modify' lat='-40.200828' lon='148.0710693' />
  <node id='-107066' action='modify' lat='-40.2009616' lon='148.0709478' />
  <node id='-107068' action='modify' lat='-40.2011296' lon='148.0709407' />
  <node id='-107070' action='modify' lat='-40.201194' lon='148.070769' />
  <node id='-107072' action='modify' lat='-40.2013263' lon='148.0706403' />
  <node id='-107074' action='modify' lat='-40.2013192' lon='148.0703935' />
  <node id='-107076' action='modify' lat='-40.2013836' lon='148.070372' />
  <node id='-107078' action='modify' lat='-40.2014193' lon='148.0701396' />
  <node id='-107080' action='modify' lat='-40.2014837' lon='148.0700645' />
  <node id='-107082' action='modify' lat='-40.2016377' lon='148.0701331' />
  <node id='-107084' action='modify' lat='-40.2016908' lon='148.0701056' />
  <node id='-107086' action='modify' lat='-40.2018354' lon='148.07008' />
  <node id='-107088' action='modify' lat='-40.2019123' lon='148.070102' />
  <node id='-107090' action='modify' lat='-40.2019984' lon='148.0700416' />
  <node id='-107092' action='modify' lat='-40.201973' lon='148.0699479' />
  <way id='-107093' action='modify'>
    <nd ref='-106816' />
    <nd ref='-106818' />
    <nd ref='-106820' />
    <nd ref='-106822' />
    <nd ref='-106824' />
    <nd ref='-106826' />
    <nd ref='-106828' />
    <nd ref='-106830' />
    <nd ref='-106832' />
    <nd ref='-106834' />
    <nd ref='-106836' />
    <nd ref='-106838' />
    <nd ref='-106840' />
    <nd ref='-106842' />
    <nd ref='-106844' />
    <nd ref='-106846' />
    <nd ref='-106848' />
    <nd ref='-106850' />
    <nd ref='-106852' />
    <nd ref='-106854' />
    <nd ref='-106856' />
    <nd ref='-106858' />
    <nd ref='-106860' />
    <nd ref='-106862' />
    <nd ref='-106864' />
    <nd ref='-106866' />
    <nd ref='-106868' />
    <nd ref='-106870' />
    <nd ref='-106872' />
    <nd ref='-106874' />
    <nd ref='-106876' />
    <nd ref='-106878' />
    <nd ref='-106880' />
    <nd ref='-106882' />
    <nd ref='-106884' />
    <nd ref='-106886' />
    <nd ref='-106888' />
    <nd ref='-106890' />
    <nd ref='-106892' />
    <nd ref='-106894' />
    <nd ref='-106896' />
    <nd ref='-106898' />
    <nd ref='-106900' />
    <nd ref='-106902' />
    <nd ref='-106904' />
    <nd ref='-106906' />
    <nd ref='-106908' />
    <nd ref='-106910' />
    <nd ref='-106912' />
    <nd ref='-106914' />
    <nd ref='-106916' />
    <nd ref='-106918' />
    <nd ref='-106920' />
    <nd ref='-106922' />
    <nd ref='-106924' />
    <nd ref='-106926' />
    <nd ref='-106928' />
    <nd ref='-106930' />
    <nd ref='-106932' />
    <nd ref='-106934' />
    <nd ref='-106936' />
    <nd ref='-106938' />
    <nd ref='-106940' />
    <nd ref='-106942' />
    <nd ref='-106944' />
    <nd ref='-106946' />
    <nd ref='-106948' />
    <nd ref='-106950' />
    <nd ref='-106952' />
    <nd ref='-106954' />
    <nd ref='-106956' />
    <nd ref='-106958' />
    <nd ref='-106960' />
    <nd ref='-106962' />
    <nd ref='-106964' />
    <nd ref='-106966' />
    <nd ref='-106968' />
    <nd ref='-106970' />
    <nd ref='-106972' />
    <nd ref='-106974' />
    <nd ref='-106976' />
    <nd ref='-106978' />
    <nd ref='-106980' />
    <nd ref='-106982' />
    <nd ref='-106984' />
    <nd ref='-106986' />
    <nd ref='-106988' />
    <nd ref='-106990' />
    <nd ref='-106992' />
    <nd ref='-106994' />
    <nd ref='-106996' />
    <nd ref='-106998' />
    <nd ref='-107000' />
    <nd ref='-107002' />
    <nd ref='-107004' />
    <nd ref='-107006' />
    <nd ref='-107008' />
    <nd ref='-107010' />
    <nd ref='-107012' />
    <nd ref='-107014' />
    <nd ref='-107016' />
    <nd ref='-107018' />
    <nd ref='-107020' />
    <nd ref='-107022' />
    <nd ref='-107024' />
    <nd ref='-107026' />
    <nd ref='-107028' />
    <nd ref='-107030' />
    <nd ref='-107032' />
    <nd ref='-107034' />
    <nd ref='-107036' />
    <nd ref='-107038' />
    <nd ref='-107040' />
    <nd ref='-107042' />
    <nd ref='-107044' />
    <nd ref='-107046' />
    <nd ref='-107048' />
    <nd ref='-107050' />
    <nd ref='-107052' />
    <nd ref='-107054' />
    <nd ref='-107056' />
    <nd ref='-107058' />
    <nd ref='-107060' />
    <nd ref='-107062' />
    <nd ref='-107064' />
    <nd ref='-107066' />
    <nd ref='-107068' />
    <nd ref='-107070' />
    <nd ref='-107072' />
    <nd ref='-107074' />
    <nd ref='-107076' />
    <nd ref='-107078' />
    <nd ref='-107080' />
    <nd ref='-107082' />
    <nd ref='-107084' />
    <nd ref='-107086' />
    <nd ref='-107088' />
    <nd ref='-107090' />
    <nd ref='-107092' />
    <tag k='name' v='Strzelecki Peaks' />
    <tag k='role' v='primary' />
    <tag k='style' v='return' />
    <tag k='transport' v='car' />
  </way>
</osm>
