<?xml version='1.0' encoding='UTF-8'?>
<osm version='0.6' upload='false' generator='JOSM'>
  <node id='-116851' action='modify' visible='true' lat='-43.351013' lon='147.3667353' />
  <node id='-116852' action='modify' visible='true' lat='-43.35106' lon='147.3667' />
  <node id='-116853' action='modify' visible='true' lat='-43.35112' lon='147.3667' />
  <node id='-116854' action='modify' visible='true' lat='-43.35122' lon='147.36664' />
  <node id='-116855' action='modify' visible='true' lat='-43.35132' lon='147.36661' />
  <node id='-116856' action='modify' visible='true' lat='-43.35142' lon='147.36655' />
  <node id='-116857' action='modify' visible='true' lat='-43.35149' lon='147.36648' />
  <node id='-116858' action='modify' visible='true' lat='-43.35158' lon='147.3664' />
  <node id='-116859' action='modify' visible='true' lat='-43.35166' lon='147.36633' />
  <node id='-116860' action='modify' visible='true' lat='-43.35176' lon='147.3663' />
  <node id='-116861' action='modify' visible='true' lat='-43.35185' lon='147.36626' />
  <node id='-116862' action='modify' visible='true' lat='-43.35195' lon='147.36625' />
  <node id='-116863' action='modify' visible='true' lat='-43.35204' lon='147.36621' />
  <node id='-116864' action='modify' visible='true' lat='-43.35215' lon='147.36617' />
  <node id='-116865' action='modify' visible='true' lat='-43.35222' lon='147.36612' />
  <node id='-116866' action='modify' visible='true' lat='-43.35231' lon='147.36608' />
  <node id='-116867' action='modify' visible='true' lat='-43.35242' lon='147.36607' />
  <node id='-116868' action='modify' visible='true' lat='-43.35248' lon='147.36604' />
  <node id='-116869' action='modify' visible='true' lat='-43.35258' lon='147.36606' />
  <node id='-116870' action='modify' visible='true' lat='-43.35264' lon='147.36609' />
  <node id='-116871' action='modify' visible='true' lat='-43.35274' lon='147.36612' />
  <node id='-116872' action='modify' visible='true' lat='-43.3528' lon='147.3661' />
  <node id='-116873' action='modify' visible='true' lat='-43.35288' lon='147.36607' />
  <node id='-116874' action='modify' visible='true' lat='-43.35299' lon='147.366' />
  <node id='-116875' action='modify' visible='true' lat='-43.35307' lon='147.36595' />
  <node id='-116876' action='modify' visible='true' lat='-43.35318' lon='147.36593' />
  <node id='-116877' action='modify' visible='true' lat='-43.35324' lon='147.36594' />
  <node id='-116878' action='modify' visible='true' lat='-43.35328' lon='147.36584' />
  <node id='-116879' action='modify' visible='true' lat='-43.35339' lon='147.36581' />
  <node id='-116880' action='modify' visible='true' lat='-43.35347' lon='147.36573' />
  <node id='-116881' action='modify' visible='true' lat='-43.35355' lon='147.36565' />
  <node id='-116882' action='modify' visible='true' lat='-43.35362' lon='147.36558' />
  <node id='-116883' action='modify' visible='true' lat='-43.35367' lon='147.36554' />
  <node id='-116884' action='modify' visible='true' lat='-43.35371' lon='147.36549' />
  <node id='-116885' action='modify' visible='true' lat='-43.35376' lon='147.36538' />
  <node id='-116886' action='modify' visible='true' lat='-43.35379' lon='147.36524' />
  <node id='-116887' action='modify' visible='true' lat='-43.35384' lon='147.36519' />
  <node id='-116888' action='modify' visible='true' lat='-43.35391' lon='147.36509' />
  <node id='-116889' action='modify' visible='true' lat='-43.35396' lon='147.36506' />
  <node id='-116890' action='modify' visible='true' lat='-43.354' lon='147.365' />
  <node id='-116891' action='modify' visible='true' lat='-43.35408' lon='147.36494' />
  <node id='-116892' action='modify' visible='true' lat='-43.35414' lon='147.3649' />
  <node id='-116893' action='modify' visible='true' lat='-43.35422' lon='147.36485' />
  <node id='-116894' action='modify' visible='true' lat='-43.35426' lon='147.3648' />
  <node id='-116895' action='modify' visible='true' lat='-43.35434' lon='147.36472' />
  <node id='-116896' action='modify' visible='true' lat='-43.35438' lon='147.36467' />
  <node id='-116897' action='modify' visible='true' lat='-43.35447' lon='147.36462' />
  <node id='-116898' action='modify' visible='true' lat='-43.35452' lon='147.36458' />
  <node id='-116899' action='modify' visible='true' lat='-43.35454' lon='147.3645' />
  <node id='-116900' action='modify' visible='true' lat='-43.35461' lon='147.36444' />
  <node id='-116901' action='modify' visible='true' lat='-43.35465' lon='147.36439' />
  <node id='-116902' action='modify' visible='true' lat='-43.3547' lon='147.36428' />
  <node id='-116903' action='modify' visible='true' lat='-43.35477' lon='147.36427' />
  <node id='-116904' action='modify' visible='true' lat='-43.35474' lon='147.36436' />
  <node id='-116905' action='modify' visible='true' lat='-43.3548' lon='147.36426' />
  <node id='-116906' action='modify' visible='true' lat='-43.35489' lon='147.36422' />
  <node id='-116907' action='modify' visible='true' lat='-43.35498' lon='147.3642' />
  <node id='-116908' action='modify' visible='true' lat='-43.35501' lon='147.36407' />
  <node id='-116909' action='modify' visible='true' lat='-43.35504' lon='147.36396' />
  <node id='-116910' action='modify' visible='true' lat='-43.35509' lon='147.36393' />
  <node id='-116911' action='modify' visible='true' lat='-43.35517' lon='147.36386' />
  <node id='-116912' action='modify' visible='true' lat='-43.35522' lon='147.36383' />
  <node id='-116913' action='modify' visible='true' lat='-43.35532' lon='147.3638' />
  <node id='-116914' action='modify' visible='true' lat='-43.35538' lon='147.3637' />
  <node id='-116915' action='modify' visible='true' lat='-43.35544' lon='147.3636' />
  <node id='-116916' action='modify' visible='true' lat='-43.35554' lon='147.36353' />
  <node id='-116917' action='modify' visible='true' lat='-43.3556' lon='147.36349' />
  <node id='-116918' action='modify' visible='true' lat='-43.35568' lon='147.36342' />
  <node id='-116919' action='modify' visible='true' lat='-43.35574' lon='147.36333' />
  <node id='-116920' action='modify' visible='true' lat='-43.35582' lon='147.36326' />
  <node id='-116921' action='modify' visible='true' lat='-43.35588' lon='147.36322' />
  <node id='-116922' action='modify' visible='true' lat='-43.35595' lon='147.36312' />
  <node id='-116923' action='modify' visible='true' lat='-43.35602' lon='147.36303' />
  <node id='-116924' action='modify' visible='true' lat='-43.35604' lon='147.36295' />
  <node id='-116925' action='modify' visible='true' lat='-43.35608' lon='147.36286' />
  <node id='-116926' action='modify' visible='true' lat='-43.35612' lon='147.36281' />
  <node id='-116927' action='modify' visible='true' lat='-43.35615' lon='147.36274' />
  <node id='-116928' action='modify' visible='true' lat='-43.35619' lon='147.36268' />
  <node id='-116929' action='modify' visible='true' lat='-43.35624' lon='147.36264' />
  <node id='-116930' action='modify' visible='true' lat='-43.35627' lon='147.36257' />
  <node id='-116931' action='modify' visible='true' lat='-43.35633' lon='147.36246' />
  <node id='-116932' action='modify' visible='true' lat='-43.35641' lon='147.36236' />
  <node id='-116933' action='modify' visible='true' lat='-43.35645' lon='147.3623' />
  <node id='-116934' action='modify' visible='true' lat='-43.35648' lon='147.36223' />
  <node id='-116935' action='modify' visible='true' lat='-43.35654' lon='147.36213' />
  <node id='-116936' action='modify' visible='true' lat='-43.35659' lon='147.36209' />
  <node id='-116937' action='modify' visible='true' lat='-43.35661' lon='147.36202' />
  <node id='-116938' action='modify' visible='true' lat='-43.35666' lon='147.36192' />
  <node id='-116939' action='modify' visible='true' lat='-43.35666' lon='147.36178' />
  <node id='-116940' action='modify' visible='true' lat='-43.35671' lon='147.36165' />
  <node id='-116941' action='modify' visible='true' lat='-43.35675' lon='147.36152' />
  <node id='-116942' action='modify' visible='true' lat='-43.35679' lon='147.36138' />
  <node id='-116943' action='modify' visible='true' lat='-43.35685' lon='147.36127' />
  <node id='-116944' action='modify' visible='true' lat='-43.35692' lon='147.36116' />
  <node id='-116945' action='modify' visible='true' lat='-43.35699' lon='147.36106' />
  <node id='-116946' action='modify' visible='true' lat='-43.35701' lon='147.36093' />
  <node id='-116947' action='modify' visible='true' lat='-43.35704' lon='147.36086' />
  <node id='-116948' action='modify' visible='true' lat='-43.35709' lon='147.36073' />
  <node id='-116949' action='modify' visible='true' lat='-43.35713' lon='147.36068' />
  <node id='-116950' action='modify' visible='true' lat='-43.35715' lon='147.36061' />
  <node id='-116951' action='modify' visible='true' lat='-43.35722' lon='147.36053' />
  <node id='-116952' action='modify' visible='true' lat='-43.35728' lon='147.36045' />
  <node id='-116953' action='modify' visible='true' lat='-43.35732' lon='147.36038' />
  <node id='-116954' action='modify' visible='true' lat='-43.35734' lon='147.36031' />
  <node id='-116955' action='modify' visible='true' lat='-43.35739' lon='147.36019' />
  <node id='-116956' action='modify' visible='true' lat='-43.35744' lon='147.36006' />
  <node id='-116957' action='modify' visible='true' lat='-43.35749' lon='147.36001' />
  <node id='-116958' action='modify' visible='true' lat='-43.35752' lon='147.35989' />
  <node id='-116959' action='modify' visible='true' lat='-43.3576' lon='147.35982' />
  <node id='-116960' action='modify' visible='true' lat='-43.35768' lon='147.35973' />
  <node id='-116961' action='modify' visible='true' lat='-43.35774' lon='147.35963' />
  <node id='-116962' action='modify' visible='true' lat='-43.35779' lon='147.3596' />
  <node id='-116963' action='modify' visible='true' lat='-43.35784' lon='147.3595' />
  <node id='-116964' action='modify' visible='true' lat='-43.35789' lon='147.35945' />
  <node id='-116965' action='modify' visible='true' lat='-43.35795' lon='147.35934' />
  <node id='-116966' action='modify' visible='true' lat='-43.35803' lon='147.35927' />
  <node id='-116967' action='modify' visible='true' lat='-43.35808' lon='147.35924' />
  <node id='-116968' action='modify' visible='true' lat='-43.35814' lon='147.3592' />
  <node id='-116969' action='modify' visible='true' lat='-43.35816' lon='147.35912' />
  <node id='-116970' action='modify' visible='true' lat='-43.3582' lon='147.35907' />
  <node id='-116971' action='modify' visible='true' lat='-43.35828' lon='147.35898' />
  <node id='-116972' action='modify' visible='true' lat='-43.35837' lon='147.35891' />
  <node id='-116973' action='modify' visible='true' lat='-43.35844' lon='147.35888' />
  <node id='-116974' action='modify' visible='true' lat='-43.3585' lon='147.35884' />
  <node id='-116975' action='modify' visible='true' lat='-43.35854' lon='147.35879' />
  <node id='-116976' action='modify' visible='true' lat='-43.35859' lon='147.35873' />
  <node id='-116977' action='modify' visible='true' lat='-43.35863' lon='147.35868' />
  <node id='-116978' action='modify' visible='true' lat='-43.35873' lon='147.35862' />
  <node id='-116979' action='modify' visible='true' lat='-43.35882' lon='147.35855' />
  <node id='-116980' action='modify' visible='true' lat='-43.35892' lon='147.35851' />
  <node id='-116981' action='modify' visible='true' lat='-43.35901' lon='147.35849' />
  <node id='-116982' action='modify' visible='true' lat='-43.3591' lon='147.35847' />
  <node id='-116983' action='modify' visible='true' lat='-43.3591324' lon='147.358483' />
  <node id='-116984' action='modify' visible='true' lat='-43.35919' lon='147.35851' />
  <node id='-116985' action='modify' visible='true' lat='-43.35929' lon='147.35846' />
  <node id='-116986' action='modify' visible='true' lat='-43.35938' lon='147.35849' />
  <node id='-116987' action='modify' visible='true' lat='-43.35944' lon='147.3585' />
  <node id='-116988' action='modify' visible='true' lat='-43.35954' lon='147.35849' />
  <node id='-116989' action='modify' visible='true' lat='-43.35959' lon='147.35852' />
  <node id='-116990' action='modify' visible='true' lat='-43.35967' lon='147.35849' />
  <node id='-116991' action='modify' visible='true' lat='-43.35972' lon='147.35844' />
  <node id='-116992' action='modify' visible='true' lat='-43.35981' lon='147.35841' />
  <node id='-116993' action='modify' visible='true' lat='-43.35992' lon='147.35837' />
  <node id='-116994' action='modify' visible='true' lat='-43.36002' lon='147.35834' />
  <node id='-116995' action='modify' visible='true' lat='-43.36012' lon='147.35837' />
  <node id='-116996' action='modify' visible='true' lat='-43.36018' lon='147.35838' />
  <node id='-116997' action='modify' visible='true' lat='-43.36028' lon='147.35838' />
  <node id='-116998' action='modify' visible='true' lat='-43.36036' lon='147.35834' />
  <node id='-116999' action='modify' visible='true' lat='-43.36042' lon='147.35834' />
  <node id='-117000' action='modify' visible='true' lat='-43.36052' lon='147.35832' />
  <node id='-117001' action='modify' visible='true' lat='-43.36058' lon='147.3583' />
  <node id='-117002' action='modify' visible='true' lat='-43.36068' lon='147.35825' />
  <node id='-117003' action='modify' visible='true' lat='-43.36079' lon='147.35827' />
  <node id='-117004' action='modify' visible='true' lat='-43.36086' lon='147.35829' />
  <node id='-117005' action='modify' visible='true' lat='-43.36092' lon='147.35829' />
  <node id='-117006' action='modify' visible='true' lat='-43.36103' lon='147.35827' />
  <node id='-117007' action='modify' visible='true' lat='-43.36109' lon='147.35825' />
  <node id='-117008' action='modify' visible='true' lat='-43.36118' lon='147.35826' />
  <node id='-117009' action='modify' visible='true' lat='-43.36128' lon='147.35827' />
  <node id='-117010' action='modify' visible='true' lat='-43.36134' lon='147.35824' />
  <node id='-117011' action='modify' visible='true' lat='-43.36143' lon='147.35822' />
  <node id='-117012' action='modify' visible='true' lat='-43.36154' lon='147.35824' />
  <node id='-117013' action='modify' visible='true' lat='-43.36162' lon='147.35825' />
  <node id='-117014' action='modify' visible='true' lat='-43.36167' lon='147.35828' />
  <node id='-117015' action='modify' visible='true' lat='-43.36172' lon='147.35823' />
  <node id='-117016' action='modify' visible='true' lat='-43.36178' lon='147.35824' />
  <node id='-117017' action='modify' visible='true' lat='-43.36187' lon='147.35828' />
  <node id='-117018' action='modify' visible='true' lat='-43.36193' lon='147.35828' />
  <node id='-117019' action='modify' visible='true' lat='-43.36203' lon='147.35826' />
  <node id='-117020' action='modify' visible='true' lat='-43.3621' lon='147.35833' />
  <node id='-117021' action='modify' visible='true' lat='-43.3622' lon='147.35836' />
  <node id='-117022' action='modify' visible='true' lat='-43.36225' lon='147.35832' />
  <node id='-117023' action='modify' visible='true' lat='-43.36234' lon='147.35835' />
  <node id='-117024' action='modify' visible='true' lat='-43.36238' lon='147.35829' />
  <node id='-117025' action='modify' visible='true' lat='-43.36244' lon='147.35819' />
  <node id='-117026' action='modify' visible='true' lat='-43.36248' lon='147.35814' />
  <node id='-117027' action='modify' visible='true' lat='-43.3625049' lon='147.3580125' />
  <node id='-117028' action='modify' visible='true' lat='-43.3625849' lon='147.3579535' />
  <node id='-117029' action='modify' visible='true' lat='-43.3627046' lon='147.3578624' />
  <node id='-117030' action='modify' visible='true' lat='-43.3627857' lon='147.3578006' />
  <node id='-117031' action='modify' visible='true' lat='-43.3629554' lon='147.3574036' />
  <node id='-117032' action='modify' visible='true' lat='-43.36318' lon='147.35688' />
  <node id='-117033' action='modify' visible='true' lat='-43.36322' lon='147.35677' />
  <node id='-117034' action='modify' visible='true' lat='-43.36326' lon='147.35666' />
  <node id='-117035' action='modify' visible='true' lat='-43.36329' lon='147.35658' />
  <node id='-117036' action='modify' visible='true' lat='-43.36334' lon='147.35645' />
  <node id='-117037' action='modify' visible='true' lat='-43.36338' lon='147.35634' />
  <node id='-117038' action='modify' visible='true' lat='-43.36343' lon='147.35622' />
  <node id='-117039' action='modify' visible='true' lat='-43.36345' lon='147.35615' />
  <node id='-117040' action='modify' visible='true' lat='-43.36349' lon='147.35603' />
  <node id='-117041' action='modify' visible='true' lat='-43.36351' lon='147.35596' />
  <node id='-117042' action='modify' visible='true' lat='-43.36353' lon='147.35589' />
  <node id='-117043' action='modify' visible='true' lat='-43.36355' lon='147.35582' />
  <node id='-117044' action='modify' visible='true' lat='-43.36359' lon='147.35569' />
  <node id='-117045' action='modify' visible='true' lat='-43.36361' lon='147.35562' />
  <node id='-117046' action='modify' visible='true' lat='-43.36365' lon='147.35549' />
  <node id='-117047' action='modify' visible='true' lat='-43.3637' lon='147.35534' />
  <node id='-117048' action='modify' visible='true' lat='-43.36373' lon='147.3552' />
  <node id='-117049' action='modify' visible='true' lat='-43.36375' lon='147.35513' />
  <node id='-117050' action='modify' visible='true' lat='-43.36376' lon='147.355' />
  <node id='-117051' action='modify' visible='true' lat='-43.36378' lon='147.35493' />
  <node id='-117052' action='modify' visible='true' lat='-43.3638' lon='147.35486' />
  <node id='-117053' action='modify' visible='true' lat='-43.36382' lon='147.35473' />
  <node id='-117054' action='modify' visible='true' lat='-43.36386' lon='147.35461' />
  <node id='-117055' action='modify' visible='true' lat='-43.36393' lon='147.35459' />
  <node id='-117056' action='modify' visible='true' lat='-43.364' lon='147.35465' />
  <node id='-117057' action='modify' visible='true' lat='-43.36406' lon='147.35465' />
  <node id='-117058' action='modify' visible='true' lat='-43.36412' lon='147.35466' />
  <node id='-117059' action='modify' visible='true' lat='-43.36422' lon='147.35463' />
  <node id='-117060' action='modify' visible='true' lat='-43.36061' lon='147.36193' />
  <node id='-117061' action='modify' visible='true' lat='-43.36051' lon='147.36196' />
  <node id='-117062' action='modify' visible='true' lat='-43.36041' lon='147.36196' />
  <node id='-117063' action='modify' visible='true' lat='-43.36033' lon='147.36203' />
  <node id='-117064' action='modify' visible='true' lat='-43.36023' lon='147.36203' />
  <node id='-117065' action='modify' visible='true' lat='-43.36013' lon='147.36202' />
  <node id='-117066' action='modify' visible='true' lat='-43.36007' lon='147.36203' />
  <node id='-117067' action='modify' visible='true' lat='-43.35998' lon='147.36203' />
  <node id='-117068' action='modify' visible='true' lat='-43.35989' lon='147.36207' />
  <node id='-117069' action='modify' visible='true' lat='-43.35983' lon='147.36206' />
  <node id='-117070' action='modify' visible='true' lat='-43.35975' lon='147.36201' />
  <node id='-117071' action='modify' visible='true' lat='-43.35969' lon='147.36201' />
  <node id='-117072' action='modify' visible='true' lat='-43.3596' lon='147.36202' />
  <node id='-117073' action='modify' visible='true' lat='-43.35955' lon='147.36206' />
  <node id='-117074' action='modify' visible='true' lat='-43.35945' lon='147.36208' />
  <node id='-117075' action='modify' visible='true' lat='-43.35935' lon='147.3621' />
  <node id='-117076' action='modify' visible='true' lat='-43.3593' lon='147.36213' />
  <node id='-117077' action='modify' visible='true' lat='-43.35925' lon='147.36217' />
  <node id='-117078' action='modify' visible='true' lat='-43.35919' lon='147.36217' />
  <node id='-117079' action='modify' visible='true' lat='-43.35908' lon='147.36221' />
  <node id='-117080' action='modify' visible='true' lat='-43.35899' lon='147.36221' />
  <node id='-117081' action='modify' visible='true' lat='-43.35889' lon='147.36226' />
  <node id='-117082' action='modify' visible='true' lat='-43.35886' lon='147.36238' />
  <node id='-117083' action='modify' visible='true' lat='-43.35878' lon='147.36247' />
  <node id='-117084' action='modify' visible='true' lat='-43.3587' lon='147.36254' />
  <node id='-117085' action='modify' visible='true' lat='-43.35866' lon='147.36267' />
  <node id='-117086' action='modify' visible='true' lat='-43.3586' lon='147.36276' />
  <node id='-117087' action='modify' visible='true' lat='-43.35854' lon='147.36279' />
  <node id='-117088' action='modify' visible='true' lat='-43.35844' lon='147.36286' />
  <node id='-117089' action='modify' visible='true' lat='-43.3584' lon='147.36291' />
  <node id='-117090' action='modify' visible='true' lat='-43.35829' lon='147.36295' />
  <node id='-117091' action='modify' visible='true' lat='-43.35824' lon='147.36299' />
  <node id='-117092' action='modify' visible='true' lat='-43.35819' lon='147.36286' />
  <node id='-117093' action='modify' visible='true' lat='-43.35815' lon='147.36273' />
  <node id='-117094' action='modify' visible='true' lat='-43.35812' lon='147.36266' />
  <node id='-117095' action='modify' visible='true' lat='-43.35809' lon='147.36253' />
  <node id='-117096' action='modify' visible='true' lat='-43.35804' lon='147.36241' />
  <node id='-117097' action='modify' visible='true' lat='-43.35803' lon='147.36228' />
  <node id='-117098' action='modify' visible='true' lat='-43.35805' lon='147.36212' />
  <node id='-117099' action='modify' visible='true' lat='-43.35803' lon='147.36202' />
  <node id='-117100' action='modify' visible='true' lat='-43.35803' lon='147.36187' />
  <node id='-117101' action='modify' visible='true' lat='-43.35805' lon='147.36172' />
  <node id='-117102' action='modify' visible='true' lat='-43.35804' lon='147.3616' />
  <node id='-117103' action='modify' visible='true' lat='-43.35802' lon='147.36147' />
  <node id='-117104' action='modify' visible='true' lat='-43.35798' lon='147.36133' />
  <node id='-117105' action='modify' visible='true' lat='-43.35796' lon='147.36126' />
  <node id='-117106' action='modify' visible='true' lat='-43.35792' lon='147.36114' />
  <node id='-117107' action='modify' visible='true' lat='-43.35793' lon='147.36106' />
  <node id='-117108' action='modify' visible='true' lat='-43.35795' lon='147.36091' />
  <node id='-117109' action='modify' visible='true' lat='-43.35797' lon='147.36084' />
  <node id='-117110' action='modify' visible='true' lat='-43.35804' lon='147.36072' />
  <node id='-117111' action='modify' visible='true' lat='-43.35807' lon='147.36064' />
  <node id='-117112' action='modify' visible='true' lat='-43.3581' lon='147.36053' />
  <node id='-117113' action='modify' visible='true' lat='-43.35812' lon='147.36039' />
  <node id='-117114' action='modify' visible='true' lat='-43.35814' lon='147.36026' />
  <node id='-117115' action='modify' visible='true' lat='-43.35817' lon='147.36013' />
  <node id='-117116' action='modify' visible='true' lat='-43.35817' lon='147.36005' />
  <node id='-117117' action='modify' visible='true' lat='-43.35822' lon='147.35993' />
  <node id='-117118' action='modify' visible='true' lat='-43.35826' lon='147.35982' />
  <node id='-117119' action='modify' visible='true' lat='-43.35829' lon='147.35975' />
  <node id='-117120' action='modify' visible='true' lat='-43.35833' lon='147.3597' />
  <node id='-117121' action='modify' visible='true' lat='-43.3584' lon='147.35962' />
  <node id='-117122' action='modify' visible='true' lat='-43.35848' lon='147.35954' />
  <node id='-117123' action='modify' visible='true' lat='-43.35855' lon='147.35944' />
  <node id='-117124' action='modify' visible='true' lat='-43.35859' lon='147.35938' />
  <node id='-117125' action='modify' visible='true' lat='-43.35863' lon='147.35933' />
  <node id='-117126' action='modify' visible='true' lat='-43.35867' lon='147.35927' />
  <node id='-117127' action='modify' visible='true' lat='-43.3587' lon='147.3592' />
  <node id='-117128' action='modify' visible='true' lat='-43.35873' lon='147.35907' />
  <node id='-117129' action='modify' visible='true' lat='-43.35877' lon='147.35902' />
  <node id='-117130' action='modify' visible='true' lat='-43.35881' lon='147.35896' />
  <node id='-117131' action='modify' visible='true' lat='-43.35888' lon='147.35889' />
  <node id='-117132' action='modify' visible='true' lat='-43.35897' lon='147.35884' />
  <node id='-117133' action='modify' visible='true' lat='-43.35905' lon='147.35876' />
  <node id='-117134' action='modify' visible='true' lat='-43.35908' lon='147.35863' />
  <node id='-117135' action='modify' visible='true' lat='-43.35908' lon='147.35852' />
  <node id='-117136' action='modify' visible='true' lat='-43.3607' lon='147.36194' />
  <node id='-117137' action='modify' visible='true' lat='-43.36079' lon='147.36191' />
  <node id='-117138' action='modify' visible='true' lat='-43.36088' lon='147.36192' />
  <node id='-117139' action='modify' visible='true' lat='-43.36097' lon='147.36198' />
  <node id='-117140' action='modify' visible='true' lat='-43.36108' lon='147.36202' />
  <node id='-117141' action='modify' visible='true' lat='-43.36113' lon='147.36206' />
  <node id='-117142' action='modify' visible='true' lat='-43.3612' lon='147.36215' />
  <node id='-117143' action='modify' visible='true' lat='-43.36123' lon='147.36228' />
  <node id='-117144' action='modify' visible='true' lat='-43.36122' lon='147.36238' />
  <node id='-117145' action='modify' visible='true' lat='-43.3612' lon='147.36251' />
  <node id='-117146' action='modify' visible='true' lat='-43.36117' lon='147.36258' />
  <node id='-117147' action='modify' visible='true' lat='-43.36119' lon='147.36265' />
  <node id='-117148' action='modify' visible='true' lat='-43.36121' lon='147.36272' />
  <node id='-117149' action='modify' visible='true' lat='-43.36121' lon='147.36284' />
  <node id='-117150' action='modify' visible='true' lat='-43.36112' lon='147.36294' />
  <node id='-117151' action='modify' visible='true' lat='-43.36111' lon='147.36302' />
  <node id='-117152' action='modify' visible='true' lat='-43.36107' lon='147.36314' />
  <node id='-117153' action='modify' visible='true' lat='-43.36104' lon='147.36322' />
  <node id='-117154' action='modify' visible='true' lat='-43.36103' lon='147.3633' />
  <node id='-117155' action='modify' visible='true' lat='-43.36104' lon='147.3634' />
  <node id='-117156' action='modify' visible='true' lat='-43.36104' lon='147.3635' />
  <node id='-117157' action='modify' visible='true' lat='-43.36106' lon='147.36357' />
  <node id='-117158' action='modify' visible='true' lat='-43.3611' lon='147.3637' />
  <node id='-117159' action='modify' visible='true' lat='-43.36111' lon='147.36381' />
  <node id='-117160' action='modify' visible='true' lat='-43.36109' lon='147.36388' />
  <node id='-117161' action='modify' visible='true' lat='-43.36108' lon='147.36396' />
  <node id='-117162' action='modify' visible='true' lat='-43.36108' lon='147.36404' />
  <node id='-117163' action='modify' visible='true' lat='-43.36108' lon='147.36414' />
  <node id='-117164' action='modify' visible='true' lat='-43.3611' lon='147.36423' />
  <node id='-117165' action='modify' visible='true' lat='-43.36112' lon='147.3643' />
  <node id='-117166' action='modify' visible='true' lat='-43.36111' lon='147.36439' />
  <node id='-117167' action='modify' visible='true' lat='-43.36116' lon='147.36451' />
  <node id='-117168' action='modify' visible='true' lat='-43.36123' lon='147.36458' />
  <node id='-117169' action='modify' visible='true' lat='-43.36129' lon='147.3646' />
  <node id='-117170' action='modify' visible='true' lat='-43.36135' lon='147.3646' />
  <node id='-117171' action='modify' visible='true' lat='-43.36141' lon='147.36459' />
  <node id='-117172' action='modify' visible='true' lat='-43.36146' lon='147.36456' />
  <node id='-117173' action='modify' visible='true' lat='-43.36152' lon='147.36457' />
  <node id='-117174' action='modify' visible='true' lat='-43.36162' lon='147.36457' />
  <node id='-117175' action='modify' visible='true' lat='-43.3617' lon='147.36462' />
  <node id='-117176' action='modify' visible='true' lat='-43.36175' lon='147.36465' />
  <node id='-117177' action='modify' visible='true' lat='-43.36186' lon='147.36466' />
  <node id='-117178' action='modify' visible='true' lat='-43.36195' lon='147.36471' />
  <node id='-117179' action='modify' visible='true' lat='-43.36203' lon='147.36479' />
  <node id='-117180' action='modify' visible='true' lat='-43.36205' lon='147.3649' />
  <node id='-117181' action='modify' visible='true' lat='-43.36202' lon='147.36502' />
  <node id='-117182' action='modify' visible='true' lat='-43.36198' lon='147.36515' />
  <node id='-117183' action='modify' visible='true' lat='-43.36192' lon='147.36525' />
  <node id='-117184' action='modify' visible='true' lat='-43.36185' lon='147.36534' />
  <node id='-117185' action='modify' visible='true' lat='-43.36185' lon='147.36543' />
  <node id='-117186' action='modify' visible='true' lat='-43.36185' lon='147.36556' />
  <node id='-117187' action='modify' visible='true' lat='-43.3618' lon='147.36568' />
  <node id='-117188' action='modify' visible='true' lat='-43.3618' lon='147.36582' />
  <node id='-117189' action='modify' visible='true' lat='-43.3618' lon='147.3659' />
  <node id='-117190' action='modify' visible='true' lat='-43.36181' lon='147.36604' />
  <node id='-117191' action='modify' visible='true' lat='-43.3618' lon='147.36618' />
  <node id='-117192' action='modify' visible='true' lat='-43.36178' lon='147.36626' />
  <node id='-117193' action='modify' visible='true' lat='-43.36172' lon='147.36636' />
  <node id='-117194' action='modify' visible='true' lat='-43.3617' lon='147.3665' />
  <node id='-117195' action='modify' visible='true' lat='-43.36165' lon='147.36664' />
  <node id='-117196' action='modify' visible='true' lat='-43.36167' lon='147.36672' />
  <node id='-117197' action='modify' visible='true' lat='-43.36164' lon='147.36679' />
  <node id='-117198' action='modify' visible='true' lat='-43.36161' lon='147.36688' />
  <node id='-117199' action='modify' visible='true' lat='-43.3616' lon='147.36702' />
  <node id='-117200' action='modify' visible='true' lat='-43.36156' lon='147.36714' />
  <node id='-117201' action='modify' visible='true' lat='-43.36156' lon='147.36722' />
  <node id='-117202' action='modify' visible='true' lat='-43.36158' lon='147.36737' />
  <node id='-117203' action='modify' visible='true' lat='-43.36156' lon='147.36751' />
  <node id='-117204' action='modify' visible='true' lat='-43.36154' lon='147.36765' />
  <node id='-117205' action='modify' visible='true' lat='-43.3615' lon='147.3677' />
  <node id='-117206' action='modify' visible='true' lat='-43.36148' lon='147.36783' />
  <node id='-117207' action='modify' visible='true' lat='-43.36146' lon='147.36792' />
  <node id='-117208' action='modify' visible='true' lat='-43.36145' lon='147.36806' />
  <node id='-117209' action='modify' visible='true' lat='-43.36142' lon='147.36813' />
  <node id='-117210' action='modify' visible='true' lat='-43.36143' lon='147.36822' />
  <node id='-117211' action='modify' visible='true' lat='-43.36144' lon='147.36831' />
  <node id='-117212' action='modify' visible='true' lat='-43.36144' lon='147.3684' />
  <node id='-117213' action='modify' visible='true' lat='-43.36146' lon='147.36848' />
  <node id='-117214' action='modify' visible='true' lat='-43.36152' lon='147.3686' />
  <node id='-117215' action='modify' visible='true' lat='-43.36146' lon='147.36871' />
  <node id='-117216' action='modify' visible='true' lat='-43.3614' lon='147.3688' />
  <node id='-117217' action='modify' visible='true' lat='-43.36134' lon='147.36889' />
  <node id='-117218' action='modify' visible='true' lat='-43.36128' lon='147.369' />
  <node id='-117219' action='modify' visible='true' lat='-43.36124' lon='147.36913' />
  <node id='-117220' action='modify' visible='true' lat='-43.36123' lon='147.36927' />
  <node id='-117221' action='modify' visible='true' lat='-43.36123' lon='147.36941' />
  <node id='-117222' action='modify' visible='true' lat='-43.36121' lon='147.36948' />
  <node id='-117223' action='modify' visible='true' lat='-43.36118' lon='147.36956' />
  <node id='-117224' action='modify' visible='true' lat='-43.36115' lon='147.36971' />
  <node id='-117225' action='modify' visible='true' lat='-43.36108' lon='147.36978' />
  <node id='-117226' action='modify' visible='true' lat='-43.36106' lon='147.36986' />
  <node id='-117227' action='modify' visible='true' lat='-43.36102' lon='147.36993' />
  <node id='-117228' action='modify' visible='true' lat='-43.36099' lon='147.37004' />
  <node id='-117229' action='modify' visible='true' lat='-43.36096' lon='147.37018' />
  <node id='-117230' action='modify' visible='true' lat='-43.36092' lon='147.37025' />
  <node id='-117231' action='modify' visible='true' lat='-43.36089' lon='147.37033' />
  <node id='-117232' action='modify' visible='true' lat='-43.36084' lon='147.37047' />
  <node id='-117233' action='modify' visible='true' lat='-43.36082' lon='147.3706' />
  <node id='-117234' action='modify' visible='true' lat='-43.36076' lon='147.37072' />
  <node id='-117235' action='modify' visible='true' lat='-43.36069' lon='147.37084' />
  <node id='-117236' action='modify' visible='true' lat='-43.36064' lon='147.37094' />
  <node id='-117237' action='modify' visible='true' lat='-43.36059' lon='147.37097' />
  <node id='-117238' action='modify' visible='true' lat='-43.36053' lon='147.37107' />
  <node id='-117239' action='modify' visible='true' lat='-43.3605' lon='147.37119' />
  <node id='-117240' action='modify' visible='true' lat='-43.36048' lon='147.37126' />
  <node id='-117241' action='modify' visible='true' lat='-43.36043' lon='147.37138' />
  <node id='-117242' action='modify' visible='true' lat='-43.36036' lon='147.37146' />
  <node id='-117243' action='modify' visible='true' lat='-43.36032' lon='147.37152' />
  <node id='-117244' action='modify' visible='true' lat='-43.36028' lon='147.37163' />
  <node id='-117245' action='modify' visible='true' lat='-43.36029' lon='147.37178' />
  <node id='-117246' action='modify' visible='true' lat='-43.36029' lon='147.37191' />
  <node id='-117247' action='modify' visible='true' lat='-43.36026' lon='147.37207' />
  <node id='-117248' action='modify' visible='true' lat='-43.36024' lon='147.37219' />
  <node id='-117249' action='modify' visible='true' lat='-43.36026' lon='147.37226' />
  <node id='-117250' action='modify' visible='true' lat='-43.36024' lon='147.37239' />
  <node id='-117251' action='modify' visible='true' lat='-43.36024' lon='147.37253' />
  <node id='-117252' action='modify' visible='true' lat='-43.36024' lon='147.37261' />
  <node id='-117253' action='modify' visible='true' lat='-43.36027' lon='147.37272' />
  <node id='-117254' action='modify' visible='true' lat='-43.36033' lon='147.37288' />
  <node id='-117255' action='modify' visible='true' lat='-43.36033' lon='147.37304' />
  <node id='-117256' action='modify' visible='true' lat='-43.36029' lon='147.37316' />
  <node id='-117257' action='modify' visible='true' lat='-43.36027' lon='147.37323' />
  <node id='-117258' action='modify' visible='true' lat='-43.36027' lon='147.37335' />
  <node id='-117259' action='modify' visible='true' lat='-43.36031' lon='147.37341' />
  <node id='-117260' action='modify' visible='true' lat='-43.36036' lon='147.37354' />
  <node id='-117261' action='modify' visible='true' lat='-43.36035' lon='147.37363' />
  <node id='-117262' action='modify' visible='true' lat='-43.36034' lon='147.37373' />
  <node id='-117263' action='modify' visible='true' lat='-43.36036' lon='147.3738' />
  <node id='-117264' action='modify' visible='true' lat='-43.36035' lon='147.37388' />
  <node id='-117265' action='modify' visible='true' lat='-43.36039' lon='147.37401' />
  <node id='-117266' action='modify' visible='true' lat='-43.36035' lon='147.37411' />
  <node id='-117267' action='modify' visible='true' lat='-43.36031' lon='147.37424' />
  <node id='-117268' action='modify' visible='true' lat='-43.36033' lon='147.37432' />
  <node id='-117269' action='modify' visible='true' lat='-43.36032' lon='147.37445' />
  <node id='-117270' action='modify' visible='true' lat='-43.36028' lon='147.37451' />
  <node id='-117271' action='modify' visible='true' lat='-43.3603' lon='147.37464' />
  <node id='-117272' action='modify' visible='true' lat='-43.36025' lon='147.37468' />
  <node id='-117273' action='modify' visible='true' lat='-43.3602' lon='147.37474' />
  <node id='-117274' action='modify' visible='true' lat='-43.36016' lon='147.37479' />
  <node id='-117275' action='modify' visible='true' lat='-43.36015' lon='147.37482' />
  <node id='-117276' action='modify' visible='true' lat='-43.36017' lon='147.37474' />
  <node id='-117277' action='modify' visible='true' lat='-43.36011' lon='147.37471' />
  <node id='-117278' action='modify' visible='true' lat='-43.36007' lon='147.3746' />
  <node id='-117279' action='modify' visible='true' lat='-43.35999' lon='147.37452' />
  <node id='-117280' action='modify' visible='true' lat='-43.35992' lon='147.37446' />
  <node id='-117281' action='modify' visible='true' lat='-43.35986' lon='147.37442' />
  <node id='-117282' action='modify' visible='true' lat='-43.35981' lon='147.37436' />
  <node id='-117283' action='modify' visible='true' lat='-43.35976' lon='147.37433' />
  <node id='-117284' action='modify' visible='true' lat='-43.35967' lon='147.37433' />
  <node id='-117285' action='modify' visible='true' lat='-43.35957' lon='147.37431' />
  <node id='-117286' action='modify' visible='true' lat='-43.35948' lon='147.37428' />
  <node id='-117287' action='modify' visible='true' lat='-43.35939' lon='147.3742' />
  <node id='-117288' action='modify' visible='true' lat='-43.35931' lon='147.37419' />
  <node id='-117289' action='modify' visible='true' lat='-43.35924' lon='147.3741' />
  <node id='-117290' action='modify' visible='true' lat='-43.35912' lon='147.37412' />
  <node id='-117291' action='modify' visible='true' lat='-43.35908' lon='147.37406' />
  <node id='-117292' action='modify' visible='true' lat='-43.35899' lon='147.37406' />
  <node id='-117293' action='modify' visible='true' lat='-43.3589' lon='147.37403' />
  <node id='-117294' action='modify' visible='true' lat='-43.35883' lon='147.3741' />
  <node id='-117295' action='modify' visible='true' lat='-43.35877' lon='147.37401' />
  <node id='-117296' action='modify' visible='true' lat='-43.35872' lon='147.37396' />
  <node id='-117297' action='modify' visible='true' lat='-43.35864' lon='147.37394' />
  <node id='-117298' action='modify' visible='true' lat='-43.35858' lon='147.37395' />
  <node id='-117299' action='modify' visible='true' lat='-43.35851' lon='147.37396' />
  <node id='-117300' action='modify' visible='true' lat='-43.35846' lon='147.37393' />
  <node id='-117301' action='modify' visible='true' lat='-43.35841' lon='147.37388' />
  <node id='-117302' action='modify' visible='true' lat='-43.35833' lon='147.3739' />
  <node id='-117303' action='modify' visible='true' lat='-43.35829' lon='147.37385' />
  <node id='-117304' action='modify' visible='true' lat='-43.3582' lon='147.37381' />
  <node id='-117305' action='modify' visible='true' lat='-43.35814' lon='147.37379' />
  <node id='-117306' action='modify' visible='true' lat='-43.35808' lon='147.37384' />
  <node id='-117307' action='modify' visible='true' lat='-43.35799' lon='147.37387' />
  <node id='-117308' action='modify' visible='true' lat='-43.3579' lon='147.3738' />
  <node id='-117309' action='modify' visible='true' lat='-43.3578' lon='147.37376' />
  <node id='-117310' action='modify' visible='true' lat='-43.35774' lon='147.37376' />
  <node id='-117311' action='modify' visible='true' lat='-43.35765' lon='147.37372' />
  <node id='-117312' action='modify' visible='true' lat='-43.3576' lon='147.37367' />
  <node id='-117313' action='modify' visible='true' lat='-43.35751' lon='147.3736' />
  <node id='-117314' action='modify' visible='true' lat='-43.35743' lon='147.3735' />
  <node id='-117315' action='modify' visible='true' lat='-43.35737' lon='147.3735' />
  <node id='-117316' action='modify' visible='true' lat='-43.35728' lon='147.37346' />
  <node id='-117317' action='modify' visible='true' lat='-43.3572' lon='147.37346' />
  <node id='-117318' action='modify' visible='true' lat='-43.3571' lon='147.37342' />
  <node id='-117319' action='modify' visible='true' lat='-43.357' lon='147.3734' />
  <node id='-117320' action='modify' visible='true' lat='-43.3569' lon='147.37339' />
  <node id='-117321' action='modify' visible='true' lat='-43.35682' lon='147.37339' />
  <node id='-117322' action='modify' visible='true' lat='-43.3567' lon='147.37333' />
  <node id='-117323' action='modify' visible='true' lat='-43.35666' lon='147.37322' />
  <node id='-117324' action='modify' visible='true' lat='-43.35659' lon='147.37315' />
  <node id='-117325' action='modify' visible='true' lat='-43.35653' lon='147.37305' />
  <node id='-117326' action='modify' visible='true' lat='-43.3565' lon='147.37298' />
  <node id='-117327' action='modify' visible='true' lat='-43.35644' lon='147.37299' />
  <node id='-117328' action='modify' visible='true' lat='-43.35649' lon='147.37291' />
  <node id='-117329' action='modify' visible='true' lat='-43.35647' lon='147.37276' />
  <node id='-117330' action='modify' visible='true' lat='-43.3565' lon='147.37263' />
  <node id='-117331' action='modify' visible='true' lat='-43.35646' lon='147.37256' />
  <node id='-117332' action='modify' visible='true' lat='-43.35647' lon='147.37248' />
  <node id='-117333' action='modify' visible='true' lat='-43.35647' lon='147.3724' />
  <node id='-117334' action='modify' visible='true' lat='-43.35644' lon='147.37232' />
  <node id='-117335' action='modify' visible='true' lat='-43.35642' lon='147.37218' />
  <node id='-117336' action='modify' visible='true' lat='-43.35641' lon='147.37206' />
  <node id='-117337' action='modify' visible='true' lat='-43.3564' lon='147.37191' />
  <node id='-117338' action='modify' visible='true' lat='-43.35642' lon='147.37184' />
  <node id='-117339' action='modify' visible='true' lat='-43.35646' lon='147.37172' />
  <node id='-117340' action='modify' visible='true' lat='-43.35647' lon='147.3716' />
  <node id='-117341' action='modify' visible='true' lat='-43.35638' lon='147.3716' />
  <node id='-117342' action='modify' visible='true' lat='-43.35629' lon='147.37157' />
  <node id='-117343' action='modify' visible='true' lat='-43.35622' lon='147.37148' />
  <node id='-117344' action='modify' visible='true' lat='-43.35614' lon='147.37143' />
  <node id='-117345' action='modify' visible='true' lat='-43.35607' lon='147.37133' />
  <node id='-117346' action='modify' visible='true' lat='-43.35603' lon='147.37128' />
  <node id='-117347' action='modify' visible='true' lat='-43.35595' lon='147.3712' />
  <node id='-117348' action='modify' visible='true' lat='-43.3559' lon='147.37117' />
  <node id='-117349' action='modify' visible='true' lat='-43.35581' lon='147.37114' />
  <node id='-117350' action='modify' visible='true' lat='-43.35572' lon='147.37108' />
  <node id='-117351' action='modify' visible='true' lat='-43.35565' lon='147.37098' />
  <node id='-117352' action='modify' visible='true' lat='-43.35562' lon='147.3709' />
  <node id='-117353' action='modify' visible='true' lat='-43.35558' lon='147.37078' />
  <node id='-117354' action='modify' visible='true' lat='-43.35553' lon='147.37065' />
  <node id='-117355' action='modify' visible='true' lat='-43.35545' lon='147.37059' />
  <node id='-117356' action='modify' visible='true' lat='-43.35538' lon='147.3705' />
  <node id='-117357' action='modify' visible='true' lat='-43.35531' lon='147.37042' />
  <node id='-117358' action='modify' visible='true' lat='-43.35522' lon='147.37034' />
  <node id='-117359' action='modify' visible='true' lat='-43.35514' lon='147.37029' />
  <node id='-117360' action='modify' visible='true' lat='-43.35507' lon='147.37025' />
  <node id='-117361' action='modify' visible='true' lat='-43.35498' lon='147.37022' />
  <node id='-117362' action='modify' visible='true' lat='-43.35494' lon='147.37017' />
  <node id='-117363' action='modify' visible='true' lat='-43.35485' lon='147.37008' />
  <node id='-117364' action='modify' visible='true' lat='-43.35476' lon='147.37004' />
  <node id='-117365' action='modify' visible='true' lat='-43.35471' lon='147.37001' />
  <node id='-117366' action='modify' visible='true' lat='-43.35467' lon='147.36995' />
  <node id='-117367' action='modify' visible='true' lat='-43.35463' lon='147.3699' />
  <node id='-117368' action='modify' visible='true' lat='-43.35456' lon='147.36981' />
  <node id='-117369' action='modify' visible='true' lat='-43.35448' lon='147.36975' />
  <node id='-117370' action='modify' visible='true' lat='-43.35439' lon='147.36969' />
  <node id='-117371' action='modify' visible='true' lat='-43.35433' lon='147.36961' />
  <node id='-117372' action='modify' visible='true' lat='-43.35425' lon='147.36954' />
  <node id='-117373' action='modify' visible='true' lat='-43.3542' lon='147.3695' />
  <node id='-117374' action='modify' visible='true' lat='-43.35414' lon='147.36941' />
  <node id='-117375' action='modify' visible='true' lat='-43.3541' lon='147.36936' />
  <node id='-117376' action='modify' visible='true' lat='-43.35408' lon='147.36929' />
  <node id='-117377' action='modify' visible='true' lat='-43.35408' lon='147.36921' />
  <node id='-117378' action='modify' visible='true' lat='-43.35408' lon='147.36907' />
  <node id='-117379' action='modify' visible='true' lat='-43.35403' lon='147.36897' />
  <node id='-117380' action='modify' visible='true' lat='-43.35397' lon='147.36887' />
  <node id='-117381' action='modify' visible='true' lat='-43.35395' lon='147.36877' />
  <node id='-117382' action='modify' visible='true' lat='-43.354' lon='147.36871' />
  <node id='-117383' action='modify' visible='true' lat='-43.3539' lon='147.3687' />
  <node id='-117384' action='modify' visible='true' lat='-43.35379' lon='147.3687' />
  <node id='-117385' action='modify' visible='true' lat='-43.35368' lon='147.36868' />
  <node id='-117386' action='modify' visible='true' lat='-43.35361' lon='147.36868' />
  <node id='-117387' action='modify' visible='true' lat='-43.3535' lon='147.36868' />
  <node id='-117388' action='modify' visible='true' lat='-43.35339' lon='147.36868' />
  <node id='-117389' action='modify' visible='true' lat='-43.3533' lon='147.36869' />
  <node id='-117390' action='modify' visible='true' lat='-43.35322' lon='147.36879' />
  <node id='-117391' action='modify' visible='true' lat='-43.35312' lon='147.3688' />
  <node id='-117392' action='modify' visible='true' lat='-43.35307' lon='147.36883' />
  <node id='-117393' action='modify' visible='true' lat='-43.35302' lon='147.36893' />
  <node id='-117394' action='modify' visible='true' lat='-43.35293' lon='147.369' />
  <node id='-117395' action='modify' visible='true' lat='-43.35285' lon='147.36896' />
  <node id='-117396' action='modify' visible='true' lat='-43.35281' lon='147.36902' />
  <node id='-117397' action='modify' visible='true' lat='-43.35271' lon='147.36906' />
  <node id='-117398' action='modify' visible='true' lat='-43.35262' lon='147.36899' />
  <node id='-117399' action='modify' visible='true' lat='-43.35251' lon='147.36896' />
  <node id='-117400' action='modify' visible='true' lat='-43.35245' lon='147.36893' />
  <node id='-117401' action='modify' visible='true' lat='-43.35238' lon='147.36886' />
  <node id='-117402' action='modify' visible='true' lat='-43.3523' lon='147.36882' />
  <node id='-117403' action='modify' visible='true' lat='-43.35222' lon='147.36872' />
  <node id='-117404' action='modify' visible='true' lat='-43.35214' lon='147.36862' />
  <node id='-117405' action='modify' visible='true' lat='-43.35203' lon='147.36876' />
  <node id='-117406' action='modify' visible='true' lat='-43.35197' lon='147.36885' />
  <node id='-117407' action='modify' visible='true' lat='-43.35192' lon='147.3689' />
  <node id='-117408' action='modify' visible='true' lat='-43.35187' lon='147.36894' />
  <node id='-117409' action='modify' visible='true' lat='-43.35179' lon='147.36904' />
  <node id='-117410' action='modify' visible='true' lat='-43.35178' lon='147.36912' />
  <node id='-117411' action='modify' visible='true' lat='-43.35177' lon='147.3692' />
  <node id='-117412' action='modify' visible='true' lat='-43.35172' lon='147.36917' />
  <node id='-117413' action='modify' visible='true' lat='-43.35168' lon='147.36908' />
  <node id='-117414' action='modify' visible='true' lat='-43.35162' lon='147.36904' />
  <node id='-117415' action='modify' visible='true' lat='-43.35155' lon='147.36893' />
  <node id='-117416' action='modify' visible='true' lat='-43.35148' lon='147.36886' />
  <node id='-117417' action='modify' visible='true' lat='-43.35146' lon='147.36879' />
  <node id='-117418' action='modify' visible='true' lat='-43.35149' lon='147.36871' />
  <node id='-117419' action='modify' visible='true' lat='-43.35142' lon='147.36865' />
  <node id='-117420' action='modify' visible='true' lat='-43.35131' lon='147.36864' />
  <node id='-117421' action='modify' visible='true' lat='-43.35127' lon='147.36859' />
  <node id='-117422' action='modify' visible='true' lat='-43.35123' lon='147.36847' />
  <node id='-117423' action='modify' visible='true' lat='-43.35117' lon='147.36835' />
  <node id='-117424' action='modify' visible='true' lat='-43.35117' lon='147.3682' />
  <node id='-117425' action='modify' visible='true' lat='-43.3511' lon='147.36813' />
  <node id='-117426' action='modify' visible='true' lat='-43.35107' lon='147.36806' />
  <node id='-117427' action='modify' visible='true' lat='-43.35103' lon='147.36799' />
  <node id='-117428' action='modify' visible='true' lat='-43.35103' lon='147.3679' />
  <node id='-117429' action='modify' visible='true' lat='-43.35103' lon='147.36777' />
  <node id='-117430' action='modify' visible='true' lat='-43.351' lon='147.36768' />
  <node id='-117431' action='modify' visible='true' lat='-43.35096' lon='147.36763' />
  <node id='-117432' action='modify' visible='true' lat='-43.35094' lon='147.36755' />
  <node id='-117433' action='modify' visible='true' lat='-43.35092' lon='147.36748' />
  <node id='-117434' action='modify' visible='true' lat='-43.35087' lon='147.36744' />
  <node id='-117435' action='modify' visible='true' lat='-43.35091' lon='147.36737' />
  <node id='-117436' action='modify' visible='true' lat='-43.35088' lon='147.3673' />
  <node id='-117437' action='modify' visible='true' lat='-43.35087' lon='147.36718' />
  <node id='-117438' action='modify' visible='true' lat='-43.35091' lon='147.36706' />
  <node id='-117439' action='modify' visible='true' lat='-43.35094' lon='147.36694' />
  <node id='-117440' action='modify' visible='true' lat='-43.35094' lon='147.36681' />
  <node id='-117441' action='modify' visible='true' lat='-43.35098' lon='147.36676' />
  <node id='-117451' action='modify' visible='true' lat='-43.35912660423' lon='147.35850638968' />
  <node id='-117452' action='modify' visible='true' lat='-43.36422382816' lon='147.3546541432' />
  <node id='-117454' action='modify' visible='true' lat='-43.3591901925' lon='147.35853619668' />
  <node id='-117455' action='modify' visible='true' lat='-43.3592910402' lon='147.35848577283' />
  <node id='-117456' action='modify' visible='true' lat='-43.35937679252' lon='147.35851435694' />
  <node id='-117457' action='modify' visible='true' lat='-43.35943956674' lon='147.35852481931' />
  <node id='-117458' action='modify' visible='true' lat='-43.35953688045' lon='147.35851508793' />
  <node id='-117459' action='modify' visible='true' lat='-43.35958861854' lon='147.35854613079' />
  <node id='-117460' action='modify' visible='true' lat='-43.35967790227' lon='147.35851264939' />
  <node id='-117461' action='modify' visible='true' lat='-43.35972768835' lon='147.35846286331' />
  <node id='-117462' action='modify' visible='true' lat='-43.35981441237' lon='147.3584339553' />
  <node id='-117463' action='modify' visible='true' lat='-43.35992421243' lon='147.358394028' />
  <node id='-117464' action='modify' visible='true' lat='-43.36002' lon='147.35836529173' />
  <node id='-117465' action='modify' visible='true' lat='-43.36011699841' lon='147.35839439125' />
  <node id='-117466' action='modify' visible='true' lat='-43.36017891545' lon='147.35840471075' />
  <node id='-117467' action='modify' visible='true' lat='-43.36028316425' lon='147.35840471075' />
  <node id='-117468' action='modify' visible='true' lat='-43.36036316424' lon='147.35836471075' />
  <node id='-117469' action='modify' visible='true' lat='-43.36042129938' lon='147.35836471075' />
  <node id='-117470' action='modify' visible='true' lat='-43.36052341582' lon='147.35834428746' />
  <node id='-117471' action='modify' visible='true' lat='-43.36058520075' lon='147.35832369248' />
  <node id='-117472' action='modify' visible='true' lat='-43.36068200514' lon='147.35827529029' />
  <node id='-117473' action='modify' visible='true' lat='-43.36078699175' lon='147.35829437876' />
  <node id='-117474' action='modify' visible='true' lat='-43.36085815372' lon='147.35831471075' />
  <node id='-117475' action='modify' visible='true' lat='-43.3609211823' lon='147.35831471075' />
  <node id='-117476' action='modify' visible='true' lat='-43.36103330226' lon='147.35829432531' />
  <node id='-117477' action='modify' visible='true' lat='-43.36109142832' lon='147.35827494995' />
  <node id='-117478' action='modify' visible='true' lat='-43.36117862531' lon='147.35828463851' />
  <node id='-117479' action='modify' visible='true' lat='-43.36128252808' lon='147.35829502878' />
  <node id='-117480' action='modify' visible='true' lat='-43.36134454189' lon='147.35826402188' />
  <node id='-117481' action='modify' visible='true' lat='-43.36143026105' lon='147.35824497318' />
  <node id='-117482' action='modify' visible='true' lat='-43.36153800899' lon='147.35826456371' />
  <node id='-117483' action='modify' visible='true' lat='-43.36161548015' lon='147.3582742476' />
  <node id='-117484' action='modify' visible='true' lat='-43.36167224487' lon='147.35830830644' />
  <node id='-117485' action='modify' visible='true' lat='-43.36172485126' lon='147.35825570004' />
  <node id='-117486' action='modify' visible='true' lat='-43.36177612188' lon='147.35826424515' />
  <node id='-117487' action='modify' visible='true' lat='-43.36186716949' lon='147.35830471075' />
  <node id='-117488' action='modify' visible='true' lat='-43.36193129931' lon='147.35830471075' />
  <node id='-117489' action='modify' visible='true' lat='-43.36202534947' lon='147.35828590072' />
  <node id='-117490' action='modify' visible='true' lat='-43.36209248635' lon='147.35835303759' />
  <node id='-117491' action='modify' visible='true' lat='-43.36220299524' lon='147.35838619026' />
  <node id='-117492' action='modify' visible='true' lat='-43.3622527886' lon='147.35834635556' />
  <node id='-117493' action='modify' visible='true' lat='-43.36234607445' lon='147.35837745085' />
  <node id='-117494' action='modify' visible='true' lat='-43.36239355784' lon='147.35830622574' />
  <node id='-117495' action='modify' visible='true' lat='-43.362453036' lon='147.35820709546' />
  <node id='-117496' action='modify' visible='true' lat='-43.36249598296' lon='147.35815341175' />
  <node id='-117497' action='modify' visible='true' lat='-43.3625202351' lon='147.35802922906' />
  <node id='-117498' action='modify' visible='true' lat='-43.36259349393' lon='147.35797520066' />
  <node id='-117499' action='modify' visible='true' lat='-43.36271330609' lon='147.35788401528' />
  <node id='-117500' action='modify' visible='true' lat='-43.36279869919' lon='147.35781894383' />
  <node id='-117501' action='modify' visible='true' lat='-43.36297087972' lon='147.35741614074' />
  <node id='-117502' action='modify' visible='true' lat='-43.36319578894' lon='147.35689181974' />
  <node id='-117503' action='modify' visible='true' lat='-43.36323606734' lon='147.35678105411' />
  <node id='-117504' action='modify' visible='true' lat='-43.3632760174' lon='147.35667119141' />
  <node id='-117505' action='modify' visible='true' lat='-43.36330592344' lon='147.35659144194' />
  <node id='-117506' action='modify' visible='true' lat='-43.36335597562' lon='147.35646130624' />
  <node id='-117507' action='modify' visible='true' lat='-43.36339583967' lon='147.35635168008' />
  <node id='-117508' action='modify' visible='true' lat='-43.36344623976' lon='147.35623071982' />
  <node id='-117509' action='modify' visible='true' lat='-43.36346653798' lon='147.35615967605' />
  <node id='-117510' action='modify' visible='true' lat='-43.36350653797' lon='147.35603967606' />
  <node id='-117511' action='modify' visible='true' lat='-43.36352672016' lon='147.35596903835' />
  <node id='-117512' action='modify' visible='true' lat='-43.36354672016' lon='147.35589903835' />
  <node id='-117513' action='modify' visible='true' lat='-43.36356663501' lon='147.35582933636' />
  <node id='-117514' action='modify' visible='true' lat='-43.36360663499' lon='147.35569933636' />
  <node id='-117515' action='modify' visible='true' lat='-43.36362663499' lon='147.35562933637' />
  <node id='-117516' action='modify' visible='true' lat='-43.36366644086' lon='147.35549996726' />
  <node id='-117517' action='modify' visible='true' lat='-43.36371686755' lon='147.35534868712' />
  <node id='-117518' action='modify' visible='true' lat='-43.36374700882' lon='147.35520802782' />
  <node id='-117519' action='modify' visible='true' lat='-43.36376760939' lon='147.35513592581' />
  <node id='-117520' action='modify' visible='true' lat='-43.36377760939' lon='147.35500592582' />
  <node id='-117521' action='modify' visible='true' lat='-43.36379672008' lon='147.35493903839' />
  <node id='-117522' action='modify' visible='true' lat='-43.36381726645' lon='147.35486712607' />
  <node id='-117523' action='modify' visible='true' lat='-43.36383716236' lon='147.35473780261' />
  <node id='-117524' action='modify' visible='true' lat='-43.36387254527' lon='147.35463165385' />
  <node id='-117525' action='modify' visible='true' lat='-43.36392660704' lon='147.35461620763' />
  <node id='-117526' action='modify' visible='true' lat='-43.36399486069' lon='147.35467471075' />
  <node id='-117527' action='modify' visible='true' lat='-43.36405891559' lon='147.35467471075' />
  <node id='-117528' action='modify' visible='true' lat='-43.36412085748' lon='147.3546850344' />
  <way id='-116850' action='modify' visible='true'>
    <nd ref='-117452' />
    <nd ref='-117528' />
    <nd ref='-117527' />
    <nd ref='-117526' />
    <nd ref='-117525' />
    <nd ref='-117524' />
    <nd ref='-117523' />
    <nd ref='-117522' />
    <nd ref='-117521' />
    <nd ref='-117520' />
    <nd ref='-117519' />
    <nd ref='-117518' />
    <nd ref='-117517' />
    <nd ref='-117516' />
    <nd ref='-117515' />
    <nd ref='-117514' />
    <nd ref='-117513' />
    <nd ref='-117512' />
    <nd ref='-117511' />
    <nd ref='-117510' />
    <nd ref='-117509' />
    <nd ref='-117508' />
    <nd ref='-117507' />
    <nd ref='-117506' />
    <nd ref='-117505' />
    <nd ref='-117504' />
    <nd ref='-117503' />
    <nd ref='-117502' />
    <nd ref='-117501' />
    <nd ref='-117500' />
    <nd ref='-117499' />
    <nd ref='-117498' />
    <nd ref='-117497' />
    <nd ref='-117496' />
    <nd ref='-117495' />
    <nd ref='-117494' />
    <nd ref='-117493' />
    <nd ref='-117492' />
    <nd ref='-117491' />
    <nd ref='-117490' />
    <nd ref='-117489' />
    <nd ref='-117488' />
    <nd ref='-117487' />
    <nd ref='-117486' />
    <nd ref='-117485' />
    <nd ref='-117484' />
    <nd ref='-117483' />
    <nd ref='-117482' />
    <nd ref='-117481' />
    <nd ref='-117480' />
    <nd ref='-117479' />
    <nd ref='-117478' />
    <nd ref='-117477' />
    <nd ref='-117476' />
    <nd ref='-117475' />
    <nd ref='-117474' />
    <nd ref='-117473' />
    <nd ref='-117472' />
    <nd ref='-117471' />
    <nd ref='-117470' />
    <nd ref='-117469' />
    <nd ref='-117468' />
    <nd ref='-117467' />
    <nd ref='-117466' />
    <nd ref='-117465' />
    <nd ref='-117464' />
    <nd ref='-117463' />
    <nd ref='-117462' />
    <nd ref='-117461' />
    <nd ref='-117460' />
    <nd ref='-117459' />
    <nd ref='-117458' />
    <nd ref='-117457' />
    <nd ref='-117456' />
    <nd ref='-117455' />
    <nd ref='-117454' />
    <nd ref='-117451' />
    <nd ref='-117135' />
    <nd ref='-117134' />
    <nd ref='-117133' />
    <nd ref='-117132' />
    <nd ref='-117131' />
    <nd ref='-117130' />
    <nd ref='-117129' />
    <nd ref='-117128' />
    <nd ref='-117127' />
    <nd ref='-117126' />
    <nd ref='-117125' />
    <nd ref='-117124' />
    <nd ref='-117123' />
    <nd ref='-117122' />
    <nd ref='-117121' />
    <nd ref='-117120' />
    <nd ref='-117119' />
    <nd ref='-117118' />
    <nd ref='-117117' />
    <nd ref='-117116' />
    <nd ref='-117115' />
    <nd ref='-117114' />
    <nd ref='-117113' />
    <nd ref='-117112' />
    <nd ref='-117111' />
    <nd ref='-117110' />
    <nd ref='-117109' />
    <nd ref='-117108' />
    <nd ref='-117107' />
    <nd ref='-117106' />
    <nd ref='-117105' />
    <nd ref='-117104' />
    <nd ref='-117103' />
    <nd ref='-117102' />
    <nd ref='-117101' />
    <nd ref='-117100' />
    <nd ref='-117099' />
    <nd ref='-117098' />
    <nd ref='-117097' />
    <nd ref='-117096' />
    <nd ref='-117095' />
    <nd ref='-117094' />
    <nd ref='-117093' />
    <nd ref='-117092' />
    <nd ref='-117091' />
    <nd ref='-117090' />
    <nd ref='-117089' />
    <nd ref='-117088' />
    <nd ref='-117087' />
    <nd ref='-117086' />
    <nd ref='-117085' />
    <nd ref='-117084' />
    <nd ref='-117083' />
    <nd ref='-117082' />
    <nd ref='-117081' />
    <nd ref='-117080' />
    <nd ref='-117079' />
    <nd ref='-117078' />
    <nd ref='-117077' />
    <nd ref='-117076' />
    <nd ref='-117075' />
    <nd ref='-117074' />
    <nd ref='-117073' />
    <nd ref='-117072' />
    <nd ref='-117071' />
    <nd ref='-117070' />
    <nd ref='-117069' />
    <nd ref='-117068' />
    <nd ref='-117067' />
    <nd ref='-117066' />
    <nd ref='-117065' />
    <nd ref='-117064' />
    <nd ref='-117063' />
    <nd ref='-117062' />
    <nd ref='-117061' />
    <nd ref='-117060' />
    <nd ref='-117136' />
    <nd ref='-117137' />
    <nd ref='-117138' />
    <nd ref='-117139' />
    <nd ref='-117140' />
    <nd ref='-117141' />
    <nd ref='-117142' />
    <nd ref='-117143' />
    <nd ref='-117144' />
    <nd ref='-117145' />
    <nd ref='-117146' />
    <nd ref='-117147' />
    <nd ref='-117148' />
    <nd ref='-117149' />
    <nd ref='-117150' />
    <nd ref='-117151' />
    <nd ref='-117152' />
    <nd ref='-117153' />
    <nd ref='-117154' />
    <nd ref='-117155' />
    <nd ref='-117156' />
    <nd ref='-117157' />
    <nd ref='-117158' />
    <nd ref='-117159' />
    <nd ref='-117160' />
    <nd ref='-117161' />
    <nd ref='-117162' />
    <nd ref='-117163' />
    <nd ref='-117164' />
    <nd ref='-117165' />
    <nd ref='-117166' />
    <nd ref='-117167' />
    <nd ref='-117168' />
    <nd ref='-117169' />
    <nd ref='-117170' />
    <nd ref='-117171' />
    <nd ref='-117172' />
    <nd ref='-117173' />
    <nd ref='-117174' />
    <nd ref='-117175' />
    <nd ref='-117176' />
    <nd ref='-117177' />
    <nd ref='-117178' />
    <nd ref='-117179' />
    <nd ref='-117180' />
    <nd ref='-117181' />
    <nd ref='-117182' />
    <nd ref='-117183' />
    <nd ref='-117184' />
    <nd ref='-117185' />
    <nd ref='-117186' />
    <nd ref='-117187' />
    <nd ref='-117188' />
    <nd ref='-117189' />
    <nd ref='-117190' />
    <nd ref='-117191' />
    <nd ref='-117192' />
    <nd ref='-117193' />
    <nd ref='-117194' />
    <nd ref='-117195' />
    <nd ref='-117196' />
    <nd ref='-117197' />
    <nd ref='-117198' />
    <nd ref='-117199' />
    <nd ref='-117200' />
    <nd ref='-117201' />
    <nd ref='-117202' />
    <nd ref='-117203' />
    <nd ref='-117204' />
    <nd ref='-117205' />
    <nd ref='-117206' />
    <nd ref='-117207' />
    <nd ref='-117208' />
    <nd ref='-117209' />
    <nd ref='-117210' />
    <nd ref='-117211' />
    <nd ref='-117212' />
    <nd ref='-117213' />
    <nd ref='-117214' />
    <nd ref='-117215' />
    <nd ref='-117216' />
    <nd ref='-117217' />
    <nd ref='-117218' />
    <nd ref='-117219' />
    <nd ref='-117220' />
    <nd ref='-117221' />
    <nd ref='-117222' />
    <nd ref='-117223' />
    <nd ref='-117224' />
    <nd ref='-117225' />
    <nd ref='-117226' />
    <nd ref='-117227' />
    <nd ref='-117228' />
    <nd ref='-117229' />
    <nd ref='-117230' />
    <nd ref='-117231' />
    <nd ref='-117232' />
    <nd ref='-117233' />
    <nd ref='-117234' />
    <nd ref='-117235' />
    <nd ref='-117236' />
    <nd ref='-117237' />
    <nd ref='-117238' />
    <nd ref='-117239' />
    <nd ref='-117240' />
    <nd ref='-117241' />
    <nd ref='-117242' />
    <nd ref='-117243' />
    <nd ref='-117244' />
    <nd ref='-117245' />
    <nd ref='-117246' />
    <nd ref='-117247' />
    <nd ref='-117248' />
    <nd ref='-117249' />
    <nd ref='-117250' />
    <nd ref='-117251' />
    <nd ref='-117252' />
    <nd ref='-117253' />
    <nd ref='-117254' />
    <nd ref='-117255' />
    <nd ref='-117256' />
    <nd ref='-117257' />
    <nd ref='-117258' />
    <nd ref='-117259' />
    <nd ref='-117260' />
    <nd ref='-117261' />
    <nd ref='-117262' />
    <nd ref='-117263' />
    <nd ref='-117264' />
    <nd ref='-117265' />
    <nd ref='-117266' />
    <nd ref='-117267' />
    <nd ref='-117268' />
    <nd ref='-117269' />
    <nd ref='-117270' />
    <nd ref='-117271' />
    <nd ref='-117272' />
    <nd ref='-117273' />
    <nd ref='-117274' />
    <nd ref='-117275' />
    <nd ref='-117276' />
    <nd ref='-117277' />
    <nd ref='-117278' />
    <nd ref='-117279' />
    <nd ref='-117280' />
    <nd ref='-117281' />
    <nd ref='-117282' />
    <nd ref='-117283' />
    <nd ref='-117284' />
    <nd ref='-117285' />
    <nd ref='-117286' />
    <nd ref='-117287' />
    <nd ref='-117288' />
    <nd ref='-117289' />
    <nd ref='-117290' />
    <nd ref='-117291' />
    <nd ref='-117292' />
    <nd ref='-117293' />
    <nd ref='-117294' />
    <nd ref='-117295' />
    <nd ref='-117296' />
    <nd ref='-117297' />
    <nd ref='-117298' />
    <nd ref='-117299' />
    <nd ref='-117300' />
    <nd ref='-117301' />
    <nd ref='-117302' />
    <nd ref='-117303' />
    <nd ref='-117304' />
    <nd ref='-117305' />
    <nd ref='-117306' />
    <nd ref='-117307' />
    <nd ref='-117308' />
    <nd ref='-117309' />
    <nd ref='-117310' />
    <nd ref='-117311' />
    <nd ref='-117312' />
    <nd ref='-117313' />
    <nd ref='-117314' />
    <nd ref='-117315' />
    <nd ref='-117316' />
    <nd ref='-117317' />
    <nd ref='-117318' />
    <nd ref='-117319' />
    <nd ref='-117320' />
    <nd ref='-117321' />
    <nd ref='-117322' />
    <nd ref='-117323' />
    <nd ref='-117324' />
    <nd ref='-117325' />
    <nd ref='-117326' />
    <nd ref='-117327' />
    <nd ref='-117328' />
    <nd ref='-117329' />
    <nd ref='-117330' />
    <nd ref='-117331' />
    <nd ref='-117332' />
    <nd ref='-117333' />
    <nd ref='-117334' />
    <nd ref='-117335' />
    <nd ref='-117336' />
    <nd ref='-117337' />
    <nd ref='-117338' />
    <nd ref='-117339' />
    <nd ref='-117340' />
    <nd ref='-117341' />
    <nd ref='-117342' />
    <nd ref='-117343' />
    <nd ref='-117344' />
    <nd ref='-117345' />
    <nd ref='-117346' />
    <nd ref='-117347' />
    <nd ref='-117348' />
    <nd ref='-117349' />
    <nd ref='-117350' />
    <nd ref='-117351' />
    <nd ref='-117352' />
    <nd ref='-117353' />
    <nd ref='-117354' />
    <nd ref='-117355' />
    <nd ref='-117356' />
    <nd ref='-117357' />
    <nd ref='-117358' />
    <nd ref='-117359' />
    <nd ref='-117360' />
    <nd ref='-117361' />
    <nd ref='-117362' />
    <nd ref='-117363' />
    <nd ref='-117364' />
    <nd ref='-117365' />
    <nd ref='-117366' />
    <nd ref='-117367' />
    <nd ref='-117368' />
    <nd ref='-117369' />
    <nd ref='-117370' />
    <nd ref='-117371' />
    <nd ref='-117372' />
    <nd ref='-117373' />
    <nd ref='-117374' />
    <nd ref='-117375' />
    <nd ref='-117376' />
    <nd ref='-117377' />
    <nd ref='-117378' />
    <nd ref='-117379' />
    <nd ref='-117380' />
    <nd ref='-117381' />
    <nd ref='-117382' />
    <nd ref='-117383' />
    <nd ref='-117384' />
    <nd ref='-117385' />
    <nd ref='-117386' />
    <nd ref='-117387' />
    <nd ref='-117388' />
    <nd ref='-117389' />
    <nd ref='-117390' />
    <nd ref='-117391' />
    <nd ref='-117392' />
    <nd ref='-117393' />
    <nd ref='-117394' />
    <nd ref='-117395' />
    <nd ref='-117396' />
    <nd ref='-117397' />
    <nd ref='-117398' />
    <nd ref='-117399' />
    <nd ref='-117400' />
    <nd ref='-117401' />
    <nd ref='-117402' />
    <nd ref='-117403' />
    <nd ref='-117404' />
    <nd ref='-117405' />
    <nd ref='-117406' />
    <nd ref='-117407' />
    <nd ref='-117408' />
    <nd ref='-117409' />
    <nd ref='-117410' />
    <nd ref='-117411' />
    <nd ref='-117412' />
    <nd ref='-117413' />
    <nd ref='-117414' />
    <nd ref='-117415' />
    <nd ref='-117416' />
    <nd ref='-117417' />
    <nd ref='-117418' />
    <nd ref='-117419' />
    <nd ref='-117420' />
    <nd ref='-117421' />
    <nd ref='-117422' />
    <nd ref='-117423' />
    <nd ref='-117424' />
    <nd ref='-117425' />
    <nd ref='-117426' />
    <nd ref='-117427' />
    <nd ref='-117428' />
    <nd ref='-117429' />
    <nd ref='-117430' />
    <nd ref='-117431' />
    <nd ref='-117432' />
    <nd ref='-117433' />
    <nd ref='-117434' />
    <nd ref='-117435' />
    <nd ref='-117436' />
    <nd ref='-117437' />
    <nd ref='-117438' />
    <nd ref='-117439' />
    <nd ref='-117440' />
    <nd ref='-117441' />
    <nd ref='-116851' />
    <nd ref='-116852' />
    <nd ref='-116853' />
    <nd ref='-116854' />
    <nd ref='-116855' />
    <nd ref='-116856' />
    <nd ref='-116857' />
    <nd ref='-116858' />
    <nd ref='-116859' />
    <nd ref='-116860' />
    <nd ref='-116861' />
    <nd ref='-116862' />
    <nd ref='-116863' />
    <nd ref='-116864' />
    <nd ref='-116865' />
    <nd ref='-116866' />
    <nd ref='-116867' />
    <nd ref='-116868' />
    <nd ref='-116869' />
    <nd ref='-116870' />
    <nd ref='-116871' />
    <nd ref='-116872' />
    <nd ref='-116873' />
    <nd ref='-116874' />
    <nd ref='-116875' />
    <nd ref='-116876' />
    <nd ref='-116877' />
    <nd ref='-116878' />
    <nd ref='-116879' />
    <nd ref='-116880' />
    <nd ref='-116881' />
    <nd ref='-116882' />
    <nd ref='-116883' />
    <nd ref='-116884' />
    <nd ref='-116885' />
    <nd ref='-116886' />
    <nd ref='-116887' />
    <nd ref='-116888' />
    <nd ref='-116889' />
    <nd ref='-116890' />
    <nd ref='-116891' />
    <nd ref='-116892' />
    <nd ref='-116893' />
    <nd ref='-116894' />
    <nd ref='-116895' />
    <nd ref='-116896' />
    <nd ref='-116897' />
    <nd ref='-116898' />
    <nd ref='-116899' />
    <nd ref='-116900' />
    <nd ref='-116901' />
    <nd ref='-116902' />
    <nd ref='-116903' />
    <nd ref='-116904' />
    <nd ref='-116905' />
    <nd ref='-116906' />
    <nd ref='-116907' />
    <nd ref='-116908' />
    <nd ref='-116909' />
    <nd ref='-116910' />
    <nd ref='-116911' />
    <nd ref='-116912' />
    <nd ref='-116913' />
    <nd ref='-116914' />
    <nd ref='-116915' />
    <nd ref='-116916' />
    <nd ref='-116917' />
    <nd ref='-116918' />
    <nd ref='-116919' />
    <nd ref='-116920' />
    <nd ref='-116921' />
    <nd ref='-116922' />
    <nd ref='-116923' />
    <nd ref='-116924' />
    <nd ref='-116925' />
    <nd ref='-116926' />
    <nd ref='-116927' />
    <nd ref='-116928' />
    <nd ref='-116929' />
    <nd ref='-116930' />
    <nd ref='-116931' />
    <nd ref='-116932' />
    <nd ref='-116933' />
    <nd ref='-116934' />
    <nd ref='-116935' />
    <nd ref='-116936' />
    <nd ref='-116937' />
    <nd ref='-116938' />
    <nd ref='-116939' />
    <nd ref='-116940' />
    <nd ref='-116941' />
    <nd ref='-116942' />
    <nd ref='-116943' />
    <nd ref='-116944' />
    <nd ref='-116945' />
    <nd ref='-116946' />
    <nd ref='-116947' />
    <nd ref='-116948' />
    <nd ref='-116949' />
    <nd ref='-116950' />
    <nd ref='-116951' />
    <nd ref='-116952' />
    <nd ref='-116953' />
    <nd ref='-116954' />
    <nd ref='-116955' />
    <nd ref='-116956' />
    <nd ref='-116957' />
    <nd ref='-116958' />
    <nd ref='-116959' />
    <nd ref='-116960' />
    <nd ref='-116961' />
    <nd ref='-116962' />
    <nd ref='-116963' />
    <nd ref='-116964' />
    <nd ref='-116965' />
    <nd ref='-116966' />
    <nd ref='-116967' />
    <nd ref='-116968' />
    <nd ref='-116969' />
    <nd ref='-116970' />
    <nd ref='-116971' />
    <nd ref='-116972' />
    <nd ref='-116973' />
    <nd ref='-116974' />
    <nd ref='-116975' />
    <nd ref='-116976' />
    <nd ref='-116977' />
    <nd ref='-116978' />
    <nd ref='-116979' />
    <nd ref='-116980' />
    <nd ref='-116981' />
    <nd ref='-116982' />
    <nd ref='-116983' />
    <nd ref='-116984' />
    <nd ref='-116985' />
    <nd ref='-116986' />
    <nd ref='-116987' />
    <nd ref='-116988' />
    <nd ref='-116989' />
    <nd ref='-116990' />
    <nd ref='-116991' />
    <nd ref='-116992' />
    <nd ref='-116993' />
    <nd ref='-116994' />
    <nd ref='-116995' />
    <nd ref='-116996' />
    <nd ref='-116997' />
    <nd ref='-116998' />
    <nd ref='-116999' />
    <nd ref='-117000' />
    <nd ref='-117001' />
    <nd ref='-117002' />
    <nd ref='-117003' />
    <nd ref='-117004' />
    <nd ref='-117005' />
    <nd ref='-117006' />
    <nd ref='-117007' />
    <nd ref='-117008' />
    <nd ref='-117009' />
    <nd ref='-117010' />
    <nd ref='-117011' />
    <nd ref='-117012' />
    <nd ref='-117013' />
    <nd ref='-117014' />
    <nd ref='-117015' />
    <nd ref='-117016' />
    <nd ref='-117017' />
    <nd ref='-117018' />
    <nd ref='-117019' />
    <nd ref='-117020' />
    <nd ref='-117021' />
    <nd ref='-117022' />
    <nd ref='-117023' />
    <nd ref='-117024' />
    <nd ref='-117025' />
    <nd ref='-117026' />
    <nd ref='-117027' />
    <nd ref='-117028' />
    <nd ref='-117029' />
    <nd ref='-117030' />
    <nd ref='-117031' />
    <nd ref='-117032' />
    <nd ref='-117033' />
    <nd ref='-117034' />
    <nd ref='-117035' />
    <nd ref='-117036' />
    <nd ref='-117037' />
    <nd ref='-117038' />
    <nd ref='-117039' />
    <nd ref='-117040' />
    <nd ref='-117041' />
    <nd ref='-117042' />
    <nd ref='-117043' />
    <nd ref='-117044' />
    <nd ref='-117045' />
    <nd ref='-117046' />
    <nd ref='-117047' />
    <nd ref='-117048' />
    <nd ref='-117049' />
    <nd ref='-117050' />
    <nd ref='-117051' />
    <nd ref='-117052' />
    <nd ref='-117053' />
    <nd ref='-117054' />
    <nd ref='-117055' />
    <nd ref='-117056' />
    <nd ref='-117057' />
    <nd ref='-117058' />
    <nd ref='-117059' />
    <tag k='name' v='Fluted Cape' />
    <tag k='park' v='South Bruny National Park' />
    <tag k='role' v='primary' />
    <tag k='style' v='loop' />
    <tag k='transport' v='car' />
  </way>
</osm>
