<?xml version='1.0' encoding='UTF-8'?>
<osm version='0.6' upload='false' generator='JOSM'>
  <node id='-195308' action='modify' visible='true' lat='-43.1935267' lon='146.6272769' />
  <node id='-195309' action='modify' visible='true' lat='-43.1937865' lon='146.6270805' />
  <node id='-195310' action='modify' visible='true' lat='-43.1939536' lon='146.6269224' />
  <node id='-195311' action='modify' visible='true' lat='-43.1940055' lon='146.6268038' />
  <node id='-195312' action='modify' visible='true' lat='-43.1940286' lon='146.6267089' />
  <node id='-195313' action='modify' visible='true' lat='-43.1939652' lon='146.6265586' />
  <node id='-195314' action='modify' visible='true' lat='-43.1940171' lon='146.6263293' />
  <node id='-195315' action='modify' visible='true' lat='-43.1949683' lon='146.6241547' />
  <node id='-195316' action='modify' visible='true' lat='-43.195268' lon='146.6239491' />
  <node id='-195317' action='modify' visible='true' lat='-43.1954698' lon='146.6239571' />
  <node id='-195318' action='modify' visible='true' lat='-43.1955563' lon='146.6242417' />
  <node id='-195319' action='modify' visible='true' lat='-43.1955909' lon='146.624479' />
  <node id='-195320' action='modify' visible='true' lat='-43.1957062' lon='146.6246608' />
  <node id='-195321' action='modify' visible='true' lat='-43.1957235' lon='146.6248981' />
  <node id='-195322' action='modify' visible='true' lat='-43.1959022' lon='146.6250799' />
  <node id='-195323' action='modify' visible='true' lat='-43.1962019' lon='146.6250878' />
  <node id='-195324' action='modify' visible='true' lat='-43.1963403' lon='146.6249218' />
  <node id='-195325' action='modify' visible='true' lat='-43.1964095' lon='146.6249218' />
  <node id='-195326' action='modify' visible='true' lat='-43.1965536' lon='146.6250562' />
  <node id='-195327' action='modify' visible='true' lat='-43.1965939' lon='146.6249692' />
  <node id='-195328' action='modify' visible='true' lat='-43.196715' lon='146.6249929' />
  <node id='-195329' action='modify' visible='true' lat='-43.196813' lon='146.6248664' />
  <node id='-195330' action='modify' visible='true' lat='-43.1969571' lon='146.6246213' />
  <node id='-195331' action='modify' visible='true' lat='-43.1973387' lon='146.6245659' />
  <node id='-195332' action='modify' visible='true' lat='-43.1973559' lon='146.6242971' />
  <node id='-195333' action='modify' visible='true' lat='-43.1975116' lon='146.6242734' />
  <node id='-195334' action='modify' visible='true' lat='-43.1977249' lon='146.6237594' />
  <node id='-195335' action='modify' visible='true' lat='-43.19799' lon='146.6234984' />
  <node id='-195336' action='modify' visible='true' lat='-43.1981169' lon='146.6234589' />
  <node id='-195337' action='modify' visible='true' lat='-43.1984051' lon='146.6232691' />
  <node id='-195338' action='modify' visible='true' lat='-43.1987048' lon='146.62319' />
  <node id='-195339' action='modify' visible='true' lat='-43.1987625' lon='146.622937' />
  <node id='-195340' action='modify' visible='true' lat='-43.1989527' lon='146.6228895' />
  <node id='-195341' action='modify' visible='true' lat='-43.1991141' lon='146.6225179' />
  <node id='-195342' action='modify' visible='true' lat='-43.1993678' lon='146.6220592' />
  <node id='-195343' action='modify' visible='true' lat='-43.1995003' lon='146.6219406' />
  <node id='-195344' action='modify' visible='true' lat='-43.1995465' lon='146.6217113' />
  <node id='-195345' action='modify' visible='true' lat='-43.1997713' lon='146.6217588' />
  <node id='-195346' action='modify' visible='true' lat='-43.2000653' lon='146.6213792' />
  <node id='-195347' action='modify' visible='true' lat='-43.2004484' lon='146.6210938' />
  <node id='-195348' action='modify' visible='true' lat='-43.2006559' lon='146.6205403' />
  <node id='-195349' action='modify' visible='true' lat='-43.2009499' lon='146.6202635' />
  <node id='-195350' action='modify' visible='true' lat='-43.2011862' lon='146.6202951' />
  <node id='-195351' action='modify' visible='true' lat='-43.2013649' lon='146.6198523' />
  <node id='-195352' action='modify' visible='true' lat='-43.2015609' lon='146.619876' />
  <node id='-195353' action='modify' visible='true' lat='-43.2021604' lon='146.6193937' />
  <node id='-195354' action='modify' visible='true' lat='-43.2027137' lon='146.6190932' />
  <node id='-195355' action='modify' visible='true' lat='-43.2029155' lon='146.6190457' />
  <node id='-195356' action='modify' visible='true' lat='-43.2030769' lon='146.6188322' />
  <node id='-195357' action='modify' visible='true' lat='-43.2032498' lon='146.6187611' />
  <node id='-195358' action='modify' visible='true' lat='-43.2037916' lon='146.6187532' />
  <node id='-195359' action='modify' visible='true' lat='-43.2042319' lon='146.6185819' />
  <node id='-195360' action='modify' visible='true' lat='-43.204376' lon='146.6183052' />
  <node id='-195361' action='modify' visible='true' lat='-43.2044221' lon='146.6180679' />
  <node id='-195362' action='modify' visible='true' lat='-43.2045892' lon='146.6175698' />
  <node id='-195363' action='modify' visible='true' lat='-43.2047449' lon='146.6174511' />
  <node id='-195364' action='modify' visible='true' lat='-43.2049178' lon='146.6173246' />
  <node id='-195365' action='modify' visible='true' lat='-43.2049754' lon='146.6171902' />
  <node id='-195366' action='modify' visible='true' lat='-43.2054192' lon='146.6170953' />
  <node id='-195367' action='modify' visible='true' lat='-43.2055691' lon='146.6171111' />
  <node id='-195368' action='modify' visible='true' lat='-43.2061628' lon='146.6175302' />
  <node id='-195369' action='modify' visible='true' lat='-43.2063069' lon='146.6174353' />
  <node id='-195370' action='modify' visible='true' lat='-43.206451' lon='146.6174828' />
  <node id='-195371' action='modify' visible='true' lat='-43.2066815' lon='146.6173721' />
  <node id='-195372' action='modify' visible='true' lat='-43.2068544' lon='146.6171823' />
  <node id='-195373' action='modify' visible='true' lat='-43.2071657' lon='146.6173483' />
  <node id='-195374' action='modify' visible='true' lat='-43.2074103' lon='146.6172297' />
  <node id='-195375' action='modify' visible='true' lat='-43.2077562' lon='146.6171111' />
  <node id='-195376' action='modify' visible='true' lat='-43.2080789' lon='146.6171032' />
  <node id='-195377' action='modify' visible='true' lat='-43.2084017' lon='146.6168343' />
  <node id='-195378' action='modify' visible='true' lat='-43.2084305' lon='146.6167474' />
  <node id='-195379' action='modify' visible='true' lat='-43.2086437' lon='146.6166208' />
  <node id='-195380' action='modify' visible='true' lat='-43.2087878' lon='146.6163994' />
  <node id='-195381' action='modify' visible='true' lat='-43.2089665' lon='146.6164073' />
  <node id='-195382' action='modify' visible='true' lat='-43.2095025' lon='146.6159645' />
  <node id='-195383' action='modify' visible='true' lat='-43.2097792' lon='146.6158064' />
  <node id='-195384' action='modify' visible='true' lat='-43.210027' lon='146.61531' />
  <node id='-195385' action='modify' visible='true' lat='-43.2101595' lon='146.6151914' />
  <node id='-195386' action='modify' visible='true' lat='-43.2105572' lon='146.6146141' />
  <node id='-195387' action='modify' visible='true' lat='-43.210586' lon='146.6144718' />
  <node id='-195388' action='modify' visible='true' lat='-43.2105457' lon='146.6141634' />
  <node id='-195389' action='modify' visible='true' lat='-43.2106206' lon='146.613515' />
  <node id='-195390' action='modify' visible='true' lat='-43.2110125' lon='146.6124317' />
  <node id='-195391' action='modify' visible='true' lat='-43.2111838' lon='146.6121184' />
  <node id='-195392' action='modify' visible='true' lat='-43.2114778' lon='146.6111695' />
  <node id='-195393' action='modify' visible='true' lat='-43.2119215' lon='146.6103866' />
  <node id='-195394' action='modify' visible='true' lat='-43.2121636' lon='146.6100387' />
  <node id='-195395' action='modify' visible='true' lat='-43.2124575' lon='146.609841' />
  <node id='-195396' action='modify' visible='true' lat='-43.2125728' lon='146.6095563' />
  <node id='-195397' action='modify' visible='true' lat='-43.2128068' lon='146.609198' />
  <node id='-195398' action='modify' visible='true' lat='-43.2128644' lon='146.6089766' />
  <node id='-195399' action='modify' visible='true' lat='-43.213337' lon='146.60817' />
  <node id='-195400' action='modify' visible='true' lat='-43.2139882' lon='146.6076165' />
  <node id='-195401' action='modify' visible='true' lat='-43.2144262' lon='146.6076323' />
  <node id='-195402' action='modify' visible='true' lat='-43.2145242' lon='146.6075058' />
  <node id='-195403' action='modify' visible='true' lat='-43.2149967' lon='146.6073081' />
  <node id='-195404' action='modify' visible='true' lat='-43.2152561' lon='146.6072844' />
  <node id='-195405' action='modify' visible='true' lat='-43.2156307' lon='146.6071183' />
  <node id='-195406' action='modify' visible='true' lat='-43.2159015' lon='146.6067229' />
  <node id='-195407' action='modify' visible='true' lat='-43.2159591' lon='146.606462' />
  <node id='-195408' action='modify' visible='true' lat='-43.2166796' lon='146.6053312' />
  <node id='-195409' action='modify' visible='true' lat='-43.2169447' lon='146.6049912' />
  <node id='-195410' action='modify' visible='true' lat='-43.2172329' lon='146.6044456' />
  <node id='-195411' action='modify' visible='true' lat='-43.2174403' lon='146.6041688' />
  <node id='-195412' action='modify' visible='true' lat='-43.2177285' lon='146.6033859' />
  <node id='-195413' action='modify' visible='true' lat='-43.2177573' lon='146.6030696' />
  <node id='-195414' action='modify' visible='true' lat='-43.2174115' lon='146.6022412' />
  <node id='-195415' action='modify' visible='true' lat='-43.217302' lon='146.6015374' />
  <node id='-195416' action='modify' visible='true' lat='-43.2172963' lon='146.6011499' />
  <node id='-195417' action='modify' visible='true' lat='-43.2170946' lon='146.6004857' />
  <node id='-195418' action='modify' visible='true' lat='-43.2170715' lon='146.6002801' />
  <node id='-195419' action='modify' visible='true' lat='-43.2171234' lon='146.5992284' />
  <node id='-195420' action='modify' visible='true' lat='-43.2170369' lon='146.5990485' />
  <node id='-195421' action='modify' visible='true' lat='-43.2169678' lon='146.5988034' />
  <node id='-195422' action='modify' visible='true' lat='-43.216743' lon='146.5986215' />
  <node id='-195423' action='modify' visible='true' lat='-43.2161091' lon='146.5972614' />
  <node id='-195424' action='modify' visible='true' lat='-43.2161322' lon='146.5966526' />
  <node id='-195425' action='modify' visible='true' lat='-43.2156423' lon='146.5955771' />
  <node id='-195426' action='modify' visible='true' lat='-43.2154983' lon='146.5955929' />
  <node id='-195427' action='modify' visible='true' lat='-43.2154291' lon='146.5954506' />
  <node id='-195428' action='modify' visible='true' lat='-43.2153196' lon='146.5954506' />
  <node id='-195429' action='modify' visible='true' lat='-43.2153196' lon='146.5955613' />
  <node id='-195430' action='modify' visible='true' lat='-43.2151813' lon='146.5957274' />
  <node id='-195431' action='modify' visible='true' lat='-43.2150545' lon='146.5956246' />
  <node id='-195432' action='modify' visible='true' lat='-43.2148528' lon='146.5955455' />
  <node id='-195433' action='modify' visible='true' lat='-43.2144321' lon='146.5950473' />
  <node id='-195434' action='modify' visible='true' lat='-43.2137677' lon='146.5950236' />
  <node id='-195435' action='modify' visible='true' lat='-43.2136698' lon='146.5949682' />
  <node id='-195436' action='modify' visible='true' lat='-43.2135833' lon='146.5945175' />
  <node id='-195437' action='modify' visible='true' lat='-43.2137562' lon='146.5940051' />
  <node id='-195438' action='modify' visible='true' lat='-43.2137216' lon='146.5938074' />
  <node id='-195439' action='modify' visible='true' lat='-43.21386' lon='146.5937679' />
  <node id='-195440' action='modify' visible='true' lat='-43.21402' lon='146.5938914' />
  <way id='-195307' action='modify' visible='true'>
    <nd ref='-195308' />
    <nd ref='-195309' />
    <nd ref='-195310' />
    <nd ref='-195311' />
    <nd ref='-195312' />
    <nd ref='-195313' />
    <nd ref='-195314' />
    <nd ref='-195315' />
    <nd ref='-195316' />
    <nd ref='-195317' />
    <nd ref='-195318' />
    <nd ref='-195319' />
    <nd ref='-195320' />
    <nd ref='-195321' />
    <nd ref='-195322' />
    <nd ref='-195323' />
    <nd ref='-195324' />
    <nd ref='-195325' />
    <nd ref='-195326' />
    <nd ref='-195327' />
    <nd ref='-195328' />
    <nd ref='-195329' />
    <nd ref='-195330' />
    <nd ref='-195331' />
    <nd ref='-195332' />
    <nd ref='-195333' />
    <nd ref='-195334' />
    <nd ref='-195335' />
    <nd ref='-195336' />
    <nd ref='-195337' />
    <nd ref='-195338' />
    <nd ref='-195339' />
    <nd ref='-195340' />
    <nd ref='-195341' />
    <nd ref='-195342' />
    <nd ref='-195343' />
    <nd ref='-195344' />
    <nd ref='-195345' />
    <nd ref='-195346' />
    <nd ref='-195347' />
    <nd ref='-195348' />
    <nd ref='-195349' />
    <nd ref='-195350' />
    <nd ref='-195351' />
    <nd ref='-195352' />
    <nd ref='-195353' />
    <nd ref='-195354' />
    <nd ref='-195355' />
    <nd ref='-195356' />
    <nd ref='-195357' />
    <nd ref='-195358' />
    <nd ref='-195359' />
    <nd ref='-195360' />
    <nd ref='-195361' />
    <nd ref='-195362' />
    <nd ref='-195363' />
    <nd ref='-195364' />
    <nd ref='-195365' />
    <nd ref='-195366' />
    <nd ref='-195367' />
    <nd ref='-195368' />
    <nd ref='-195369' />
    <nd ref='-195370' />
    <nd ref='-195371' />
    <nd ref='-195372' />
    <nd ref='-195373' />
    <nd ref='-195374' />
    <nd ref='-195375' />
    <nd ref='-195376' />
    <nd ref='-195377' />
    <nd ref='-195378' />
    <nd ref='-195379' />
    <nd ref='-195380' />
    <nd ref='-195381' />
    <nd ref='-195382' />
    <nd ref='-195383' />
    <nd ref='-195384' />
    <nd ref='-195385' />
    <nd ref='-195386' />
    <nd ref='-195387' />
    <nd ref='-195388' />
    <nd ref='-195389' />
    <nd ref='-195390' />
    <nd ref='-195391' />
    <nd ref='-195392' />
    <nd ref='-195393' />
    <nd ref='-195394' />
    <nd ref='-195395' />
    <nd ref='-195396' />
    <nd ref='-195397' />
    <nd ref='-195398' />
    <nd ref='-195399' />
    <nd ref='-195400' />
    <nd ref='-195401' />
    <nd ref='-195402' />
    <nd ref='-195403' />
    <nd ref='-195404' />
    <nd ref='-195405' />
    <nd ref='-195406' />
    <nd ref='-195407' />
    <nd ref='-195408' />
    <nd ref='-195409' />
    <nd ref='-195410' />
    <nd ref='-195411' />
    <nd ref='-195412' />
    <nd ref='-195413' />
    <nd ref='-195414' />
    <nd ref='-195415' />
    <nd ref='-195416' />
    <nd ref='-195417' />
    <nd ref='-195418' />
    <nd ref='-195419' />
    <nd ref='-195420' />
    <nd ref='-195421' />
    <nd ref='-195422' />
    <nd ref='-195423' />
    <nd ref='-195424' />
    <nd ref='-195425' />
    <nd ref='-195426' />
    <nd ref='-195427' />
    <nd ref='-195428' />
    <nd ref='-195429' />
    <nd ref='-195430' />
    <nd ref='-195431' />
    <nd ref='-195432' />
    <nd ref='-195433' />
    <nd ref='-195434' />
    <nd ref='-195435' />
    <nd ref='-195436' />
    <nd ref='-195437' />
    <nd ref='-195438' />
    <nd ref='-195439' />
    <nd ref='-195440' />
    <tag k='name' v='Square Tarn' />
    <tag k='park' v='Southwest National Park' />
    <tag k='role' v='primary' />
    <tag k='style' v='return' />
    <tag k='transport' v='car' />
  </way>
</osm>
