<?xml version='1.0' encoding='UTF-8'?>
<osm version='0.6' upload='false' generator='JOSM'>
  <node id='-216055' action='modify' visible='true' lat='-43.3460588' lon='146.8522735' />
  <node id='-216056' action='modify' visible='true' lat='-43.3462993' lon='146.8517484' />
  <node id='-216057' action='modify' visible='true' lat='-43.3463516' lon='146.851622' />
  <node id='-216058' action='modify' visible='true' lat='-43.3463731' lon='146.8515341' />
  <node id='-216059' action='modify' visible='true' lat='-43.3463989' lon='146.8511646' />
  <node id='-216060' action='modify' visible='true' lat='-43.3464328' lon='146.8509905' />
  <node id='-216061' action='modify' visible='true' lat='-43.3464514' lon='146.8509268' />
  <node id='-216062' action='modify' visible='true' lat='-43.3464758' lon='146.8508679' />
  <node id='-216063' action='modify' visible='true' lat='-43.3466052' lon='146.8506444' />
  <node id='-216064' action='modify' visible='true' lat='-43.3466381' lon='146.8505699' />
  <node id='-216065' action='modify' visible='true' lat='-43.3466676' lon='146.8504709' />
  <node id='-216066' action='modify' visible='true' lat='-43.3467425' lon='146.8502367' />
  <node id='-216067' action='modify' visible='true' lat='-43.3468083' lon='146.8500334' />
  <node id='-216068' action='modify' visible='true' lat='-43.3468141' lon='146.8498758' />
  <node id='-216069' action='modify' visible='true' lat='-43.3468104' lon='146.8497559' />
  <node id='-216070' action='modify' visible='true' lat='-43.3467911' lon='146.8496415' />
  <node id='-216071' action='modify' visible='true' lat='-43.3467743' lon='146.8493368' />
  <node id='-216072' action='modify' visible='true' lat='-43.346775' lon='146.8492105' />
  <node id='-216073' action='modify' visible='true' lat='-43.3468021' lon='146.848689' />
  <node id='-216074' action='modify' visible='true' lat='-43.346826' lon='146.848427' />
  <node id='-216075' action='modify' visible='true' lat='-43.3468528' lon='146.8482207' />
  <node id='-216076' action='modify' visible='true' lat='-43.3468726' lon='146.8481093' />
  <node id='-216077' action='modify' visible='true' lat='-43.3469267' lon='146.8478832' />
  <node id='-216078' action='modify' visible='true' lat='-43.3471251' lon='146.8471914' />
  <node id='-216079' action='modify' visible='true' lat='-43.3471864' lon='146.8470365' />
  <node id='-216080' action='modify' visible='true' lat='-43.3471994' lon='146.8469613' />
  <node id='-216081' action='modify' visible='true' lat='-43.3471988' lon='146.8467544' />
  <node id='-216082' action='modify' visible='true' lat='-43.3471868' lon='146.8465701' />
  <node id='-216083' action='modify' visible='true' lat='-43.3470391' lon='146.8457856' />
  <node id='-216084' action='modify' visible='true' lat='-43.3470382' lon='146.8455002' />
  <node id='-216085' action='modify' visible='true' lat='-43.3470916' lon='146.8451643' />
  <node id='-216086' action='modify' visible='true' lat='-43.3471155' lon='146.8449156' />
  <node id='-216087' action='modify' visible='true' lat='-43.3471114' lon='146.8447136' />
  <node id='-216088' action='modify' visible='true' lat='-43.3470838' lon='146.8444854' />
  <node id='-216089' action='modify' visible='true' lat='-43.3470531' lon='146.8443493' />
  <node id='-216090' action='modify' visible='true' lat='-43.3470213' lon='146.8442083' />
  <node id='-216091' action='modify' visible='true' lat='-43.3469257' lon='146.8438325' />
  <node id='-216092' action='modify' visible='true' lat='-43.3468482' lon='146.8435516' />
  <node id='-216093' action='modify' visible='true' lat='-43.346826' lon='146.8431833' />
  <node id='-216094' action='modify' visible='true' lat='-43.346807' lon='146.84296' />
  <node id='-216095' action='modify' visible='true' lat='-43.3467609' lon='146.8426905' />
  <node id='-216096' action='modify' visible='true' lat='-43.3467576' lon='146.8425542' />
  <node id='-216097' action='modify' visible='true' lat='-43.3467813' lon='146.8424294' />
  <node id='-216098' action='modify' visible='true' lat='-43.3468594' lon='146.8422886' />
  <node id='-216099' action='modify' visible='true' lat='-43.3469244' lon='146.8422076' />
  <node id='-216100' action='modify' visible='true' lat='-43.3470993' lon='146.8419579' />
  <node id='-216101' action='modify' visible='true' lat='-43.3471436' lon='146.8418597' />
  <node id='-216102' action='modify' visible='true' lat='-43.3471788' lon='146.8417521' />
  <node id='-216103' action='modify' visible='true' lat='-43.3471952' lon='146.8416861' />
  <node id='-216104' action='modify' visible='true' lat='-43.347212' lon='146.841585' />
  <node id='-216105' action='modify' visible='true' lat='-43.347307' lon='146.8407981' />
  <node id='-216106' action='modify' visible='true' lat='-43.347334' lon='146.8406309' />
  <node id='-216107' action='modify' visible='true' lat='-43.3474643' lon='146.8402069' />
  <node id='-216108' action='modify' visible='true' lat='-43.347566' lon='146.8399326' />
  <node id='-216109' action='modify' visible='true' lat='-43.3476171' lon='146.839778' />
  <node id='-216110' action='modify' visible='true' lat='-43.3476577' lon='146.8396132' />
  <node id='-216111' action='modify' visible='true' lat='-43.3476712' lon='146.8395151' />
  <node id='-216112' action='modify' visible='true' lat='-43.3476713' lon='146.8393748' />
  <node id='-216113' action='modify' visible='true' lat='-43.3476613' lon='146.8392847' />
  <node id='-216114' action='modify' visible='true' lat='-43.3476462' lon='146.8392095' />
  <node id='-216115' action='modify' visible='true' lat='-43.347626' lon='146.8391562' />
  <node id='-216116' action='modify' visible='true' lat='-43.3475789' lon='146.8390938' />
  <node id='-216117' action='modify' visible='true' lat='-43.3474429' lon='146.8389613' />
  <node id='-216118' action='modify' visible='true' lat='-43.3472623' lon='146.8386817' />
  <node id='-216119' action='modify' visible='true' lat='-43.3471755' lon='146.8385357' />
  <node id='-216120' action='modify' visible='true' lat='-43.3471093' lon='146.8383966' />
  <node id='-216121' action='modify' visible='true' lat='-43.3469456' lon='146.8380008' />
  <node id='-216122' action='modify' visible='true' lat='-43.3468993' lon='146.8378772' />
  <node id='-216123' action='modify' visible='true' lat='-43.3467995' lon='146.8375784' />
  <node id='-216124' action='modify' visible='true' lat='-43.3466836' lon='146.8373133' />
  <node id='-216125' action='modify' visible='true' lat='-43.3466559' lon='146.8372273' />
  <node id='-216126' action='modify' visible='true' lat='-43.3466304' lon='146.8371207' />
  <node id='-216127' action='modify' visible='true' lat='-43.3465978' lon='146.8369476' />
  <node id='-216128' action='modify' visible='true' lat='-43.3465832' lon='146.836838' />
  <node id='-216129' action='modify' visible='true' lat='-43.3465781' lon='146.8366679' />
  <node id='-216130' action='modify' visible='true' lat='-43.3465987' lon='146.8364773' />
  <node id='-216131' action='modify' visible='true' lat='-43.3466303' lon='146.8363203' />
  <node id='-216132' action='modify' visible='true' lat='-43.3466706' lon='146.8362113' />
  <node id='-216133' action='modify' visible='true' lat='-43.3467662' lon='146.8360303' />
  <node id='-216134' action='modify' visible='true' lat='-43.3469261' lon='146.8357581' />
  <node id='-216135' action='modify' visible='true' lat='-43.3469613' lon='146.8356795' />
  <node id='-216136' action='modify' visible='true' lat='-43.3469869' lon='146.8355799' />
  <node id='-216137' action='modify' visible='true' lat='-43.3470382' lon='146.8353224' />
  <node id='-216138' action='modify' visible='true' lat='-43.3471435' lon='146.8347401' />
  <node id='-216139' action='modify' visible='true' lat='-43.3471711' lon='146.8346302' />
  <node id='-216140' action='modify' visible='true' lat='-43.347199' lon='146.834558' />
  <node id='-216141' action='modify' visible='true' lat='-43.3472662' lon='146.8344384' />
  <node id='-216142' action='modify' visible='true' lat='-43.3473498' lon='146.834329' />
  <node id='-216143' action='modify' visible='true' lat='-43.3474948' lon='146.8341696' />
  <node id='-216144' action='modify' visible='true' lat='-43.3476866' lon='146.8339984' />
  <node id='-216145' action='modify' visible='true' lat='-43.3477396' lon='146.8339448' />
  <node id='-216146' action='modify' visible='true' lat='-43.3477801' lon='146.8338865' />
  <node id='-216147' action='modify' visible='true' lat='-43.3478062' lon='146.8338268' />
  <node id='-216148' action='modify' visible='true' lat='-43.3478577' lon='146.8336509' />
  <node id='-216149' action='modify' visible='true' lat='-43.3479714' lon='146.8331791' />
  <node id='-216150' action='modify' visible='true' lat='-43.3479926' lon='146.833012' />
  <node id='-216151' action='modify' visible='true' lat='-43.3480207' lon='146.832659' />
  <node id='-216152' action='modify' visible='true' lat='-43.3480337' lon='146.8325774' />
  <node id='-216153' action='modify' visible='true' lat='-43.3480705' lon='146.832443' />
  <node id='-216154' action='modify' visible='true' lat='-43.348168' lon='146.8321361' />
  <node id='-216155' action='modify' visible='true' lat='-43.3482247' lon='146.8319734' />
  <node id='-216156' action='modify' visible='true' lat='-43.3483314' lon='146.8317149' />
  <node id='-216157' action='modify' visible='true' lat='-43.3484674' lon='146.831424' />
  <node id='-216158' action='modify' visible='true' lat='-43.3485615' lon='146.8311248' />
  <node id='-216159' action='modify' visible='true' lat='-43.3486115' lon='146.8310061' />
  <node id='-216160' action='modify' visible='true' lat='-43.3487234' lon='146.830771' />
  <node id='-216161' action='modify' visible='true' lat='-43.3488192' lon='146.8304844' />
  <node id='-216162' action='modify' visible='true' lat='-43.3488554' lon='146.8303265' />
  <node id='-216163' action='modify' visible='true' lat='-43.3489302' lon='146.8298903' />
  <node id='-216164' action='modify' visible='true' lat='-43.3489427' lon='146.8296472' />
  <node id='-216165' action='modify' visible='true' lat='-43.3489474' lon='146.8291455' />
  <node id='-216166' action='modify' visible='true' lat='-43.3489591' lon='146.829052' />
  <node id='-216167' action='modify' visible='true' lat='-43.348996' lon='146.8289389' />
  <node id='-216168' action='modify' visible='true' lat='-43.3490767' lon='146.8287526' />
  <node id='-216169' action='modify' visible='true' lat='-43.349419' lon='146.8280481' />
  <node id='-216170' action='modify' visible='true' lat='-43.349477' lon='146.8279121' />
  <node id='-216171' action='modify' visible='true' lat='-43.3495031' lon='146.8278257' />
  <node id='-216172' action='modify' visible='true' lat='-43.3495319' lon='146.8277041' />
  <node id='-216173' action='modify' visible='true' lat='-43.3496282' lon='146.8272261' />
  <node id='-216174' action='modify' visible='true' lat='-43.3496654' lon='146.8270692' />
  <node id='-216175' action='modify' visible='true' lat='-43.3498003' lon='146.8266081' />
  <node id='-216176' action='modify' visible='true' lat='-43.3499975' lon='146.8259681' />
  <node id='-216177' action='modify' visible='true' lat='-43.3500188' lon='146.825833' />
  <node id='-216178' action='modify' visible='true' lat='-43.3500455' lon='146.8252661' />
  <node id='-216179' action='modify' visible='true' lat='-43.3500871' lon='146.8248127' />
  <node id='-216180' action='modify' visible='true' lat='-43.3323302' lon='146.8957974' />
  <node id='-216181' action='modify' visible='true' lat='-43.332429' lon='146.8955848' />
  <node id='-216182' action='modify' visible='true' lat='-43.3324831' lon='146.8954882' />
  <node id='-216183' action='modify' visible='true' lat='-43.3325367' lon='146.8954104' />
  <node id='-216184' action='modify' visible='true' lat='-43.3326445' lon='146.8952742' />
  <node id='-216185' action='modify' visible='true' lat='-43.3327113' lon='146.8952119' />
  <node id='-216186' action='modify' visible='true' lat='-43.3329901' lon='146.8949863' />
  <node id='-216187' action='modify' visible='true' lat='-43.33307' lon='146.8949146' />
  <node id='-216188' action='modify' visible='true' lat='-43.3335043' lon='146.894436' />
  <node id='-216189' action='modify' visible='true' lat='-43.3336494' lon='146.8942667' />
  <node id='-216190' action='modify' visible='true' lat='-43.3336961' lon='146.8941927' />
  <node id='-216191' action='modify' visible='true' lat='-43.3337274' lon='146.8941291' />
  <node id='-216192' action='modify' visible='true' lat='-43.3337569' lon='146.8940451' />
  <node id='-216193' action='modify' visible='true' lat='-43.3337847' lon='146.8939407' />
  <node id='-216194' action='modify' visible='true' lat='-43.3338259' lon='146.8937117' />
  <node id='-216195' action='modify' visible='true' lat='-43.3338325' lon='146.8935846' />
  <node id='-216196' action='modify' visible='true' lat='-43.33381' lon='146.8928378' />
  <node id='-216197' action='modify' visible='true' lat='-43.3338218' lon='146.8920656' />
  <node id='-216198' action='modify' visible='true' lat='-43.3338184' lon='146.8918429' />
  <node id='-216199' action='modify' visible='true' lat='-43.3338093' lon='146.8916777' />
  <node id='-216200' action='modify' visible='true' lat='-43.3337896' lon='146.8915594' />
  <node id='-216201' action='modify' visible='true' lat='-43.3336587' lon='146.8911651' />
  <node id='-216202' action='modify' visible='true' lat='-43.3336126' lon='146.8908007' />
  <node id='-216203' action='modify' visible='true' lat='-43.333579' lon='146.8906644' />
  <node id='-216204' action='modify' visible='true' lat='-43.3334764' lon='146.8904025' />
  <node id='-216205' action='modify' visible='true' lat='-43.3334056' lon='146.8902351' />
  <node id='-216206' action='modify' visible='true' lat='-43.3332726' lon='146.8898949' />
  <node id='-216207' action='modify' visible='true' lat='-43.333173' lon='146.8896696' />
  <node id='-216208' action='modify' visible='true' lat='-43.3330581' lon='146.8893119' />
  <node id='-216209' action='modify' visible='true' lat='-43.3329781' lon='146.8890913' />
  <node id='-216210' action='modify' visible='true' lat='-43.3328276' lon='146.8886374' />
  <node id='-216211' action='modify' visible='true' lat='-43.3328015' lon='146.8885442' />
  <node id='-216212' action='modify' visible='true' lat='-43.3327065' lon='146.8880776' />
  <node id='-216213' action='modify' visible='true' lat='-43.3326489' lon='146.8875121' />
  <node id='-216214' action='modify' visible='true' lat='-43.3326435' lon='146.8874132' />
  <node id='-216215' action='modify' visible='true' lat='-43.3326441' lon='146.8871875' />
  <node id='-216216' action='modify' visible='true' lat='-43.3326516' lon='146.8869861' />
  <node id='-216217' action='modify' visible='true' lat='-43.3326622' lon='146.8868952' />
  <node id='-216218' action='modify' visible='true' lat='-43.3327007' lon='146.8867154' />
  <node id='-216219' action='modify' visible='true' lat='-43.3328169' lon='146.8862431' />
  <node id='-216220' action='modify' visible='true' lat='-43.3329118' lon='146.8857361' />
  <node id='-216221' action='modify' visible='true' lat='-43.3329994' lon='146.885372' />
  <node id='-216222' action='modify' visible='true' lat='-43.3330471' lon='146.8851962' />
  <node id='-216223' action='modify' visible='true' lat='-43.3332022' lon='146.884787' />
  <node id='-216224' action='modify' visible='true' lat='-43.3334562' lon='146.8840741' />
  <node id='-216225' action='modify' visible='true' lat='-43.3336868' lon='146.8833549' />
  <node id='-216226' action='modify' visible='true' lat='-43.3339364' lon='146.8827696' />
  <node id='-216227' action='modify' visible='true' lat='-43.3340264' lon='146.8825936' />
  <node id='-216228' action='modify' visible='true' lat='-43.3341774' lon='146.8823193' />
  <node id='-216229' action='modify' visible='true' lat='-43.3342105' lon='146.8822384' />
  <node id='-216230' action='modify' visible='true' lat='-43.3342376' lon='146.882145' />
  <node id='-216231' action='modify' visible='true' lat='-43.3342586' lon='146.8820439' />
  <node id='-216232' action='modify' visible='true' lat='-43.3342715' lon='146.881941' />
  <node id='-216233' action='modify' visible='true' lat='-43.3342775' lon='146.8818446' />
  <node id='-216234' action='modify' visible='true' lat='-43.3342766' lon='146.8817325' />
  <node id='-216235' action='modify' visible='true' lat='-43.3342678' lon='146.8816275' />
  <node id='-216236' action='modify' visible='true' lat='-43.3342597' lon='146.8815829' />
  <node id='-216237' action='modify' visible='true' lat='-43.3342082' lon='146.8813911' />
  <node id='-216238' action='modify' visible='true' lat='-43.3341833' lon='146.8812737' />
  <node id='-216239' action='modify' visible='true' lat='-43.3341768' lon='146.8811726' />
  <node id='-216240' action='modify' visible='true' lat='-43.3341896' lon='146.8810768' />
  <node id='-216241' action='modify' visible='true' lat='-43.334222' lon='146.8809654' />
  <node id='-216242' action='modify' visible='true' lat='-43.3343884' lon='146.8805107' />
  <node id='-216243' action='modify' visible='true' lat='-43.3346129' lon='146.8800964' />
  <node id='-216244' action='modify' visible='true' lat='-43.3347989' lon='146.8796903' />
  <node id='-216245' action='modify' visible='true' lat='-43.3349578' lon='146.8793923' />
  <node id='-216246' action='modify' visible='true' lat='-43.3350725' lon='146.8792192' />
  <node id='-216247' action='modify' visible='true' lat='-43.3352257' lon='146.8789591' />
  <node id='-216248' action='modify' visible='true' lat='-43.335404' lon='146.8786322' />
  <node id='-216249' action='modify' visible='true' lat='-43.3355395' lon='146.8783657' />
  <node id='-216250' action='modify' visible='true' lat='-43.335601' lon='146.8782329' />
  <node id='-216251' action='modify' visible='true' lat='-43.3357038' lon='146.8779816' />
  <node id='-216252' action='modify' visible='true' lat='-43.3359069' lon='146.8775188' />
  <node id='-216253' action='modify' visible='true' lat='-43.3359833' lon='146.8773609' />
  <node id='-216254' action='modify' visible='true' lat='-43.3361256' lon='146.8770873' />
  <node id='-216255' action='modify' visible='true' lat='-43.3363594' lon='146.8765601' />
  <node id='-216256' action='modify' visible='true' lat='-43.3363923' lon='146.8764644' />
  <node id='-216257' action='modify' visible='true' lat='-43.3364332' lon='146.8763206' />
  <node id='-216258' action='modify' visible='true' lat='-43.3364711' lon='146.8761598' />
  <node id='-216259' action='modify' visible='true' lat='-43.3364909' lon='146.8760516' />
  <node id='-216260' action='modify' visible='true' lat='-43.3365211' lon='146.8757974' />
  <node id='-216261' action='modify' visible='true' lat='-43.3365598' lon='146.8752986' />
  <node id='-216262' action='modify' visible='true' lat='-43.336631' lon='146.874763' />
  <node id='-216263' action='modify' visible='true' lat='-43.3366618' lon='146.8744971' />
  <node id='-216264' action='modify' visible='true' lat='-43.3366688' lon='146.8743559' />
  <node id='-216265' action='modify' visible='true' lat='-43.3366654' lon='146.8741545' />
  <node id='-216266' action='modify' visible='true' lat='-43.3366503' lon='146.8740606' />
  <node id='-216267' action='modify' visible='true' lat='-43.336621' lon='146.8739871' />
  <node id='-216268' action='modify' visible='true' lat='-43.3363055' lon='146.873342' />
  <node id='-216269' action='modify' visible='true' lat='-43.3361852' lon='146.8730463' />
  <node id='-216270' action='modify' visible='true' lat='-43.3361608' lon='146.8729304' />
  <node id='-216271' action='modify' visible='true' lat='-43.3361606' lon='146.8728474' />
  <node id='-216272' action='modify' visible='true' lat='-43.3361907' lon='146.8727853' />
  <node id='-216273' action='modify' visible='true' lat='-43.3362809' lon='146.8726814' />
  <node id='-216274' action='modify' visible='true' lat='-43.3366321' lon='146.8723778' />
  <node id='-216275' action='modify' visible='true' lat='-43.3371228' lon='146.8720515' />
  <node id='-216276' action='modify' visible='true' lat='-43.3372062' lon='146.8719639' />
  <node id='-216277' action='modify' visible='true' lat='-43.3373259' lon='146.8718042' />
  <node id='-216278' action='modify' visible='true' lat='-43.3373755' lon='146.8717161' />
  <node id='-216279' action='modify' visible='true' lat='-43.3375325' lon='146.8713587' />
  <node id='-216280' action='modify' visible='true' lat='-43.3377692' lon='146.8708863' />
  <node id='-216281' action='modify' visible='true' lat='-43.3378113' lon='146.8707873' />
  <node id='-216282' action='modify' visible='true' lat='-43.3379182' lon='146.8704975' />
  <node id='-216283' action='modify' visible='true' lat='-43.3379858' lon='146.8703302' />
  <node id='-216284' action='modify' visible='true' lat='-43.3384011' lon='146.8694155' />
  <node id='-216285' action='modify' visible='true' lat='-43.3384478' lon='146.869329' />
  <node id='-216286' action='modify' visible='true' lat='-43.3386182' lon='146.8690538' />
  <node id='-216287' action='modify' visible='true' lat='-43.3386427' lon='146.8690263' />
  <node id='-216288' action='modify' visible='true' lat='-43.3387507' lon='146.868937' />
  <node id='-216289' action='modify' visible='true' lat='-43.3388404' lon='146.8688935' />
  <node id='-216290' action='modify' visible='true' lat='-43.3389313' lon='146.8688742' />
  <node id='-216291' action='modify' visible='true' lat='-43.3390149' lon='146.8688753' />
  <node id='-216292' action='modify' visible='true' lat='-43.3393338' lon='146.8689269' />
  <node id='-216293' action='modify' visible='true' lat='-43.339509' lon='146.868944' />
  <node id='-216294' action='modify' visible='true' lat='-43.3396155' lon='146.8689442' />
  <node id='-216295' action='modify' visible='true' lat='-43.339858' lon='146.8689054' />
  <node id='-216296' action='modify' visible='true' lat='-43.340045' lon='146.8688635' />
  <node id='-216297' action='modify' visible='true' lat='-43.3402852' lon='146.8687682' />
  <node id='-216298' action='modify' visible='true' lat='-43.340408' lon='146.8687079' />
  <node id='-216299' action='modify' visible='true' lat='-43.3404611' lon='146.8686646' />
  <node id='-216300' action='modify' visible='true' lat='-43.3405519' lon='146.8685543' />
  <node id='-216301' action='modify' visible='true' lat='-43.3410354' lon='146.8678963' />
  <node id='-216302' action='modify' visible='true' lat='-43.3412579' lon='146.8676216' />
  <node id='-216303' action='modify' visible='true' lat='-43.3413542' lon='146.8675152' />
  <node id='-216304' action='modify' visible='true' lat='-43.3416853' lon='146.867192' />
  <node id='-216305' action='modify' visible='true' lat='-43.3418799' lon='146.8669904' />
  <node id='-216306' action='modify' visible='true' lat='-43.341961' lon='146.8668919' />
  <node id='-216307' action='modify' visible='true' lat='-43.3420128' lon='146.866811' />
  <node id='-216308' action='modify' visible='true' lat='-43.342044' lon='146.8667362' />
  <node id='-216309' action='modify' visible='true' lat='-43.3420876' lon='146.8665517' />
  <node id='-216310' action='modify' visible='true' lat='-43.3421102' lon='146.8664741' />
  <node id='-216311' action='modify' visible='true' lat='-43.3422352' lon='146.8661191' />
  <node id='-216312' action='modify' visible='true' lat='-43.3422562' lon='146.8660438' />
  <node id='-216313' action='modify' visible='true' lat='-43.3423578' lon='146.8655297' />
  <node id='-216314' action='modify' visible='true' lat='-43.342406' lon='146.8651398' />
  <node id='-216315' action='modify' visible='true' lat='-43.3424251' lon='146.8650237' />
  <node id='-216316' action='modify' visible='true' lat='-43.3424444' lon='146.8649546' />
  <node id='-216317' action='modify' visible='true' lat='-43.3425177' lon='146.864763' />
  <node id='-216318' action='modify' visible='true' lat='-43.3425369' lon='146.8646837' />
  <node id='-216319' action='modify' visible='true' lat='-43.342543' lon='146.8646014' />
  <node id='-216320' action='modify' visible='true' lat='-43.3425341' lon='146.8645121' />
  <node id='-216321' action='modify' visible='true' lat='-43.3425057' lon='146.8643782' />
  <node id='-216322' action='modify' visible='true' lat='-43.3423241' lon='146.8638884' />
  <node id='-216323' action='modify' visible='true' lat='-43.3422837' lon='146.8638047' />
  <node id='-216324' action='modify' visible='true' lat='-43.3422239' lon='146.8637032' />
  <node id='-216325' action='modify' visible='true' lat='-43.3422004' lon='146.8636398' />
  <node id='-216326' action='modify' visible='true' lat='-43.342191' lon='146.8636006' />
  <node id='-216327' action='modify' visible='true' lat='-43.3421793' lon='146.8635036' />
  <node id='-216328' action='modify' visible='true' lat='-43.3421779' lon='146.8633907' />
  <node id='-216329' action='modify' visible='true' lat='-43.3421862' lon='146.8632832' />
  <node id='-216330' action='modify' visible='true' lat='-43.3422042' lon='146.8631969' />
  <node id='-216331' action='modify' visible='true' lat='-43.3422407' lon='146.8631191' />
  <node id='-216332' action='modify' visible='true' lat='-43.3422692' lon='146.8630773' />
  <node id='-216333' action='modify' visible='true' lat='-43.3423473' lon='146.8629836' />
  <node id='-216334' action='modify' visible='true' lat='-43.3424785' lon='146.8628505' />
  <node id='-216335' action='modify' visible='true' lat='-43.3426253' lon='146.8627281' />
  <node id='-216336' action='modify' visible='true' lat='-43.3426452' lon='146.8626966' />
  <node id='-216337' action='modify' visible='true' lat='-43.3426718' lon='146.8625993' />
  <node id='-216338' action='modify' visible='true' lat='-43.3427063' lon='146.8624345' />
  <node id='-216339' action='modify' visible='true' lat='-43.3427242' lon='146.8622603' />
  <node id='-216340' action='modify' visible='true' lat='-43.342711' lon='146.8618427' />
  <node id='-216341' action='modify' visible='true' lat='-43.3427226' lon='146.8617053' />
  <node id='-216342' action='modify' visible='true' lat='-43.3427555' lon='146.8615899' />
  <node id='-216343' action='modify' visible='true' lat='-43.342813' lon='146.8615151' />
  <node id='-216344' action='modify' visible='true' lat='-43.342882' lon='146.8614191' />
  <node id='-216345' action='modify' visible='true' lat='-43.342951' lon='146.8613411' />
  <node id='-216346' action='modify' visible='true' lat='-43.3430657' lon='146.8611947' />
  <node id='-216347' action='modify' visible='true' lat='-43.3431639' lon='146.8610883' />
  <node id='-216348' action='modify' visible='true' lat='-43.343427' lon='146.8608541' />
  <node id='-216349' action='modify' visible='true' lat='-43.3436806' lon='146.8606582' />
  <node id='-216350' action='modify' visible='true' lat='-43.3437486' lon='146.8605992' />
  <node id='-216351' action='modify' visible='true' lat='-43.3438992' lon='146.8604517' />
  <node id='-216352' action='modify' visible='true' lat='-43.3440071' lon='146.8603531' />
  <node id='-216353' action='modify' visible='true' lat='-43.3440796' lon='146.8602868' />
  <node id='-216354' action='modify' visible='true' lat='-43.3441246' lon='146.8602247' />
  <node id='-216355' action='modify' visible='true' lat='-43.344164' lon='146.86015' />
  <node id='-216356' action='modify' visible='true' lat='-43.3441878' lon='146.8601036' />
  <node id='-216357' action='modify' visible='true' lat='-43.3441968' lon='146.8600291' />
  <node id='-216358' action='modify' visible='true' lat='-43.3441872' lon='146.8599014' />
  <node id='-216359' action='modify' visible='true' lat='-43.3441468' lon='146.8597417' />
  <node id='-216360' action='modify' visible='true' lat='-43.3441231' lon='146.8596665' />
  <node id='-216361' action='modify' visible='true' lat='-43.3440535' lon='146.8595344' />
  <node id='-216362' action='modify' visible='true' lat='-43.3440241' lon='146.8594648' />
  <node id='-216363' action='modify' visible='true' lat='-43.3440015' lon='146.8593726' />
  <node id='-216364' action='modify' visible='true' lat='-43.343992' lon='146.8592549' />
  <node id='-216365' action='modify' visible='true' lat='-43.3439961' lon='146.8590793' />
  <node id='-216366' action='modify' visible='true' lat='-43.3440241' lon='146.8588471' />
  <node id='-216367' action='modify' visible='true' lat='-43.3440567' lon='146.858444' />
  <node id='-216368' action='modify' visible='true' lat='-43.3440842' lon='146.8582691' />
  <node id='-216369' action='modify' visible='true' lat='-43.3441232' lon='146.8580846' />
  <node id='-216370' action='modify' visible='true' lat='-43.3441533' lon='146.8580022' />
  <node id='-216371' action='modify' visible='true' lat='-43.3442255' lon='146.8578472' />
  <node id='-216372' action='modify' visible='true' lat='-43.3442448' lon='146.8577727' />
  <node id='-216373' action='modify' visible='true' lat='-43.3442604' lon='146.857651' />
  <node id='-216374' action='modify' visible='true' lat='-43.3442847' lon='146.8573413' />
  <node id='-216375' action='modify' visible='true' lat='-43.3443054' lon='146.8571945' />
  <node id='-216376' action='modify' visible='true' lat='-43.3443861' lon='146.8567661' />
  <node id='-216377' action='modify' visible='true' lat='-43.3445087' lon='146.8561603' />
  <node id='-216378' action='modify' visible='true' lat='-43.3445437' lon='146.8560143' />
  <node id='-216379' action='modify' visible='true' lat='-43.3445839' lon='146.8558801' />
  <node id='-216380' action='modify' visible='true' lat='-43.3446645' lon='146.8556625' />
  <node id='-216381' action='modify' visible='true' lat='-43.3449414' lon='146.8550187' />
  <node id='-216382' action='modify' visible='true' lat='-43.3449922' lon='146.8549205' />
  <node id='-216383' action='modify' visible='true' lat='-43.3450258' lon='146.8548724' />
  <node id='-216384' action='modify' visible='true' lat='-43.3450937' lon='146.8547938' />
  <node id='-216385' action='modify' visible='true' lat='-43.3451838' lon='146.8547117' />
  <node id='-216386' action='modify' visible='true' lat='-43.3452832' lon='146.8546469' />
  <node id='-216387' action='modify' visible='true' lat='-43.3454713' lon='146.8545564' />
  <node id='-216388' action='modify' visible='true' lat='-43.3455335' lon='146.8545021' />
  <node id='-216389' action='modify' visible='true' lat='-43.3456201' lon='146.8543925' />
  <node id='-216390' action='modify' visible='true' lat='-43.3458518' lon='146.8539633' />
  <node id='-216391' action='modify' visible='true' lat='-43.3459603' lon='146.8538223' />
  <node id='-216392' action='modify' visible='true' lat='-43.3460692' lon='146.8537261' />
  <node id='-216393' action='modify' visible='true' lat='-43.3460959' lon='146.8536679' />
  <node id='-216394' action='modify' visible='true' lat='-43.3461048' lon='146.8535769' />
  <node id='-216395' action='modify' visible='true' lat='-43.3461014' lon='146.8533903' />
  <node id='-216396' action='modify' visible='true' lat='-43.3460975' lon='146.8532086' />
  <node id='-216397' action='modify' visible='true' lat='-43.3461308' lon='146.8530429' />
  <node id='-216398' action='modify' visible='true' lat='-43.3461785' lon='146.8529226' />
  <node id='-216399' action='modify' visible='true' lat='-43.3462234' lon='146.8528228' />
  <node id='-216400' action='modify' visible='true' lat='-43.3462204' lon='146.8527648' />
  <node id='-216401' action='modify' visible='true' lat='-43.3462111' lon='146.8527359' />
  <node id='-216402' action='modify' visible='true' lat='-43.3460627' lon='146.8526333' />
  <node id='-216403' action='modify' visible='true' lat='-43.3459904' lon='146.8525592' />
  <node id='-216404' action='modify' visible='true' lat='-43.3459811' lon='146.8524934' />
  <node id='-216405' action='modify' visible='true' lat='-43.346002' lon='146.8524227' />
  <way id='-216054' action='modify' visible='true'>
    <nd ref='-216180' />
    <nd ref='-216181' />
    <nd ref='-216182' />
    <nd ref='-216183' />
    <nd ref='-216184' />
    <nd ref='-216185' />
    <nd ref='-216186' />
    <nd ref='-216187' />
    <nd ref='-216188' />
    <nd ref='-216189' />
    <nd ref='-216190' />
    <nd ref='-216191' />
    <nd ref='-216192' />
    <nd ref='-216193' />
    <nd ref='-216194' />
    <nd ref='-216195' />
    <nd ref='-216196' />
    <nd ref='-216197' />
    <nd ref='-216198' />
    <nd ref='-216199' />
    <nd ref='-216200' />
    <nd ref='-216201' />
    <nd ref='-216202' />
    <nd ref='-216203' />
    <nd ref='-216204' />
    <nd ref='-216205' />
    <nd ref='-216206' />
    <nd ref='-216207' />
    <nd ref='-216208' />
    <nd ref='-216209' />
    <nd ref='-216210' />
    <nd ref='-216211' />
    <nd ref='-216212' />
    <nd ref='-216213' />
    <nd ref='-216214' />
    <nd ref='-216215' />
    <nd ref='-216216' />
    <nd ref='-216217' />
    <nd ref='-216218' />
    <nd ref='-216219' />
    <nd ref='-216220' />
    <nd ref='-216221' />
    <nd ref='-216222' />
    <nd ref='-216223' />
    <nd ref='-216224' />
    <nd ref='-216225' />
    <nd ref='-216226' />
    <nd ref='-216227' />
    <nd ref='-216228' />
    <nd ref='-216229' />
    <nd ref='-216230' />
    <nd ref='-216231' />
    <nd ref='-216232' />
    <nd ref='-216233' />
    <nd ref='-216234' />
    <nd ref='-216235' />
    <nd ref='-216236' />
    <nd ref='-216237' />
    <nd ref='-216238' />
    <nd ref='-216239' />
    <nd ref='-216240' />
    <nd ref='-216241' />
    <nd ref='-216242' />
    <nd ref='-216243' />
    <nd ref='-216244' />
    <nd ref='-216245' />
    <nd ref='-216246' />
    <nd ref='-216247' />
    <nd ref='-216248' />
    <nd ref='-216249' />
    <nd ref='-216250' />
    <nd ref='-216251' />
    <nd ref='-216252' />
    <nd ref='-216253' />
    <nd ref='-216254' />
    <nd ref='-216255' />
    <nd ref='-216256' />
    <nd ref='-216257' />
    <nd ref='-216258' />
    <nd ref='-216259' />
    <nd ref='-216260' />
    <nd ref='-216261' />
    <nd ref='-216262' />
    <nd ref='-216263' />
    <nd ref='-216264' />
    <nd ref='-216265' />
    <nd ref='-216266' />
    <nd ref='-216267' />
    <nd ref='-216268' />
    <nd ref='-216269' />
    <nd ref='-216270' />
    <nd ref='-216271' />
    <nd ref='-216272' />
    <nd ref='-216273' />
    <nd ref='-216274' />
    <nd ref='-216275' />
    <nd ref='-216276' />
    <nd ref='-216277' />
    <nd ref='-216278' />
    <nd ref='-216279' />
    <nd ref='-216280' />
    <nd ref='-216281' />
    <nd ref='-216282' />
    <nd ref='-216283' />
    <nd ref='-216284' />
    <nd ref='-216285' />
    <nd ref='-216286' />
    <nd ref='-216287' />
    <nd ref='-216288' />
    <nd ref='-216289' />
    <nd ref='-216290' />
    <nd ref='-216291' />
    <nd ref='-216292' />
    <nd ref='-216293' />
    <nd ref='-216294' />
    <nd ref='-216295' />
    <nd ref='-216296' />
    <nd ref='-216297' />
    <nd ref='-216298' />
    <nd ref='-216299' />
    <nd ref='-216300' />
    <nd ref='-216301' />
    <nd ref='-216302' />
    <nd ref='-216303' />
    <nd ref='-216304' />
    <nd ref='-216305' />
    <nd ref='-216306' />
    <nd ref='-216307' />
    <nd ref='-216308' />
    <nd ref='-216309' />
    <nd ref='-216310' />
    <nd ref='-216311' />
    <nd ref='-216312' />
    <nd ref='-216313' />
    <nd ref='-216314' />
    <nd ref='-216315' />
    <nd ref='-216316' />
    <nd ref='-216317' />
    <nd ref='-216318' />
    <nd ref='-216319' />
    <nd ref='-216320' />
    <nd ref='-216321' />
    <nd ref='-216322' />
    <nd ref='-216323' />
    <nd ref='-216324' />
    <nd ref='-216325' />
    <nd ref='-216326' />
    <nd ref='-216327' />
    <nd ref='-216328' />
    <nd ref='-216329' />
    <nd ref='-216330' />
    <nd ref='-216331' />
    <nd ref='-216332' />
    <nd ref='-216333' />
    <nd ref='-216334' />
    <nd ref='-216335' />
    <nd ref='-216336' />
    <nd ref='-216337' />
    <nd ref='-216338' />
    <nd ref='-216339' />
    <nd ref='-216340' />
    <nd ref='-216341' />
    <nd ref='-216342' />
    <nd ref='-216343' />
    <nd ref='-216344' />
    <nd ref='-216345' />
    <nd ref='-216346' />
    <nd ref='-216347' />
    <nd ref='-216348' />
    <nd ref='-216349' />
    <nd ref='-216350' />
    <nd ref='-216351' />
    <nd ref='-216352' />
    <nd ref='-216353' />
    <nd ref='-216354' />
    <nd ref='-216355' />
    <nd ref='-216356' />
    <nd ref='-216357' />
    <nd ref='-216358' />
    <nd ref='-216359' />
    <nd ref='-216360' />
    <nd ref='-216361' />
    <nd ref='-216362' />
    <nd ref='-216363' />
    <nd ref='-216364' />
    <nd ref='-216365' />
    <nd ref='-216366' />
    <nd ref='-216367' />
    <nd ref='-216368' />
    <nd ref='-216369' />
    <nd ref='-216370' />
    <nd ref='-216371' />
    <nd ref='-216372' />
    <nd ref='-216373' />
    <nd ref='-216374' />
    <nd ref='-216375' />
    <nd ref='-216376' />
    <nd ref='-216377' />
    <nd ref='-216378' />
    <nd ref='-216379' />
    <nd ref='-216380' />
    <nd ref='-216381' />
    <nd ref='-216382' />
    <nd ref='-216383' />
    <nd ref='-216384' />
    <nd ref='-216385' />
    <nd ref='-216386' />
    <nd ref='-216387' />
    <nd ref='-216388' />
    <nd ref='-216389' />
    <nd ref='-216390' />
    <nd ref='-216391' />
    <nd ref='-216392' />
    <nd ref='-216393' />
    <nd ref='-216394' />
    <nd ref='-216395' />
    <nd ref='-216396' />
    <nd ref='-216397' />
    <nd ref='-216398' />
    <nd ref='-216399' />
    <nd ref='-216400' />
    <nd ref='-216401' />
    <nd ref='-216402' />
    <nd ref='-216403' />
    <nd ref='-216404' />
    <nd ref='-216405' />
    <nd ref='-216055' />
    <nd ref='-216056' />
    <nd ref='-216057' />
    <nd ref='-216058' />
    <nd ref='-216059' />
    <nd ref='-216060' />
    <nd ref='-216061' />
    <nd ref='-216062' />
    <nd ref='-216063' />
    <nd ref='-216064' />
    <nd ref='-216065' />
    <nd ref='-216066' />
    <nd ref='-216067' />
    <nd ref='-216068' />
    <nd ref='-216069' />
    <nd ref='-216070' />
    <nd ref='-216071' />
    <nd ref='-216072' />
    <nd ref='-216073' />
    <nd ref='-216074' />
    <nd ref='-216075' />
    <nd ref='-216076' />
    <nd ref='-216077' />
    <nd ref='-216078' />
    <nd ref='-216079' />
    <nd ref='-216080' />
    <nd ref='-216081' />
    <nd ref='-216082' />
    <nd ref='-216083' />
    <nd ref='-216084' />
    <nd ref='-216085' />
    <nd ref='-216086' />
    <nd ref='-216087' />
    <nd ref='-216088' />
    <nd ref='-216089' />
    <nd ref='-216090' />
    <nd ref='-216091' />
    <nd ref='-216092' />
    <nd ref='-216093' />
    <nd ref='-216094' />
    <nd ref='-216095' />
    <nd ref='-216096' />
    <nd ref='-216097' />
    <nd ref='-216098' />
    <nd ref='-216099' />
    <nd ref='-216100' />
    <nd ref='-216101' />
    <nd ref='-216102' />
    <nd ref='-216103' />
    <nd ref='-216104' />
    <nd ref='-216105' />
    <nd ref='-216106' />
    <nd ref='-216107' />
    <nd ref='-216108' />
    <nd ref='-216109' />
    <nd ref='-216110' />
    <nd ref='-216111' />
    <nd ref='-216112' />
    <nd ref='-216113' />
    <nd ref='-216114' />
    <nd ref='-216115' />
    <nd ref='-216116' />
    <nd ref='-216117' />
    <nd ref='-216118' />
    <nd ref='-216119' />
    <nd ref='-216120' />
    <nd ref='-216121' />
    <nd ref='-216122' />
    <nd ref='-216123' />
    <nd ref='-216124' />
    <nd ref='-216125' />
    <nd ref='-216126' />
    <nd ref='-216127' />
    <nd ref='-216128' />
    <nd ref='-216129' />
    <nd ref='-216130' />
    <nd ref='-216131' />
    <nd ref='-216132' />
    <nd ref='-216133' />
    <nd ref='-216134' />
    <nd ref='-216135' />
    <nd ref='-216136' />
    <nd ref='-216137' />
    <nd ref='-216138' />
    <nd ref='-216139' />
    <nd ref='-216140' />
    <nd ref='-216141' />
    <nd ref='-216142' />
    <nd ref='-216143' />
    <nd ref='-216144' />
    <nd ref='-216145' />
    <nd ref='-216146' />
    <nd ref='-216147' />
    <nd ref='-216148' />
    <nd ref='-216149' />
    <nd ref='-216150' />
    <nd ref='-216151' />
    <nd ref='-216152' />
    <nd ref='-216153' />
    <nd ref='-216154' />
    <nd ref='-216155' />
    <nd ref='-216156' />
    <nd ref='-216157' />
    <nd ref='-216158' />
    <nd ref='-216159' />
    <nd ref='-216160' />
    <nd ref='-216161' />
    <nd ref='-216162' />
    <nd ref='-216163' />
    <nd ref='-216164' />
    <nd ref='-216165' />
    <nd ref='-216166' />
    <nd ref='-216167' />
    <nd ref='-216168' />
    <nd ref='-216169' />
    <nd ref='-216170' />
    <nd ref='-216171' />
    <nd ref='-216172' />
    <nd ref='-216173' />
    <nd ref='-216174' />
    <nd ref='-216175' />
    <nd ref='-216176' />
    <nd ref='-216177' />
    <nd ref='-216178' />
    <nd ref='-216179' />
    <tag k='name' v='Adamsons Peak' />
    <tag k='park' v='Southwest National Park' />
    <tag k='role' v='primary' />
    <tag k='style' v='return' />
    <tag k='transport' v='car' />
  </way>
</osm>
