<?xml version='1.0' encoding='UTF-8'?>
<osm version='0.6' upload='false' generator='JOSM'>
  <node id='-237448' action='modify' visible='true' lat='-40.1061991' lon='143.8845331' />
  <node id='-237449' action='modify' visible='true' lat='-40.1065695' lon='143.8809224' />
  <node id='-237452' action='modify' visible='true' lat='-40.1061067' lon='143.8835112' />
  <node id='-237453' action='modify' visible='true' lat='-40.105996' lon='143.8830633' />
  <node id='-237454' action='modify' visible='true' lat='-40.106039' lon='143.8829131' />
  <node id='-237455' action='modify' visible='true' lat='-40.1060719' lon='143.8825563' />
  <node id='-237456' action='modify' visible='true' lat='-40.1060329' lon='143.8823874' />
  <node id='-237457' action='modify' visible='true' lat='-40.1058934' lon='143.8821272' />
  <node id='-237458' action='modify' visible='true' lat='-40.1057046' lon='143.8818804' />
  <node id='-237459' action='modify' visible='true' lat='-40.1056452' lon='143.8816095' />
  <node id='-237460' action='modify' visible='true' lat='-40.1056932' lon='143.8814155' />
  <node id='-237461' action='modify' visible='true' lat='-40.1057597' lon='143.8812747' />
  <node id='-237462' action='modify' visible='true' lat='-40.1058042' lon='143.8812387' />
  <node id='-237463' action='modify' visible='true' lat='-40.1058631' lon='143.8812353' />
  <node id='-237464' action='modify' visible='true' lat='-40.1059898' lon='143.8811643' />
  <node id='-237465' action='modify' visible='true' lat='-40.1061601' lon='143.8811374' />
  <node id='-237466' action='modify' visible='true' lat='-40.1062401' lon='143.8810945' />
  <node id='-237467' action='modify' visible='true' lat='-40.1062729' lon='143.881124' />
  <node id='-237468' action='modify' visible='true' lat='-40.1063981' lon='143.8811053' />
  <node id='-237469' action='modify' visible='true' lat='-40.1064616' lon='143.8810489' />
  <node id='-237470' action='modify' visible='true' lat='-40.1067139' lon='143.8808021' />
  <node id='-237471' action='modify' visible='true' lat='-40.1069094' lon='143.8807955' />
  <node id='-237472' action='modify' visible='true' lat='-40.1069286' lon='143.8807979' />
  <node id='-237473' action='modify' visible='true' lat='-40.1049251' lon='143.8873087' />
  <node id='-237474' action='modify' visible='true' lat='-40.1050547' lon='143.8872102' />
  <node id='-237475' action='modify' visible='true' lat='-40.1051922' lon='143.887021' />
  <node id='-237476' action='modify' visible='true' lat='-40.1058318' lon='143.8856972' />
  <node id='-237477' action='modify' visible='true' lat='-40.106078' lon='143.8852868' />
  <node id='-237478' action='modify' visible='true' lat='-40.1060985' lon='143.8851769' />
  <node id='-237479' action='modify' visible='true' lat='-40.1061601' lon='143.8850642' />
  <node id='-237480' action='modify' visible='true' lat='-40.1062237' lon='143.8847423' />
  <node id='-237481' action='modify' visible='true' lat='-40.1062011' lon='143.8840423' />
  <node id='-237482' action='modify' visible='true' lat='-40.1061293' lon='143.883715' />
  <way id='-237446' action='modify' visible='true'>
    <nd ref='-237473' />
    <nd ref='-237474' />
    <nd ref='-237475' />
    <nd ref='-237476' />
    <nd ref='-237477' />
    <nd ref='-237478' />
    <nd ref='-237479' />
    <nd ref='-237480' />
    <nd ref='-237448' />
    <nd ref='-237481' />
    <nd ref='-237482' />
    <nd ref='-237452' />
    <nd ref='-237453' />
    <nd ref='-237454' />
    <nd ref='-237455' />
    <nd ref='-237456' />
    <nd ref='-237457' />
    <nd ref='-237458' />
    <nd ref='-237459' />
    <nd ref='-237460' />
    <nd ref='-237461' />
    <nd ref='-237462' />
    <nd ref='-237463' />
    <nd ref='-237464' />
    <nd ref='-237465' />
    <nd ref='-237466' />
    <nd ref='-237467' />
    <nd ref='-237468' />
    <nd ref='-237469' />
    <nd ref='-237449' />
    <nd ref='-237470' />
    <nd ref='-237471' />
    <nd ref='-237472' />
    <tag k='name' v='Calcified Forest' />
    <tag k='park' v='Seal Rocks State Reserve' />
    <tag k='role' v='primary' />
    <tag k='style' v='return' />
    <tag k='transport' v='car' />
  </way>
</osm>
