<?xml version='1.0' encoding='UTF-8'?>
<osm version='0.6' upload='false' generator='JOSM'>
  <node id='-160321' action='modify' visible='true' lat='-28.0497991' lon='152.3936044' />
  <node id='-160322' action='modify' visible='true' lat='-28.0499906' lon='152.3931875' />
  <node id='-160323' action='modify' visible='true' lat='-28.0501012' lon='152.3930447' />
  <node id='-160324' action='modify' visible='true' lat='-28.0501552' lon='152.3928319' />
  <node id='-160325' action='modify' visible='true' lat='-28.0502067' lon='152.3927998' />
  <node id='-160326' action='modify' visible='true' lat='-28.0502453' lon='152.3928727' />
  <node id='-160327' action='modify' visible='true' lat='-28.0502298' lon='152.3930505' />
  <node id='-160328' action='modify' visible='true' lat='-28.0502736' lon='152.3932983' />
  <node id='-160329' action='modify' visible='true' lat='-28.0503302' lon='152.393444' />
  <node id='-160330' action='modify' visible='true' lat='-28.0504434' lon='152.3936189' />
  <node id='-160331' action='modify' visible='true' lat='-28.0505771' lon='152.3937705' />
  <node id='-160332' action='modify' visible='true' lat='-28.0507546' lon='152.3939833' />
  <node id='-160333' action='modify' visible='true' lat='-28.0508961' lon='152.3942106' />
  <node id='-160334' action='modify' visible='true' lat='-28.0510042' lon='152.3944467' />
  <node id='-160335' action='modify' visible='true' lat='-28.0510607' lon='152.3945633' />
  <node id='-160336' action='modify' visible='true' lat='-28.0511842' lon='152.3946508' />
  <node id='-160337' action='modify' visible='true' lat='-28.0514595' lon='152.394814' />
  <node id='-160338' action='modify' visible='true' lat='-28.0516884' lon='152.3948461' />
  <node id='-160339' action='modify' visible='true' lat='-28.0518325' lon='152.3948869' />
  <node id='-160340' action='modify' visible='true' lat='-28.0519482' lon='152.3949452' />
  <node id='-160341' action='modify' visible='true' lat='-28.0520691' lon='152.3949452' />
  <node id='-160342' action='modify' visible='true' lat='-28.0522389' lon='152.3948985' />
  <node id='-160343' action='modify' visible='true' lat='-28.0525322' lon='152.3947353' />
  <node id='-160344' action='modify' visible='true' lat='-28.0526711' lon='152.3946595' />
  <node id='-160345' action='modify' visible='true' lat='-28.0527071' lon='152.3945575' />
  <node id='-160346' action='modify' visible='true' lat='-28.0527766' lon='152.3945284' />
  <node id='-160347' action='modify' visible='true' lat='-28.0529283' lon='152.3945138' />
  <node id='-160348' action='modify' visible='true' lat='-28.0530595' lon='152.3945109' />
  <node id='-160349' action='modify' visible='true' lat='-28.0531598' lon='152.3944234' />
  <node id='-160350' action='modify' visible='true' lat='-28.0532756' lon='152.3944788' />
  <node id='-160351' action='modify' visible='true' lat='-28.0533991' lon='152.3945779' />
  <node id='-160352' action='modify' visible='true' lat='-28.0534042' lon='152.3947441' />
  <node id='-160353' action='modify' visible='true' lat='-28.0534788' lon='152.3949277' />
  <node id='-160354' action='modify' visible='true' lat='-28.0536023' lon='152.3950122' />
  <node id='-160355' action='modify' visible='true' lat='-28.0537258' lon='152.3950326' />
  <node id='-160356' action='modify' visible='true' lat='-28.0538287' lon='152.3950093' />
  <node id='-160357' action='modify' visible='true' lat='-28.0539521' lon='152.3949714' />
  <node id='-160358' action='modify' visible='true' lat='-28.0541142' lon='152.3948198' />
  <node id='-160359' action='modify' visible='true' lat='-28.0541888' lon='152.3948519' />
  <node id='-160360' action='modify' visible='true' lat='-28.0542788' lon='152.3947994' />
  <node id='-160361' action='modify' visible='true' lat='-28.0544409' lon='152.3947674' />
  <node id='-160362' action='modify' visible='true' lat='-28.0545875' lon='152.3947645' />
  <node id='-160363' action='modify' visible='true' lat='-28.054765' lon='152.3947586' />
  <node id='-160364' action='modify' visible='true' lat='-28.054909' lon='152.3948198' />
  <node id='-160365' action='modify' visible='true' lat='-28.0549579' lon='152.3949219' />
  <node id='-160366' action='modify' visible='true' lat='-28.0550197' lon='152.395018' />
  <node id='-160367' action='modify' visible='true' lat='-28.0551714' lon='152.3950997' />
  <node id='-160368' action='modify' visible='true' lat='-28.0552949' lon='152.3951346' />
  <node id='-160369' action='modify' visible='true' lat='-28.0554004' lon='152.3951259' />
  <node id='-160370' action='modify' visible='true' lat='-28.0556499' lon='152.3951113' />
  <node id='-160371' action='modify' visible='true' lat='-28.0558248' lon='152.3953008' />
  <node id='-160372' action='modify' visible='true' lat='-28.0559097' lon='152.3954145' />
  <node id='-160373' action='modify' visible='true' lat='-28.0560512' lon='152.3954174' />
  <node id='-160374' action='modify' visible='true' lat='-28.0561875' lon='152.3954174' />
  <node id='-160375' action='modify' visible='true' lat='-28.0562647' lon='152.3954903' />
  <node id='-160376' action='modify' visible='true' lat='-28.0563547' lon='152.3955894' />
  <node id='-160377' action='modify' visible='true' lat='-28.056455' lon='152.3956855' />
  <node id='-160378' action='modify' visible='true' lat='-28.0565348' lon='152.3958663' />
  <node id='-160379' action='modify' visible='true' lat='-28.0564576' lon='152.3963414' />
  <node id='-160380' action='modify' visible='true' lat='-28.0565116' lon='152.3964405' />
  <node id='-160381' action='modify' visible='true' lat='-28.0566222' lon='152.3964871' />
  <node id='-160382' action='modify' visible='true' lat='-28.0567071' lon='152.3965338' />
  <node id='-160383' action='modify' visible='true' lat='-28.0567122' lon='152.3965746' />
  <node id='-160384' action='modify' visible='true' lat='-28.0566994' lon='152.3966474' />
  <node id='-160385' action='modify' visible='true' lat='-28.0568589' lon='152.3967932' />
  <node id='-160386' action='modify' visible='true' lat='-28.0568306' lon='152.3968952' />
  <node id='-160387' action='modify' visible='true' lat='-28.0568023' lon='152.3970001' />
  <node id='-160388' action='modify' visible='true' lat='-28.0567997' lon='152.3971575' />
  <node id='-160389' action='modify' visible='true' lat='-28.0568203' lon='152.3973558' />
  <node id='-160390' action='modify' visible='true' lat='-28.0568794' lon='152.3974549' />
  <node id='-160391' action='modify' visible='true' lat='-28.0570106' lon='152.3976502' />
  <node id='-160392' action='modify' visible='true' lat='-28.0570569' lon='152.3977493' />
  <node id='-160393' action='modify' visible='true' lat='-28.0572036' lon='152.3978892' />
  <node id='-160394' action='modify' visible='true' lat='-28.0573528' lon='152.3980174' />
  <node id='-160395' action='modify' visible='true' lat='-28.0572936' lon='152.3982302' />
  <node id='-160396' action='modify' visible='true' lat='-28.0573399' lon='152.3983497' />
  <node id='-160397' action='modify' visible='true' lat='-28.0573708' lon='152.3984867' />
  <node id='-160398' action='modify' visible='true' lat='-28.0574222' lon='152.398615' />
  <node id='-160399' action='modify' visible='true' lat='-28.0575148' lon='152.3987403' />
  <node id='-160400' action='modify' visible='true' lat='-28.0575714' lon='152.3989327' />
  <node id='-160401' action='modify' visible='true' lat='-28.0576923' lon='152.3991396' />
  <node id='-160402' action='modify' visible='true' lat='-28.0577772' lon='152.3993437' />
  <node id='-160403' action='modify' visible='true' lat='-28.0578492' lon='152.3994807' />
  <node id='-160404' action='modify' visible='true' lat='-28.0578775' lon='152.3996789' />
  <node id='-160405' action='modify' visible='true' lat='-28.0580344' lon='152.3999092' />
  <node id='-160406' action='modify' visible='true' lat='-28.0580936' lon='152.3999791' />
  <node id='-160407' action='modify' visible='true' lat='-28.0581759' lon='152.4000228' />
  <node id='-160408' action='modify' visible='true' lat='-28.0582839' lon='152.400052' />
  <node id='-160409' action='modify' visible='true' lat='-28.0584948' lon='152.4000957' />
  <node id='-160410' action='modify' visible='true' lat='-28.0586826' lon='152.4000986' />
  <node id='-160411' action='modify' visible='true' lat='-28.0588858' lon='152.400122' />
  <node id='-160412' action='modify' visible='true' lat='-28.0590324' lon='152.4001628' />
  <node id='-160413' action='modify' visible='true' lat='-28.0591353' lon='152.4001161' />
  <node id='-160414' action='modify' visible='true' lat='-28.0591893' lon='152.4000549' />
  <node id='-160415' action='modify' visible='true' lat='-28.0592485' lon='152.4000228' />
  <node id='-160416' action='modify' visible='true' lat='-28.059336' lon='152.4000228' />
  <node id='-160417' action='modify' visible='true' lat='-28.0594234' lon='152.4000112' />
  <node id='-160418' action='modify' visible='true' lat='-28.0595057' lon='152.4000054' />
  <node id='-160419' action='modify' visible='true' lat='-28.0594337' lon='152.3999762' />
  <node id='-160420' action='modify' visible='true' lat='-28.0593257' lon='152.3998567' />
  <node id='-160421' action='modify' visible='true' lat='-28.0591379' lon='152.3997576' />
  <node id='-160422' action='modify' visible='true' lat='-28.059035' lon='152.3996847' />
  <node id='-160423' action='modify' visible='true' lat='-28.0590093' lon='152.3995011' />
  <node id='-160424' action='modify' visible='true' lat='-28.0590736' lon='152.3993379' />
  <node id='-160425' action='modify' visible='true' lat='-28.0590736' lon='152.3990435' />
  <node id='-160426' action='modify' visible='true' lat='-28.059035' lon='152.3988161' />
  <node id='-160427' action='modify' visible='true' lat='-28.0590222' lon='152.3985829' />
  <node id='-160428' action='modify' visible='true' lat='-28.0590813' lon='152.3981632' />
  <node id='-160429' action='modify' visible='true' lat='-28.059143' lon='152.3980437' />
  <node id='-160430' action='modify' visible='true' lat='-28.0591585' lon='152.3979154' />
  <node id='-160431' action='modify' visible='true' lat='-28.0591302' lon='152.3977493' />
  <node id='-160432' action='modify' visible='true' lat='-28.0591199' lon='152.3976298' />
  <node id='-160433' action='modify' visible='true' lat='-28.0591893' lon='152.3971459' />
  <node id='-160434' action='modify' visible='true' lat='-28.0591868' lon='152.3969681' />
  <node id='-160435' action='modify' visible='true' lat='-28.0592691' lon='152.3968253' />
  <node id='-160436' action='modify' visible='true' lat='-28.0591868' lon='152.3966824' />
  <node id='-160437' action='modify' visible='true' lat='-28.0589656' lon='152.3965279' />
  <node id='-160438' action='modify' visible='true' lat='-28.0589038' lon='152.3963122' />
  <node id='-160439' action='modify' visible='true' lat='-28.0589296' lon='152.3960382' />
  <node id='-160440' action='modify' visible='true' lat='-28.0588961' lon='152.3957701' />
  <node id='-160441' action='modify' visible='true' lat='-28.0589321' lon='152.3956331' />
  <node id='-160442' action='modify' visible='true' lat='-28.0589321' lon='152.3955631' />
  <node id='-160443' action='modify' visible='true' lat='-28.0588601' lon='152.3954582' />
  <node id='-160444' action='modify' visible='true' lat='-28.0588009' lon='152.3953183' />
  <node id='-160445' action='modify' visible='true' lat='-28.0586337' lon='152.3947266' />
  <node id='-160446' action='modify' visible='true' lat='-28.0586054' lon='152.3944613' />
  <node id='-160447' action='modify' visible='true' lat='-28.0584331' lon='152.3940795' />
  <node id='-160448' action='modify' visible='true' lat='-28.0581887' lon='152.3936422' />
  <node id='-160449' action='modify' visible='true' lat='-28.0578698' lon='152.3928465' />
  <node id='-160450' action='modify' visible='true' lat='-28.0577978' lon='152.3924676' />
  <node id='-160451' action='modify' visible='true' lat='-28.0577695' lon='152.3921732' />
  <node id='-160452' action='modify' visible='true' lat='-28.0575894' lon='152.3919371' />
  <node id='-160453' action='modify' visible='true' lat='-28.0573682' lon='152.3916601' />
  <node id='-160454' action='modify' visible='true' lat='-28.057255' lon='152.3914561' />
  <node id='-160455' action='modify' visible='true' lat='-28.0570827' lon='152.3913249' />
  <node id='-160456' action='modify' visible='true' lat='-28.0568872' lon='152.3907507' />
  <node id='-160457' action='modify' visible='true' lat='-28.0568666' lon='152.3903864' />
  <node id='-160458' action='modify' visible='true' lat='-28.0568177' lon='152.3900978' />
  <node id='-160459' action='modify' visible='true' lat='-28.0568074' lon='152.3898558' />
  <node id='-160460' action='modify' visible='true' lat='-28.0569155' lon='152.3895819' />
  <node id='-160461' action='modify' visible='true' lat='-28.0570286' lon='152.3893924' />
  <node id='-160462' action='modify' visible='true' lat='-28.0570544' lon='152.3888327' />
  <node id='-160463' action='modify' visible='true' lat='-28.0575277' lon='152.3884043' />
  <node id='-160464' action='modify' visible='true' lat='-28.0576511' lon='152.3882469' />
  <node id='-160465' action='modify' visible='true' lat='-28.0580653' lon='152.3875152' />
  <node id='-160466' action='modify' visible='true' lat='-28.0584383' lon='152.3874161' />
  <node id='-160467' action='modify' visible='true' lat='-28.0588267' lon='152.3870547' />
  <node id='-160468' action='modify' visible='true' lat='-28.0592717' lon='152.386976' />
  <node id='-160469' action='modify' visible='true' lat='-28.0594672' lon='152.3870284' />
  <node id='-160470' action='modify' visible='true' lat='-28.05957' lon='152.3871071' />
  <node id='-160471' action='modify' visible='true' lat='-28.0596678' lon='152.3872529' />
  <node id='-160472' action='modify' visible='true' lat='-28.059745' lon='152.3874394' />
  <node id='-160473' action='modify' visible='true' lat='-28.0598787' lon='152.3876551' />
  <node id='-160474' action='modify' visible='true' lat='-28.0599379' lon='152.3877368' />
  <node id='-160475' action='modify' visible='true' lat='-28.0599173' lon='152.3877863' />
  <node id='-160476' action='modify' visible='true' lat='-28.059889' lon='152.3878504' />
  <node id='-160477' action='modify' visible='true' lat='-28.0599173' lon='152.3879175' />
  <node id='-160478' action='modify' visible='true' lat='-28.0599713' lon='152.3879729' />
  <node id='-160479' action='modify' visible='true' lat='-28.0600742' lon='152.3880982' />
  <node id='-160480' action='modify' visible='true' lat='-28.060208' lon='152.3882031' />
  <node id='-160481' action='modify' visible='true' lat='-28.0603494' lon='152.3882877' />
  <node id='-160482' action='modify' visible='true' lat='-28.0604549' lon='152.3883401' />
  <node id='-160483' action='modify' visible='true' lat='-28.0605269' lon='152.3883605' />
  <node id='-160484' action='modify' visible='true' lat='-28.0605886' lon='152.3883838' />
  <node id='-160485' action='modify' visible='true' lat='-28.0606658' lon='152.3884013' />
  <node id='-160486' action='modify' visible='true' lat='-28.0607481' lon='152.3884101' />
  <node id='-160487' action='modify' visible='true' lat='-28.0608253' lon='152.3884013' />
  <node id='-160488' action='modify' visible='true' lat='-28.060887' lon='152.3884013' />
  <node id='-160489' action='modify' visible='true' lat='-28.0609822' lon='152.3884567' />
  <node id='-160490' action='modify' visible='true' lat='-28.0610876' lon='152.3884567' />
  <node id='-160491' action='modify' visible='true' lat='-28.061206' lon='152.3884975' />
  <node id='-160492' action='modify' visible='true' lat='-28.061422' lon='152.3885238' />
  <node id='-160493' action='modify' visible='true' lat='-28.0616638' lon='152.3886141' />
  <node id='-160494' action='modify' visible='true' lat='-28.061687' lon='152.3887365' />
  <node id='-160495' action='modify' visible='true' lat='-28.061651' lon='152.388891' />
  <node id='-160496' action='modify' visible='true' lat='-28.0616072' lon='152.3889726' />
  <node id='-160497' action='modify' visible='true' lat='-28.0616278' lon='152.3890426' />
  <node id='-160498' action='modify' visible='true' lat='-28.0615352' lon='152.3892496' />
  <node id='-160499' action='modify' visible='true' lat='-28.0614992' lon='152.3893953' />
  <node id='-160500' action='modify' visible='true' lat='-28.0614452' lon='152.3896139' />
  <node id='-160501' action='modify' visible='true' lat='-28.0611957' lon='152.3902085' />
  <node id='-160502' action='modify' visible='true' lat='-28.0611931' lon='152.3904855' />
  <node id='-160503' action='modify' visible='true' lat='-28.0612394' lon='152.3907536' />
  <node id='-160504' action='modify' visible='true' lat='-28.0612291' lon='152.3910364' />
  <node id='-160505' action='modify' visible='true' lat='-28.0611777' lon='152.3912608' />
  <node id='-160506' action='modify' visible='true' lat='-28.0610876' lon='152.391459' />
  <node id='-160507' action='modify' visible='true' lat='-28.0609796' lon='152.3916718' />
  <node id='-160508' action='modify' visible='true' lat='-28.0609076' lon='152.3919604' />
  <node id='-160509' action='modify' visible='true' lat='-28.0609539' lon='152.3921557' />
  <node id='-160510' action='modify' visible='true' lat='-28.0608433' lon='152.3928086' />
  <node id='-160511' action='modify' visible='true' lat='-28.0608664' lon='152.3931351' />
  <node id='-160512' action='modify' visible='true' lat='-28.0607481' lon='152.3935519' />
  <node id='-160513' action='modify' visible='true' lat='-28.0608484' lon='152.3941232' />
  <node id='-160514' action='modify' visible='true' lat='-28.0608793' lon='152.3946391' />
  <node id='-160515' action='modify' visible='true' lat='-28.060959' lon='152.3950064' />
  <node id='-160516' action='modify' visible='true' lat='-28.0611365' lon='152.3954815' />
  <node id='-160517' action='modify' visible='true' lat='-28.0612574' lon='152.3962685' />
  <node id='-160518' action='modify' visible='true' lat='-28.0612857' lon='152.396595' />
  <node id='-160519' action='modify' visible='true' lat='-28.0612883' lon='152.3967786' />
  <node id='-160520' action='modify' visible='true' lat='-28.0613449' lon='152.3970176' />
  <node id='-160521' action='modify' visible='true' lat='-28.0613526' lon='152.3971925' />
  <node id='-160522' action='modify' visible='true' lat='-28.0613912' lon='152.3973062' />
  <node id='-160523' action='modify' visible='true' lat='-28.0614375' lon='152.397382' />
  <node id='-160524' action='modify' visible='true' lat='-28.0614683' lon='152.3975481' />
  <node id='-160525' action='modify' visible='true' lat='-28.0615172' lon='152.3976414' />
  <node id='-160526' action='modify' visible='true' lat='-28.0615969' lon='152.3977055' />
  <node id='-160527' action='modify' visible='true' lat='-28.0616304' lon='152.3977726' />
  <node id='-160528' action='modify' visible='true' lat='-28.0616947' lon='152.3978309' />
  <node id='-160529' action='modify' visible='true' lat='-28.061759' lon='152.3981748' />
  <node id='-160530' action='modify' visible='true' lat='-28.0618362' lon='152.3982885' />
  <node id='-160531' action='modify' visible='true' lat='-28.0618902' lon='152.3986908' />
  <node id='-160532' action='modify' visible='true' lat='-28.0619236' lon='152.3988307' />
  <node id='-160533' action='modify' visible='true' lat='-28.0619339' lon='152.3989677' />
  <node id='-160534' action='modify' visible='true' lat='-28.0620111' lon='152.3991163' />
  <node id='-160535' action='modify' visible='true' lat='-28.0620368' lon='152.399332' />
  <node id='-160536' action='modify' visible='true' lat='-28.0621062' lon='152.3994632' />
  <node id='-160537' action='modify' visible='true' lat='-28.0621268' lon='152.3995302' />
  <node id='-160538' action='modify' visible='true' lat='-28.0621731' lon='152.3995652' />
  <node id='-160539' action='modify' visible='true' lat='-28.0622246' lon='152.3996031' />
  <node id='-160540' action='modify' visible='true' lat='-28.0622606' lon='152.3995798' />
  <node id='-160541' action='modify' visible='true' lat='-28.0622451' lon='152.3995302' />
  <node id='-160542' action='modify' visible='true' lat='-28.0622143' lon='152.3993787' />
  <node id='-160543' action='modify' visible='true' lat='-28.0622297' lon='152.3992271' />
  <node id='-160544' action='modify' visible='true' lat='-28.0622143' lon='152.3990959' />
  <node id='-160545' action='modify' visible='true' lat='-28.0622014' lon='152.3989444' />
  <node id='-160546' action='modify' visible='true' lat='-28.0622246' lon='152.3989094' />
  <node id='-160547' action='modify' visible='true' lat='-28.0622657' lon='152.3989152' />
  <node id='-160548' action='modify' visible='true' lat='-28.0623017' lon='152.3989881' />
  <node id='-160549' action='modify' visible='true' lat='-28.0623583' lon='152.3992067' />
  <node id='-160550' action='modify' visible='true' lat='-28.06242' lon='152.3993437' />
  <node id='-160551' action='modify' visible='true' lat='-28.0624638' lon='152.3994865' />
  <node id='-160552' action='modify' visible='true' lat='-28.0624895' lon='152.3995477' />
  <node id='-160553' action='modify' visible='true' lat='-28.0625384' lon='152.3995769' />
  <node id='-160554' action='modify' visible='true' lat='-28.0625821' lon='152.399504' />
  <node id='-160555' action='modify' visible='true' lat='-28.0626438' lon='152.3994195' />
  <node id='-160556' action='modify' visible='true' lat='-28.0627107' lon='152.3993874' />
  <node id='-160557' action='modify' visible='true' lat='-28.0627956' lon='152.3993903' />
  <node id='-160558' action='modify' visible='true' lat='-28.0628805' lon='152.3993991' />
  <node id='-160559' action='modify' visible='true' lat='-28.0629936' lon='152.3994399' />
  <node id='-160560' action='modify' visible='true' lat='-28.0630734' lon='152.3994778' />
  <node id='-160561' action='modify' visible='true' lat='-28.063166' lon='152.3995448' />
  <node id='-160562' action='modify' visible='true' lat='-28.0632483' lon='152.3996556' />
  <node id='-160563' action='modify' visible='true' lat='-28.0633229' lon='152.3997809' />
  <node id='-160564' action='modify' visible='true' lat='-28.0634721' lon='152.3998305' />
  <node id='-160565' action='modify' visible='true' lat='-28.063629' lon='152.3998888' />
  <way id='-160320' action='modify' visible='true'>
    <nd ref='-160321' />
    <nd ref='-160322' />
    <nd ref='-160323' />
    <nd ref='-160324' />
    <nd ref='-160325' />
    <nd ref='-160326' />
    <nd ref='-160327' />
    <nd ref='-160328' />
    <nd ref='-160329' />
    <nd ref='-160330' />
    <nd ref='-160331' />
    <nd ref='-160332' />
    <nd ref='-160333' />
    <nd ref='-160334' />
    <nd ref='-160335' />
    <nd ref='-160336' />
    <nd ref='-160337' />
    <nd ref='-160338' />
    <nd ref='-160339' />
    <nd ref='-160340' />
    <nd ref='-160341' />
    <nd ref='-160342' />
    <nd ref='-160343' />
    <nd ref='-160344' />
    <nd ref='-160345' />
    <nd ref='-160346' />
    <nd ref='-160347' />
    <nd ref='-160348' />
    <nd ref='-160349' />
    <nd ref='-160350' />
    <nd ref='-160351' />
    <nd ref='-160352' />
    <nd ref='-160353' />
    <nd ref='-160354' />
    <nd ref='-160355' />
    <nd ref='-160356' />
    <nd ref='-160357' />
    <nd ref='-160358' />
    <nd ref='-160359' />
    <nd ref='-160360' />
    <nd ref='-160361' />
    <nd ref='-160362' />
    <nd ref='-160363' />
    <nd ref='-160364' />
    <nd ref='-160365' />
    <nd ref='-160366' />
    <nd ref='-160367' />
    <nd ref='-160368' />
    <nd ref='-160369' />
    <nd ref='-160370' />
    <nd ref='-160371' />
    <nd ref='-160372' />
    <nd ref='-160373' />
    <nd ref='-160374' />
    <nd ref='-160375' />
    <nd ref='-160376' />
    <nd ref='-160377' />
    <nd ref='-160378' />
    <nd ref='-160379' />
    <nd ref='-160380' />
    <nd ref='-160381' />
    <nd ref='-160382' />
    <nd ref='-160383' />
    <nd ref='-160384' />
    <nd ref='-160385' />
    <nd ref='-160386' />
    <nd ref='-160387' />
    <nd ref='-160388' />
    <nd ref='-160389' />
    <nd ref='-160390' />
    <nd ref='-160391' />
    <nd ref='-160392' />
    <nd ref='-160393' />
    <nd ref='-160394' />
    <nd ref='-160395' />
    <nd ref='-160396' />
    <nd ref='-160397' />
    <nd ref='-160398' />
    <nd ref='-160399' />
    <nd ref='-160400' />
    <nd ref='-160401' />
    <nd ref='-160402' />
    <nd ref='-160403' />
    <nd ref='-160404' />
    <nd ref='-160405' />
    <nd ref='-160406' />
    <nd ref='-160407' />
    <nd ref='-160408' />
    <nd ref='-160409' />
    <nd ref='-160410' />
    <nd ref='-160411' />
    <nd ref='-160412' />
    <nd ref='-160413' />
    <nd ref='-160414' />
    <nd ref='-160415' />
    <nd ref='-160416' />
    <nd ref='-160417' />
    <nd ref='-160418' />
    <nd ref='-160419' />
    <nd ref='-160420' />
    <nd ref='-160421' />
    <nd ref='-160422' />
    <nd ref='-160423' />
    <nd ref='-160424' />
    <nd ref='-160425' />
    <nd ref='-160426' />
    <nd ref='-160427' />
    <nd ref='-160428' />
    <nd ref='-160429' />
    <nd ref='-160430' />
    <nd ref='-160431' />
    <nd ref='-160432' />
    <nd ref='-160433' />
    <nd ref='-160434' />
    <nd ref='-160435' />
    <nd ref='-160436' />
    <nd ref='-160437' />
    <nd ref='-160438' />
    <nd ref='-160439' />
    <nd ref='-160440' />
    <nd ref='-160441' />
    <nd ref='-160442' />
    <nd ref='-160443' />
    <nd ref='-160444' />
    <nd ref='-160445' />
    <nd ref='-160446' />
    <nd ref='-160447' />
    <nd ref='-160448' />
    <nd ref='-160449' />
    <nd ref='-160450' />
    <nd ref='-160451' />
    <nd ref='-160452' />
    <nd ref='-160453' />
    <nd ref='-160454' />
    <nd ref='-160455' />
    <nd ref='-160456' />
    <nd ref='-160457' />
    <nd ref='-160458' />
    <nd ref='-160459' />
    <nd ref='-160460' />
    <nd ref='-160461' />
    <nd ref='-160462' />
    <nd ref='-160463' />
    <nd ref='-160464' />
    <nd ref='-160465' />
    <nd ref='-160466' />
    <nd ref='-160467' />
    <nd ref='-160468' />
    <nd ref='-160469' />
    <nd ref='-160470' />
    <nd ref='-160471' />
    <nd ref='-160472' />
    <nd ref='-160473' />
    <nd ref='-160474' />
    <nd ref='-160475' />
    <nd ref='-160476' />
    <nd ref='-160477' />
    <nd ref='-160478' />
    <nd ref='-160479' />
    <nd ref='-160480' />
    <nd ref='-160481' />
    <nd ref='-160482' />
    <nd ref='-160483' />
    <nd ref='-160484' />
    <nd ref='-160485' />
    <nd ref='-160486' />
    <nd ref='-160487' />
    <nd ref='-160488' />
    <nd ref='-160489' />
    <nd ref='-160490' />
    <nd ref='-160491' />
    <nd ref='-160492' />
    <nd ref='-160493' />
    <nd ref='-160494' />
    <nd ref='-160495' />
    <nd ref='-160496' />
    <nd ref='-160497' />
    <nd ref='-160498' />
    <nd ref='-160499' />
    <nd ref='-160500' />
    <nd ref='-160501' />
    <nd ref='-160502' />
    <nd ref='-160503' />
    <nd ref='-160504' />
    <nd ref='-160505' />
    <nd ref='-160506' />
    <nd ref='-160507' />
    <nd ref='-160508' />
    <nd ref='-160509' />
    <nd ref='-160510' />
    <nd ref='-160511' />
    <nd ref='-160512' />
    <nd ref='-160513' />
    <nd ref='-160514' />
    <nd ref='-160515' />
    <nd ref='-160516' />
    <nd ref='-160517' />
    <nd ref='-160518' />
    <nd ref='-160519' />
    <nd ref='-160520' />
    <nd ref='-160521' />
    <nd ref='-160522' />
    <nd ref='-160523' />
    <nd ref='-160524' />
    <nd ref='-160525' />
    <nd ref='-160526' />
    <nd ref='-160527' />
    <nd ref='-160528' />
    <nd ref='-160529' />
    <nd ref='-160530' />
    <nd ref='-160531' />
    <nd ref='-160532' />
    <nd ref='-160533' />
    <nd ref='-160534' />
    <nd ref='-160535' />
    <nd ref='-160536' />
    <nd ref='-160537' />
    <nd ref='-160538' />
    <nd ref='-160539' />
    <nd ref='-160540' />
    <nd ref='-160541' />
    <nd ref='-160542' />
    <nd ref='-160543' />
    <nd ref='-160544' />
    <nd ref='-160545' />
    <nd ref='-160546' />
    <nd ref='-160547' />
    <nd ref='-160548' />
    <nd ref='-160549' />
    <nd ref='-160550' />
    <nd ref='-160551' />
    <nd ref='-160552' />
    <nd ref='-160553' />
    <nd ref='-160554' />
    <nd ref='-160555' />
    <nd ref='-160556' />
    <nd ref='-160557' />
    <nd ref='-160558' />
    <nd ref='-160559' />
    <nd ref='-160560' />
    <nd ref='-160561' />
    <nd ref='-160562' />
    <nd ref='-160563' />
    <nd ref='-160564' />
    <nd ref='-160565' />
    <tag k='name' v='Mount Mitchell' />
    <tag k='park' v='Main Range National Park' />
    <tag k='role' v='primary' />
    <tag k='style' v='return' />
    <tag k='transport' v='car' />
  </way>
</osm>
