<?xml version='1.0' encoding='UTF-8'?>
<osm version='0.6' upload='false' generator='JOSM'>
  <node id='-163231' action='modify' visible='true' lat='-20.9245647' lon='149.0479426' />
  <node id='-163232' action='modify' visible='true' lat='-20.92454' lon='149.048128' />
  <node id='-163233' action='modify' visible='true' lat='-20.92452' lon='149.048218' />
  <node id='-163234' action='modify' visible='true' lat='-20.924455' lon='149.048296' />
  <node id='-163235' action='modify' visible='true' lat='-20.924468' lon='149.048397' />
  <node id='-163236' action='modify' visible='true' lat='-20.92455' lon='149.048459' />
  <node id='-163237' action='modify' visible='true' lat='-20.924607' lon='149.048546' />
  <node id='-163238' action='modify' visible='true' lat='-20.924676' lon='149.048618' />
  <node id='-163239' action='modify' visible='true' lat='-20.924699' lon='149.048724' />
  <node id='-163240' action='modify' visible='true' lat='-20.924738' lon='149.048825' />
  <node id='-163241' action='modify' visible='true' lat='-20.924753' lon='149.048881' />
  <node id='-163242' action='modify' visible='true' lat='-20.924787' lon='149.048969' />
  <node id='-163243' action='modify' visible='true' lat='-20.924857' lon='149.049042' />
  <node id='-163244' action='modify' visible='true' lat='-20.924945' lon='149.049103' />
  <node id='-163245' action='modify' visible='true' lat='-20.924993' lon='149.049197' />
  <node id='-163246' action='modify' visible='true' lat='-20.925052' lon='149.049278' />
  <node id='-163247' action='modify' visible='true' lat='-20.925126' lon='149.049337' />
  <node id='-163248' action='modify' visible='true' lat='-20.925156' lon='149.049425' />
  <node id='-163249' action='modify' visible='true' lat='-20.925215' lon='149.049505' />
  <node id='-163250' action='modify' visible='true' lat='-20.925222' lon='149.049564' />
  <node id='-163251' action='modify' visible='true' lat='-20.925229' lon='149.049622' />
  <node id='-163252' action='modify' visible='true' lat='-20.925264' lon='149.049726' />
  <node id='-163253' action='modify' visible='true' lat='-20.925338' lon='149.0498' />
  <node id='-163254' action='modify' visible='true' lat='-20.925387' lon='149.049888' />
  <node id='-163255' action='modify' visible='true' lat='-20.925435' lon='149.049984' />
  <node id='-163256' action='modify' visible='true' lat='-20.925487' lon='149.050076' />
  <node id='-163257' action='modify' visible='true' lat='-20.925566' lon='149.050145' />
  <node id='-163258' action='modify' visible='true' lat='-20.92561' lon='149.050241' />
  <node id='-163259' action='modify' visible='true' lat='-20.925617' lon='149.050304' />
  <node id='-163260' action='modify' visible='true' lat='-20.925645' lon='149.050403' />
  <node id='-163261' action='modify' visible='true' lat='-20.925692' lon='149.050441' />
  <node id='-163262' action='modify' visible='true' lat='-20.925777' lon='149.050478' />
  <node id='-163263' action='modify' visible='true' lat='-20.92586' lon='149.050529' />
  <node id='-163264' action='modify' visible='true' lat='-20.925931' lon='149.050579' />
  <node id='-163265' action='modify' visible='true' lat='-20.925916' lon='149.05068' />
  <node id='-163266' action='modify' visible='true' lat='-20.9259' lon='149.05078' />
  <node id='-163267' action='modify' visible='true' lat='-20.925877' lon='149.050868' />
  <node id='-163268' action='modify' visible='true' lat='-20.925837' lon='149.050944' />
  <node id='-163269' action='modify' visible='true' lat='-20.925873' lon='149.051038' />
  <node id='-163270' action='modify' visible='true' lat='-20.925871' lon='149.051151' />
  <node id='-163271' action='modify' visible='true' lat='-20.925874' lon='149.051253' />
  <node id='-163272' action='modify' visible='true' lat='-20.925869' lon='149.051351' />
  <node id='-163273' action='modify' visible='true' lat='-20.925954' lon='149.051392' />
  <node id='-163274' action='modify' visible='true' lat='-20.925974' lon='149.051314' />
  <node id='-163275' action='modify' visible='true' lat='-20.92603' lon='149.051239' />
  <node id='-163276' action='modify' visible='true' lat='-20.926105' lon='149.05117' />
  <node id='-163277' action='modify' visible='true' lat='-20.926181' lon='149.05113' />
  <node id='-163278' action='modify' visible='true' lat='-20.926279' lon='149.051109' />
  <node id='-163279' action='modify' visible='true' lat='-20.92627' lon='149.051212' />
  <node id='-163280' action='modify' visible='true' lat='-20.926315' lon='149.051287' />
  <node id='-163281' action='modify' visible='true' lat='-20.926411' lon='149.05129' />
  <node id='-163282' action='modify' visible='true' lat='-20.926499' lon='149.051338' />
  <node id='-163283' action='modify' visible='true' lat='-20.926557' lon='149.051401' />
  <node id='-163284' action='modify' visible='true' lat='-20.926511' lon='149.05148' />
  <node id='-163285' action='modify' visible='true' lat='-20.926492' lon='149.051579' />
  <node id='-163286' action='modify' visible='true' lat='-20.926473' lon='149.051676' />
  <node id='-163287' action='modify' visible='true' lat='-20.926521' lon='149.051763' />
  <node id='-163288' action='modify' visible='true' lat='-20.926606' lon='149.051796' />
  <node id='-163289' action='modify' visible='true' lat='-20.926699' lon='149.051788' />
  <node id='-163290' action='modify' visible='true' lat='-20.926797' lon='149.051776' />
  <node id='-163291' action='modify' visible='true' lat='-20.926889' lon='149.051745' />
  <node id='-163292' action='modify' visible='true' lat='-20.927016' lon='149.051718' />
  <node id='-163293' action='modify' visible='true' lat='-20.927086' lon='149.05168' />
  <node id='-163294' action='modify' visible='true' lat='-20.927159' lon='149.051732' />
  <node id='-163295' action='modify' visible='true' lat='-20.927252' lon='149.051755' />
  <node id='-163296' action='modify' visible='true' lat='-20.927307' lon='149.05176' />
  <node id='-163297' action='modify' visible='true' lat='-20.927416' lon='149.051798' />
  <node id='-163298' action='modify' visible='true' lat='-20.92751' lon='149.0518' />
  <node id='-163299' action='modify' visible='true' lat='-20.927562' lon='149.051708' />
  <node id='-163300' action='modify' visible='true' lat='-20.927624' lon='149.051628' />
  <node id='-163301' action='modify' visible='true' lat='-20.927672' lon='149.051544' />
  <node id='-163302' action='modify' visible='true' lat='-20.927715' lon='149.051598' />
  <node id='-163303' action='modify' visible='true' lat='-20.927753' lon='149.0517' />
  <node id='-163304' action='modify' visible='true' lat='-20.927801' lon='149.051738' />
  <node id='-163305' action='modify' visible='true' lat='-20.92783' lon='149.051845' />
  <node id='-163306' action='modify' visible='true' lat='-20.927856' lon='149.051955' />
  <node id='-163307' action='modify' visible='true' lat='-20.927906' lon='149.052048' />
  <node id='-163308' action='modify' visible='true' lat='-20.927948' lon='149.05215' />
  <node id='-163309' action='modify' visible='true' lat='-20.927998' lon='149.052239' />
  <node id='-163310' action='modify' visible='true' lat='-20.928067' lon='149.052318' />
  <node id='-163311' action='modify' visible='true' lat='-20.928091' lon='149.052421' />
  <node id='-163312' action='modify' visible='true' lat='-20.928145' lon='149.052516' />
  <node id='-163313' action='modify' visible='true' lat='-20.928197' lon='149.052604' />
  <node id='-163314' action='modify' visible='true' lat='-20.928226' lon='149.052703' />
  <node id='-163315' action='modify' visible='true' lat='-20.928294' lon='149.0528736' />
  <node id='-163316' action='modify' visible='true' lat='-20.9284483' lon='149.0529766' />
  <node id='-163317' action='modify' visible='true' lat='-20.9285458' lon='149.0531997' />
  <node id='-163318' action='modify' visible='true' lat='-20.9286214' lon='149.0534881' />
  <node id='-163319' action='modify' visible='true' lat='-20.9286029' lon='149.053748' />
  <node id='-163320' action='modify' visible='true' lat='-20.9285856' lon='149.0539545' />
  <node id='-163321' action='modify' visible='true' lat='-20.9285841' lon='149.054164' />
  <node id='-163322' action='modify' visible='true' lat='-20.9285971' lon='149.0543177' />
  <node id='-163323' action='modify' visible='true' lat='-20.9285217' lon='149.0544274' />
  <node id='-163324' action='modify' visible='true' lat='-20.9284664' lon='149.0545481' />
  <node id='-163325' action='modify' visible='true' lat='-20.9285901' lon='149.0546497' />
  <node id='-163326' action='modify' visible='true' lat='-20.9286415' lon='149.0547691' />
  <node id='-163327' action='modify' visible='true' lat='-20.9285984' lon='149.0549391' />
  <node id='-163328' action='modify' visible='true' lat='-20.9285415' lon='149.0551521' />
  <node id='-163329' action='modify' visible='true' lat='-20.9285053' lon='149.0553639' />
  <node id='-163330' action='modify' visible='true' lat='-20.9285273' lon='149.0555727' />
  <node id='-163331' action='modify' visible='true' lat='-20.9284679' lon='149.0558036' />
  <node id='-163332' action='modify' visible='true' lat='-20.9284271' lon='149.0560192' />
  <node id='-163333' action='modify' visible='true' lat='-20.9284401' lon='149.0562328' />
  <node id='-163334' action='modify' visible='true' lat='-20.928509' lon='149.056404' />
  <node id='-163335' action='modify' visible='true' lat='-20.928481' lon='149.056504' />
  <node id='-163336' action='modify' visible='true' lat='-20.928473' lon='149.056615' />
  <node id='-163337' action='modify' visible='true' lat='-20.928487' lon='149.056726' />
  <node id='-163338' action='modify' visible='true' lat='-20.928503' lon='149.056783' />
  <node id='-163339' action='modify' visible='true' lat='-20.92849' lon='149.056841' />
  <node id='-163340' action='modify' visible='true' lat='-20.928501' lon='149.056949' />
  <node id='-163341' action='modify' visible='true' lat='-20.928499' lon='149.057055' />
  <node id='-163342' action='modify' visible='true' lat='-20.92852' lon='149.057162' />
  <node id='-163343' action='modify' visible='true' lat='-20.928503' lon='149.057263' />
  <node id='-163344' action='modify' visible='true' lat='-20.928459' lon='149.057322' />
  <node id='-163345' action='modify' visible='true' lat='-20.928419' lon='149.057364' />
  <node id='-163346' action='modify' visible='true' lat='-20.928366' lon='149.057385' />
  <node id='-163347' action='modify' visible='true' lat='-20.928328' lon='149.057479' />
  <node id='-163348' action='modify' visible='true' lat='-20.928308' lon='149.057537' />
  <node id='-163349' action='modify' visible='true' lat='-20.928303' lon='149.057596' />
  <node id='-163350' action='modify' visible='true' lat='-20.928284' lon='149.05771' />
  <node id='-163351' action='modify' visible='true' lat='-20.928216' lon='149.0577' />
  <node id='-163352' action='modify' visible='true' lat='-20.928214' lon='149.057642' />
  <node id='-163353' action='modify' visible='true' lat='-20.928201' lon='149.057585' />
  <node id='-163354' action='modify' visible='true' lat='-20.928182' lon='149.057484' />
  <node id='-163355' action='modify' visible='true' lat='-20.928124' lon='149.057457' />
  <node id='-163356' action='modify' visible='true' lat='-20.92807' lon='149.057556' />
  <node id='-163357' action='modify' visible='true' lat='-20.928031' lon='149.05765' />
  <node id='-163358' action='modify' visible='true' lat='-20.928043' lon='149.057711' />
  <node id='-163359' action='modify' visible='true' lat='-20.928046' lon='149.057824' />
  <node id='-163360' action='modify' visible='true' lat='-20.928032' lon='149.057938' />
  <node id='-163361' action='modify' visible='true' lat='-20.928026' lon='149.058005' />
  <node id='-163362' action='modify' visible='true' lat='-20.928044' lon='149.058107' />
  <node id='-163363' action='modify' visible='true' lat='-20.928066' lon='149.058211' />
  <node id='-163364' action='modify' visible='true' lat='-20.928038' lon='149.058317' />
  <node id='-163365' action='modify' visible='true' lat='-20.927997' lon='149.058396' />
  <node id='-163366' action='modify' visible='true' lat='-20.927987' lon='149.058467' />
  <node id='-163367' action='modify' visible='true' lat='-20.927946' lon='149.058455' />
  <node id='-163368' action='modify' visible='true' lat='-20.927906' lon='149.058548' />
  <node id='-163369' action='modify' visible='true' lat='-20.92787' lon='149.058637' />
  <node id='-163370' action='modify' visible='true' lat='-20.927815' lon='149.058659' />
  <node id='-163371' action='modify' visible='true' lat='-20.927741' lon='149.058737' />
  <node id='-163372' action='modify' visible='true' lat='-20.927661' lon='149.058795' />
  <node id='-163373' action='modify' visible='true' lat='-20.927581' lon='149.05886' />
  <node id='-163374' action='modify' visible='true' lat='-20.927559' lon='149.058961' />
  <node id='-163375' action='modify' visible='true' lat='-20.927631' lon='149.059003' />
  <node id='-163376' action='modify' visible='true' lat='-20.927684' lon='149.059023' />
  <node id='-163377' action='modify' visible='true' lat='-20.927799' lon='149.059042' />
  <node id='-163378' action='modify' visible='true' lat='-20.927764' lon='149.059109' />
  <node id='-163379' action='modify' visible='true' lat='-20.927688' lon='149.059176' />
  <node id='-163380' action='modify' visible='true' lat='-20.92761' lon='149.059244' />
  <node id='-163381' action='modify' visible='true' lat='-20.927578' lon='149.059294' />
  <node id='-163382' action='modify' visible='true' lat='-20.927492' lon='149.059343' />
  <node id='-163383' action='modify' visible='true' lat='-20.927468' lon='149.059397' />
  <node id='-163384' action='modify' visible='true' lat='-20.927369' lon='149.059434' />
  <node id='-163385' action='modify' visible='true' lat='-20.927275' lon='149.059458' />
  <node id='-163386' action='modify' visible='true' lat='-20.927204' lon='149.05939' />
  <node id='-163387' action='modify' visible='true' lat='-20.927113' lon='149.059361' />
  <node id='-163388' action='modify' visible='true' lat='-20.927059' lon='149.059282' />
  <node id='-163389' action='modify' visible='true' lat='-20.927057' lon='149.059223' />
  <node id='-163390' action='modify' visible='true' lat='-20.927039' lon='149.059126' />
  <node id='-163391' action='modify' visible='true' lat='-20.927006' lon='149.059074' />
  <node id='-163392' action='modify' visible='true' lat='-20.926966' lon='149.058975' />
  <node id='-163393' action='modify' visible='true' lat='-20.926966' lon='149.058875' />
  <node id='-163394' action='modify' visible='true' lat='-20.926962' lon='149.058814' />
  <node id='-163395' action='modify' visible='true' lat='-20.926977' lon='149.05871' />
  <node id='-163396' action='modify' visible='true' lat='-20.927023' lon='149.058615' />
  <node id='-163397' action='modify' visible='true' lat='-20.927035' lon='149.058511' />
  <node id='-163398' action='modify' visible='true' lat='-20.927068' lon='149.058413' />
  <node id='-163399' action='modify' visible='true' lat='-20.927089' lon='149.058316' />
  <node id='-163400' action='modify' visible='true' lat='-20.926998' lon='149.05827' />
  <node id='-163401' action='modify' visible='true' lat='-20.926903' lon='149.058178' />
  <node id='-163402' action='modify' visible='true' lat='-20.926867' lon='149.058131' />
  <node id='-163403' action='modify' visible='true' lat='-20.926829' lon='149.058024' />
  <node id='-163404' action='modify' visible='true' lat='-20.926796' lon='149.05796' />
  <node id='-163405' action='modify' visible='true' lat='-20.926803' lon='149.057861' />
  <node id='-163406' action='modify' visible='true' lat='-20.926765' lon='149.057816' />
  <node id='-163407' action='modify' visible='true' lat='-20.926721' lon='149.057721' />
  <node id='-163408' action='modify' visible='true' lat='-20.926674' lon='149.057636' />
  <node id='-163409' action='modify' visible='true' lat='-20.92661' lon='149.057534' />
  <node id='-163410' action='modify' visible='true' lat='-20.926589' lon='149.057442' />
  <node id='-163411' action='modify' visible='true' lat='-20.926554' lon='149.057342' />
  <node id='-163412' action='modify' visible='true' lat='-20.926512' lon='149.05725' />
  <node id='-163413' action='modify' visible='true' lat='-20.926481' lon='149.057146' />
  <node id='-163414' action='modify' visible='true' lat='-20.926465' lon='149.057089' />
  <node id='-163415' action='modify' visible='true' lat='-20.926428' lon='149.056984' />
  <node id='-163416' action='modify' visible='true' lat='-20.926359' lon='149.056931' />
  <node id='-163417' action='modify' visible='true' lat='-20.926337' lon='149.057028' />
  <node id='-163418' action='modify' visible='true' lat='-20.926286' lon='149.057111' />
  <node id='-163419' action='modify' visible='true' lat='-20.926251' lon='149.057056' />
  <node id='-163420' action='modify' visible='true' lat='-20.926244' lon='149.056956' />
  <node id='-163421' action='modify' visible='true' lat='-20.926212' lon='149.056865' />
  <node id='-163422' action='modify' visible='true' lat='-20.926178' lon='149.056764' />
  <node id='-163423' action='modify' visible='true' lat='-20.926187' lon='149.056665' />
  <node id='-163424' action='modify' visible='true' lat='-20.926144' lon='149.056619' />
  <node id='-163425' action='modify' visible='true' lat='-20.926114' lon='149.05652' />
  <node id='-163426' action='modify' visible='true' lat='-20.926072' lon='149.056589' />
  <node id='-163427' action='modify' visible='true' lat='-20.926056' lon='149.056658' />
  <node id='-163428' action='modify' visible='true' lat='-20.926033' lon='149.056758' />
  <node id='-163429' action='modify' visible='true' lat='-20.92596' lon='149.0568' />
  <node id='-163430' action='modify' visible='true' lat='-20.925909' lon='149.056896' />
  <node id='-163431' action='modify' visible='true' lat='-20.925816' lon='149.056893' />
  <node id='-163434' action='modify' visible='true' lat='-20.92590365693' lon='149.05624508321' />
  <node id='-163436' action='modify' visible='true' lat='-20.9259537629' lon='149.05516147077' />
  <node id='-163438' action='modify' visible='true' lat='-20.92608904893' lon='149.05450701177' />
  <node id='-163440' action='modify' visible='true' lat='-20.92613915483' lon='149.05379354417' />
  <node id='-163442' action='modify' visible='true' lat='-20.92573329651' lon='149.05267774522' />
  <node id='-163444' action='modify' visible='true' lat='-20.92556794651' lon='149.05151366651' />
  <node id='-163446' action='modify' visible='true' lat='-20.92510195917' lon='149.05019938409' />
  <node id='-163448' action='modify' visible='true' lat='-20.92416496947' lon='149.04867588937' />
  <node id='-163465' action='modify' visible='true' lat='-20.92453951927' lon='149.04792353377' />
  <way id='-163230' action='modify' visible='true'>
    <nd ref='-163231' />
    <nd ref='-163232' />
    <nd ref='-163233' />
    <nd ref='-163234' />
    <nd ref='-163235' />
    <nd ref='-163236' />
    <nd ref='-163237' />
    <nd ref='-163238' />
    <nd ref='-163239' />
    <nd ref='-163240' />
    <nd ref='-163241' />
    <nd ref='-163242' />
    <nd ref='-163243' />
    <nd ref='-163244' />
    <nd ref='-163245' />
    <nd ref='-163246' />
    <nd ref='-163247' />
    <nd ref='-163248' />
    <nd ref='-163249' />
    <nd ref='-163250' />
    <nd ref='-163251' />
    <nd ref='-163252' />
    <nd ref='-163253' />
    <nd ref='-163254' />
    <nd ref='-163255' />
    <nd ref='-163256' />
    <nd ref='-163257' />
    <nd ref='-163258' />
    <nd ref='-163259' />
    <nd ref='-163260' />
    <nd ref='-163261' />
    <nd ref='-163262' />
    <nd ref='-163263' />
    <nd ref='-163264' />
    <nd ref='-163265' />
    <nd ref='-163266' />
    <nd ref='-163267' />
    <nd ref='-163268' />
    <nd ref='-163269' />
    <nd ref='-163270' />
    <nd ref='-163271' />
    <nd ref='-163272' />
    <nd ref='-163273' />
    <nd ref='-163274' />
    <nd ref='-163275' />
    <nd ref='-163276' />
    <nd ref='-163277' />
    <nd ref='-163278' />
    <nd ref='-163279' />
    <nd ref='-163280' />
    <nd ref='-163281' />
    <nd ref='-163282' />
    <nd ref='-163283' />
    <nd ref='-163284' />
    <nd ref='-163285' />
    <nd ref='-163286' />
    <nd ref='-163287' />
    <nd ref='-163288' />
    <nd ref='-163289' />
    <nd ref='-163290' />
    <nd ref='-163291' />
    <nd ref='-163292' />
    <nd ref='-163293' />
    <nd ref='-163294' />
    <nd ref='-163295' />
    <nd ref='-163296' />
    <nd ref='-163297' />
    <nd ref='-163298' />
    <nd ref='-163299' />
    <nd ref='-163300' />
    <nd ref='-163301' />
    <nd ref='-163302' />
    <nd ref='-163303' />
    <nd ref='-163304' />
    <nd ref='-163305' />
    <nd ref='-163306' />
    <nd ref='-163307' />
    <nd ref='-163308' />
    <nd ref='-163309' />
    <nd ref='-163310' />
    <nd ref='-163311' />
    <nd ref='-163312' />
    <nd ref='-163313' />
    <nd ref='-163314' />
    <nd ref='-163315' />
    <nd ref='-163316' />
    <nd ref='-163317' />
    <nd ref='-163318' />
    <nd ref='-163319' />
    <nd ref='-163320' />
    <nd ref='-163321' />
    <nd ref='-163322' />
    <nd ref='-163323' />
    <nd ref='-163324' />
    <nd ref='-163325' />
    <nd ref='-163326' />
    <nd ref='-163327' />
    <nd ref='-163328' />
    <nd ref='-163329' />
    <nd ref='-163330' />
    <nd ref='-163331' />
    <nd ref='-163332' />
    <nd ref='-163333' />
    <nd ref='-163334' />
    <nd ref='-163335' />
    <nd ref='-163336' />
    <nd ref='-163337' />
    <nd ref='-163338' />
    <nd ref='-163339' />
    <nd ref='-163340' />
    <nd ref='-163341' />
    <nd ref='-163342' />
    <nd ref='-163343' />
    <nd ref='-163344' />
    <nd ref='-163345' />
    <nd ref='-163346' />
    <nd ref='-163347' />
    <nd ref='-163348' />
    <nd ref='-163349' />
    <nd ref='-163350' />
    <nd ref='-163351' />
    <nd ref='-163352' />
    <nd ref='-163353' />
    <nd ref='-163354' />
    <nd ref='-163355' />
    <nd ref='-163356' />
    <nd ref='-163357' />
    <nd ref='-163358' />
    <nd ref='-163359' />
    <nd ref='-163360' />
    <nd ref='-163361' />
    <nd ref='-163362' />
    <nd ref='-163363' />
    <nd ref='-163364' />
    <nd ref='-163365' />
    <nd ref='-163366' />
    <nd ref='-163367' />
    <nd ref='-163368' />
    <nd ref='-163369' />
    <nd ref='-163370' />
    <nd ref='-163371' />
    <nd ref='-163372' />
    <nd ref='-163373' />
    <nd ref='-163374' />
    <nd ref='-163375' />
    <nd ref='-163376' />
    <nd ref='-163377' />
    <nd ref='-163378' />
    <nd ref='-163379' />
    <nd ref='-163380' />
    <nd ref='-163381' />
    <nd ref='-163382' />
    <nd ref='-163383' />
    <nd ref='-163384' />
    <nd ref='-163385' />
    <nd ref='-163386' />
    <nd ref='-163387' />
    <nd ref='-163388' />
    <nd ref='-163389' />
    <nd ref='-163390' />
    <nd ref='-163391' />
    <nd ref='-163392' />
    <nd ref='-163393' />
    <nd ref='-163394' />
    <nd ref='-163395' />
    <nd ref='-163396' />
    <nd ref='-163397' />
    <nd ref='-163398' />
    <nd ref='-163399' />
    <nd ref='-163400' />
    <nd ref='-163401' />
    <nd ref='-163402' />
    <nd ref='-163403' />
    <nd ref='-163404' />
    <nd ref='-163405' />
    <nd ref='-163406' />
    <nd ref='-163407' />
    <nd ref='-163408' />
    <nd ref='-163409' />
    <nd ref='-163410' />
    <nd ref='-163411' />
    <nd ref='-163412' />
    <nd ref='-163413' />
    <nd ref='-163414' />
    <nd ref='-163415' />
    <nd ref='-163416' />
    <nd ref='-163417' />
    <nd ref='-163418' />
    <nd ref='-163419' />
    <nd ref='-163420' />
    <nd ref='-163421' />
    <nd ref='-163422' />
    <nd ref='-163423' />
    <nd ref='-163424' />
    <nd ref='-163425' />
    <nd ref='-163426' />
    <nd ref='-163427' />
    <nd ref='-163428' />
    <nd ref='-163429' />
    <nd ref='-163430' />
    <nd ref='-163431' />
    <nd ref='-163434' />
    <nd ref='-163436' />
    <nd ref='-163438' />
    <nd ref='-163440' />
    <nd ref='-163442' />
    <nd ref='-163444' />
    <nd ref='-163446' />
    <nd ref='-163448' />
    <nd ref='-163465' />
    <tag k='name' v='Andrews Point' />
    <tag k='park' v='Cape Hillsborough National Park' />
    <tag k='role' v='primary' />
    <tag k='style' v='loop' />
    <tag k='transport' v='car' />
  </way>
</osm>
