<?xml version='1.0' encoding='UTF-8'?>
<osm version='0.6' upload='false' generator='JOSM'>
  <node id='-115398' action='modify' visible='true' lat='-32.8372412' lon='150.2117023' />
  <node id='-115399' action='modify' visible='true' lat='-32.8370304' lon='150.2114855' />
  <node id='-115400' action='modify' visible='true' lat='-32.8369727' lon='150.2112757' />
  <node id='-115401' action='modify' visible='true' lat='-32.8370144' lon='150.2111376' />
  <node id='-115402' action='modify' visible='true' lat='-32.8369072' lon='150.2109449' />
  <node id='-115403' action='modify' visible='true' lat='-32.8366707' lon='150.2107108' />
  <node id='-115404' action='modify' visible='true' lat='-32.8360073' lon='150.2105028' />
  <node id='-115405' action='modify' visible='true' lat='-32.8358702' lon='150.210399' />
  <node id='-115406' action='modify' visible='true' lat='-32.8354514' lon='150.2103367' />
  <node id='-115407' action='modify' visible='true' lat='-32.8352345' lon='150.2102209' />
  <node id='-115408' action='modify' visible='true' lat='-32.8350222' lon='150.2101852' />
  <node id='-115409' action='modify' visible='true' lat='-32.8347833' lon='150.2099602' />
  <node id='-115410' action='modify' visible='true' lat='-32.8347107' lon='150.2094325' />
  <node id='-115411' action='modify' visible='true' lat='-32.8345639' lon='150.2092359' />
  <node id='-115412' action='modify' visible='true' lat='-32.8343795' lon='150.2090668' />
  <node id='-115413' action='modify' visible='true' lat='-32.8341907' lon='150.208737' />
  <node id='-115414' action='modify' visible='true' lat='-32.834137' lon='150.2086063' />
  <node id='-115415' action='modify' visible='true' lat='-32.8341168' lon='150.2084524' />
  <node id='-115416' action='modify' visible='true' lat='-32.8341463' lon='150.2083296' />
  <node id='-115417' action='modify' visible='true' lat='-32.8344914' lon='150.2047681' />
  <node id='-115418' action='modify' visible='true' lat='-32.8344928' lon='150.2046643' />
  <node id='-115419' action='modify' visible='true' lat='-32.8348567' lon='150.2043717' />
  <node id='-115420' action='modify' visible='true' lat='-32.8349919' lon='150.2040454' />
  <node id='-115421' action='modify' visible='true' lat='-32.8351572' lon='150.2039292' />
  <node id='-115422' action='modify' visible='true' lat='-32.835191' lon='150.2037378' />
  <node id='-115423' action='modify' visible='true' lat='-32.8353863' lon='150.2036431' />
  <node id='-115424' action='modify' visible='true' lat='-32.8355826' lon='150.2036522' />
  <node id='-115425' action='modify' visible='true' lat='-32.8356518' lon='150.2035921' />
  <node id='-115426' action='modify' visible='true' lat='-32.8356845' lon='150.2034692' />
  <node id='-115427' action='modify' visible='true' lat='-32.8356417' lon='150.2031424' />
  <node id='-115428' action='modify' visible='true' lat='-32.8354295' lon='150.2026675' />
  <node id='-115429' action='modify' visible='true' lat='-32.8353932' lon='150.2021393' />
  <node id='-115430' action='modify' visible='true' lat='-32.8351388' lon='150.2016264' />
  <node id='-115431' action='modify' visible='true' lat='-32.8351439' lon='150.2015092' />
  <node id='-115432' action='modify' visible='true' lat='-32.8353488' lon='150.2012176' />
  <node id='-115433' action='modify' visible='true' lat='-32.8356372' lon='150.2010827' />
  <node id='-115434' action='modify' visible='true' lat='-32.8357384' lon='150.2010951' />
  <node id='-115435' action='modify' visible='true' lat='-32.8359012' lon='150.2010578' />
  <node id='-115436' action='modify' visible='true' lat='-32.8359289' lon='150.2010514' />
  <node id='-115437' action='modify' visible='true' lat='-32.8359487' lon='150.2009437' />
  <node id='-115438' action='modify' visible='true' lat='-32.8358941' lon='150.2007243' />
  <node id='-115439' action='modify' visible='true' lat='-32.8357644' lon='150.2003783' />
  <node id='-115440' action='modify' visible='true' lat='-32.8355267' lon='150.1995195' />
  <node id='-115441' action='modify' visible='true' lat='-32.8355204' lon='150.1993774' />
  <node id='-115442' action='modify' visible='true' lat='-32.8355723' lon='150.1991797' />
  <node id='-115443' action='modify' visible='true' lat='-32.8355848' lon='150.1989783' />
  <node id='-115444' action='modify' visible='true' lat='-32.8355065' lon='150.1987576' />
  <node id='-115445' action='modify' visible='true' lat='-32.8353101' lon='150.198741' />
  <node id='-115446' action='modify' visible='true' lat='-32.8351872' lon='150.1986692' />
  <node id='-115447' action='modify' visible='true' lat='-32.835105' lon='150.1985742' />
  <node id='-115448' action='modify' visible='true' lat='-32.8349649' lon='150.1984351' />
  <node id='-115449' action='modify' visible='true' lat='-32.8347131' lon='150.1982961' />
  <node id='-115450' action='modify' visible='true' lat='-32.8342614' lon='150.1979439' />
  <node id='-115451' action='modify' visible='true' lat='-32.834068' lon='150.197899' />
  <node id='-115458' action='modify' visible='true' lat='-32.8293793' lon='150.1983055' />
  <node id='-115459' action='modify' visible='true' lat='-32.8380616' lon='150.2089612' />
  <node id='-115460' action='modify' visible='true' lat='-32.8382028' lon='150.2090624' />
  <node id='-115461' action='modify' visible='true' lat='-32.8391488' lon='150.2100725' />
  <node id='-115462' action='modify' visible='true' lat='-32.8391757' lon='150.2101805' />
  <node id='-115463' action='modify' visible='true' lat='-32.8391787' lon='150.2104558' />
  <node id='-115464' action='modify' visible='true' lat='-32.8391657' lon='150.2105384' />
  <node id='-115465' action='modify' visible='true' lat='-32.8391049' lon='150.210595' />
  <node id='-115466' action='modify' visible='true' lat='-32.8390236' lon='150.2105829' />
  <node id='-115467' action='modify' visible='true' lat='-32.8389388' lon='150.2105443' />
  <node id='-115468' action='modify' visible='true' lat='-32.8387911' lon='150.2105378' />
  <node id='-115469' action='modify' visible='true' lat='-32.8386995' lon='150.2105621' />
  <node id='-115470' action='modify' visible='true' lat='-32.838398' lon='150.2108709' />
  <node id='-115471' action='modify' visible='true' lat='-32.8382522' lon='150.2111284' />
  <node id='-115472' action='modify' visible='true' lat='-32.8381395' lon='150.2113314' />
  <node id='-115473' action='modify' visible='true' lat='-32.8378644' lon='150.2114788' />
  <node id='-115474' action='modify' visible='true' lat='-32.8375534' lon='150.2115475' />
  <node id='-115475' action='modify' visible='true' lat='-32.8371174' lon='150.2118505' />
  <node id='-115476' action='modify' visible='true' lat='-32.8370393' lon='150.2120782' />
  <node id='-115477' action='modify' visible='true' lat='-32.83682' lon='150.2124303' />
  <node id='-115478' action='modify' visible='true' lat='-32.8365771' lon='150.2125207' />
  <node id='-115479' action='modify' visible='true' lat='-32.8363756' lon='150.2128049' />
  <node id='-115480' action='modify' visible='true' lat='-32.8364059' lon='150.2130376' />
  <node id='-115481' action='modify' visible='true' lat='-32.8366064' lon='150.213403' />
  <node id='-115482' action='modify' visible='true' lat='-32.8370069' lon='150.2136272' />
  <node id='-115483' action='modify' visible='true' lat='-32.8372555' lon='150.2137118' />
  <node id='-115484' action='modify' visible='true' lat='-32.8373998' lon='150.2140073' />
  <node id='-115485' action='modify' visible='true' lat='-32.8374398' lon='150.2142532' />
  <node id='-115486' action='modify' visible='true' lat='-32.8375504' lon='150.2145623' />
  <node id='-115487' action='modify' visible='true' lat='-32.8376893' lon='150.2149504' />
  <node id='-115488' action='modify' visible='true' lat='-32.8377928' lon='150.2151461' />
  <node id='-115489' action='modify' visible='true' lat='-32.8379473' lon='150.2152947' />
  <node id='-115490' action='modify' visible='true' lat='-32.8379963' lon='150.215394' />
  <node id='-115491' action='modify' visible='true' lat='-32.8380012' lon='150.2156027' />
  <node id='-115492' action='modify' visible='true' lat='-32.8381135' lon='150.215934' />
  <node id='-115493' action='modify' visible='true' lat='-32.8381572' lon='150.2162061' />
  <node id='-115494' action='modify' visible='true' lat='-32.8382998' lon='150.2165978' />
  <node id='-115495' action='modify' visible='true' lat='-32.8383324' lon='150.2169469' />
  <node id='-115496' action='modify' visible='true' lat='-32.8384784' lon='150.2176519' />
  <node id='-115497' action='modify' visible='true' lat='-32.8386927' lon='150.2180249' />
  <node id='-115498' action='modify' visible='true' lat='-32.8387939' lon='150.2184218' />
  <node id='-115499' action='modify' visible='true' lat='-32.8389976' lon='150.2187189' />
  <node id='-115500' action='modify' visible='true' lat='-32.8390197' lon='150.219023' />
  <node id='-115501' action='modify' visible='true' lat='-32.8391096' lon='150.2191961' />
  <node id='-115502' action='modify' visible='true' lat='-32.8392801' lon='150.2193044' />
  <node id='-115503' action='modify' visible='true' lat='-32.8394993' lon='150.2193294' />
  <node id='-115504' action='modify' visible='true' lat='-32.8396709' lon='150.2194123' />
  <node id='-115505' action='modify' visible='true' lat='-32.8397088' lon='150.2194765' />
  <node id='-115506' action='modify' visible='true' lat='-32.8397899' lon='150.2204363' />
  <node id='-115507' action='modify' visible='true' lat='-32.8398591' lon='150.2206658' />
  <node id='-115508' action='modify' visible='true' lat='-32.8398579' lon='150.2209013' />
  <node id='-115509' action='modify' visible='true' lat='-32.8399033' lon='150.2210637' />
  <node id='-115510' action='modify' visible='true' lat='-32.8399007' lon='150.2212918' />
  <node id='-115511' action='modify' visible='true' lat='-32.8398026' lon='150.2215379' />
  <node id='-115512' action='modify' visible='true' lat='-32.8397188' lon='150.2219004' />
  <node id='-115513' action='modify' visible='true' lat='-32.839655' lon='150.2220568' />
  <node id='-115514' action='modify' visible='true' lat='-32.8395899' lon='150.2224669' />
  <node id='-115515' action='modify' visible='true' lat='-32.8395228' lon='150.2225035' />
  <node id='-115516' action='modify' visible='true' lat='-32.8393026' lon='150.2224473' />
  <node id='-115517' action='modify' visible='true' lat='-32.8390738' lon='150.2224957' />
  <node id='-115518' action='modify' visible='true' lat='-32.8390482' lon='150.2226338' />
  <node id='-115519' action='modify' visible='true' lat='-32.8390779' lon='150.2227102' />
  <node id='-115520' action='modify' visible='true' lat='-32.8390965' lon='150.2227848' />
  <node id='-115525' action='modify' visible='true' lat='-32.8294289' lon='150.1982358' />
  <node id='-115526' action='modify' visible='true' lat='-32.8351028' lon='150.1982857' />
  <node id='-115527' action='modify' visible='true' lat='-32.8351474' lon='150.1981754' />
  <node id='-115528' action='modify' visible='true' lat='-32.8352056' lon='150.1979529' />
  <node id='-115529' action='modify' visible='true' lat='-32.8352205' lon='150.1977897' />
  <node id='-115530' action='modify' visible='true' lat='-32.8352582' lon='150.1976431' />
  <node id='-115531' action='modify' visible='true' lat='-32.835276' lon='150.1973797' />
  <node id='-115532' action='modify' visible='true' lat='-32.8354316' lon='150.1971876' />
  <node id='-115533' action='modify' visible='true' lat='-32.8354399' lon='150.1970493' />
  <node id='-115534' action='modify' visible='true' lat='-32.8354171' lon='150.1970325' />
  <node id='-115535' action='modify' visible='true' lat='-32.835385' lon='150.1970612' />
  <node id='-115536' action='modify' visible='true' lat='-32.8287437' lon='150.1981982' />
  <node id='-115551' action='modify' visible='true' lat='-32.8299112' lon='150.1976189' />
  <node id='-115552' action='modify' visible='true' lat='-32.8339499' lon='150.1977905' />
  <node id='-115553' action='modify' visible='true' lat='-32.833702' lon='150.1973721' />
  <node id='-115554' action='modify' visible='true' lat='-32.8335488' lon='150.197179' />
  <node id='-115555' action='modify' visible='true' lat='-32.8332017' lon='150.1968893' />
  <node id='-115556' action='modify' visible='true' lat='-32.8328005' lon='150.1968088' />
  <node id='-115557' action='modify' visible='true' lat='-32.832494' lon='150.1966425' />
  <node id='-115558' action='modify' visible='true' lat='-32.8322732' lon='150.196605' />
  <node id='-115559' action='modify' visible='true' lat='-32.8320027' lon='150.1965996' />
  <node id='-115560' action='modify' visible='true' lat='-32.8318945' lon='150.1965513' />
  <node id='-115561' action='modify' visible='true' lat='-32.831854' lon='150.1964709' />
  <node id='-115562' action='modify' visible='true' lat='-32.8318495' lon='150.1963636' />
  <node id='-115563' action='modify' visible='true' lat='-32.83189' lon='150.1962992' />
  <node id='-115564' action='modify' visible='true' lat='-32.831899' lon='150.1960471' />
  <node id='-115565' action='modify' visible='true' lat='-32.8318585' lon='150.1959988' />
  <node id='-115566' action='modify' visible='true' lat='-32.8317818' lon='150.1960042' />
  <node id='-115567' action='modify' visible='true' lat='-32.8317368' lon='150.1960578' />
  <node id='-115568' action='modify' visible='true' lat='-32.8317187' lon='150.1961436' />
  <node id='-115569' action='modify' visible='true' lat='-32.831561' lon='150.1964119' />
  <node id='-115570' action='modify' visible='true' lat='-32.8314052' lon='150.1965408' />
  <node id='-115571' action='modify' visible='true' lat='-32.8310291' lon='150.1964977' />
  <node id='-115572' action='modify' visible='true' lat='-32.830826' lon='150.1966797' />
  <node id='-115581' action='modify' visible='true' lat='-32.8336013' lon='150.1926173' />
  <node id='-115582' action='modify' visible='true' lat='-32.8328862' lon='150.1930269' />
  <node id='-115583' action='modify' visible='true' lat='-32.8322461' lon='150.1930537' />
  <node id='-115584' action='modify' visible='true' lat='-32.8316331' lon='150.1932308' />
  <node id='-115585' action='modify' visible='true' lat='-32.8314438' lon='150.193381' />
  <node id='-115586' action='modify' visible='true' lat='-32.8313311' lon='150.193617' />
  <node id='-115587' action='modify' visible='true' lat='-32.8313221' lon='150.1940462' />
  <node id='-115588' action='modify' visible='true' lat='-32.8313086' lon='150.1944807' />
  <node id='-115589' action='modify' visible='true' lat='-32.8312139' lon='150.1949098' />
  <node id='-115590' action='modify' visible='true' lat='-32.8310832' lon='150.1954141' />
  <node id='-115591' action='modify' visible='true' lat='-32.8307902' lon='150.1957735' />
  <node id='-115592' action='modify' visible='true' lat='-32.8305513' lon='150.1959613' />
  <node id='-115593' action='modify' visible='true' lat='-32.8302493' lon='150.1961866' />
  <node id='-115594' action='modify' visible='true' lat='-32.8300645' lon='150.1962724' />
  <node id='-115595' action='modify' visible='true' lat='-32.8297399' lon='150.1963636' />
  <node id='-115596' action='modify' visible='true' lat='-32.8292531' lon='150.1965192' />
  <node id='-115597' action='modify' visible='true' lat='-32.8285589' lon='150.1968786' />
  <node id='-115598' action='modify' visible='true' lat='-32.8283065' lon='150.1971468' />
  <node id='-115599' action='modify' visible='true' lat='-32.8281802' lon='150.1973828' />
  <node id='-115600' action='modify' visible='true' lat='-32.8282028' lon='150.1976296' />
  <node id='-115601' action='modify' visible='true' lat='-32.8283245' lon='150.1978388' />
  <node id='-115602' action='modify' visible='true' lat='-32.8284823' lon='150.1979622' />
  <node id='-115603' action='modify' visible='true' lat='-32.828924' lon='150.1983109' />
  <node id='-115604' action='modify' visible='true' lat='-32.8291494' lon='150.1982948' />
  <node id='-115605' action='modify' visible='true' lat='-32.8295623' lon='150.1981366' />
  <node id='-115606' action='modify' visible='true' lat='-32.8297698' lon='150.1979695' />
  <node id='-115607' action='modify' visible='true' lat='-32.82983' lon='150.1977519' />
  <node id='-115608' action='modify' visible='true' lat='-32.8301068' lon='150.1976572' />
  <node id='-115609' action='modify' visible='true' lat='-32.8301578' lon='150.1976079' />
  <node id='-115610' action='modify' visible='true' lat='-32.8302655' lon='150.197188' />
  <node id='-115611' action='modify' visible='true' lat='-32.8304555' lon='150.1970058' />
  <node id='-115612' action='modify' visible='true' lat='-32.835408' lon='150.2075134' />
  <node id='-115613' action='modify' visible='true' lat='-32.8354607' lon='150.2079011' />
  <node id='-115614' action='modify' visible='true' lat='-32.8353599' lon='150.2081603' />
  <node id='-115615' action='modify' visible='true' lat='-32.8353837' lon='150.2083459' />
  <node id='-115616' action='modify' visible='true' lat='-32.8354752' lon='150.208556' />
  <node id='-115617' action='modify' visible='true' lat='-32.8355601' lon='150.2086342' />
  <node id='-115618' action='modify' visible='true' lat='-32.8356444' lon='150.2086632' />
  <node id='-115619' action='modify' visible='true' lat='-32.8358495' lon='150.2086615' />
  <node id='-115620' action='modify' visible='true' lat='-32.835936' lon='150.2086409' />
  <node id='-115621' action='modify' visible='true' lat='-32.8361012' lon='150.208651' />
  <node id='-115622' action='modify' visible='true' lat='-32.8361969' lon='150.20861' />
  <node id='-115623' action='modify' visible='true' lat='-32.8363645' lon='150.2086059' />
  <node id='-115624' action='modify' visible='true' lat='-32.8364805' lon='150.2088105' />
  <node id='-115625' action='modify' visible='true' lat='-32.8365711' lon='150.208821' />
  <node id='-115626' action='modify' visible='true' lat='-32.8365979' lon='150.2087969' />
  <node id='-115627' action='modify' visible='true' lat='-32.8367559' lon='150.20885' />
  <node id='-115628' action='modify' visible='true' lat='-32.8368471' lon='150.2087985' />
  <node id='-115629' action='modify' visible='true' lat='-32.8370301' lon='150.2088541' />
  <node id='-115630' action='modify' visible='true' lat='-32.8370807' lon='150.2089143' />
  <node id='-115631' action='modify' visible='true' lat='-32.8371709' lon='150.2089368' />
  <node id='-115632' action='modify' visible='true' lat='-32.8372676' lon='150.2089143' />
  <node id='-115633' action='modify' visible='true' lat='-32.837419' lon='150.2089928' />
  <node id='-115634' action='modify' visible='true' lat='-32.8375596' lon='150.2088819' />
  <node id='-115635' action='modify' visible='true' lat='-32.8377296' lon='150.2089075' />
  <node id='-115636' action='modify' visible='true' lat='-32.8379126' lon='150.2088634' />
  <node id='-115637' action='modify' visible='true' lat='-32.8391385' lon='150.2097664' />
  <node id='-115638' action='modify' visible='true' lat='-32.8391575' lon='150.2097038' />
  <node id='-115644' action='modify' visible='true' lat='-32.8314008' lon='150.1964474' />
  <node id='-115645' action='modify' visible='true' lat='-32.8312341' lon='150.1963431' />
  <node id='-115646' action='modify' visible='true' lat='-32.8312724' lon='150.1957388' />
  <node id='-115647' action='modify' visible='true' lat='-32.8313414' lon='150.1955032' />
  <node id='-115648' action='modify' visible='true' lat='-32.8314353' lon='150.1952979' />
  <node id='-115649' action='modify' visible='true' lat='-32.8314855' lon='150.1950371' />
  <node id='-115650' action='modify' visible='true' lat='-32.8317364' lon='150.1948264' />
  <node id='-115651' action='modify' visible='true' lat='-32.831862' lon='150.194758' />
  <node id='-115652' action='modify' visible='true' lat='-32.8320037' lon='150.1945851' />
  <node id='-115653' action='modify' visible='true' lat='-32.8321508' lon='150.1944185' />
  <node id='-115654' action='modify' visible='true' lat='-32.832387' lon='150.1940959' />
  <node id='-115655' action='modify' visible='true' lat='-32.833012' lon='150.1941124' />
  <node id='-115656' action='modify' visible='true' lat='-32.8333453' lon='150.1937042' />
  <node id='-115657' action='modify' visible='true' lat='-32.8332499' lon='150.1933053' />
  <node id='-115658' action='modify' visible='true' lat='-32.8332744' lon='150.1930899' />
  <node id='-115659' action='modify' visible='true' lat='-32.8333637' lon='150.192919' />
  <node id='-115660' action='modify' visible='true' lat='-32.8376102' lon='150.2151098' />
  <node id='-115661' action='modify' visible='true' lat='-32.8375246' lon='150.2152164' />
  <node id='-115662' action='modify' visible='true' lat='-32.8373257' lon='150.2153883' />
  <node id='-115663' action='modify' visible='true' lat='-32.8371769' lon='150.2157678' />
  <node id='-115664' action='modify' visible='true' lat='-32.8371188' lon='150.2159249' />
  <node id='-115665' action='modify' visible='true' lat='-32.837055' lon='150.2159722' />
  <node id='-115666' action='modify' visible='true' lat='-32.8368652' lon='150.2160251' />
  <node id='-115667' action='modify' visible='true' lat='-32.8367574' lon='150.2161536' />
  <node id='-115668' action='modify' visible='true' lat='-32.8360768' lon='150.2167736' />
  <node id='-115669' action='modify' visible='true' lat='-32.8359509' lon='150.2168432' />
  <node id='-115670' action='modify' visible='true' lat='-32.8358512' lon='150.2167877' />
  <node id='-115671' action='modify' visible='true' lat='-32.8357007' lon='150.2166529' />
  <node id='-115672' action='modify' visible='true' lat='-32.8356269' lon='150.216669' />
  <node id='-115673' action='modify' visible='true' lat='-32.8354966' lon='150.2167991' />
  <node id='-115674' action='modify' visible='true' lat='-32.835415' lon='150.2169568' />
  <node id='-115675' action='modify' visible='true' lat='-32.83527' lon='150.2170997' />
  <node id='-115676' action='modify' visible='true' lat='-32.8351473' lon='150.2174787' />
  <node id='-115677' action='modify' visible='true' lat='-32.8349391' lon='150.2175586' />
  <node id='-115678' action='modify' visible='true' lat='-32.834737' lon='150.2179702' />
  <node id='-115679' action='modify' visible='true' lat='-32.8345578' lon='150.2180746' />
  <node id='-115680' action='modify' visible='true' lat='-32.834442' lon='150.2180623' />
  <node id='-115681' action='modify' visible='true' lat='-32.8343356' lon='150.2180887' />
  <node id='-115682' action='modify' visible='true' lat='-32.8352548' lon='150.1984709' />
  <node id='-115683' action='modify' visible='true' lat='-32.8352478' lon='150.1983888' />
  <node id='-115684' action='modify' visible='true' lat='-32.835185' lon='150.1983297' />
  <node id='-115685' action='modify' visible='true' lat='-32.8340849' lon='150.2088502' />
  <node id='-115686' action='modify' visible='true' lat='-32.8341576' lon='150.2092711' />
  <node id='-115687' action='modify' visible='true' lat='-32.8339177' lon='150.2094407' />
  <node id='-115688' action='modify' visible='true' lat='-32.8337182' lon='150.2100258' />
  <node id='-115689' action='modify' visible='true' lat='-32.8336066' lon='150.2104018' />
  <node id='-115690' action='modify' visible='true' lat='-32.8332361' lon='150.2107099' />
  <node id='-115691' action='modify' visible='true' lat='-32.8328846' lon='150.2113431' />
  <node id='-115692' action='modify' visible='true' lat='-32.8330223' lon='150.2115748' />
  <node id='-115693' action='modify' visible='true' lat='-32.8329653' lon='150.2117331' />
  <node id='-115694' action='modify' visible='true' lat='-32.8330128' lon='150.2119762' />
  <node id='-115695' action='modify' visible='true' lat='-32.8329653' lon='150.2121527' />
  <node id='-115696' action='modify' visible='true' lat='-32.8329697' lon='150.2122901' />
  <node id='-115697' action='modify' visible='true' lat='-32.8331689' lon='150.2125397' />
  <node id='-115698' action='modify' visible='true' lat='-32.8332255' lon='150.2126795' />
  <node id='-115699' action='modify' visible='true' lat='-32.8337697' lon='150.2130227' />
  <node id='-115700' action='modify' visible='true' lat='-32.8344284' lon='150.2136948' />
  <node id='-115701' action='modify' visible='true' lat='-32.8344426' lon='150.2138701' />
  <node id='-115702' action='modify' visible='true' lat='-32.8345946' lon='150.2140227' />
  <node id='-115703' action='modify' visible='true' lat='-32.8347662' lon='150.2143762' />
  <node id='-115704' action='modify' visible='true' lat='-32.8348217' lon='150.2146456' />
  <node id='-115705' action='modify' visible='true' lat='-32.8349638' lon='150.2151114' />
  <node id='-115706' action='modify' visible='true' lat='-32.835051' lon='150.2152716' />
  <node id='-115707' action='modify' visible='true' lat='-32.83517' lon='150.2157207' />
  <node id='-115708' action='modify' visible='true' lat='-32.8353677' lon='150.2160953' />
  <node id='-115709' action='modify' visible='true' lat='-32.8354249' lon='150.2163634' />
  <node id='-115710' action='modify' visible='true' lat='-32.8354175' lon='150.216583' />
  <node id='-115711' action='modify' visible='true' lat='-32.8354349' lon='150.2167195' />
  <node id='-115712' action='modify' visible='true' lat='-32.8350483' lon='150.2069183' />
  <node id='-115713' action='modify' visible='true' lat='-32.8350699' lon='150.2067152' />
  <node id='-115714' action='modify' visible='true' lat='-32.8350338' lon='150.2064685' />
  <node id='-115715' action='modify' visible='true' lat='-32.8350383' lon='150.2062475' />
  <node id='-115716' action='modify' visible='true' lat='-32.8350383' lon='150.2060007' />
  <node id='-115717' action='modify' visible='true' lat='-32.8347228' lon='150.2057432' />
  <node id='-115718' action='modify' visible='true' lat='-32.834565' lon='150.2057496' />
  <node id='-115719' action='modify' visible='true' lat='-32.8343397' lon='150.2056102' />
  <node id='-115720' action='modify' visible='true' lat='-32.8341621' lon='150.2055456' />
  <node id='-115721' action='modify' visible='true' lat='-32.8340151' lon='150.2054922' />
  <node id='-115722' action='modify' visible='true' lat='-32.8338438' lon='150.2054492' />
  <node id='-115723' action='modify' visible='true' lat='-32.8335464' lon='150.2054385' />
  <node id='-115724' action='modify' visible='true' lat='-32.8332263' lon='150.2054857' />
  <node id='-115725' action='modify' visible='true' lat='-32.8332083' lon='150.205593' />
  <node id='-115726' action='modify' visible='true' lat='-32.8334517' lon='150.2058183' />
  <node id='-115727' action='modify' visible='true' lat='-32.8336951' lon='150.2060651' />
  <node id='-115728' action='modify' visible='true' lat='-32.8338934' lon='150.2062904' />
  <node id='-115729' action='modify' visible='true' lat='-32.8340557' lon='150.2065586' />
  <node id='-115730' action='modify' visible='true' lat='-32.8342991' lon='150.2068483' />
  <node id='-115731' action='modify' visible='true' lat='-32.8345019' lon='150.2072839' />
  <node id='-115732' action='modify' visible='true' lat='-32.8345695' lon='150.207374' />
  <node id='-115733' action='modify' visible='true' lat='-32.8391145' lon='150.2099149' />
  <node id='-115734' action='modify' visible='true' lat='-32.8391247' lon='150.2098517' />
  <node id='-115735' action='modify' visible='true' lat='-32.8382723' lon='150.2090567' />
  <node id='-115736' action='modify' visible='true' lat='-32.838687' lon='150.2093186' />
  <node id='-115737' action='modify' visible='true' lat='-32.8387718' lon='150.2094349' />
  <node id='-115738' action='modify' visible='true' lat='-32.8389197' lon='150.2094936' />
  <node id='-115739' action='modify' visible='true' lat='-32.8389136' lon='150.2096023' />
  <node id='-115740' action='modify' visible='true' lat='-32.8390953' lon='150.2229727' />
  <node id='-115741' action='modify' visible='true' lat='-32.8391428' lon='150.2230688' />
  <node id='-115742' action='modify' visible='true' lat='-32.8391701' lon='150.223213' />
  <node id='-115743' action='modify' visible='true' lat='-32.8392246' lon='150.2232735' />
  <node id='-116103' action='modify' visible='true' lat='-32.83507002027' lon='150.20717560977' />
  <way id='-115377' action='modify' visible='true'>
    <nd ref='-116103' />
    <nd ref='-115612' />
    <nd ref='-115613' />
    <nd ref='-115614' />
    <nd ref='-115615' />
    <nd ref='-115616' />
    <nd ref='-115617' />
    <nd ref='-115618' />
    <nd ref='-115619' />
    <nd ref='-115620' />
    <nd ref='-115621' />
    <nd ref='-115622' />
    <nd ref='-115623' />
    <nd ref='-115624' />
    <nd ref='-115625' />
    <nd ref='-115626' />
    <nd ref='-115627' />
    <nd ref='-115628' />
    <nd ref='-115629' />
    <nd ref='-115630' />
    <nd ref='-115631' />
    <nd ref='-115632' />
    <nd ref='-115633' />
    <nd ref='-115634' />
    <nd ref='-115635' />
    <nd ref='-115636' />
    <nd ref='-115459' />
    <nd ref='-115460' />
    <nd ref='-115735' />
    <nd ref='-115736' />
    <nd ref='-115737' />
    <nd ref='-115738' />
    <nd ref='-115739' />
    <nd ref='-115638' />
    <nd ref='-115637' />
    <nd ref='-115734' />
    <nd ref='-115733' />
    <nd ref='-115461' />
    <nd ref='-115462' />
    <nd ref='-115463' />
    <nd ref='-115464' />
    <nd ref='-115465' />
    <nd ref='-115466' />
    <nd ref='-115467' />
    <nd ref='-115468' />
    <nd ref='-115469' />
    <nd ref='-115470' />
    <nd ref='-115471' />
    <nd ref='-115472' />
    <nd ref='-115473' />
    <nd ref='-115474' />
    <nd ref='-115398' />
    <nd ref='-115399' />
    <nd ref='-115400' />
    <nd ref='-115401' />
    <nd ref='-115402' />
    <nd ref='-115403' />
    <nd ref='-115404' />
    <nd ref='-115405' />
    <nd ref='-115406' />
    <nd ref='-115407' />
    <nd ref='-115408' />
    <nd ref='-115409' />
    <nd ref='-115410' />
    <nd ref='-115411' />
    <nd ref='-115412' />
    <nd ref='-115413' />
    <nd ref='-115414' />
    <nd ref='-115415' />
    <nd ref='-115416' />
    <tag k='name' v='Beehive Pagoda' />
    <tag k='role' v='sidetrack' />
    <tag k='style' v='return' />
  </way>
  <way id='-115378' action='modify' visible='true'>
    <nd ref='-115417' />
    <nd ref='-115418' />
    <nd ref='-115419' />
    <nd ref='-115420' />
    <nd ref='-115421' />
    <nd ref='-115422' />
    <nd ref='-115423' />
    <nd ref='-115424' />
    <nd ref='-115425' />
    <nd ref='-115426' />
    <nd ref='-115427' />
    <nd ref='-115428' />
    <nd ref='-115429' />
    <nd ref='-115430' />
    <nd ref='-115431' />
    <nd ref='-115432' />
    <nd ref='-115433' />
    <nd ref='-115434' />
    <nd ref='-115435' />
    <nd ref='-115436' />
    <nd ref='-115437' />
    <nd ref='-115438' />
    <nd ref='-115439' />
    <nd ref='-115440' />
    <nd ref='-115441' />
    <nd ref='-115442' />
    <nd ref='-115443' />
    <nd ref='-115444' />
    <nd ref='-115445' />
    <nd ref='-115446' />
    <nd ref='-115447' />
    <nd ref='-115448' />
    <nd ref='-115449' />
    <nd ref='-115450' />
    <nd ref='-115451' />
    <nd ref='-115552' />
    <nd ref='-115553' />
    <nd ref='-115554' />
    <nd ref='-115555' />
    <nd ref='-115556' />
    <nd ref='-115557' />
    <nd ref='-115558' />
    <nd ref='-115559' />
    <nd ref='-115560' />
    <nd ref='-115561' />
    <nd ref='-115562' />
    <nd ref='-115563' />
    <nd ref='-115564' />
    <nd ref='-115565' />
    <nd ref='-115566' />
    <nd ref='-115567' />
    <nd ref='-115568' />
    <nd ref='-115569' />
    <nd ref='-115570' />
    <nd ref='-115571' />
    <nd ref='-115572' />
    <nd ref='-115611' />
    <nd ref='-115610' />
    <nd ref='-115609' />
    <nd ref='-115608' />
    <nd ref='-115551' />
    <nd ref='-115607' />
    <nd ref='-115606' />
    <nd ref='-115605' />
    <nd ref='-115525' />
    <nd ref='-115458' />
    <tag k='name' v='Dunns Swamp' />
    <tag k='park' v='Wollemi National Park' />
    <tag k='role' v='primary' />
    <tag k='photo' v='136319147@N08/25906464967' />
    <tag k='style' v='return' />
    <tag k='transport' v='car' />
  </way>
  <way id='-115383' action='modify' visible='true'>
    <nd ref='-115446' />
    <nd ref='-115682' />
    <nd ref='-115683' />
    <nd ref='-115684' />
    <nd ref='-115526' />
    <nd ref='-115527' />
    <nd ref='-115528' />
    <nd ref='-115529' />
    <nd ref='-115530' />
    <nd ref='-115531' />
    <nd ref='-115532' />
    <nd ref='-115533' />
    <nd ref='-115534' />
    <nd ref='-115535' />
    <tag k='name' v='Pagoda Lookout' />
    <tag k='role' v='sidetrack' />
    <tag k='style' v='return' />
  </way>
  <way id='-115387' action='modify' visible='true'>
    <nd ref='-115570' />
    <nd ref='-115644' />
    <nd ref='-115645' />
    <nd ref='-115646' />
    <nd ref='-115647' />
    <nd ref='-115648' />
    <nd ref='-115649' />
    <nd ref='-115650' />
    <nd ref='-115651' />
    <nd ref='-115652' />
    <nd ref='-115653' />
    <nd ref='-115654' />
    <nd ref='-115655' />
    <nd ref='-115656' />
    <nd ref='-115657' />
    <nd ref='-115658' />
    <nd ref='-115659' />
    <nd ref='-115581' />
    <nd ref='-115582' />
    <nd ref='-115583' />
    <nd ref='-115584' />
    <nd ref='-115585' />
    <nd ref='-115586' />
    <nd ref='-115587' />
    <nd ref='-115588' />
    <nd ref='-115589' />
    <nd ref='-115590' />
    <nd ref='-115591' />
    <nd ref='-115592' />
    <nd ref='-115593' />
    <nd ref='-115594' />
    <nd ref='-115595' />
    <nd ref='-115596' />
    <nd ref='-115597' />
    <nd ref='-115598' />
    <nd ref='-115599' />
    <nd ref='-115600' />
    <nd ref='-115601' />
    <nd ref='-115602' />
    <nd ref='-115536' />
    <nd ref='-115603' />
    <nd ref='-115604' />
    <nd ref='-115458' />
    <tag k='role' v='sidetrack' />
    <tag k='style' v='loop' />
  </way>
  <way id='-115391' action='modify' visible='true'>
    <nd ref='-115673' />
    <nd ref='-115672' />
    <nd ref='-115671' />
    <nd ref='-115670' />
    <nd ref='-115669' />
    <nd ref='-115668' />
    <nd ref='-115667' />
    <nd ref='-115666' />
    <nd ref='-115665' />
    <nd ref='-115664' />
    <nd ref='-115663' />
    <nd ref='-115662' />
    <nd ref='-115661' />
    <nd ref='-115660' />
    <nd ref='-115487' />
    <tag k='role' v='altroute' />
    <tag k='style' v='oneway' />
  </way>
  <way id='-115394' action='modify' visible='true'>
    <nd ref='-115732' />
    <nd ref='-116103' />
    <nd ref='-115712' />
    <nd ref='-115713' />
    <nd ref='-115714' />
    <nd ref='-115715' />
    <nd ref='-115716' />
    <nd ref='-115717' />
    <nd ref='-115718' />
    <nd ref='-115719' />
    <nd ref='-115720' />
    <nd ref='-115721' />
    <nd ref='-115722' />
    <nd ref='-115723' />
    <nd ref='-115724' />
    <nd ref='-115725' />
    <nd ref='-115726' />
    <nd ref='-115727' />
    <nd ref='-115728' />
    <nd ref='-115729' />
    <nd ref='-115730' />
    <nd ref='-115731' />
    <nd ref='-115732' />
    <tag k='name' v='Dabee Rock Shelter' />
    <tag k='role' v='sidetrack' />
    <tag k='style' v='loop' />
  </way>
  <way id='-115397' action='modify' visible='true'>
    <nd ref='-115398' />
    <nd ref='-115475' />
    <nd ref='-115476' />
    <nd ref='-115477' />
    <nd ref='-115478' />
    <nd ref='-115479' />
    <nd ref='-115480' />
    <nd ref='-115481' />
    <nd ref='-115482' />
    <nd ref='-115483' />
    <nd ref='-115484' />
    <nd ref='-115485' />
    <nd ref='-115486' />
    <nd ref='-115487' />
    <nd ref='-115488' />
    <nd ref='-115489' />
    <nd ref='-115490' />
    <nd ref='-115491' />
    <nd ref='-115492' />
    <nd ref='-115493' />
    <nd ref='-115494' />
    <nd ref='-115495' />
    <nd ref='-115496' />
    <nd ref='-115497' />
    <nd ref='-115498' />
    <nd ref='-115499' />
    <nd ref='-115500' />
    <nd ref='-115501' />
    <nd ref='-115502' />
    <nd ref='-115503' />
    <nd ref='-115504' />
    <nd ref='-115505' />
    <nd ref='-115506' />
    <nd ref='-115507' />
    <nd ref='-115508' />
    <nd ref='-115509' />
    <nd ref='-115510' />
    <nd ref='-115511' />
    <nd ref='-115512' />
    <nd ref='-115513' />
    <nd ref='-115514' />
    <nd ref='-115515' />
    <nd ref='-115516' />
    <nd ref='-115517' />
    <nd ref='-115518' />
    <nd ref='-115519' />
    <nd ref='-115520' />
    <nd ref='-115740' />
    <nd ref='-115741' />
    <nd ref='-115742' />
    <nd ref='-115743' />
    <tag k='name' v='Upstream Cudgegong River' />
    <tag k='role' v='sidetrack' />
    <tag k='style' v='return' />
  </way>
  <way id='-116213' action='modify' visible='true'>
    <nd ref='-115413' />
    <nd ref='-115685' />
    <nd ref='-115686' />
    <nd ref='-115687' />
    <nd ref='-115688' />
    <nd ref='-115689' />
    <nd ref='-115690' />
    <nd ref='-115691' />
    <nd ref='-115692' />
    <nd ref='-115693' />
    <nd ref='-115694' />
    <nd ref='-115695' />
    <nd ref='-115696' />
    <nd ref='-115697' />
    <nd ref='-115698' />
    <nd ref='-115699' />
    <nd ref='-115700' />
    <nd ref='-115701' />
    <nd ref='-115702' />
    <nd ref='-115703' />
    <nd ref='-115704' />
    <nd ref='-115705' />
    <nd ref='-115706' />
    <nd ref='-115707' />
    <nd ref='-115708' />
    <nd ref='-115709' />
    <nd ref='-115710' />
    <nd ref='-115711' />
    <nd ref='-115673' />
    <nd ref='-115674' />
    <nd ref='-115675' />
    <nd ref='-115676' />
    <nd ref='-115677' />
    <nd ref='-115678' />
    <nd ref='-115679' />
    <nd ref='-115680' />
    <nd ref='-115681' />
    <tag k='name' v='Cudgegong Picnic Place' />
    <tag k='role' v='sidetrack' />
    <tag k='style' v='return' />
  </way>
</osm>
