<?xml version='1.0' encoding='UTF-8'?>
<osm version='0.6' upload='false' generator='JOSM'>
  <node id='-1331827' action='modify' visible='true' lat='-26.6717138' lon='152.869219' />
  <node id='-1331828' action='modify' visible='true' lat='-26.6716354' lon='152.869285' />
  <node id='-1331829' action='modify' visible='true' lat='-26.6715131' lon='152.8692303' />
  <node id='-1331830' action='modify' visible='true' lat='-26.6713757' lon='152.8692055' />
  <node id='-1331831' action='modify' visible='true' lat='-26.6710671' lon='152.8694672' />
  <node id='-1331832' action='modify' visible='true' lat='-26.6710694' lon='152.8694875' />
  <node id='-1331833' action='modify' visible='true' lat='-26.6717376' lon='152.8689418' />
  <node id='-1331834' action='modify' visible='true' lat='-26.6717564' lon='152.8691157' />
  <node id='-1331836' action='modify' visible='true' lat='-26.6724165' lon='152.8619446' />
  <node id='-1331839' action='modify' visible='true' lat='-26.6711506' lon='152.8694598' />
  <node id='-1331840' action='modify' visible='true' lat='-26.6710913' lon='152.8694729' />
  <node id='-1331843' action='modify' visible='true' lat='-26.673391' lon='152.865253' />
  <node id='-1331846' action='modify' visible='true' lat='-26.6710814' lon='152.869452' />
  <node id='-1331854' action='modify' visible='true' lat='-26.6939758' lon='152.8648372' />
  <node id='-1332103' action='modify' visible='true' lat='-26.6726337' lon='152.8640148' />
  <node id='-1332104' action='modify' visible='true' lat='-26.6726297' lon='152.8637098' />
  <node id='-1332105' action='modify' visible='true' lat='-26.672782' lon='152.8632972' />
  <node id='-1332106' action='modify' visible='true' lat='-26.6726177' lon='152.8625661' />
  <node id='-1332107' action='modify' visible='true' lat='-26.6720526' lon='152.8644005' />
  <node id='-1332108' action='modify' visible='true' lat='-26.672289' lon='152.8649342' />
  <node id='-1332109' action='modify' visible='true' lat='-26.6722289' lon='152.864378' />
  <node id='-1332110' action='modify' visible='true' lat='-26.6725335' lon='152.8642211' />
  <node id='-1332111' action='modify' visible='true' lat='-26.6732843' lon='152.8665024' />
  <node id='-1332112' action='modify' visible='true' lat='-26.6732793' lon='152.8664699' />
  <node id='-1332113' action='modify' visible='true' lat='-26.6731834' lon='152.8662525' />
  <node id='-1332114' action='modify' visible='true' lat='-26.6731329' lon='152.8662186' />
  <node id='-1332115' action='modify' visible='true' lat='-26.6734157' lon='152.865229' />
  <node id='-1332116' action='modify' visible='true' lat='-26.6733462' lon='152.8652608' />
  <node id='-1332117' action='modify' visible='true' lat='-26.6735459' lon='152.8667681' />
  <node id='-1332118' action='modify' visible='true' lat='-26.6734744' lon='152.8667828' />
  <node id='-1332119' action='modify' visible='true' lat='-26.672412' lon='152.86605' />
  <node id='-1332120' action='modify' visible='true' lat='-26.6722036' lon='152.865979' />
  <node id='-1332121' action='modify' visible='true' lat='-26.6720344' lon='152.8658703' />
  <node id='-1332122' action='modify' visible='true' lat='-26.6718773' lon='152.8657645' />
  <node id='-1332124' action='modify' visible='true' lat='-26.6728515' lon='152.8658911' />
  <node id='-1332125' action='modify' visible='true' lat='-26.6726915' lon='152.865979' />
  <node id='-1332126' action='modify' visible='true' lat='-26.6725601' lon='152.8660379' />
  <node id='-1332127' action='modify' visible='true' lat='-26.6723972' lon='152.8655038' />
  <node id='-1332128' action='modify' visible='true' lat='-26.6720085' lon='152.8650328' />
  <node id='-1332129' action='modify' visible='true' lat='-26.6720566' lon='152.864849' />
  <node id='-1332130' action='modify' visible='true' lat='-26.6717744' lon='152.8641947' />
  <node id='-1332131' action='modify' visible='true' lat='-26.6717821' lon='152.8656527' />
  <node id='-1332132' action='modify' visible='true' lat='-26.6716885' lon='152.8654972' />
  <node id='-1332133' action='modify' visible='true' lat='-26.671736' lon='152.8651315' />
  <node id='-1332134' action='modify' visible='true' lat='-26.6720686' lon='152.8654993' />
  <node id='-1332135' action='modify' visible='true' lat='-26.6724857' lon='152.8685186' />
  <node id='-1332136' action='modify' visible='true' lat='-26.6723687' lon='152.8683825' />
  <node id='-1332137' action='modify' visible='true' lat='-26.6722463' lon='152.8683232' />
  <node id='-1332138' action='modify' visible='true' lat='-26.6721757' lon='152.8683331' />
  <node id='-1332139' action='modify' visible='true' lat='-26.672792' lon='152.8684009' />
  <node id='-1332140' action='modify' visible='true' lat='-26.6727753' lon='152.8684321' />
  <node id='-1332141' action='modify' visible='true' lat='-26.672748' lon='152.8684869' />
  <node id='-1332142' action='modify' visible='true' lat='-26.6725513' lon='152.8685355' />
  <node id='-1332143' action='modify' visible='true' lat='-26.6710303' lon='152.8696028' />
  <node id='-1332144' action='modify' visible='true' lat='-26.6710142' lon='152.8696407' />
  <node id='-1332145' action='modify' visible='true' lat='-26.6710452' lon='152.8697646' />
  <node id='-1332146' action='modify' visible='true' lat='-26.6712566' lon='152.8697649' />
  <node id='-1332147' action='modify' visible='true' lat='-26.6717407' lon='152.8685756' />
  <node id='-1332148' action='modify' visible='true' lat='-26.6714993' lon='152.8688335' />
  <node id='-1332149' action='modify' visible='true' lat='-26.6714127' lon='152.8691424' />
  <node id='-1332150' action='modify' visible='true' lat='-26.6711622' lon='152.8693992' />
  <node id='-1332151' action='modify' visible='true' lat='-26.6729456' lon='152.8666051' />
  <node id='-1332152' action='modify' visible='true' lat='-26.6727207' lon='152.8667241' />
  <node id='-1332153' action='modify' visible='true' lat='-26.672528' lon='152.8669697' />
  <node id='-1332154' action='modify' visible='true' lat='-26.6725031' lon='152.8669863' />
  <node id='-1332155' action='modify' visible='true' lat='-26.673114' lon='152.8661875' />
  <node id='-1332156' action='modify' visible='true' lat='-26.6730864' lon='152.8661883' />
  <node id='-1332157' action='modify' visible='true' lat='-26.6730733' lon='152.8664556' />
  <node id='-1332158' action='modify' visible='true' lat='-26.6729795' lon='152.8666071' />
  <node id='-1332159' action='modify' visible='true' lat='-26.6726964' lon='152.8678528' />
  <node id='-1332160' action='modify' visible='true' lat='-26.6728153' lon='152.8679972' />
  <node id='-1332161' action='modify' visible='true' lat='-26.6727836' lon='152.8681907' />
  <node id='-1332162' action='modify' visible='true' lat='-26.6727766' lon='152.868338' />
  <node id='-1332163' action='modify' visible='true' lat='-26.6723441' lon='152.8672258' />
  <node id='-1332164' action='modify' visible='true' lat='-26.6723653' lon='152.8674117' />
  <node id='-1332165' action='modify' visible='true' lat='-26.6724914' lon='152.8676028' />
  <node id='-1332166' action='modify' visible='true' lat='-26.672627' lon='152.8677546' />
  <node id='-1332167' action='modify' visible='true' lat='-26.6737796' lon='152.8637931' />
  <node id='-1332168' action='modify' visible='true' lat='-26.6735619' lon='152.8641198' />
  <node id='-1332169' action='modify' visible='true' lat='-26.6733441' lon='152.8641681' />
  <node id='-1332170' action='modify' visible='true' lat='-26.673211' lon='152.864773' />
  <node id='-1332171' action='modify' visible='true' lat='-26.6710578' lon='152.8695025' />
  <node id='-1332172' action='modify' visible='true' lat='-26.6710474' lon='152.8695375' />
  <node id='-1332173' action='modify' visible='true' lat='-26.6734846' lon='152.8622571' />
  <node id='-1332174' action='modify' visible='true' lat='-26.6739006' lon='152.8629584' />
  <node id='-1332175' action='modify' visible='true' lat='-26.6724306' lon='152.8617065' />
  <node id='-1332176' action='modify' visible='true' lat='-26.6726796' lon='152.8621253' />
  <node id='-1332177' action='modify' visible='true' lat='-26.6729001' lon='152.8623637' />
  <node id='-1332178' action='modify' visible='true' lat='-26.6732958' lon='152.8652665' />
  <node id='-1332179' action='modify' visible='true' lat='-26.6733031' lon='152.8649671' />
  <node id='-1332181' action='modify' visible='true' lat='-26.6732385' lon='152.8629536' />
  <node id='-1332182' action='modify' visible='true' lat='-26.6728684' lon='152.8607996' />
  <node id='-1332183' action='modify' visible='true' lat='-26.6715346' lon='152.8704399' />
  <node id='-1332184' action='modify' visible='true' lat='-26.6716563' lon='152.8704947' />
  <node id='-1332185' action='modify' visible='true' lat='-26.671666' lon='152.8706003' />
  <node id='-1332186' action='modify' visible='true' lat='-26.6714471' lon='152.8707231' />
  <node id='-1332187' action='modify' visible='true' lat='-26.6713422' lon='152.8696839' />
  <node id='-1332188' action='modify' visible='true' lat='-26.6713883' lon='152.869744' />
  <node id='-1332189' action='modify' visible='true' lat='-26.6715263' lon='152.8702847' />
  <node id='-1332190' action='modify' visible='true' lat='-26.6714803' lon='152.8703791' />
  <node id='-1332191' action='modify' visible='true' lat='-26.671195' lon='152.871466' />
  <node id='-1332192' action='modify' visible='true' lat='-26.6710389' lon='152.8715182' />
  <node id='-1332193' action='modify' visible='true' lat='-26.6710635' lon='152.8716438' />
  <node id='-1332194' action='modify' visible='true' lat='-26.6711132' lon='152.8717131' />
  <node id='-1332195' action='modify' visible='true' lat='-26.6714063' lon='152.8709512' />
  <node id='-1332196' action='modify' visible='true' lat='-26.6715082' lon='152.8713467' />
  <node id='-1332197' action='modify' visible='true' lat='-26.6714575' lon='152.871435' />
  <node id='-1332198' action='modify' visible='true' lat='-26.6712917' lon='152.871464' />
  <node id='-1332199' action='modify' visible='true' lat='-26.6734361' lon='152.8670746' />
  <node id='-1332200' action='modify' visible='true' lat='-26.6731216' lon='152.8672034' />
  <node id='-1332201' action='modify' visible='true' lat='-26.6730296' lon='152.8673493' />
  <node id='-1332202' action='modify' visible='true' lat='-26.6730449' lon='152.8674179' />
  <node id='-1332203' action='modify' visible='true' lat='-26.6731881' lon='152.8659283' />
  <node id='-1332204' action='modify' visible='true' lat='-26.6733293' lon='152.866032' />
  <node id='-1332205' action='modify' visible='true' lat='-26.6734564' lon='152.8664002' />
  <node id='-1332206' action='modify' visible='true' lat='-26.6735023' lon='152.866646' />
  <node id='-1332207' action='modify' visible='true' lat='-26.6731446' lon='152.868817' />
  <node id='-1332208' action='modify' visible='true' lat='-26.6730219' lon='152.8691431' />
  <node id='-1332209' action='modify' visible='true' lat='-26.6729452' lon='152.8691861' />
  <node id='-1332210' action='modify' visible='true' lat='-26.6728762' lon='152.8691346' />
  <node id='-1332211' action='modify' visible='true' lat='-26.6733977' lon='152.8677698' />
  <node id='-1332212' action='modify' visible='true' lat='-26.6734284' lon='152.8679158' />
  <node id='-1332213' action='modify' visible='true' lat='-26.673321' lon='152.8682247' />
  <node id='-1332214' action='modify' visible='true' lat='-26.6732903' lon='152.8686367' />
  <node id='-1332215' action='modify' visible='true' lat='-26.6732696' lon='152.8655602' />
  <node id='-1332216' action='modify' visible='true' lat='-26.6730273' lon='152.8655391' />
  <node id='-1332217' action='modify' visible='true' lat='-26.6728821' lon='152.8657266' />
  <node id='-1332218' action='modify' visible='true' lat='-26.6729623' lon='152.865738' />
  <node id='-1332219' action='modify' visible='true' lat='-26.6732869' lon='152.8653018' />
  <node id='-1332220' action='modify' visible='true' lat='-26.6733097' lon='152.8653992' />
  <node id='-1332221' action='modify' visible='true' lat='-26.6733357' lon='152.8654229' />
  <node id='-1332222' action='modify' visible='true' lat='-26.6732998' lon='152.8654668' />
  <node id='-1332223' action='modify' visible='true' lat='-26.6730909' lon='152.8657957' />
  <node id='-1332224' action='modify' visible='true' lat='-26.6732549' lon='152.8658103' />
  <node id='-1332225' action='modify' visible='true' lat='-26.6733901' lon='152.8658987' />
  <node id='-1332226' action='modify' visible='true' lat='-26.6733976' lon='152.8659252' />
  <node id='-1332227' action='modify' visible='true' lat='-26.6730936' lon='152.8656815' />
  <node id='-1332228' action='modify' visible='true' lat='-26.6731566' lon='152.8656787' />
  <node id='-1332229' action='modify' visible='true' lat='-26.6731983' lon='152.8657279' />
  <node id='-1332230' action='modify' visible='true' lat='-26.673086' lon='152.8657479' />
  <node id='-1332231' action='modify' visible='true' lat='-26.6718714' lon='152.8688942' />
  <node id='-1332232' action='modify' visible='true' lat='-26.6717385' lon='152.8689078' />
  <node id='-1332233' action='modify' visible='true' lat='-26.6727228' lon='152.8691861' />
  <node id='-1332234' action='modify' visible='true' lat='-26.6723853' lon='152.8689457' />
  <node id='-1332235' action='modify' visible='true' lat='-26.6724007' lon='152.8688513' />
  <node id='-1332236' action='modify' visible='true' lat='-26.6720785' lon='152.8689371' />
  <node id='-1332237' action='modify' visible='true' lat='-26.6942979' lon='152.8641849' />
  <node id='-1332238' action='modify' visible='true' lat='-26.6941982' lon='152.8639617' />
  <node id='-1332239' action='modify' visible='true' lat='-26.6940548' lon='152.8638397' />
  <node id='-1332240' action='modify' visible='true' lat='-26.6940714' lon='152.8637346' />
  <node id='-1332242' action='modify' visible='true' lat='-26.6941598' lon='152.8648115' />
  <node id='-1332243' action='modify' visible='true' lat='-26.6941292' lon='152.8643651' />
  <node id='-1332244' action='modify' visible='true' lat='-26.6940881' lon='152.8636715' />
  <node id='-1332524' action='modify' visible='true' lat='-26.67285320745' lon='152.86587639101' />
  <node id='-1332532' action='modify' visible='true' lat='-26.67355831243' lon='152.86677576931' />
  <node id='-1332533' action='modify' visible='true' lat='-26.67351093277' lon='152.86664308451' />
  <node id='-1332534' action='modify' visible='true' lat='-26.67346504344' lon='152.86639734163' />
  <node id='-1332535' action='modify' visible='true' lat='-26.67333664024' lon='152.86602536632' />
  <node id='-1332536' action='modify' visible='true' lat='-26.67321756862' lon='152.86593791782' />
  <node id='-1332537' action='modify' visible='true' lat='-26.67340981723' lon='152.86593507309' />
  <node id='-1332538' action='modify' visible='true' lat='-26.67339761917' lon='152.86589197328' />
  <node id='-1332539' action='modify' visible='true' lat='-26.67325765902' lon='152.86580046087' />
  <node id='-1332540' action='modify' visible='true' lat='-26.67309898206' lon='152.86578633475' />
  <node id='-1332541' action='modify' visible='true' lat='-26.67309590477' lon='152.86575631552' />
  <node id='-1332542' action='modify' visible='true' lat='-26.67321655372' lon='152.86573482861' />
  <node id='-1332543' action='modify' visible='true' lat='-26.67316031415' lon='152.86566847401' />
  <node id='-1332544' action='modify' visible='true' lat='-26.67309176088' lon='152.86567152082' />
  <node id='-1332545' action='modify' visible='true' lat='-26.67295683212' lon='152.86572958232' />
  <node id='-1332591' action='modify' visible='true' lat='-26.67111670294' lon='152.87170995391' />
  <node id='-1332592' action='modify' visible='true' lat='-26.67107279634' lon='152.86949078922' />
  <node id='-1332594' action='modify' visible='true' lat='-26.67106766199' lon='152.87164157286' />
  <node id='-1332595' action='modify' visible='true' lat='-26.67104417987' lon='152.87152168041' />
  <node id='-1332596' action='modify' visible='true' lat='-26.6711956973' lon='152.87147101283' />
  <node id='-1332597' action='modify' visible='true' lat='-26.67129209012' lon='152.87146901918' />
  <node id='-1332598' action='modify' visible='true' lat='-26.67146018769' lon='152.87143961732' />
  <node id='-1332599' action='modify' visible='true' lat='-26.6715130803' lon='152.87134749863' />
  <node id='-1332600' action='modify' visible='true' lat='-26.67141091913' lon='152.87095098495' />
  <node id='-1332601' action='modify' visible='true' lat='-26.67145107368' lon='152.87072649341' />
  <node id='-1332602' action='modify' visible='true' lat='-26.67167078511' lon='152.8706032382' />
  <node id='-1332603' action='modify' visible='true' lat='-26.67166049088' lon='152.87049116907' />
  <node id='-1332604' action='modify' visible='true' lat='-26.6715371281' lon='152.87043562034' />
  <node id='-1332605' action='modify' visible='true' lat='-26.67148585168' lon='152.87037820585' />
  <node id='-1332606' action='modify' visible='true' lat='-26.67153112406' lon='152.87028529905' />
  <node id='-1332607' action='modify' visible='true' lat='-26.67139234875' lon='152.86974156127' />
  <node id='-1332608' action='modify' visible='true' lat='-26.67134270427' lon='152.86967684037' />
  <node id='-1332609' action='modify' visible='true' lat='-26.67125495803' lon='152.86975987127' />
  <node id='-1332610' action='modify' visible='true' lat='-26.67104860791' lon='152.86975957844' />
  <node id='-1332611' action='modify' visible='true' lat='-26.67101897884' lon='152.86964115771' />
  <node id='-1332612' action='modify' visible='true' lat='-26.67103450987' lon='152.86960459707' />
  <node id='-1332613' action='modify' visible='true' lat='-26.6710516876' lon='152.86953900026' />
  <node id='-1332614' action='modify' visible='true' lat='-26.67106178046' lon='152.86950503389' />
  <way id='-1332241' action='modify' visible='true'>
    <nd ref='-1331854' />
    <nd ref='-1332242' />
    <nd ref='-1332243' />
    <nd ref='-1332237' />
    <nd ref='-1332238' />
    <nd ref='-1332239' />
    <nd ref='-1332240' />
    <nd ref='-1332244' />
    <tag k='name' v='Narrows Lookout' />
    <tag k='role' v='sidetrack' />
    <tag k='style' v='return' />
  </way>
  <way id='-1332588' action='modify' visible='true'>
    <nd ref='-1332194' />
    <nd ref='-1332193' />
    <nd ref='-1332192' />
    <nd ref='-1332191' />
    <nd ref='-1332198' />
    <nd ref='-1332197' />
    <nd ref='-1332196' />
    <nd ref='-1332195' />
    <nd ref='-1332186' />
    <nd ref='-1332185' />
    <nd ref='-1332184' />
    <nd ref='-1332183' />
    <nd ref='-1332190' />
    <nd ref='-1332189' />
    <nd ref='-1332188' />
    <nd ref='-1332187' />
    <nd ref='-1332146' />
    <nd ref='-1332145' />
    <nd ref='-1332144' />
    <nd ref='-1332143' />
    <nd ref='-1332172' />
    <nd ref='-1332171' />
    <nd ref='-1331832' />
    <nd ref='-1331831' />
    <nd ref='-1331846' />
    <nd ref='-1332150' />
    <nd ref='-1332149' />
    <nd ref='-1332148' />
    <nd ref='-1332147' />
    <nd ref='-1332138' />
    <nd ref='-1332137' />
    <nd ref='-1332136' />
    <nd ref='-1332135' />
    <nd ref='-1332142' />
    <nd ref='-1332141' />
    <nd ref='-1332140' />
    <nd ref='-1332139' />
    <nd ref='-1332162' />
    <nd ref='-1332161' />
    <nd ref='-1332160' />
    <nd ref='-1332159' />
    <nd ref='-1332166' />
    <nd ref='-1332165' />
    <nd ref='-1332164' />
    <nd ref='-1332163' />
    <nd ref='-1332154' />
    <nd ref='-1332153' />
    <nd ref='-1332152' />
    <nd ref='-1332151' />
    <nd ref='-1332158' />
    <nd ref='-1332157' />
    <nd ref='-1332156' />
    <nd ref='-1332155' />
    <nd ref='-1332114' />
    <nd ref='-1332113' />
    <nd ref='-1332112' />
    <nd ref='-1332111' />
    <nd ref='-1332118' />
    <nd ref='-1332117' />
    <nd ref='-1332206' />
    <nd ref='-1332205' />
    <nd ref='-1332204' />
    <nd ref='-1332203' />
    <nd ref='-1332226' />
    <nd ref='-1332225' />
    <nd ref='-1332224' />
    <nd ref='-1332223' />
    <nd ref='-1332230' />
    <nd ref='-1332229' />
    <nd ref='-1332228' />
    <nd ref='-1332227' />
    <nd ref='-1332218' />
    <nd ref='-1332124' />
    <nd ref='-1332125' />
    <nd ref='-1332126' />
    <nd ref='-1332119' />
    <nd ref='-1332120' />
    <nd ref='-1332121' />
    <nd ref='-1332122' />
    <nd ref='-1332131' />
    <nd ref='-1332132' />
    <nd ref='-1332133' />
    <nd ref='-1332134' />
    <nd ref='-1332127' />
    <nd ref='-1332128' />
    <nd ref='-1332129' />
    <nd ref='-1332130' />
    <nd ref='-1332107' />
    <nd ref='-1332108' />
    <nd ref='-1332109' />
    <nd ref='-1332110' />
    <nd ref='-1332103' />
    <nd ref='-1332104' />
    <nd ref='-1332105' />
    <nd ref='-1332106' />
    <nd ref='-1331836' />
    <nd ref='-1332175' />
    <nd ref='-1332176' />
    <nd ref='-1332177' />
    <nd ref='-1332181' />
    <nd ref='-1332182' />
    <nd ref='-1332173' />
    <nd ref='-1332174' />
    <nd ref='-1332167' />
    <nd ref='-1332168' />
    <nd ref='-1332169' />
    <nd ref='-1332170' />
    <nd ref='-1332179' />
    <nd ref='-1332115' />
    <nd ref='-1331843' />
    <nd ref='-1332116' />
    <nd ref='-1332178' />
    <nd ref='-1332219' />
    <nd ref='-1332220' />
    <nd ref='-1332221' />
    <nd ref='-1332222' />
    <nd ref='-1332215' />
    <nd ref='-1332216' />
    <nd ref='-1332217' />
    <nd ref='-1332524' />
    <nd ref='-1332545' />
    <nd ref='-1332544' />
    <nd ref='-1332543' />
    <nd ref='-1332542' />
    <nd ref='-1332541' />
    <nd ref='-1332540' />
    <nd ref='-1332539' />
    <nd ref='-1332538' />
    <nd ref='-1332537' />
    <nd ref='-1332536' />
    <nd ref='-1332535' />
    <nd ref='-1332534' />
    <nd ref='-1332533' />
    <nd ref='-1332532' />
    <nd ref='-1332199' />
    <nd ref='-1332200' />
    <nd ref='-1332201' />
    <nd ref='-1332202' />
    <nd ref='-1332211' />
    <nd ref='-1332212' />
    <nd ref='-1332213' />
    <nd ref='-1332214' />
    <nd ref='-1332207' />
    <nd ref='-1332208' />
    <nd ref='-1332209' />
    <nd ref='-1332210' />
    <nd ref='-1332233' />
    <nd ref='-1332234' />
    <nd ref='-1332235' />
    <nd ref='-1332236' />
    <nd ref='-1332231' />
    <nd ref='-1332232' />
    <nd ref='-1331833' />
    <nd ref='-1331834' />
    <nd ref='-1331827' />
    <nd ref='-1331828' />
    <nd ref='-1331829' />
    <nd ref='-1331830' />
    <nd ref='-1331839' />
    <nd ref='-1331840' />
    <nd ref='-1332592' />
    <nd ref='-1332614' />
    <nd ref='-1332613' />
    <nd ref='-1332612' />
    <nd ref='-1332611' />
    <nd ref='-1332610' />
    <nd ref='-1332609' />
    <nd ref='-1332608' />
    <nd ref='-1332607' />
    <nd ref='-1332606' />
    <nd ref='-1332605' />
    <nd ref='-1332604' />
    <nd ref='-1332603' />
    <nd ref='-1332602' />
    <nd ref='-1332601' />
    <nd ref='-1332600' />
    <nd ref='-1332599' />
    <nd ref='-1332598' />
    <nd ref='-1332597' />
    <nd ref='-1332596' />
    <nd ref='-1332595' />
    <nd ref='-1332594' />
    <nd ref='-1332591' />
    <tag k='name' v='Kondalilla Falls Loop' />
    <tag k='park' v='Kondalilla National Park' />
    <tag k='role' v='primary' />
    <tag k='style' v='loop' />
    <tag k='transport' v='car' />
  </way>
</osm>
