<?xml version='1.0' encoding='UTF-8'?>
<osm version='0.6' upload='false' generator='JOSM'>
  <node id='-106504' action='modify' lat='-33.4747001' lon='151.2694498' />
  <node id='-106506' action='modify' lat='-33.4747479' lon='151.2695068' />
  <node id='-106508' action='modify' lat='-33.4748028' lon='151.2695067' />
  <node id='-106510' action='modify' lat='-33.4751132' lon='151.2694873' />
  <node id='-106512' action='modify' lat='-33.4751412' lon='151.2696001' />
  <node id='-106514' action='modify' lat='-33.4747648' lon='151.2702061' />
  <node id='-106516' action='modify' lat='-33.4742916' lon='151.2705123' />
  <node id='-106518' action='modify' lat='-33.4742269' lon='151.2708792' />
  <node id='-106520' action='modify' lat='-33.4743633' lon='151.2709494' />
  <node id='-106522' action='modify' lat='-33.4744532' lon='151.2711248' />
  <node id='-106524' action='modify' lat='-33.4745521' lon='151.2711202' />
  <node id='-106526' action='modify' lat='-33.4747434' lon='151.2710257' />
  <node id='-106528' action='modify' lat='-33.4747799' lon='151.2711731' />
  <node id='-106530' action='modify' lat='-33.4748539' lon='151.2711592' />
  <node id='-106532' action='modify' lat='-33.4753354' lon='151.2708463' />
  <node id='-106534' action='modify' lat='-33.4753996' lon='151.2710215' />
  <node id='-106536' action='modify' lat='-33.4752609' lon='151.2712321' />
  <node id='-106538' action='modify' lat='-33.4752083' lon='151.2713917' />
  <node id='-106540' action='modify' lat='-33.475238' lon='151.2714308' />
  <node id='-106542' action='modify' lat='-33.4754546' lon='151.2713057' />
  <node id='-106544' action='modify' lat='-33.4755282' lon='151.2714614' />
  <node id='-106546' action='modify' lat='-33.4760174' lon='151.2719458' />
  <node id='-106548' action='modify' lat='-33.4760775' lon='151.2720421' />
  <node id='-106550' action='modify' lat='-33.4761032' lon='151.2721105' />
  <node id='-106552' action='modify' lat='-33.4761871' lon='151.2720883' />
  <node id='-106554' action='modify' lat='-33.4767456' lon='151.2717526' />
  <node id='-106556' action='modify' lat='-33.4767545' lon='151.2718489' />
  <node id='-106558' action='modify' lat='-33.4768938' lon='151.2724206' />
  <node id='-106560' action='modify' lat='-33.4770329' lon='151.2729457' />
  <node id='-106562' action='modify' lat='-33.477063' lon='151.2730432' />
  <node id='-106564' action='modify' lat='-33.477172' lon='151.2732574' />
  <node id='-106566' action='modify' lat='-33.477271' lon='151.2736805' />
  <node id='-106568' action='modify' lat='-33.4773057' lon='151.2740947' />
  <node id='-106570' action='modify' lat='-33.4773222' lon='151.2743721' />
  <node id='-106572' action='modify' lat='-33.4772912' lon='151.2745479' />
  <node id='-106574' action='modify' lat='-33.4772873' lon='151.2746137' />
  <node id='-106576' action='modify' lat='-33.4773084' lon='151.2747186' />
  <node id='-106578' action='modify' lat='-33.4774159' lon='151.2748749' />
  <node id='-106580' action='modify' lat='-33.4776651' lon='151.27517' />
  <node id='-106582' action='modify' lat='-33.477718' lon='151.2752534' />
  <node id='-106584' action='modify' lat='-33.4778427' lon='151.2753975' />
  <node id='-106586' action='modify' lat='-33.4779109' lon='151.2755093' />
  <node id='-106588' action='modify' lat='-33.4780198' lon='151.2757917' />
  <node id='-106590' action='modify' lat='-33.4780435' lon='151.2759139' />
  <node id='-106592' action='modify' lat='-33.4780556' lon='151.2760462' />
  <node id='-106594' action='modify' lat='-33.4780155' lon='151.2762498' />
  <node id='-106596' action='modify' lat='-33.4779737' lon='151.2764252' />
  <node id='-106598' action='modify' lat='-33.4778606' lon='151.2767205' />
  <node id='-106600' action='modify' lat='-33.4778462' lon='151.2767941' />
  <node id='-106602' action='modify' lat='-33.4778494' lon='151.2769499' />
  <node id='-106604' action='modify' lat='-33.4778762' lon='151.2771135' />
  <node id='-106606' action='modify' lat='-33.4779487' lon='151.2774094' />
  <node id='-106608' action='modify' lat='-33.477949' lon='151.2775232' />
  <node id='-106610' action='modify' lat='-33.4779114' lon='151.27765' />
  <node id='-106612' action='modify' lat='-33.4778572' lon='151.2777331' />
  <node id='-106614' action='modify' lat='-33.4777921' lon='151.277796' />
  <node id='-106616' action='modify' lat='-33.4774379' lon='151.2780446' />
  <node id='-106618' action='modify' lat='-33.4772543' lon='151.2781696' />
  <node id='-106620' action='modify' lat='-33.4771126' lon='151.2783102' />
  <node id='-106622' action='modify' lat='-33.4769982' lon='151.278527' />
  <node id='-106624' action='modify' lat='-33.4769707' lon='151.2787034' />
  <node id='-106626' action='modify' lat='-33.4769638' lon='151.2788138' />
  <node id='-106628' action='modify' lat='-33.4770423' lon='151.2792747' />
  <node id='-106630' action='modify' lat='-33.4770933' lon='151.2793777' />
  <node id='-106632' action='modify' lat='-33.4772107' lon='151.279533' />
  <node id='-106634' action='modify' lat='-33.4772723' lon='151.279702' />
  <node id='-106636' action='modify' lat='-33.4772496' lon='151.2801795' />
  <node id='-106638' action='modify' lat='-33.4773673' lon='151.2806501' />
  <node id='-106640' action='modify' lat='-33.4773225' lon='151.2809124' />
  <node id='-106642' action='modify' lat='-33.4772934' lon='151.2814862' />
  <node id='-106644' action='modify' lat='-33.4773066' lon='151.2816338' />
  <node id='-106646' action='modify' lat='-33.4773203' lon='151.2817638' />
  <node id='-106648' action='modify' lat='-33.4774784' lon='151.2822538' />
  <node id='-106650' action='modify' lat='-33.4774786' lon='151.2823666' />
  <node id='-106652' action='modify' lat='-33.4774581' lon='151.2824817' />
  <node id='-106654' action='modify' lat='-33.4774305' lon='151.2825671' />
  <node id='-106656' action='modify' lat='-33.4773902' lon='151.2826408' />
  <node id='-106658' action='modify' lat='-33.4772529' lon='151.2827837' />
  <node id='-106660' action='modify' lat='-33.4772202' lon='151.2828521' />
  <node id='-106662' action='modify' lat='-33.4771877' lon='151.2829506' />
  <node id='-106664' action='modify' lat='-33.4771516' lon='151.2830146' />
  <node id='-106666' action='modify' lat='-33.4770139' lon='151.2831091' />
  <node id='-106668' action='modify' lat='-33.4764944' lon='151.2835285' />
  <node id='-106670' action='modify' lat='-33.47637' lon='151.2836447' />
  <node id='-106672' action='modify' lat='-33.4762727' lon='151.2837151' />
  <node id='-106674' action='modify' lat='-33.4761631' lon='151.2837573' />
  <node id='-106676' action='modify' lat='-33.4760786' lon='151.2837945' />
  <node id='-106678' action='modify' lat='-33.4757799' lon='151.2839821' />
  <node id='-106680' action='modify' lat='-33.4756485' lon='151.2840282' />
  <node id='-106682' action='modify' lat='-33.4755668' lon='151.2840671' />
  <node id='-106684' action='modify' lat='-33.4755003' lon='151.284114' />
  <node id='-106686' action='modify' lat='-33.4754649' lon='151.2841479' />
  <node id='-106688' action='modify' lat='-33.4754292' lon='151.2841945' />
  <node id='-106690' action='modify' lat='-33.4754007' lon='151.2842448' />
  <node id='-106692' action='modify' lat='-33.4753806' lon='151.2842984' />
  <node id='-106694' action='modify' lat='-33.4753783' lon='151.2843581' />
  <node id='-106696' action='modify' lat='-33.4753968' lon='151.284454' />
  <node id='-106698' action='modify' lat='-33.4754908' lon='151.284676' />
  <node id='-106700' action='modify' lat='-33.4755107' lon='151.2847802' />
  <node id='-106702' action='modify' lat='-33.4754992' lon='151.2848711' />
  <node id='-106704' action='modify' lat='-33.4754646' lon='151.2850168' />
  <node id='-106706' action='modify' lat='-33.4753034' lon='151.2852741' />
  <node id='-106708' action='modify' lat='-33.4751242' lon='151.2855569' />
  <node id='-106710' action='modify' lat='-33.4748498' lon='151.2858608' />
  <node id='-106712' action='modify' lat='-33.4747567' lon='151.2860112' />
  <node id='-106714' action='modify' lat='-33.4747135' lon='151.2861329' />
  <node id='-106716' action='modify' lat='-33.4746775' lon='151.2862584' />
  <node id='-106718' action='modify' lat='-33.4746495' lon='151.2863703' />
  <node id='-106720' action='modify' lat='-33.4745642' lon='151.2868425' />
  <node id='-106722' action='modify' lat='-33.4745567' lon='151.2869136' />
  <node id='-106724' action='modify' lat='-33.4745678' lon='151.2869785' />
  <node id='-106726' action='modify' lat='-33.4745819' lon='151.2870343' />
  <node id='-106728' action='modify' lat='-33.4746367' lon='151.2871335' />
  <node id='-106730' action='modify' lat='-33.4746522' lon='151.2872109' />
  <node id='-106732' action='modify' lat='-33.4746467' lon='151.2872951' />
  <node id='-106734' action='modify' lat='-33.4746171' lon='151.2874212' />
  <node id='-106736' action='modify' lat='-33.4746121' lon='151.2874695' />
  <node id='-106738' action='modify' lat='-33.474621' lon='151.2875137' />
  <node id='-106740' action='modify' lat='-33.4746328' lon='151.2875493' />
  <node id='-106742' action='modify' lat='-33.4746531' lon='151.2875859' />
  <node id='-106744' action='modify' lat='-33.4748428' lon='151.2877979' />
  <node id='-106746' action='modify' lat='-33.4748962' lon='151.2878745' />
  <node id='-106748' action='modify' lat='-33.4749231' lon='151.287957' />
  <node id='-106750' action='modify' lat='-33.4749352' lon='151.2880347' />
  <node id='-106752' action='modify' lat='-33.4749235' lon='151.2881403' />
  <node id='-106754' action='modify' lat='-33.4748658' lon='151.2883933' />
  <node id='-106756' action='modify' lat='-33.4739597' lon='151.2880614' />
  <way id='-106757' action='modify'>
    <nd ref='-106756' />
    <nd ref='-106754' />
    <nd ref='-106752' />
    <nd ref='-106750' />
    <nd ref='-106748' />
    <nd ref='-106746' />
    <nd ref='-106744' />
    <nd ref='-106742' />
    <nd ref='-106740' />
    <nd ref='-106738' />
    <nd ref='-106736' />
    <nd ref='-106734' />
    <nd ref='-106732' />
    <nd ref='-106730' />
    <nd ref='-106728' />
    <nd ref='-106726' />
    <nd ref='-106724' />
    <nd ref='-106722' />
    <nd ref='-106720' />
    <nd ref='-106718' />
    <nd ref='-106716' />
    <nd ref='-106714' />
    <nd ref='-106712' />
    <nd ref='-106710' />
    <nd ref='-106708' />
    <nd ref='-106706' />
    <nd ref='-106704' />
    <nd ref='-106702' />
    <nd ref='-106700' />
    <nd ref='-106698' />
    <nd ref='-106696' />
    <nd ref='-106694' />
    <nd ref='-106692' />
    <nd ref='-106690' />
    <nd ref='-106688' />
    <nd ref='-106686' />
    <nd ref='-106684' />
    <nd ref='-106682' />
    <nd ref='-106680' />
    <nd ref='-106678' />
    <nd ref='-106676' />
    <nd ref='-106674' />
    <nd ref='-106672' />
    <nd ref='-106670' />
    <nd ref='-106668' />
    <nd ref='-106666' />
    <nd ref='-106664' />
    <nd ref='-106662' />
    <nd ref='-106660' />
    <nd ref='-106658' />
    <nd ref='-106656' />
    <nd ref='-106654' />
    <nd ref='-106652' />
    <nd ref='-106650' />
    <nd ref='-106648' />
    <nd ref='-106646' />
    <nd ref='-106644' />
    <nd ref='-106642' />
    <nd ref='-106640' />
    <nd ref='-106638' />
    <nd ref='-106636' />
    <nd ref='-106634' />
    <nd ref='-106632' />
    <nd ref='-106630' />
    <nd ref='-106628' />
    <nd ref='-106626' />
    <nd ref='-106624' />
    <nd ref='-106622' />
    <nd ref='-106620' />
    <nd ref='-106618' />
    <nd ref='-106616' />
    <nd ref='-106614' />
    <nd ref='-106612' />
    <nd ref='-106610' />
    <nd ref='-106608' />
    <nd ref='-106606' />
    <nd ref='-106604' />
    <nd ref='-106602' />
    <nd ref='-106600' />
    <nd ref='-106598' />
    <nd ref='-106596' />
    <nd ref='-106594' />
    <nd ref='-106592' />
    <nd ref='-106590' />
    <nd ref='-106588' />
    <nd ref='-106586' />
    <nd ref='-106584' />
    <nd ref='-106582' />
    <nd ref='-106580' />
    <nd ref='-106578' />
    <nd ref='-106576' />
    <nd ref='-106574' />
    <nd ref='-106572' />
    <nd ref='-106570' />
    <nd ref='-106568' />
    <nd ref='-106566' />
    <nd ref='-106564' />
    <nd ref='-106562' />
    <nd ref='-106560' />
    <nd ref='-106558' />
    <nd ref='-106556' />
    <nd ref='-106554' />
    <nd ref='-106552' />
    <nd ref='-106550' />
    <nd ref='-106548' />
    <nd ref='-106546' />
    <nd ref='-106544' />
    <nd ref='-106542' />
    <nd ref='-106540' />
    <nd ref='-106538' />
    <nd ref='-106536' />
    <nd ref='-106534' />
    <nd ref='-106532' />
    <nd ref='-106530' />
    <nd ref='-106528' />
    <nd ref='-106526' />
    <nd ref='-106524' />
    <nd ref='-106522' />
    <nd ref='-106520' />
    <nd ref='-106518' />
    <nd ref='-106516' />
    <nd ref='-106514' />
    <nd ref='-106512' />
    <nd ref='-106510' />
    <nd ref='-106508' />
    <nd ref='-106506' />
    <nd ref='-106504' />
    <tag k='name' v='Kariong Brook Falls from Woy Woy Road' />
    <tag k='park' v='Brisbane Water National Park' />
    <tag k='role' v='primary' />
    <tag k='style' v='return' />
    <tag k='photo' v='155823486@N07/49554744793' />
    <tag k='transport' v='car' />
  </way>
</osm>
