<?xml version='1.0' encoding='UTF-8'?>
<osm version='0.6' upload='false' generator='JOSM'>
  <node id='-103683' action='modify' lat='-33.7437396' lon='151.1763206' />
  <node id='-103684' action='modify' lat='-33.74344' lon='151.1762971' />
  <node id='-103685' action='modify' lat='-33.7432511' lon='151.1762018' />
  <node id='-103686' action='modify' lat='-33.7431484' lon='151.1761651' />
  <node id='-103687' action='modify' lat='-33.7440339' lon='151.1779694' />
  <node id='-103688' action='modify' lat='-33.7439357' lon='151.1777066' />
  <node id='-103689' action='modify' lat='-33.7439179' lon='151.1775181' />
  <node id='-103690' action='modify' lat='-33.7438777' lon='151.1771594' />
  <node id='-103691' action='modify' lat='-33.7438033' lon='151.1785235' />
  <node id='-103692' action='modify' lat='-33.743603' lon='151.1788486' />
  <node id='-103693' action='modify' lat='-33.7431881' lon='151.1791758' />
  <node id='-103694' action='modify' lat='-33.7432907' lon='151.1795352' />
  <node id='-103695' action='modify' lat='-33.7436342' lon='151.179605' />
  <node id='-103696' action='modify' lat='-33.7438215' lon='151.1799429' />
  <node id='-103697' action='modify' lat='-33.7438791' lon='151.1802026' />
  <node id='-103698' action='modify' lat='-33.7438434' lon='151.1803689' />
  <node id='-103699' action='modify' lat='-33.7438077' lon='151.1804708' />
  <node id='-103700' action='modify' lat='-33.7438568' lon='151.1805459' />
  <node id='-103701' action='modify' lat='-33.7439946' lon='151.180587' />
  <node id='-103702' action='modify' lat='-33.7440177' lon='151.1807533' />
  <node id='-103703' action='modify' lat='-33.7441943' lon='151.1808549' />
  <node id='-103704' action='modify' lat='-33.744202' lon='151.1809796' />
  <node id='-103705' action='modify' lat='-33.7442409' lon='151.1810802' />
  <node id='-103706' action='modify' lat='-33.7443096' lon='151.1811367' />
  <node id='-103707' action='modify' lat='-33.744401' lon='151.1812647' />
  <node id='-103708' action='modify' lat='-33.7445054' lon='151.1813445' />
  <node id='-103709' action='modify' lat='-33.7445976' lon='151.1815108' />
  <node id='-103710' action='modify' lat='-33.7445822' lon='151.1816725' />
  <node id='-103711' action='modify' lat='-33.7444367' lon='151.1818441' />
  <node id='-103712' action='modify' lat='-33.7445125' lon='151.1821874' />
  <node id='-103713' action='modify' lat='-33.7448118' lon='151.1824535' />
  <node id='-103714' action='modify' lat='-33.7448203' lon='151.1827828' />
  <node id='-103715' action='modify' lat='-33.7447757' lon='151.1829545' />
  <node id='-103716' action='modify' lat='-33.744905' lon='151.1831584' />
  <node id='-103717' action='modify' lat='-33.7449006' lon='151.1834695' />
  <node id='-103718' action='modify' lat='-33.7450745' lon='151.1838182' />
  <node id='-103719' action='modify' lat='-33.7450478' lon='151.1839523' />
  <node id='-103720' action='modify' lat='-33.7451415' lon='151.1841669' />
  <node id='-103721' action='modify' lat='-33.7452663' lon='151.1843385' />
  <node id='-103722' action='modify' lat='-33.7452663' lon='151.1844244' />
  <node id='-103723' action='modify' lat='-33.745195' lon='151.1844512' />
  <node id='-103724' action='modify' lat='-33.7451147' lon='151.1843546' />
  <node id='-103725' action='modify' lat='-33.745021' lon='151.1845424' />
  <node id='-103726' action='modify' lat='-33.7450478' lon='151.1847301' />
  <node id='-103727' action='modify' lat='-33.7451062' lon='151.1848299' />
  <node id='-103728' action='modify' lat='-33.7451058' lon='151.1849286' />
  <node id='-103729' action='modify' lat='-33.745195' lon='151.1852666' />
  <node id='-103730' action='modify' lat='-33.7453823' lon='151.1854758' />
  <node id='-103731' action='modify' lat='-33.7453868' lon='151.1855831' />
  <node id='-103732' action='modify' lat='-33.7453248' lon='151.1856775' />
  <node id='-103733' action='modify' lat='-33.7452351' lon='151.1856635' />
  <node id='-103734' action='modify' lat='-33.7452084' lon='151.1858298' />
  <node id='-103735' action='modify' lat='-33.7452275' lon='151.1862174' />
  <node id='-103736' action='modify' lat='-33.7452889' lon='151.1864576' />
  <node id='-103737' action='modify' lat='-33.7451419' lon='151.1868469' />
  <node id='-103738' action='modify' lat='-33.7450278' lon='151.1870996' />
  <node id='-103739' action='modify' lat='-33.744878' lon='151.1872566' />
  <node id='-103740' action='modify' lat='-33.7447704' lon='151.1875661' />
  <node id='-103741' action='modify' lat='-33.7444545' lon='151.1880346' />
  <node id='-103742' action='modify' lat='-33.7443742' lon='151.18804' />
  <node id='-103743' action='modify' lat='-33.7443118' lon='151.1880185' />
  <node id='-103744' action='modify' lat='-33.7441824' lon='151.1881526' />
  <node id='-103745' action='modify' lat='-33.7441155' lon='151.1881043' />
  <node id='-103746' action='modify' lat='-33.7439772' lon='151.1882116' />
  <node id='-103747' action='modify' lat='-33.7438702' lon='151.1881365' />
  <node id='-103748' action='modify' lat='-33.7438925' lon='151.1881043' />
  <node id='-103749' action='modify' lat='-33.7438657' lon='151.187981' />
  <node id='-103750' action='modify' lat='-33.7439955' lon='151.1878447' />
  <node id='-103751' action='modify' lat='-33.744178' lon='151.1876591' />
  <node id='-103752' action='modify' lat='-33.7443653' lon='151.1873587' />
  <node id='-103753' action='modify' lat='-33.7444679' lon='151.1871763' />
  <node id='-103754' action='modify' lat='-33.7444817' lon='151.1869864' />
  <node id='-103755' action='modify' lat='-33.7444233' lon='151.186715' />
  <node id='-103756' action='modify' lat='-33.7443608' lon='151.1864628' />
  <node id='-103757' action='modify' lat='-33.7443042' lon='151.1861323' />
  <way id='-104344' action='modify'>
    <nd ref='-103686' />
    <nd ref='-103685' />
    <nd ref='-103684' />
    <nd ref='-103683' />
    <nd ref='-103690' />
    <nd ref='-103689' />
    <nd ref='-103688' />
    <nd ref='-103687' />
    <nd ref='-103691' />
    <nd ref='-103692' />
    <nd ref='-103693' />
    <nd ref='-103694' />
    <nd ref='-103695' />
    <nd ref='-103696' />
    <nd ref='-103697' />
    <nd ref='-103698' />
    <nd ref='-103699' />
    <nd ref='-103700' />
    <nd ref='-103701' />
    <nd ref='-103702' />
    <nd ref='-103703' />
    <nd ref='-103704' />
    <nd ref='-103705' />
    <nd ref='-103706' />
    <nd ref='-103707' />
    <nd ref='-103708' />
    <nd ref='-103709' />
    <nd ref='-103710' />
    <nd ref='-103711' />
    <nd ref='-103712' />
    <nd ref='-103713' />
    <nd ref='-103714' />
    <nd ref='-103715' />
    <nd ref='-103716' />
    <nd ref='-103717' />
    <nd ref='-103718' />
    <nd ref='-103719' />
    <nd ref='-103720' />
    <nd ref='-103721' />
    <nd ref='-103722' />
    <nd ref='-103723' />
    <nd ref='-103724' />
    <nd ref='-103725' />
    <nd ref='-103726' />
    <nd ref='-103727' />
    <nd ref='-103728' />
    <nd ref='-103729' />
    <nd ref='-103730' />
    <nd ref='-103731' />
    <nd ref='-103732' />
    <nd ref='-103733' />
    <nd ref='-103734' />
    <nd ref='-103735' />
    <nd ref='-103736' />
    <nd ref='-103737' />
    <nd ref='-103738' />
    <nd ref='-103739' />
    <nd ref='-103740' />
    <nd ref='-103741' />
    <nd ref='-103742' />
    <nd ref='-103743' />
    <nd ref='-103744' />
    <nd ref='-103745' />
    <nd ref='-103746' />
    <nd ref='-103747' />
    <nd ref='-103748' />
    <nd ref='-103749' />
    <nd ref='-103750' />
    <nd ref='-103751' />
    <nd ref='-103752' />
    <nd ref='-103753' />
    <nd ref='-103754' />
    <nd ref='-103755' />
    <nd ref='-103756' />
    <nd ref='-103757' />
    <tag k='name' v='Bungaroo Track' />
    <tag k='park' v='Garigal National Park' />
    <tag k='photo' v='136319147@N08/49763956541' />
    <tag k='role' v='primary' />
    <tag k='style' v='return' />
    <tag k='transport' v='car;train+bus' />
  </way>
</osm>
