<?xml version='1.0' encoding='UTF-8'?>
<osm version='0.6' upload='false' generator='JOSM'>
  <node id='-104033' action='modify' visible='true' lat='-33.2441085' lon='150.227492' />
  <node id='-104034' action='modify' visible='true' lat='-33.2441954' lon='150.2273697' />
  <node id='-104035' action='modify' visible='true' lat='-33.2443733' lon='150.2272166' />
  <node id='-104036' action='modify' visible='true' lat='-33.2448407' lon='150.2267782' />
  <node id='-104037' action='modify' visible='true' lat='-33.2451303' lon='150.2262859' />
  <node id='-104038' action='modify' visible='true' lat='-33.2456928' lon='150.2263149' />
  <node id='-104039' action='modify' visible='true' lat='-33.2463009' lon='150.2263563' />
  <node id='-104040' action='modify' visible='true' lat='-33.2469503' lon='150.2264018' />
  <node id='-104041' action='modify' visible='true' lat='-33.2473971' lon='150.2261246' />
  <node id='-104042' action='modify' visible='true' lat='-33.2477564' lon='150.2256527' />
  <node id='-104043' action='modify' visible='true' lat='-33.2480424' lon='150.2252022' />
  <node id='-104044' action='modify' visible='true' lat='-33.2481541' lon='150.2247637' />
  <node id='-104045' action='modify' visible='true' lat='-33.2481003' lon='150.2241143' />
  <node id='-104046' action='modify' visible='true' lat='-33.2479778' lon='150.2236384' />
  <node id='-104047' action='modify' visible='true' lat='-33.2393459' lon='150.2278055' />
  <node id='-104048' action='modify' visible='true' lat='-33.239814' lon='150.2276752' />
  <node id='-104049' action='modify' visible='true' lat='-33.2402041' lon='150.2275814' />
  <node id='-104050' action='modify' visible='true' lat='-33.2405153' lon='150.2274524' />
  <node id='-104051' action='modify' visible='true' lat='-33.2407915' lon='150.2271203' />
  <node id='-104052' action='modify' visible='true' lat='-33.2409922' lon='150.2269763' />
  <node id='-104053' action='modify' visible='true' lat='-33.2413576' lon='150.2265894' />
  <node id='-104054' action='modify' visible='true' lat='-33.2415493' lon='150.226484' />
  <node id='-104055' action='modify' visible='true' lat='-33.241986' lon='150.2265957' />
  <node id='-104056' action='modify' visible='true' lat='-33.2421804' lon='150.2267315' />
  <node id='-104057' action='modify' visible='true' lat='-33.2422939' lon='150.2268912' />
  <node id='-104058' action='modify' visible='true' lat='-33.2424542' lon='150.2269631' />
  <node id='-104059' action='modify' visible='true' lat='-33.2426667' lon='150.2271717' />
  <node id='-104060' action='modify' visible='true' lat='-33.2429876' lon='150.2274359' />
  <node id='-104061' action='modify' visible='true' lat='-33.2436535' lon='150.2275062' />
  <node id='-104062' action='modify' visible='true' lat='-33.2393012' lon='150.2250266' />
  <node id='-104063' action='modify' visible='true' lat='-33.2390297' lon='150.2259203' />
  <node id='-104064' action='modify' visible='true' lat='-33.2389351' lon='150.2266519' />
  <node id='-104065' action='modify' visible='true' lat='-33.2389003' lon='150.2274135' />
  <node id='-104066' action='modify' visible='true' lat='-33.2390902' lon='150.227742' />
  <way id='-102720' action='modify' visible='true'>
    <nd ref='-104046' />
    <nd ref='-104045' />
    <nd ref='-104044' />
    <nd ref='-104043' />
    <nd ref='-104042' />
    <nd ref='-104041' />
    <nd ref='-104040' />
    <nd ref='-104039' />
    <nd ref='-104038' />
    <nd ref='-104037' />
    <nd ref='-104036' />
    <nd ref='-104035' />
    <nd ref='-104034' />
    <nd ref='-104033' />
    <nd ref='-104061' />
    <nd ref='-104060' />
    <nd ref='-104059' />
    <nd ref='-104058' />
    <nd ref='-104057' />
    <nd ref='-104056' />
    <nd ref='-104055' />
    <nd ref='-104054' />
    <nd ref='-104053' />
    <nd ref='-104052' />
    <nd ref='-104051' />
    <nd ref='-104050' />
    <nd ref='-104049' />
    <nd ref='-104048' />
    <nd ref='-104047' />
    <nd ref='-104066' />
    <nd ref='-104065' />
    <nd ref='-104064' />
    <nd ref='-104063' />
    <nd ref='-104062' />
    <tag k='name' v='Glow Worm Tunnel' />
    <tag k='park' v='Wollemi National Park' />
    <tag k='role' v='primary' />
    <tag k='style' v='return' />
    <tag k='transport' v='car' />
    <tag k='photo' v='155823486@N07/49637967146' />
  </way>
</osm>
