<?xml version='1.0' encoding='UTF-8'?>
<osm version='0.6' upload='false' generator='JOSM'>
  <node id='-105176' action='modify' visible='true' lat='-33.7108603' lon='151.276101' />
  <node id='-105177' action='modify' visible='true' lat='-33.7231069' lon='151.2742137' />
  <node id='-105178' action='modify' visible='true' lat='-33.7231444' lon='151.2742299' />
  <node id='-105179' action='modify' visible='true' lat='-33.7231884' lon='151.274233' />
  <node id='-105180' action='modify' visible='true' lat='-33.7232366' lon='151.2742336' />
  <node id='-105181' action='modify' visible='true' lat='-33.7232759' lon='151.2742276' />
  <node id='-105182' action='modify' visible='true' lat='-33.7233262' lon='151.2742139' />
  <node id='-105183' action='modify' visible='true' lat='-33.7233736' lon='151.2742127' />
  <node id='-105184' action='modify' visible='true' lat='-33.7234125' lon='151.2742432' />
  <node id='-105185' action='modify' visible='true' lat='-33.7234661' lon='151.2742651' />
  <node id='-105186' action='modify' visible='true' lat='-33.7235129' lon='151.2742831' />
  <node id='-105187' action='modify' visible='true' lat='-33.7235621' lon='151.2742811' />
  <node id='-105188' action='modify' visible='true' lat='-33.7236042' lon='151.2742778' />
  <node id='-105189' action='modify' visible='true' lat='-33.7236483' lon='151.2742885' />
  <node id='-105190' action='modify' visible='true' lat='-33.7236945' lon='151.2743276' />
  <node id='-105191' action='modify' visible='true' lat='-33.7237827' lon='151.2744304' />
  <node id='-105192' action='modify' visible='true' lat='-33.7238586' lon='151.274564' />
  <node id='-105193' action='modify' visible='true' lat='-33.7238857' lon='151.2746703' />
  <node id='-105194' action='modify' visible='true' lat='-33.7238982' lon='151.2747504' />
  <node id='-105195' action='modify' visible='true' lat='-33.7239211' lon='151.2747996' />
  <node id='-105196' action='modify' visible='true' lat='-33.7239445' lon='151.2748547' />
  <node id='-105197' action='modify' visible='true' lat='-33.7239502' lon='151.2749195' />
  <node id='-105198' action='modify' visible='true' lat='-33.7239392' lon='151.2750011' />
  <node id='-105199' action='modify' visible='true' lat='-33.7239325' lon='151.2750718' />
  <node id='-105200' action='modify' visible='true' lat='-33.7239323' lon='151.2751599' />
  <node id='-105201' action='modify' visible='true' lat='-33.7239363' lon='151.2753389' />
  <node id='-105202' action='modify' visible='true' lat='-33.7239296' lon='151.2754495' />
  <node id='-105203' action='modify' visible='true' lat='-33.7239084' lon='151.2755263' />
  <node id='-105204' action='modify' visible='true' lat='-33.7238532' lon='151.2755865' />
  <node id='-105205' action='modify' visible='true' lat='-33.7238315' lon='151.2756478' />
  <node id='-105206' action='modify' visible='true' lat='-33.7238389' lon='151.275736' />
  <node id='-105207' action='modify' visible='true' lat='-33.7238679' lon='151.2757944' />
  <node id='-105208' action='modify' visible='true' lat='-33.7238706' lon='151.2758719' />
  <node id='-105209' action='modify' visible='true' lat='-33.7238631' lon='151.2759766' />
  <node id='-105210' action='modify' visible='true' lat='-33.7238647' lon='151.2760395' />
  <node id='-105211' action='modify' visible='true' lat='-33.7235588' lon='151.2760477' />
  <node id='-105212' action='modify' visible='true' lat='-33.7229149' lon='151.2759165' />
  <node id='-105213' action='modify' visible='true' lat='-33.7223534' lon='151.2760914' />
  <node id='-105214' action='modify' visible='true' lat='-33.7220761' lon='151.2765018' />
  <node id='-105215' action='modify' visible='true' lat='-33.721909' lon='151.2771392' />
  <node id='-105216' action='modify' visible='true' lat='-33.7219371' lon='151.2773308' />
  <node id='-105217' action='modify' visible='true' lat='-33.7218547' lon='151.2775929' />
  <node id='-105218' action='modify' visible='true' lat='-33.7215013' lon='151.2775929' />
  <node id='-105219' action='modify' visible='true' lat='-33.7209204' lon='151.2779662' />
  <node id='-105220' action='modify' visible='true' lat='-33.7207581' lon='151.2778295' />
  <node id='-105221' action='modify' visible='true' lat='-33.7204233' lon='151.2778568' />
  <node id='-105222' action='modify' visible='true' lat='-33.7200981' lon='151.2780604' />
  <node id='-105223' action='modify' visible='true' lat='-33.7194856' lon='151.2788167' />
  <node id='-105224' action='modify' visible='true' lat='-33.7191914' lon='151.2795877' />
  <node id='-105225' action='modify' visible='true' lat='-33.7192085' lon='151.2798132' />
  <node id='-105226' action='modify' visible='true' lat='-33.7189302' lon='151.2799291' />
  <node id='-105227' action='modify' visible='true' lat='-33.7186349' lon='151.2802684' />
  <node id='-105228' action='modify' visible='true' lat='-33.7183002' lon='151.2807426' />
  <node id='-105229' action='modify' visible='true' lat='-33.717774' lon='151.2807233' />
  <node id='-105230' action='modify' visible='true' lat='-33.7168007' lon='151.2810463' />
  <node id='-105231' action='modify' visible='true' lat='-33.7157803' lon='151.2809906' />
  <node id='-105232' action='modify' visible='true' lat='-33.7148271' lon='151.2810186' />
  <node id='-105233' action='modify' visible='true' lat='-33.7147733' lon='151.2810007' />
  <node id='-105234' action='modify' visible='true' lat='-33.7147119' lon='151.2810232' />
  <node id='-105235' action='modify' visible='true' lat='-33.7146349' lon='151.2810622' />
  <node id='-105236' action='modify' visible='true' lat='-33.7145374' lon='151.281132' />
  <node id='-105237' action='modify' visible='true' lat='-33.7144523' lon='151.2812166' />
  <node id='-105238' action='modify' visible='true' lat='-33.7143916' lon='151.2813063' />
  <node id='-105239' action='modify' visible='true' lat='-33.7143377' lon='151.2814423' />
  <node id='-105240' action='modify' visible='true' lat='-33.7143144' lon='151.2815652' />
  <node id='-105241' action='modify' visible='true' lat='-33.7143362' lon='151.2816887' />
  <node id='-105242' action='modify' visible='true' lat='-33.7143968' lon='151.2818204' />
  <node id='-105243' action='modify' visible='true' lat='-33.7144492' lon='151.2819198' />
  <node id='-105244' action='modify' visible='true' lat='-33.7145635' lon='151.2820394' />
  <node id='-105245' action='modify' visible='true' lat='-33.7150909' lon='151.2823361' />
  <node id='-105246' action='modify' visible='true' lat='-33.71587' lon='151.2827274' />
  <node id='-105247' action='modify' visible='true' lat='-33.7162913' lon='151.283028' />
  <node id='-105248' action='modify' visible='true' lat='-33.716646' lon='151.283705' />
  <node id='-105249' action='modify' visible='true' lat='-33.7167119' lon='151.2841676' />
  <node id='-105250' action='modify' visible='true' lat='-33.7170165' lon='151.2845159' />
  <node id='-105251' action='modify' visible='true' lat='-33.7177516' lon='151.2849642' />
  <node id='-105252' action='modify' visible='true' lat='-33.717973' lon='151.2855144' />
  <node id='-105253' action='modify' visible='true' lat='-33.718294' lon='151.2860444' />
  <node id='-105254' action='modify' visible='true' lat='-33.7185085' lon='151.2864146' />
  <node id='-105255' action='modify' visible='true' lat='-33.7186246' lon='151.2866148' />
  <node id='-105256' action='modify' visible='true' lat='-33.718941' lon='151.2866546' />
  <node id='-105257' action='modify' visible='true' lat='-33.7192604' lon='151.2865945' />
  <node id='-105258' action='modify' visible='true' lat='-33.7194373' lon='151.2868734' />
  <node id='-105259' action='modify' visible='true' lat='-33.7194693' lon='151.2872604' />
  <node id='-105260' action='modify' visible='true' lat='-33.7191841' lon='151.2877357' />
  <node id='-105261' action='modify' visible='true' lat='-33.7191324' lon='151.2880922' />
  <node id='-105262' action='modify' visible='true' lat='-33.7191147' lon='151.2883795' />
  <node id='-105263' action='modify' visible='true' lat='-33.7190867' lon='151.2884817' />
  <node id='-105264' action='modify' visible='true' lat='-33.7193162' lon='151.2890642' />
  <node id='-105265' action='modify' visible='true' lat='-33.7196658' lon='151.289742' />
  <node id='-105266' action='modify' visible='true' lat='-33.719767' lon='151.2898759' />
  <node id='-105267' action='modify' visible='true' lat='-33.71988' lon='151.2900253' />
  <node id='-105268' action='modify' visible='true' lat='-33.7200922' lon='151.290384' />
  <node id='-105269' action='modify' visible='true' lat='-33.720238' lon='151.2908787' />
  <node id='-105270' action='modify' visible='true' lat='-33.7203925' lon='151.291166' />
  <node id='-105271' action='modify' visible='true' lat='-33.7208137' lon='151.291615' />
  <node id='-105272' action='modify' visible='true' lat='-33.7211475' lon='151.292136' />
  <node id='-105273' action='modify' visible='true' lat='-33.7212953' lon='151.2922892' />
  <node id='-105274' action='modify' visible='true' lat='-33.7213949' lon='151.2925063' />
  <node id='-105275' action='modify' visible='true' lat='-33.7215267' lon='151.2931791' />
  <node id='-105276' action='modify' visible='true' lat='-33.7216008' lon='151.2936835' />
  <node id='-105277' action='modify' visible='true' lat='-33.7216304' lon='151.2938845' />
  <node id='-105278' action='modify' visible='true' lat='-33.7216186' lon='151.2942171' />
  <node id='-105279' action='modify' visible='true' lat='-33.72148' lon='151.2943546' />
  <node id='-105280' action='modify' visible='true' lat='-33.7210477' lon='151.2945888' />
  <node id='-105281' action='modify' visible='true' lat='-33.7209917' lon='151.2946154' />
  <node id='-105282' action='modify' visible='true' lat='-33.7207195' lon='151.294745' />
  <node id='-105283' action='modify' visible='true' lat='-33.720453' lon='151.2948718' />
  <node id='-105284' action='modify' visible='true' lat='-33.7202081' lon='151.2950638' />
  <node id='-105285' action='modify' visible='true' lat='-33.7196114' lon='151.2952278' />
  <node id='-105286' action='modify' visible='true' lat='-33.719458' lon='151.2952905' />
  <node id='-105287' action='modify' visible='true' lat='-33.7190867' lon='151.2954708' />
  <node id='-105288' action='modify' visible='true' lat='-33.7189225' lon='151.295548' />
  <node id='-105289' action='modify' visible='true' lat='-33.7183979' lon='151.29554' />
  <node id='-105290' action='modify' visible='true' lat='-33.718279' lon='151.2955382' />
  <node id='-105291' action='modify' visible='true' lat='-33.717658' lon='151.2956552' />
  <node id='-105292' action='modify' visible='true' lat='-33.7170338' lon='151.2957401' />
  <node id='-105293' action='modify' visible='true' lat='-33.7170113' lon='151.2957447' />
  <node id='-105294' action='modify' visible='true' lat='-33.7162372' lon='151.2959015' />
  <node id='-105295' action='modify' visible='true' lat='-33.7160981' lon='151.2959846' />
  <node id='-105296' action='modify' visible='true' lat='-33.7157886' lon='151.2960241' />
  <node id='-105297' action='modify' visible='true' lat='-33.7152714' lon='151.2961532' />
  <node id='-105298' action='modify' visible='true' lat='-33.7150965' lon='151.2962219' />
  <node id='-105299' action='modify' visible='true' lat='-33.7149871' lon='151.2962621' />
  <node id='-105300' action='modify' visible='true' lat='-33.7149401' lon='151.2962793' />
  <node id='-105301' action='modify' visible='true' lat='-33.7147498' lon='151.2963026' />
  <node id='-105302' action='modify' visible='true' lat='-33.7145409' lon='151.2963282' />
  <node id='-105303' action='modify' visible='true' lat='-33.7144302' lon='151.2963904' />
  <node id='-105304' action='modify' visible='true' lat='-33.7142603' lon='151.2964628' />
  <node id='-105305' action='modify' visible='true' lat='-33.7139785' lon='151.2964754' />
  <node id='-105306' action='modify' visible='true' lat='-33.7137339' lon='151.2964199' />
  <node id='-105307' action='modify' visible='true' lat='-33.7136086' lon='151.2964133' />
  <node id='-105308' action='modify' visible='true' lat='-33.713535' lon='151.2964019' />
  <node id='-105309' action='modify' visible='true' lat='-33.7134329' lon='151.2963249' />
  <node id='-105310' action='modify' visible='true' lat='-33.7133048' lon='151.2963574' />
  <node id='-105311' action='modify' visible='true' lat='-33.713236' lon='151.2964459' />
  <node id='-105312' action='modify' visible='true' lat='-33.7131651' lon='151.2965774' />
  <node id='-105313' action='modify' visible='true' lat='-33.7131081' lon='151.2966176' />
  <node id='-105314' action='modify' visible='true' lat='-33.7130373' lon='151.2966434' />
  <node id='-105315' action='modify' visible='true' lat='-33.7126096' lon='151.2967548' />
  <node id='-105316' action='modify' visible='true' lat='-33.7125371' lon='151.2968177' />
  <node id='-105317' action='modify' visible='true' lat='-33.7122944' lon='151.2969675' />
  <node id='-105318' action='modify' visible='true' lat='-33.7122038' lon='151.2969855' />
  <node id='-105319' action='modify' visible='true' lat='-33.7120263' lon='151.2969017' />
  <node id='-105320' action='modify' visible='true' lat='-33.7115241' lon='151.2966191' />
  <node id='-105321' action='modify' visible='true' lat='-33.7112386' lon='151.2964448' />
  <node id='-105322' action='modify' visible='true' lat='-33.7110476' lon='151.2962925' />
  <node id='-105323' action='modify' visible='true' lat='-33.7109586' lon='151.2962095' />
  <node id='-105324' action='modify' visible='true' lat='-33.7108332' lon='151.2960762' />
  <node id='-105325' action='modify' visible='true' lat='-33.710743' lon='151.2959595' />
  <node id='-105326' action='modify' visible='true' lat='-33.7106618' lon='151.2958232' />
  <node id='-105327' action='modify' visible='true' lat='-33.7105873' lon='151.2956661' />
  <node id='-105328' action='modify' visible='true' lat='-33.7105425' lon='151.295538' />
  <node id='-105329' action='modify' visible='true' lat='-33.7105209' lon='151.2954445' />
  <node id='-105330' action='modify' visible='true' lat='-33.7105127' lon='151.295397' />
  <node id='-105331' action='modify' visible='true' lat='-33.7105135' lon='151.295286' />
  <node id='-105332' action='modify' visible='true' lat='-33.7105381' lon='151.2947946' />
  <node id='-105333' action='modify' visible='true' lat='-33.7106647' lon='151.2942593' />
  <node id='-105334' action='modify' visible='true' lat='-33.7106807' lon='151.294178' />
  <node id='-105335' action='modify' visible='true' lat='-33.7107127' lon='151.2939653' />
  <node id='-105336' action='modify' visible='true' lat='-33.7108499' lon='151.2933887' />
  <node id='-105337' action='modify' visible='true' lat='-33.710883' lon='151.2933291' />
  <node id='-105338' action='modify' visible='true' lat='-33.7109128' lon='151.293166' />
  <node id='-105339' action='modify' visible='true' lat='-33.7109988' lon='151.2926948' />
  <node id='-105340' action='modify' visible='true' lat='-33.7110236' lon='151.2925537' />
  <node id='-105341' action='modify' visible='true' lat='-33.7110567' lon='151.2922992' />
  <node id='-105342' action='modify' visible='true' lat='-33.7110935' lon='151.2919624' />
  <node id='-105343' action='modify' visible='true' lat='-33.7111182' lon='151.2918184' />
  <node id='-105344' action='modify' visible='true' lat='-33.7111578' lon='151.2916701' />
  <node id='-105345' action='modify' visible='true' lat='-33.7112519' lon='151.2913803' />
  <node id='-105346' action='modify' visible='true' lat='-33.711333' lon='151.2912027' />
  <node id='-105347' action='modify' visible='true' lat='-33.711419' lon='151.2910616' />
  <node id='-105348' action='modify' visible='true' lat='-33.7114885' lon='151.2909562' />
  <node id='-105349' action='modify' visible='true' lat='-33.7115351' lon='151.2908415' />
  <node id='-105350' action='modify' visible='true' lat='-33.7115526' lon='151.2906136' />
  <node id='-105351' action='modify' visible='true' lat='-33.7115546' lon='151.2904935' />
  <node id='-105352' action='modify' visible='true' lat='-33.7115273' lon='151.2903554' />
  <node id='-105353' action='modify' visible='true' lat='-33.711472' lon='151.290219' />
  <node id='-105354' action='modify' visible='true' lat='-33.7113621' lon='151.2901007' />
  <node id='-105355' action='modify' visible='true' lat='-33.7112904' lon='151.2899863' />
  <node id='-105356' action='modify' visible='true' lat='-33.7112514' lon='151.2898743' />
  <node id='-105357' action='modify' visible='true' lat='-33.7112292' lon='151.2897729' />
  <node id='-105358' action='modify' visible='true' lat='-33.7112193' lon='151.2896546' />
  <node id='-105359' action='modify' visible='true' lat='-33.7112107' lon='151.2895505' />
  <node id='-105360' action='modify' visible='true' lat='-33.7112028' lon='151.2893262' />
  <node id='-105361' action='modify' visible='true' lat='-33.7111243' lon='151.2891459' />
  <node id='-105362' action='modify' visible='true' lat='-33.7110457' lon='151.2889485' />
  <node id='-105363' action='modify' visible='true' lat='-33.7110185' lon='151.2887378' />
  <node id='-105364' action='modify' visible='true' lat='-33.7110094' lon='151.2886206' />
  <node id='-105365' action='modify' visible='true' lat='-33.7110136' lon='151.2884395' />
  <node id='-105366' action='modify' visible='true' lat='-33.7110098' lon='151.2883162' />
  <node id='-105367' action='modify' visible='true' lat='-33.7110138' lon='151.2882467' />
  <node id='-105368' action='modify' visible='true' lat='-33.7109681' lon='151.2879167' />
  <node id='-105369' action='modify' visible='true' lat='-33.7109502' lon='151.2878242' />
  <node id='-105370' action='modify' visible='true' lat='-33.7109112' lon='151.2877585' />
  <node id='-105371' action='modify' visible='true' lat='-33.7108018' lon='151.2876861' />
  <node id='-105372' action='modify' visible='true' lat='-33.7107371' lon='151.287564' />
  <node id='-105373' action='modify' visible='true' lat='-33.7106947' lon='151.2874474' />
  <node id='-105374' action='modify' visible='true' lat='-33.7106713' lon='151.2872878' />
  <node id='-105375' action='modify' visible='true' lat='-33.7106312' lon='151.2871215' />
  <node id='-105376' action='modify' visible='true' lat='-33.7105839' lon='151.2869557' />
  <node id='-105377' action='modify' visible='true' lat='-33.7102474' lon='151.2861679' />
  <node id='-105378' action='modify' visible='true' lat='-33.7102474' lon='151.2860379' />
  <node id='-105379' action='modify' visible='true' lat='-33.7102206' lon='151.2859158' />
  <node id='-105380' action='modify' visible='true' lat='-33.7101871' lon='151.2858193' />
  <node id='-105381' action='modify' visible='true' lat='-33.7101202' lon='151.2857938' />
  <node id='-105382' action='modify' visible='true' lat='-33.7100655' lon='151.2857911' />
  <node id='-105383' action='modify' visible='true' lat='-33.7099738' lon='151.2858087' />
  <node id='-105384' action='modify' visible='true' lat='-33.7098583' lon='151.285563' />
  <node id='-105385' action='modify' visible='true' lat='-33.7098705' lon='151.2855443' />
  <node id='-105386' action='modify' visible='true' lat='-33.7098771' lon='151.2855219' />
  <node id='-105387' action='modify' visible='true' lat='-33.7098736' lon='151.2854818' />
  <node id='-105388' action='modify' visible='true' lat='-33.7098529' lon='151.2854501' />
  <node id='-105389' action='modify' visible='true' lat='-33.7098214' lon='151.2854364' />
  <node id='-105390' action='modify' visible='true' lat='-33.7097886' lon='151.2854448' />
  <node id='-105391' action='modify' visible='true' lat='-33.7097484' lon='151.2853564' />
  <node id='-105392' action='modify' visible='true' lat='-33.7097286' lon='151.285257' />
  <node id='-105393' action='modify' visible='true' lat='-33.7096177' lon='151.2850861' />
  <node id='-105394' action='modify' visible='true' lat='-33.7095417' lon='151.2850463' />
  <node id='-105395' action='modify' visible='true' lat='-33.7094838' lon='151.2849767' />
  <node id='-105396' action='modify' visible='true' lat='-33.7094044' lon='151.2847719' />
  <node id='-105397' action='modify' visible='true' lat='-33.7093829' lon='151.2844876' />
  <node id='-105398' action='modify' visible='true' lat='-33.7094374' lon='151.284262' />
  <node id='-105399' action='modify' visible='true' lat='-33.7095178' lon='151.2840476' />
  <node id='-105400' action='modify' visible='true' lat='-33.7094535' lon='151.2837472' />
  <node id='-105401' action='modify' visible='true' lat='-33.709225' lon='151.2833609' />
  <node id='-105402' action='modify' visible='true' lat='-33.7091251' lon='151.2831464' />
  <node id='-105403' action='modify' visible='true' lat='-33.708968' lon='151.2828889' />
  <node id='-105404' action='modify' visible='true' lat='-33.7088324' lon='151.2825713' />
  <node id='-105405' action='modify' visible='true' lat='-33.708761' lon='151.282391' />
  <node id='-105406' action='modify' visible='true' lat='-33.7087431' lon='151.2823443' />
  <node id='-105407' action='modify' visible='true' lat='-33.7087133' lon='151.2820043' />
  <node id='-105408' action='modify' visible='true' lat='-33.7087046' lon='151.2818384' />
  <node id='-105409' action='modify' visible='true' lat='-33.7087191' lon='151.2816717' />
  <node id='-105410' action='modify' visible='true' lat='-33.7086598' lon='151.2814557' />
  <node id='-105411' action='modify' visible='true' lat='-33.7086351' lon='151.2813003' />
  <node id='-105412' action='modify' visible='true' lat='-33.7086437' lon='151.2810107' />
  <node id='-105413' action='modify' visible='true' lat='-33.7086763' lon='151.2808136' />
  <node id='-105414' action='modify' visible='true' lat='-33.7086894' lon='151.2806902' />
  <node id='-105415' action='modify' visible='true' lat='-33.7087368' lon='151.2805125' />
  <node id='-105416' action='modify' visible='true' lat='-33.7087525' lon='151.2803844' />
  <node id='-105417' action='modify' visible='true' lat='-33.7088212' lon='151.2802332' />
  <node id='-105418' action='modify' visible='true' lat='-33.7088185' lon='151.28014' />
  <node id='-105419' action='modify' visible='true' lat='-33.7088323' lon='151.2799256' />
  <node id='-105420' action='modify' visible='true' lat='-33.7089159' lon='151.2797081' />
  <node id='-105421' action='modify' visible='true' lat='-33.7089798' lon='151.2795815' />
  <node id='-105422' action='modify' visible='true' lat='-33.7090512' lon='151.2794851' />
  <node id='-105423' action='modify' visible='true' lat='-33.7091144' lon='151.2793876' />
  <node id='-105424' action='modify' visible='true' lat='-33.7091832' lon='151.2793085' />
  <node id='-105425' action='modify' visible='true' lat='-33.7092006' lon='151.2792506' />
  <node id='-105426' action='modify' visible='true' lat='-33.7092124' lon='151.2791857' />
  <node id='-105427' action='modify' visible='true' lat='-33.7093827' lon='151.2789124' />
  <node id='-105428' action='modify' visible='true' lat='-33.7095345' lon='151.2786685' />
  <node id='-105429' action='modify' visible='true' lat='-33.7096344' lon='151.2784985' />
  <node id='-105430' action='modify' visible='true' lat='-33.7096756' lon='151.2784306' />
  <node id='-105431' action='modify' visible='true' lat='-33.7097649' lon='151.278358' />
  <node id='-105432' action='modify' visible='true' lat='-33.7097706' lon='151.2783088' />
  <node id='-105433' action='modify' visible='true' lat='-33.7098341' lon='151.2781461' />
  <node id='-105434' action='modify' visible='true' lat='-33.7099497' lon='151.2779407' />
  <node id='-105435' action='modify' visible='true' lat='-33.7100659' lon='151.2777387' />
  <node id='-105436' action='modify' visible='true' lat='-33.7102528' lon='151.2774441' />
  <node id='-105437' action='modify' visible='true' lat='-33.7104623' lon='151.2770273' />
  <node id='-105438' action='modify' visible='true' lat='-33.7105319' lon='151.2768915' />
  <node id='-105439' action='modify' visible='true' lat='-33.7105559' lon='151.2767802' />
  <node id='-105440' action='modify' visible='true' lat='-33.710603' lon='151.2766833' />
  <node id='-105441' action='modify' visible='true' lat='-33.7107034' lon='151.2765444' />
  <node id='-105442' action='modify' visible='true' lat='-33.7107987' lon='151.2763809' />
  <node id='-105443' action='modify' visible='true' lat='-33.7108325' lon='151.2763142' />
  <node id='-105444' action='modify' visible='true' lat='-33.7108329' lon='151.2761901' />
  <node id='-105445' action='modify' visible='true' lat='-33.710823' lon='151.2761284' />
  <node id='-105446' action='modify' visible='true' lat='-33.7108275' lon='151.2760741' />
  <node id='-105447' action='modify' visible='true' lat='-33.7108336' lon='151.2759976' />
  <node id='-105448' action='modify' visible='true' lat='-33.710894' lon='151.275833' />
  <node id='-105449' action='modify' visible='true' lat='-33.7110952' lon='151.2753446' />
  <node id='-105450' action='modify' visible='true' lat='-33.7111493' lon='151.2752477' />
  <node id='-105451' action='modify' visible='true' lat='-33.711187' lon='151.2751781' />
  <node id='-105452' action='modify' visible='true' lat='-33.711218' lon='151.275107' />
  <node id='-105453' action='modify' visible='true' lat='-33.7114724' lon='151.2744543' />
  <node id='-105454' action='modify' visible='true' lat='-33.7118131' lon='151.2736303' />
  <node id='-105455' action='modify' visible='true' lat='-33.7118616' lon='151.2735616' />
  <node id='-105456' action='modify' visible='true' lat='-33.7119152' lon='151.273522' />
  <node id='-105457' action='modify' visible='true' lat='-33.7120355' lon='151.2734933' />
  <node id='-105458' action='modify' visible='true' lat='-33.7120966' lon='151.2734699' />
  <node id='-105459' action='modify' visible='true' lat='-33.7121221' lon='151.2734361' />
  <node id='-105460' action='modify' visible='true' lat='-33.7121746' lon='151.273311' />
  <node id='-105461' action='modify' visible='true' lat='-33.7121825' lon='151.2732701' />
  <node id='-105462' action='modify' visible='true' lat='-33.7122777' lon='151.2727804' />
  <node id='-105463' action='modify' visible='true' lat='-33.712339' lon='151.2726062' />
  <node id='-105464' action='modify' visible='true' lat='-33.7123735' lon='151.2725168' />
  <node id='-105465' action='modify' visible='true' lat='-33.7123954' lon='151.272456' />
  <node id='-105466' action='modify' visible='true' lat='-33.7124251' lon='151.2723791' />
  <node id='-105467' action='modify' visible='true' lat='-33.7124498' lon='151.2721698' />
  <node id='-105468' action='modify' visible='true' lat='-33.7124917' lon='151.2720405' />
  <node id='-105469' action='modify' visible='true' lat='-33.7126019' lon='151.2717317' />
  <node id='-105470' action='modify' visible='true' lat='-33.7126592' lon='151.2716055' />
  <node id='-105471' action='modify' visible='true' lat='-33.7127577' lon='151.2714648' />
  <node id='-105472' action='modify' visible='true' lat='-33.7128672' lon='151.2713052' />
  <node id='-105473' action='modify' visible='true' lat='-33.7130314' lon='151.2711556' />
  <node id='-105474' action='modify' visible='true' lat='-33.7130863' lon='151.2710566' />
  <node id='-105475' action='modify' visible='true' lat='-33.7132161' lon='151.2707882' />
  <node id='-105476' action='modify' visible='true' lat='-33.7133546' lon='151.2705142' />
  <node id='-105477' action='modify' visible='true' lat='-33.7134581' lon='151.2704389' />
  <node id='-105478' action='modify' visible='true' lat='-33.7135395' lon='151.2703816' />
  <node id='-105479' action='modify' visible='true' lat='-33.7136097' lon='151.2703074' />
  <node id='-105480' action='modify' visible='true' lat='-33.7137122' lon='151.2701951' />
  <node id='-105481' action='modify' visible='true' lat='-33.7138362' lon='151.2700626' />
  <node id='-105482' action='modify' visible='true' lat='-33.7139518' lon='151.2699937' />
  <node id='-105483' action='modify' visible='true' lat='-33.7140624' lon='151.2699304' />
  <node id='-105484' action='modify' visible='true' lat='-33.7141817' lon='151.2698512' />
  <node id='-105485' action='modify' visible='true' lat='-33.7142988' lon='151.2698167' />
  <node id='-105486' action='modify' visible='true' lat='-33.7144399' lon='151.2697461' />
  <node id='-105487' action='modify' visible='true' lat='-33.7147589' lon='151.2695971' />
  <node id='-105488' action='modify' visible='true' lat='-33.714896' lon='151.2696169' />
  <node id='-105489' action='modify' visible='true' lat='-33.7149741' lon='151.2695732' />
  <node id='-105490' action='modify' visible='true' lat='-33.7152434' lon='151.2695708' />
  <node id='-105491' action='modify' visible='true' lat='-33.7153697' lon='151.2695719' />
  <node id='-105492' action='modify' visible='true' lat='-33.7155365' lon='151.269583' />
  <node id='-105493' action='modify' visible='true' lat='-33.7156666' lon='151.2695854' />
  <node id='-105494' action='modify' visible='true' lat='-33.7158014' lon='151.2695918' />
  <node id='-105495' action='modify' visible='true' lat='-33.7159198' lon='151.2696041' />
  <node id='-105496' action='modify' visible='true' lat='-33.7160186' lon='151.26963' />
  <node id='-105497' action='modify' visible='true' lat='-33.7161795' lon='151.2696818' />
  <node id='-105498' action='modify' visible='true' lat='-33.7162946' lon='151.2697015' />
  <node id='-105499' action='modify' visible='true' lat='-33.7164095' lon='151.2696998' />
  <node id='-105500' action='modify' visible='true' lat='-33.7165024' lon='151.269707' />
  <node id='-105501' action='modify' visible='true' lat='-33.7166042' lon='151.2697276' />
  <node id='-105502' action='modify' visible='true' lat='-33.7168796' lon='151.2698304' />
  <node id='-105503' action='modify' visible='true' lat='-33.7169285' lon='151.2698608' />
  <node id='-105504' action='modify' visible='true' lat='-33.7169581' lon='151.2698806' />
  <node id='-105505' action='modify' visible='true' lat='-33.7170796' lon='151.2699842' />
  <node id='-105506' action='modify' visible='true' lat='-33.717189' lon='151.2700438' />
  <node id='-105507' action='modify' visible='true' lat='-33.7172751' lon='151.2700825' />
  <node id='-105508' action='modify' visible='true' lat='-33.7174084' lon='151.2701385' />
  <node id='-105509' action='modify' visible='true' lat='-33.71748' lon='151.2701778' />
  <node id='-105510' action='modify' visible='true' lat='-33.7175527' lon='151.2702177' />
  <node id='-105511' action='modify' visible='true' lat='-33.7175992' lon='151.2702463' />
  <node id='-105512' action='modify' visible='true' lat='-33.7176733' lon='151.2702948' />
  <node id='-105513' action='modify' visible='true' lat='-33.7177859' lon='151.2704021' />
  <node id='-105514' action='modify' visible='true' lat='-33.7178891' lon='151.2705244' />
  <node id='-105515' action='modify' visible='true' lat='-33.718032' lon='151.2706516' />
  <node id='-105516' action='modify' visible='true' lat='-33.7181731' lon='151.2707104' />
  <node id='-105517' action='modify' visible='true' lat='-33.7182315' lon='151.2707515' />
  <node id='-105518' action='modify' visible='true' lat='-33.7182839' lon='151.2708098' />
  <node id='-105519' action='modify' visible='true' lat='-33.7183188' lon='151.2709025' />
  <node id='-105520' action='modify' visible='true' lat='-33.7183391' lon='151.2709826' />
  <node id='-105521' action='modify' visible='true' lat='-33.7183232' lon='151.2712253' />
  <node id='-105522' action='modify' visible='true' lat='-33.7182927' lon='151.2718957' />
  <node id='-105523' action='modify' visible='true' lat='-33.7187998' lon='151.271942' />
  <node id='-105524' action='modify' visible='true' lat='-33.7188656' lon='151.2719462' />
  <node id='-105525' action='modify' visible='true' lat='-33.7188854' lon='151.2719475' />
  <node id='-105526' action='modify' visible='true' lat='-33.7189004' lon='151.2719449' />
  <node id='-105527' action='modify' visible='true' lat='-33.7189174' lon='151.2719341' />
  <node id='-105528' action='modify' visible='true' lat='-33.7191489' lon='151.2717819' />
  <node id='-105529' action='modify' visible='true' lat='-33.7192938' lon='151.2716844' />
  <node id='-105530' action='modify' visible='true' lat='-33.7193207' lon='151.271655' />
  <node id='-105531' action='modify' visible='true' lat='-33.7193352' lon='151.2716264' />
  <node id='-105532' action='modify' visible='true' lat='-33.7193537' lon='151.2715717' />
  <node id='-105533' action='modify' visible='true' lat='-33.719372' lon='151.2715483' />
  <node id='-105534' action='modify' visible='true' lat='-33.719396' lon='151.2715338' />
  <node id='-105535' action='modify' visible='true' lat='-33.7195332' lon='151.2714989' />
  <node id='-105536' action='modify' visible='true' lat='-33.7197352' lon='151.271423' />
  <node id='-105537' action='modify' visible='true' lat='-33.7197871' lon='151.271371' />
  <node id='-105538' action='modify' visible='true' lat='-33.7198218' lon='151.2713151' />
  <node id='-105539' action='modify' visible='true' lat='-33.7198726' lon='151.2712558' />
  <node id='-105540' action='modify' visible='true' lat='-33.7199296' lon='151.2712187' />
  <node id='-105541' action='modify' visible='true' lat='-33.7200042' lon='151.2712034' />
  <node id='-105542' action='modify' visible='true' lat='-33.7200543' lon='151.2711976' />
  <node id='-105543' action='modify' visible='true' lat='-33.7201171' lon='151.2712012' />
  <node id='-105544' action='modify' visible='true' lat='-33.7201835' lon='151.271216' />
  <node id='-105545' action='modify' visible='true' lat='-33.7202376' lon='151.2712361' />
  <node id='-105546' action='modify' visible='true' lat='-33.7202814' lon='151.2712745' />
  <node id='-105547' action='modify' visible='true' lat='-33.7203123' lon='151.2713233' />
  <node id='-105548' action='modify' visible='true' lat='-33.7205238' lon='151.2714524' />
  <node id='-105549' action='modify' visible='true' lat='-33.7206402' lon='151.2715216' />
  <node id='-105550' action='modify' visible='true' lat='-33.7206881' lon='151.2715158' />
  <node id='-105551' action='modify' visible='true' lat='-33.7207282' lon='151.2714797' />
  <node id='-105552' action='modify' visible='true' lat='-33.7207669' lon='151.2714668' />
  <node id='-105553' action='modify' visible='true' lat='-33.7207996' lon='151.2714802' />
  <node id='-105554' action='modify' visible='true' lat='-33.7209721' lon='151.2716685' />
  <node id='-105555' action='modify' visible='true' lat='-33.7209946' lon='151.2717185' />
  <node id='-105556' action='modify' visible='true' lat='-33.7210428' lon='151.2717828' />
  <node id='-105557' action='modify' visible='true' lat='-33.7210897' lon='151.2718286' />
  <node id='-105558' action='modify' visible='true' lat='-33.7212021' lon='151.2719063' />
  <node id='-105559' action='modify' visible='true' lat='-33.7212859' lon='151.2719587' />
  <node id='-105560' action='modify' visible='true' lat='-33.7213563' lon='151.2719715' />
  <node id='-105561' action='modify' visible='true' lat='-33.72145' lon='151.2719678' />
  <node id='-105562' action='modify' visible='true' lat='-33.7214857' lon='151.2719733' />
  <node id='-105563' action='modify' visible='true' lat='-33.7215196' lon='151.2720011' />
  <node id='-105564' action='modify' visible='true' lat='-33.7216082' lon='151.2720963' />
  <node id='-105565' action='modify' visible='true' lat='-33.7216748' lon='151.2721501' />
  <node id='-105566' action='modify' visible='true' lat='-33.7218122' lon='151.2722372' />
  <node id='-105567' action='modify' visible='true' lat='-33.7219264' lon='151.2723024' />
  <node id='-105568' action='modify' visible='true' lat='-33.7220006' lon='151.2723345' />
  <node id='-105569' action='modify' visible='true' lat='-33.7220764' lon='151.2723758' />
  <node id='-105570' action='modify' visible='true' lat='-33.7222012' lon='151.2724588' />
  <node id='-105571' action='modify' visible='true' lat='-33.7222941' lon='151.2725165' />
  <node id='-105572' action='modify' visible='true' lat='-33.7223988' lon='151.2726147' />
  <node id='-105573' action='modify' visible='true' lat='-33.7225179' lon='151.2727638' />
  <node id='-105574' action='modify' visible='true' lat='-33.7225947' lon='151.2728695' />
  <node id='-105575' action='modify' visible='true' lat='-33.7226579' lon='151.2729956' />
  <node id='-105576' action='modify' visible='true' lat='-33.7226987' lon='151.2731074' />
  <node id='-105577' action='modify' visible='true' lat='-33.7227095' lon='151.2731727' />
  <node id='-105578' action='modify' visible='true' lat='-33.7227119' lon='151.2732563' />
  <node id='-105579' action='modify' visible='true' lat='-33.7227101' lon='151.2733733' />
  <node id='-105580' action='modify' visible='true' lat='-33.7227146' lon='151.2734428' />
  <node id='-105581' action='modify' visible='true' lat='-33.7227361' lon='151.2735039' />
  <node id='-105582' action='modify' visible='true' lat='-33.722777' lon='151.2735717' />
  <node id='-105583' action='modify' visible='true' lat='-33.7228631' lon='151.273663' />
  <node id='-105584' action='modify' visible='true' lat='-33.7230429' lon='151.2741516' />
  <node id='-105585' action='modify' visible='true' lat='-33.7229783' lon='151.2742247' />
  <node id='-105586' action='modify' visible='true' lat='-33.7228444' lon='151.2742125' />
  <node id='-105587' action='modify' visible='true' lat='-33.7226767' lon='151.2742207' />
  <node id='-105588' action='modify' visible='true' lat='-33.7224344' lon='151.2742138' />
  <node id='-105589' action='modify' visible='true' lat='-33.7223225' lon='151.2742084' />
  <node id='-105590' action='modify' visible='true' lat='-33.7221852' lon='151.274239' />
  <node id='-105591' action='modify' visible='true' lat='-33.7144061' lon='151.2820577' />
  <node id='-105592' action='modify' visible='true' lat='-33.7143153' lon='151.2821404' />
  <node id='-105593' action='modify' visible='true' lat='-33.7142135' lon='151.2821768' />
  <node id='-105594' action='modify' visible='true' lat='-33.7141502' lon='151.282266' />
  <node id='-105595' action='modify' visible='true' lat='-33.7141392' lon='151.2823586' />
  <node id='-105596' action='modify' visible='true' lat='-33.7141035' lon='151.2823917' />
  <node id='-105597' action='modify' visible='true' lat='-33.7139907' lon='151.282438' />
  <node id='-105598' action='modify' visible='true' lat='-33.7108635' lon='151.2760314' />
  <node id='-105599' action='modify' visible='true' lat='-33.710884' lon='151.2759512' />
  <node id='-105600' action='modify' visible='true' lat='-33.7109138' lon='151.2758918' />
  <node id='-105601' action='modify' visible='true' lat='-33.7109411' lon='151.2758581' />
  <node id='-105602' action='modify' visible='true' lat='-33.7109386' lon='151.2757821' />
  <node id='-105603' action='modify' visible='true' lat='-33.7107601' lon='151.2757821' />
  <node id='-105604' action='modify' visible='true' lat='-33.7104367' lon='151.2759474' />
  <node id='-105605' action='modify' visible='true' lat='-33.7103415' lon='151.2760807' />
  <node id='-105606' action='modify' visible='true' lat='-33.7108784' lon='151.2757342' />
  <node id='-105607' action='modify' visible='true' lat='-33.7108041' lon='151.2757459' />
  <node id='-105611' action='modify' visible='true' lat='-33.71083145273' lon='151.27618015252' />
  <node id='-105612' action='modify' visible='true' lat='-33.71034490793' lon='151.27608421725' />
  <node id='-105613' action='modify' visible='true' lat='-33.71085585259' lon='151.27609989028' />
  <node id='-105614' action='modify' visible='true' lat='-33.71085904552' lon='151.27603044399' />
  <node id='-105615' action='modify' visible='true' lat='-33.71087986869' lon='151.27594897971' />
  <node id='-105616' action='modify' visible='true' lat='-33.71091022107' lon='151.27588847866' />
  <node id='-105617' action='modify' visible='true' lat='-33.71093653568' lon='151.27585599506' />
  <node id='-105618' action='modify' visible='true' lat='-33.71093420283' lon='151.27578507637' />
  <node id='-105619' action='modify' visible='true' lat='-33.71087731992' lon='151.27573981572' />
  <node id='-105620' action='modify' visible='true' lat='-33.71080574947' lon='151.27575108589' />
  <node id='-105621' action='modify' visible='true' lat='-33.71076226834' lon='151.275786859' />
  <node id='-105622' action='modify' visible='true' lat='-33.71043942388' lon='151.27595187505' />
  <way id='-103977' action='modify' visible='true'>
    <nd ref='-105612' />
    <nd ref='-105622' />
    <nd ref='-105621' />
    <nd ref='-105620' />
    <nd ref='-105619' />
    <nd ref='-105618' />
    <nd ref='-105617' />
    <nd ref='-105616' />
    <nd ref='-105615' />
    <nd ref='-105614' />
    <nd ref='-105613' />
    <nd ref='-105611' />
    <nd ref='-105445' />
    <nd ref='-105446' />
    <nd ref='-105447' />
    <nd ref='-105448' />
    <nd ref='-105449' />
    <nd ref='-105450' />
    <nd ref='-105451' />
    <nd ref='-105452' />
    <nd ref='-105453' />
    <nd ref='-105454' />
    <nd ref='-105455' />
    <nd ref='-105456' />
    <nd ref='-105457' />
    <nd ref='-105458' />
    <nd ref='-105459' />
    <nd ref='-105460' />
    <nd ref='-105461' />
    <nd ref='-105462' />
    <nd ref='-105463' />
    <nd ref='-105464' />
    <nd ref='-105465' />
    <nd ref='-105466' />
    <nd ref='-105467' />
    <nd ref='-105468' />
    <nd ref='-105469' />
    <nd ref='-105470' />
    <nd ref='-105471' />
    <nd ref='-105472' />
    <nd ref='-105473' />
    <nd ref='-105474' />
    <nd ref='-105475' />
    <nd ref='-105476' />
    <nd ref='-105477' />
    <nd ref='-105478' />
    <nd ref='-105479' />
    <nd ref='-105480' />
    <nd ref='-105481' />
    <nd ref='-105482' />
    <nd ref='-105483' />
    <nd ref='-105484' />
    <nd ref='-105485' />
    <nd ref='-105486' />
    <nd ref='-105487' />
    <nd ref='-105488' />
    <nd ref='-105489' />
    <nd ref='-105490' />
    <nd ref='-105491' />
    <nd ref='-105492' />
    <nd ref='-105493' />
    <nd ref='-105494' />
    <nd ref='-105495' />
    <nd ref='-105496' />
    <nd ref='-105497' />
    <nd ref='-105498' />
    <nd ref='-105499' />
    <nd ref='-105500' />
    <nd ref='-105501' />
    <nd ref='-105502' />
    <nd ref='-105503' />
    <nd ref='-105504' />
    <nd ref='-105505' />
    <nd ref='-105506' />
    <nd ref='-105507' />
    <nd ref='-105508' />
    <nd ref='-105509' />
    <nd ref='-105510' />
    <nd ref='-105511' />
    <nd ref='-105512' />
    <nd ref='-105513' />
    <nd ref='-105514' />
    <nd ref='-105515' />
    <nd ref='-105516' />
    <nd ref='-105517' />
    <nd ref='-105518' />
    <nd ref='-105519' />
    <nd ref='-105520' />
    <nd ref='-105521' />
    <nd ref='-105522' />
    <nd ref='-105523' />
    <nd ref='-105524' />
    <nd ref='-105525' />
    <nd ref='-105526' />
    <nd ref='-105527' />
    <nd ref='-105528' />
    <nd ref='-105529' />
    <nd ref='-105530' />
    <nd ref='-105531' />
    <nd ref='-105532' />
    <nd ref='-105533' />
    <nd ref='-105534' />
    <nd ref='-105535' />
    <nd ref='-105536' />
    <nd ref='-105537' />
    <nd ref='-105538' />
    <nd ref='-105539' />
    <nd ref='-105540' />
    <nd ref='-105541' />
    <nd ref='-105542' />
    <nd ref='-105543' />
    <nd ref='-105544' />
    <nd ref='-105545' />
    <nd ref='-105546' />
    <nd ref='-105547' />
    <nd ref='-105548' />
    <nd ref='-105549' />
    <nd ref='-105550' />
    <nd ref='-105551' />
    <nd ref='-105552' />
    <nd ref='-105553' />
    <nd ref='-105554' />
    <nd ref='-105555' />
    <nd ref='-105556' />
    <nd ref='-105557' />
    <nd ref='-105558' />
    <nd ref='-105559' />
    <nd ref='-105560' />
    <nd ref='-105561' />
    <nd ref='-105562' />
    <nd ref='-105563' />
    <nd ref='-105564' />
    <nd ref='-105565' />
    <nd ref='-105566' />
    <nd ref='-105567' />
    <nd ref='-105568' />
    <nd ref='-105569' />
    <nd ref='-105570' />
    <nd ref='-105571' />
    <nd ref='-105572' />
    <nd ref='-105573' />
    <nd ref='-105574' />
    <nd ref='-105575' />
    <nd ref='-105576' />
    <nd ref='-105577' />
    <nd ref='-105578' />
    <nd ref='-105579' />
    <nd ref='-105580' />
    <nd ref='-105581' />
    <nd ref='-105582' />
    <nd ref='-105583' />
    <nd ref='-105584' />
    <nd ref='-105177' />
    <nd ref='-105178' />
    <nd ref='-105179' />
    <nd ref='-105180' />
    <nd ref='-105181' />
    <nd ref='-105182' />
    <nd ref='-105183' />
    <nd ref='-105184' />
    <nd ref='-105185' />
    <nd ref='-105186' />
    <nd ref='-105187' />
    <nd ref='-105188' />
    <nd ref='-105189' />
    <nd ref='-105190' />
    <nd ref='-105191' />
    <nd ref='-105192' />
    <nd ref='-105193' />
    <nd ref='-105194' />
    <nd ref='-105195' />
    <nd ref='-105196' />
    <nd ref='-105197' />
    <nd ref='-105198' />
    <nd ref='-105199' />
    <nd ref='-105200' />
    <nd ref='-105201' />
    <nd ref='-105202' />
    <nd ref='-105203' />
    <nd ref='-105204' />
    <nd ref='-105205' />
    <nd ref='-105206' />
    <nd ref='-105207' />
    <nd ref='-105208' />
    <nd ref='-105209' />
    <nd ref='-105210' />
    <nd ref='-105211' />
    <nd ref='-105212' />
    <nd ref='-105213' />
    <nd ref='-105214' />
    <nd ref='-105215' />
    <nd ref='-105216' />
    <nd ref='-105217' />
    <nd ref='-105218' />
    <nd ref='-105219' />
    <nd ref='-105220' />
    <nd ref='-105221' />
    <nd ref='-105222' />
    <nd ref='-105223' />
    <nd ref='-105224' />
    <nd ref='-105225' />
    <nd ref='-105226' />
    <nd ref='-105227' />
    <nd ref='-105228' />
    <nd ref='-105229' />
    <nd ref='-105230' />
    <nd ref='-105231' />
    <nd ref='-105232' />
    <nd ref='-105233' />
    <nd ref='-105234' />
    <nd ref='-105235' />
    <nd ref='-105236' />
    <nd ref='-105237' />
    <nd ref='-105238' />
    <nd ref='-105239' />
    <nd ref='-105240' />
    <nd ref='-105241' />
    <nd ref='-105242' />
    <nd ref='-105243' />
    <nd ref='-105244' />
    <nd ref='-105245' />
    <nd ref='-105246' />
    <nd ref='-105247' />
    <nd ref='-105248' />
    <nd ref='-105249' />
    <nd ref='-105250' />
    <nd ref='-105251' />
    <nd ref='-105252' />
    <nd ref='-105253' />
    <nd ref='-105254' />
    <nd ref='-105255' />
    <nd ref='-105256' />
    <nd ref='-105257' />
    <nd ref='-105258' />
    <nd ref='-105259' />
    <nd ref='-105260' />
    <nd ref='-105261' />
    <nd ref='-105262' />
    <nd ref='-105263' />
    <nd ref='-105264' />
    <nd ref='-105265' />
    <nd ref='-105266' />
    <nd ref='-105267' />
    <nd ref='-105268' />
    <nd ref='-105269' />
    <nd ref='-105270' />
    <nd ref='-105271' />
    <nd ref='-105272' />
    <nd ref='-105273' />
    <nd ref='-105274' />
    <nd ref='-105275' />
    <nd ref='-105276' />
    <nd ref='-105277' />
    <nd ref='-105278' />
    <nd ref='-105279' />
    <nd ref='-105280' />
    <nd ref='-105281' />
    <nd ref='-105282' />
    <nd ref='-105283' />
    <nd ref='-105284' />
    <nd ref='-105285' />
    <nd ref='-105286' />
    <nd ref='-105287' />
    <nd ref='-105288' />
    <nd ref='-105289' />
    <nd ref='-105290' />
    <nd ref='-105291' />
    <nd ref='-105292' />
    <nd ref='-105293' />
    <nd ref='-105294' />
    <nd ref='-105295' />
    <nd ref='-105296' />
    <nd ref='-105297' />
    <nd ref='-105298' />
    <nd ref='-105299' />
    <nd ref='-105300' />
    <nd ref='-105301' />
    <nd ref='-105302' />
    <nd ref='-105303' />
    <nd ref='-105304' />
    <nd ref='-105305' />
    <nd ref='-105306' />
    <nd ref='-105307' />
    <nd ref='-105308' />
    <nd ref='-105309' />
    <nd ref='-105310' />
    <nd ref='-105311' />
    <nd ref='-105312' />
    <nd ref='-105313' />
    <nd ref='-105314' />
    <nd ref='-105315' />
    <nd ref='-105316' />
    <nd ref='-105317' />
    <nd ref='-105318' />
    <nd ref='-105319' />
    <nd ref='-105320' />
    <nd ref='-105321' />
    <nd ref='-105322' />
    <nd ref='-105323' />
    <nd ref='-105324' />
    <nd ref='-105325' />
    <nd ref='-105326' />
    <nd ref='-105327' />
    <nd ref='-105328' />
    <nd ref='-105329' />
    <nd ref='-105330' />
    <nd ref='-105331' />
    <nd ref='-105332' />
    <nd ref='-105333' />
    <nd ref='-105334' />
    <nd ref='-105335' />
    <nd ref='-105336' />
    <nd ref='-105337' />
    <nd ref='-105338' />
    <nd ref='-105339' />
    <nd ref='-105340' />
    <nd ref='-105341' />
    <nd ref='-105342' />
    <nd ref='-105343' />
    <nd ref='-105344' />
    <nd ref='-105345' />
    <nd ref='-105346' />
    <nd ref='-105347' />
    <nd ref='-105348' />
    <nd ref='-105349' />
    <nd ref='-105350' />
    <nd ref='-105351' />
    <nd ref='-105352' />
    <nd ref='-105353' />
    <nd ref='-105354' />
    <nd ref='-105355' />
    <nd ref='-105356' />
    <nd ref='-105357' />
    <nd ref='-105358' />
    <nd ref='-105359' />
    <nd ref='-105360' />
    <nd ref='-105361' />
    <nd ref='-105362' />
    <nd ref='-105363' />
    <nd ref='-105364' />
    <nd ref='-105365' />
    <nd ref='-105366' />
    <nd ref='-105367' />
    <nd ref='-105368' />
    <nd ref='-105369' />
    <nd ref='-105370' />
    <nd ref='-105371' />
    <nd ref='-105372' />
    <nd ref='-105373' />
    <nd ref='-105374' />
    <nd ref='-105375' />
    <nd ref='-105376' />
    <nd ref='-105377' />
    <nd ref='-105378' />
    <nd ref='-105379' />
    <nd ref='-105380' />
    <nd ref='-105381' />
    <nd ref='-105382' />
    <nd ref='-105383' />
    <nd ref='-105384' />
    <nd ref='-105385' />
    <nd ref='-105386' />
    <nd ref='-105387' />
    <nd ref='-105388' />
    <nd ref='-105389' />
    <nd ref='-105390' />
    <nd ref='-105391' />
    <nd ref='-105392' />
    <nd ref='-105393' />
    <nd ref='-105394' />
    <nd ref='-105395' />
    <nd ref='-105396' />
    <nd ref='-105397' />
    <nd ref='-105398' />
    <nd ref='-105399' />
    <nd ref='-105400' />
    <nd ref='-105401' />
    <nd ref='-105402' />
    <nd ref='-105403' />
    <nd ref='-105404' />
    <nd ref='-105405' />
    <nd ref='-105406' />
    <nd ref='-105407' />
    <nd ref='-105408' />
    <nd ref='-105409' />
    <nd ref='-105410' />
    <nd ref='-105411' />
    <nd ref='-105412' />
    <nd ref='-105413' />
    <nd ref='-105414' />
    <nd ref='-105415' />
    <nd ref='-105416' />
    <nd ref='-105417' />
    <nd ref='-105418' />
    <nd ref='-105419' />
    <nd ref='-105420' />
    <nd ref='-105421' />
    <nd ref='-105422' />
    <nd ref='-105423' />
    <nd ref='-105424' />
    <nd ref='-105425' />
    <nd ref='-105426' />
    <nd ref='-105427' />
    <nd ref='-105428' />
    <nd ref='-105429' />
    <nd ref='-105430' />
    <nd ref='-105431' />
    <nd ref='-105432' />
    <nd ref='-105433' />
    <nd ref='-105434' />
    <nd ref='-105435' />
    <nd ref='-105436' />
    <nd ref='-105437' />
    <nd ref='-105438' />
    <nd ref='-105439' />
    <nd ref='-105440' />
    <nd ref='-105441' />
    <nd ref='-105442' />
    <nd ref='-105443' />
    <nd ref='-105444' />
    <nd ref='-105176' />
    <nd ref='-105598' />
    <nd ref='-105599' />
    <nd ref='-105600' />
    <nd ref='-105601' />
    <nd ref='-105602' />
    <nd ref='-105606' />
    <nd ref='-105607' />
    <nd ref='-105603' />
    <nd ref='-105604' />
    <nd ref='-105605' />
    <tag k='name' v='Narrabeen Lagoon Loop' />
    <tag k='role' v='primary' />
    <tag k='style' v='loop' />
    <tag k='photo' v='136319147@N08/50175759961' />
    <tag k='transport' v='car' />
  </way>
  <way id='-103978' action='modify' visible='true'>
    <nd ref='-105177' />
    <nd ref='-105585' />
    <nd ref='-105586' />
    <nd ref='-105587' />
    <nd ref='-105588' />
    <nd ref='-105589' />
    <nd ref='-105590' />
    <tag k='role' v='sidetrack' />
    <tag k='style' v='return' />
  </way>
  <way id='-103979' action='modify' visible='true'>
    <nd ref='-105243' />
    <nd ref='-105591' />
    <nd ref='-105592' />
    <nd ref='-105593' />
    <nd ref='-105594' />
    <nd ref='-105595' />
    <nd ref='-105596' />
    <nd ref='-105597' />
    <tag k='role' v='sidetrack' />
    <tag k='style' v='return' />
  </way>
</osm>
