<?xml version='1.0' encoding='UTF-8'?>
<osm version='0.6' upload='false' generator='JOSM'>
  <node id='-101849' action='modify' visible='true' lat='-36.429358' lon='148.398932' />
  <node id='-101850' action='modify' visible='true' lat='-36.4296976' lon='148.399107' />
  <node id='-101851' action='modify' visible='true' lat='-36.4297564' lon='148.3991373' />
  <node id='-101852' action='modify' visible='true' lat='-36.4302614' lon='148.399498' />
  <node id='-101853' action='modify' visible='true' lat='-36.430605' lon='148.3998394' />
  <node id='-101854' action='modify' visible='true' lat='-36.4311187' lon='148.3994868' />
  <node id='-101855' action='modify' visible='true' lat='-36.4313192' lon='148.3990312' />
  <node id='-101856' action='modify' visible='true' lat='-36.4320481' lon='148.3992863' />
  <node id='-101857' action='modify' visible='true' lat='-36.4320663' lon='148.398776' />
  <node id='-101858' action='modify' visible='true' lat='-36.4323522' lon='148.3984675' />
  <node id='-101859' action='modify' visible='true' lat='-36.4289827' lon='148.3987965' />
  <node id='-101860' action='modify' visible='true' lat='-36.4286029' lon='148.3988394' />
  <node id='-101861' action='modify' visible='true' lat='-36.428227' lon='148.398892' />
  <node id='-101862' action='modify' visible='true' lat='-36.4190682' lon='148.4048014' />
  <node id='-101863' action='modify' visible='true' lat='-36.419853' lon='148.403637' />
  <node id='-101864' action='modify' visible='true' lat='-36.420755' lon='148.402727' />
  <node id='-101865' action='modify' visible='true' lat='-36.421497' lon='148.402395' />
  <node id='-101866' action='modify' visible='true' lat='-36.422552' lon='148.402105' />
  <node id='-101867' action='modify' visible='true' lat='-36.422965' lon='148.401822' />
  <node id='-101868' action='modify' visible='true' lat='-36.423317' lon='148.401768' />
  <node id='-101869' action='modify' visible='true' lat='-36.42399' lon='148.401112' />
  <node id='-101870' action='modify' visible='true' lat='-36.424747' lon='148.400875' />
  <node id='-101871' action='modify' visible='true' lat='-36.425782' lon='148.400552' />
  <node id='-101872' action='modify' visible='true' lat='-36.426447' lon='148.400325' />
  <node id='-101873' action='modify' visible='true' lat='-36.42681' lon='148.400075' />
  <node id='-101874' action='modify' visible='true' lat='-36.4279303' lon='148.3992672' />
  <node id='-101875' action='modify' visible='true' lat='-36.428072' lon='148.399165' />
  <node id='-101876' action='modify' visible='true' lat='-36.411123' lon='148.409647' />
  <node id='-101877' action='modify' visible='true' lat='-36.4114912' lon='148.4095459' />
  <node id='-101878' action='modify' visible='true' lat='-36.4118446' lon='148.4094489' />
  <node id='-101879' action='modify' visible='true' lat='-36.412777' lon='148.4091056' />
  <node id='-101880' action='modify' visible='true' lat='-36.4137095' lon='148.4091056' />
  <node id='-101881' action='modify' visible='true' lat='-36.4144693' lon='148.4085048' />
  <node id='-101882' action='modify' visible='true' lat='-36.4152982' lon='148.4079469' />
  <node id='-101883' action='modify' visible='true' lat='-36.4162306' lon='148.4075177' />
  <node id='-101884' action='modify' visible='true' lat='-36.4168868' lon='148.4067452' />
  <node id='-101885' action='modify' visible='true' lat='-36.417612' lon='148.4061444' />
  <node id='-101886' action='modify' visible='true' lat='-36.4181646' lon='148.4055436' />
  <node id='-101887' action='modify' visible='true' lat='-36.4185444' lon='148.4050715' />
  <node id='-101888' action='modify' visible='true' lat='-36.4188032' lon='148.4049375' />
  <node id='-101889' action='modify' visible='true' lat='-36.4065426' lon='148.4101634' />
  <node id='-101890' action='modify' visible='true' lat='-36.4066905' lon='148.4102859' />
  <node id='-101891' action='modify' visible='true' lat='-36.4069527' lon='148.4102274' />
  <node id='-101892' action='modify' visible='true' lat='-36.407079' lon='148.4101609' />
  <node id='-101893' action='modify' visible='true' lat='-36.408147' lon='148.410262' />
  <node id='-101894' action='modify' visible='true' lat='-36.410187' lon='148.409293' />
  <node id='-101895' action='modify' visible='true' lat='-36.41117' lon='148.409527' />
  <way id='-102105' action='modify' visible='true'>
    <nd ref='-101889' />
    <nd ref='-101890' />
    <nd ref='-101891' />
    <nd ref='-101892' />
    <nd ref='-101893' />
    <nd ref='-101894' />
    <nd ref='-101895' />
    <nd ref='-101876' />
    <nd ref='-101877' />
    <nd ref='-101878' />
    <nd ref='-101879' />
    <nd ref='-101880' />
    <nd ref='-101881' />
    <nd ref='-101882' />
    <nd ref='-101883' />
    <nd ref='-101884' />
    <nd ref='-101885' />
    <nd ref='-101886' />
    <nd ref='-101887' />
    <nd ref='-101888' />
    <nd ref='-101862' />
    <nd ref='-101863' />
    <nd ref='-101864' />
    <nd ref='-101865' />
    <nd ref='-101866' />
    <nd ref='-101867' />
    <nd ref='-101868' />
    <nd ref='-101869' />
    <nd ref='-101870' />
    <nd ref='-101871' />
    <nd ref='-101872' />
    <nd ref='-101873' />
    <nd ref='-101874' />
    <nd ref='-101875' />
    <nd ref='-101861' />
    <nd ref='-101860' />
    <nd ref='-101859' />
    <nd ref='-101849' />
    <nd ref='-101850' />
    <nd ref='-101851' />
    <nd ref='-101852' />
    <nd ref='-101853' />
    <nd ref='-101854' />
    <nd ref='-101855' />
    <nd ref='-101856' />
    <nd ref='-101857' />
    <nd ref='-101858' />
    <tag k='name' v='Porcupine Rocks' />
    <tag k='park' v='Kosciuszko National Park' />
    <tag k='role' v='primary' />
    <tag k='style' v='return' />
    <tag k='transport' v='car' />
  </way>
</osm>
