<?xml version='1.0' encoding='UTF-8'?>
<osm version='0.6' upload='false' generator='JOSM'>
  <node id='-101785' action='modify' visible='true' lat='-33.7336816' lon='151.2450887' />
  <node id='-101786' action='modify' visible='true' lat='-33.7335375' lon='151.2452569' />
  <node id='-101787' action='modify' visible='true' lat='-33.7334679' lon='151.24551' />
  <node id='-101788' action='modify' visible='true' lat='-33.7333967' lon='151.2456679' />
  <node id='-101789' action='modify' visible='true' lat='-33.7332764' lon='151.2457954' />
  <node id='-101790' action='modify' visible='true' lat='-33.7331783' lon='151.2458696' />
  <node id='-101791' action='modify' visible='true' lat='-33.7330786' lon='151.2459086' />
  <node id='-101792' action='modify' visible='true' lat='-33.7330652' lon='151.2459048' />
  <node id='-101793' action='modify' visible='true' lat='-33.7330818' lon='151.2458259' />
  <node id='-101794' action='modify' visible='true' lat='-33.7331451' lon='151.2456441' />
  <node id='-101795' action='modify' visible='true' lat='-33.733172' lon='151.2455281' />
  <node id='-101796' action='modify' visible='true' lat='-33.7332305' lon='151.2454367' />
  <node id='-101797' action='modify' visible='true' lat='-33.7333009' lon='151.2453197' />
  <node id='-101798' action='modify' visible='true' lat='-33.7339059295' lon='151.24496229155' />
  <way id='-101789' action='modify' visible='true'>
    <nd ref='-101798' />
    <nd ref='-101785' />
    <nd ref='-101786' />
    <nd ref='-101787' />
    <nd ref='-101788' />
    <nd ref='-101789' />
    <nd ref='-101790' />
    <nd ref='-101791' />
    <nd ref='-101792' />
    <nd ref='-101793' />
    <nd ref='-101794' />
    <nd ref='-101795' />
    <nd ref='-101796' />
    <nd ref='-101797' />
    <tag k='name' v='Oxford Falls' />
    <tag k='photo' v='136319147@N08/50281229072' />
    <tag k='role' v='primary' />
    <tag k='style' v='return' />
    <tag k='transport' v='car' />
  </way>
</osm>
