<?xml version='1.0' encoding='UTF-8'?>
<osm version='0.6' upload='false' generator='JOSM'>
  <node id='-1640744' action='modify' visible='true' lat='-33.6595598' lon='151.1931182' />
  <node id='-1640745' action='modify' visible='true' lat='-33.6594286' lon='151.1931915' />
  <node id='-1640746' action='modify' visible='true' lat='-33.659228' lon='151.1932246' />
  <node id='-1640747' action='modify' visible='true' lat='-33.6589374' lon='151.1932749'>
  </node>
  <node id='-1640748' action='modify' visible='true' lat='-33.658743' lon='151.1933558' />
  <node id='-1640749' action='modify' visible='true' lat='-33.6585259' lon='151.1934972' />
  <node id='-1640750' action='modify' visible='true' lat='-33.6583409' lon='151.1935507' />
  <node id='-1640751' action='modify' visible='true' lat='-33.6581427' lon='151.1935405' />
  <node id='-1640752' action='modify' visible='true' lat='-33.6579009' lon='151.193328' />
  <node id='-1640753' action='modify' visible='true' lat='-33.6576628' lon='151.1931048' />
  <node id='-1640754' action='modify' visible='true' lat='-33.6573853' lon='151.192638' />
  <node id='-1640755' action='modify' visible='true' lat='-33.6572269' lon='151.1918709' />
  <node id='-1640756' action='modify' visible='true' lat='-33.6568484' lon='151.1912563' />
  <node id='-1640757' action='modify' visible='true' lat='-33.6567047' lon='151.190859' />
  <node id='-1640758' action='modify' visible='true' lat='-33.656536' lon='151.1904423' />
  <node id='-1640759' action='modify' visible='true' lat='-33.6562208' lon='151.1901433' />
  <node id='-1640760' action='modify' visible='true' lat='-33.6557608' lon='151.189186' />
  <node id='-1640761' action='modify' visible='true' lat='-33.655566' lon='151.1886721' />
  <node id='-1640762' action='modify' visible='true' lat='-33.655351' lon='151.1882566' />
  <node id='-1640763' action='modify' visible='true' lat='-33.6552029' lon='151.1879169' />
  <node id='-1640764' action='modify' visible='true' lat='-33.6551124' lon='151.1875144' />
  <node id='-1640765' action='modify' visible='true' lat='-33.6549627' lon='151.1871944' />
  <node id='-1640766' action='modify' visible='true' lat='-33.6547967' lon='151.1870463' />
  <node id='-1640767' action='modify' visible='true' lat='-33.6540284' lon='151.1867644'>
  </node>
  <node id='-1640768' action='modify' visible='true' lat='-33.6537937' lon='151.1867388'>
  </node>
  <node id='-1640769' action='modify' visible='true' lat='-33.6533029' lon='151.1867389'>
  </node>
  <node id='-1640770' action='modify' visible='true' lat='-33.6530895' lon='151.1867903'>
  </node>
  <node id='-1640771' action='modify' visible='true' lat='-33.6526627' lon='151.1867904'>
  </node>
  <node id='-1640772' action='modify' visible='true' lat='-33.6522572' lon='151.1864059'>
  </node>
  <node id='-1640773' action='modify' visible='true' lat='-33.651809' lon='151.1860983'>
  </node>
  <node id='-1640774' action='modify' visible='true' lat='-33.6516382' lon='151.1859445'>
  </node>
  <node id='-1640775' action='modify' visible='true' lat='-33.6514248' lon='151.1858677'>
  </node>
  <node id='-1640776' action='modify' visible='true' lat='-33.6512113' lon='151.1856883'>
  </node>
  <node id='-1640777' action='modify' visible='true' lat='-33.6510193' lon='151.1856114'>
  </node>
  <node id='-1640778' action='modify' visible='true' lat='-33.6507282' lon='151.1854615'>
  </node>
  <node id='-1640779' action='modify' visible='true' lat='-33.6505002' lon='151.1848271'>
  </node>
  <node id='-1640780' action='modify' visible='true' lat='-33.6504347' lon='151.184195'>
  </node>
  <node id='-1640781' action='modify' visible='true' lat='-33.6503329' lon='151.1839877'>
  </node>
  <node id='-1640782' action='modify' visible='true' lat='-33.6502295' lon='151.1836317'>
  </node>
  <node id='-1640783' action='modify' visible='true' lat='-33.6500235' lon='151.1832828'>
  </node>
  <node id='-1640784' action='modify' visible='true' lat='-33.6498528' lon='151.1831034'>
  </node>
  <node id='-1640785' action='modify' visible='true' lat='-33.649554' lon='151.1831035'>
  </node>
  <node id='-1640786' action='modify' visible='true' lat='-33.6491486' lon='151.1828729'>
  </node>
  <node id='-1640787' action='modify' visible='true' lat='-33.6489138' lon='151.1827961'>
  </node>
  <node id='-1640788' action='modify' visible='true' lat='-33.6484704' lon='151.1827171'>
  </node>
  <node id='-1640789' action='modify' visible='true' lat='-33.6481978' lon='151.1826848'>
  </node>
  <node id='-1640790' action='modify' visible='true' lat='-33.6480389' lon='151.1824887'>
  </node>
  <node id='-1640791' action='modify' visible='true' lat='-33.647676' lon='151.1822068'>
  </node>
  <node id='-1640792' action='modify' visible='true' lat='-33.6473132' lon='151.1821044'>
  </node>
  <node id='-1640793' action='modify' visible='true' lat='-33.6470288' lon='151.1820197'>
  </node>
  <node id='-1640794' action='modify' visible='true' lat='-33.6465235' lon='151.1814637'>
  </node>
  <node id='-1640795' action='modify' visible='true' lat='-33.6464167' lon='151.1812331'>
  </node>
  <node id='-1640796' action='modify' visible='true' lat='-33.6460752' lon='151.1807717'>
  </node>
  <node id='-1640797' action='modify' visible='true' lat='-33.645627' lon='151.1807719'>
  </node>
  <node id='-1640798' action='modify' visible='true' lat='-33.6454136' lon='151.1807463'>
  </node>
  <node id='-1640799' action='modify' visible='true' lat='-33.6452002' lon='151.1805925'>
  </node>
  <node id='-1640800' action='modify' visible='true' lat='-33.6449654' lon='151.1805157'>
  </node>
  <node id='-1640801' action='modify' visible='true' lat='-33.6446453' lon='151.1805158'>
  </node>
  <node id='-1640802' action='modify' visible='true' lat='-33.6441512' lon='151.1804027'>
  </node>
  <node id='-1640803' action='modify' visible='true' lat='-33.6439591' lon='151.1802233'>
  </node>
  <node id='-1640804' action='modify' visible='true' lat='-33.6437671' lon='151.1800952'>
  </node>
  <node id='-1640805' action='modify' visible='true' lat='-33.643575' lon='151.1799159'>
  </node>
  <node id='-1640806' action='modify' visible='true' lat='-33.6433402' lon='151.1798134'>
  </node>
  <node id='-1640807' action='modify' visible='true' lat='-33.643155' lon='151.1797622'>
  </node>
  <node id='-1640808' action='modify' visible='true' lat='-33.6428942' lon='151.1797292'>
  </node>
  <node id='-1640809' action='modify' visible='true' lat='-33.6426361' lon='151.1798136'>
  </node>
  <node id='-1640810' action='modify' visible='true' lat='-33.6424604' lon='151.1796986'>
  </node>
  <node id='-1640811' action='modify' visible='true' lat='-33.6421452' lon='151.1795575'>
  </node>
  <node id='-1640812' action='modify' visible='true' lat='-33.6417993' lon='151.1790163'>
  </node>
  <node id='-1640813' action='modify' visible='true' lat='-33.6414588' lon='151.178429'>
  </node>
  <node id='-1640814' action='modify' visible='true' lat='-33.6413553' lon='151.1783018' />
  <node id='-1640815' action='modify' visible='true' lat='-33.6409388' lon='151.1781776'>
  </node>
  <node id='-1640816' action='modify' visible='true' lat='-33.6408234' lon='151.1780315'>
  </node>
  <node id='-1640817' action='modify' visible='true' lat='-33.6406969' lon='151.1777677'>
  </node>
  <node id='-1640818' action='modify' visible='true' lat='-33.6404162' lon='151.1776357'>
  </node>
  <node id='-1640819' action='modify' visible='true' lat='-33.6401388' lon='151.1776358'>
  </node>
  <node id='-1640820' action='modify' visible='true' lat='-33.6400161' lon='151.1775317'>
  </node>
  <node id='-1640821' action='modify' visible='true' lat='-33.6398515' lon='151.1772009'>
  </node>
  <node id='-1640822' action='modify' visible='true' lat='-33.6396645' lon='151.1771154'>
  </node>
  <node id='-1640823' action='modify' visible='true' lat='-33.6393695' lon='151.1774543'>
  </node>
  <node id='-1640824' action='modify' visible='true' lat='-33.6388371' lon='151.1776875'>
  </node>
  <node id='-1640825' action='modify' visible='true' lat='-33.6386509' lon='151.1777257'>
  </node>
  <node id='-1640826' action='modify' visible='true' lat='-33.6385969' lon='151.1774789'>
  </node>
  <node id='-1640827' action='modify' visible='true' lat='-33.6385021' lon='151.1772248'>
  </node>
  <node id='-1640828' action='modify' visible='true' lat='-33.6382468' lon='151.1769956'>
  </node>
  <node id='-1640829' action='modify' visible='true' lat='-33.6379847' lon='151.1769424'>
  </node>
  <node id='-1640830' action='modify' visible='true' lat='-33.6376642' lon='151.1773245'>
  </node>
  <node id='-1640831' action='modify' visible='true' lat='-33.6373144' lon='151.1772586'>
  </node>
  <node id='-1640832' action='modify' visible='true' lat='-33.6369422' lon='151.1771456'>
  </node>
  <node id='-1640833' action='modify' visible='true' lat='-33.6366652' lon='151.1769723'>
  </node>
  <node id='-1640834' action='modify' visible='true' lat='-33.636385' lon='151.1770478'>
  </node>
  <node id='-1640835' action='modify' visible='true' lat='-33.6362357' lon='151.1772273'>
  </node>
  <node id='-1640836' action='modify' visible='true' lat='-33.6360863' lon='151.1773555'>
  </node>
  <node id='-1640837' action='modify' visible='true' lat='-33.6358303' lon='151.1774581'>
  </node>
  <node id='-1640838' action='modify' visible='true' lat='-33.6357663' lon='151.1774581'>
  </node>
  <node id='-1640839' action='modify' visible='true' lat='-33.6351902' lon='151.1777146'>
  </node>
  <node id='-1640840' action='modify' visible='true' lat='-33.6349555' lon='151.1778685'>
  </node>
  <node id='-1640841' action='modify' visible='true' lat='-33.6348062' lon='151.1780736'>
  </node>
  <node id='-1640842' action='modify' visible='true' lat='-33.6345685' lon='151.1780768'>
  </node>
  <node id='-1640843' action='modify' visible='true' lat='-33.6343769' lon='151.1779909'>
  </node>
  <node id='-1640844' action='modify' visible='true' lat='-33.6339313' lon='151.177997'>
  </node>
  <node id='-1640845' action='modify' visible='true' lat='-33.6337179' lon='151.1778433'>
  </node>
  <node id='-1640846' action='modify' visible='true' lat='-33.633291' lon='151.1777153'>
  </node>
  <node id='-1640847' action='modify' visible='true' lat='-33.6328429' lon='151.1777154'>
  </node>
  <node id='-1640848' action='modify' visible='true' lat='-33.632416' lon='151.1775105'>
  </node>
  <node id='-1640849' action='modify' visible='true' lat='-33.6322666' lon='151.1774849'>
  </node>
  <node id='-1640850' action='modify' visible='true' lat='-33.631882' lon='151.1775367'>
  </node>
  <node id='-1640851' action='modify' visible='true' lat='-33.6316687' lon='151.1776136'>
  </node>
  <node id='-1640852' action='modify' visible='true' lat='-33.631276' lon='151.1776032' />
  <node id='-1640853' action='modify' visible='true' lat='-33.6307834' lon='151.1777996' />
  <node id='-1640854' action='modify' visible='true' lat='-33.6307298' lon='151.1778349' />
  <node id='-1640855' action='modify' visible='true' lat='-33.6304591' lon='151.1780129' />
  <node id='-1640856' action='modify' visible='true' lat='-33.6304642' lon='151.1780864' />
  <node id='-1640862' action='modify' visible='true' lat='-33.6303737' lon='151.1781011' />
  <node id='-1640863' action='modify' visible='true' lat='-33.6302654' lon='151.1781762' />
  <node id='-1640864' action='modify' visible='true' lat='-33.6631787' lon='151.1897597' />
  <node id='-1640865' action='modify' visible='true' lat='-33.6630995' lon='151.1897454' />
  <node id='-1640866' action='modify' visible='true' lat='-33.6630295' lon='151.1897374' />
  <node id='-1640867' action='modify' visible='true' lat='-33.6628516' lon='151.18964' />
  <node id='-1640868' action='modify' visible='true' lat='-33.6620235' lon='151.1889114' />
  <node id='-1640869' action='modify' visible='true' lat='-33.6615665' lon='151.1884804' />
  <node id='-1640870' action='modify' visible='true' lat='-33.6613505' lon='151.1883914' />
  <node id='-1640871' action='modify' visible='true' lat='-33.6611535' lon='151.1884154' />
  <node id='-1640872' action='modify' visible='true' lat='-33.6608045' lon='151.1885134' />
  <node id='-1640873' action='modify' visible='true' lat='-33.6606205' lon='151.1886604' />
  <node id='-1640874' action='modify' visible='true' lat='-33.6604975' lon='151.1891784' />
  <node id='-1640875' action='modify' visible='true' lat='-33.6602785' lon='151.1896584' />
  <node id='-1640876' action='modify' visible='true' lat='-33.6601685' lon='151.1899834' />
  <node id='-1640877' action='modify' visible='true' lat='-33.6601175' lon='151.1903184' />
  <node id='-1640878' action='modify' visible='true' lat='-33.6600175' lon='151.1907754' />
  <node id='-1640879' action='modify' visible='true' lat='-33.6598705' lon='151.1913124' />
  <node id='-1640880' action='modify' visible='true' lat='-33.6598485' lon='151.1915384' />
  <node id='-1640881' action='modify' visible='true' lat='-33.6598575' lon='151.1917804' />
  <node id='-1640882' action='modify' visible='true' lat='-33.6598405' lon='151.1920404' />
  <node id='-1640883' action='modify' visible='true' lat='-33.6597005' lon='151.1926984' />
  <node id='-1640884' action='modify' visible='true' lat='-33.6596095' lon='151.1929084' />
  <node id='-1640885' action='modify' visible='true' lat='-33.6595645' lon='151.1930574' />
  <way id='-1334658' action='modify' visible='true'>
    <nd ref='-1640864' />
    <nd ref='-1640865' />
    <nd ref='-1640866' />
    <nd ref='-1640867' />
    <nd ref='-1640868' />
    <nd ref='-1640869' />
    <nd ref='-1640870' />
    <nd ref='-1640871' />
    <nd ref='-1640872' />
    <nd ref='-1640873' />
    <nd ref='-1640874' />
    <nd ref='-1640875' />
    <nd ref='-1640876' />
    <nd ref='-1640877' />
    <nd ref='-1640878' />
    <nd ref='-1640879' />
    <nd ref='-1640880' />
    <nd ref='-1640881' />
    <nd ref='-1640882' />
    <nd ref='-1640883' />
    <nd ref='-1640884' />
    <nd ref='-1640885' />
    <nd ref='-1640744' />
    <nd ref='-1640745' />
    <nd ref='-1640746' />
    <nd ref='-1640747' />
    <nd ref='-1640748' />
    <nd ref='-1640749' />
    <nd ref='-1640750' />
    <nd ref='-1640751' />
    <nd ref='-1640752' />
    <nd ref='-1640753' />
    <nd ref='-1640754' />
    <nd ref='-1640755' />
    <nd ref='-1640756' />
    <nd ref='-1640757' />
    <nd ref='-1640758' />
    <nd ref='-1640759' />
    <nd ref='-1640760' />
    <nd ref='-1640761' />
    <nd ref='-1640762' />
    <nd ref='-1640763' />
    <nd ref='-1640764' />
    <nd ref='-1640765' />
    <nd ref='-1640766' />
    <nd ref='-1640767' />
    <nd ref='-1640768' />
    <nd ref='-1640769' />
    <nd ref='-1640770' />
    <nd ref='-1640771' />
    <nd ref='-1640772' />
    <nd ref='-1640773' />
    <nd ref='-1640774' />
    <nd ref='-1640775' />
    <nd ref='-1640776' />
    <nd ref='-1640777' />
    <nd ref='-1640778' />
    <nd ref='-1640779' />
    <nd ref='-1640780' />
    <nd ref='-1640781' />
    <nd ref='-1640782' />
    <nd ref='-1640783' />
    <nd ref='-1640784' />
    <nd ref='-1640785' />
    <nd ref='-1640786' />
    <nd ref='-1640787' />
    <nd ref='-1640788' />
    <nd ref='-1640789' />
    <nd ref='-1640790' />
    <nd ref='-1640791' />
    <nd ref='-1640792' />
    <nd ref='-1640793' />
    <nd ref='-1640794' />
    <nd ref='-1640795' />
    <nd ref='-1640796' />
    <nd ref='-1640797' />
    <nd ref='-1640798' />
    <nd ref='-1640799' />
    <nd ref='-1640800' />
    <nd ref='-1640801' />
    <nd ref='-1640802' />
    <nd ref='-1640803' />
    <nd ref='-1640804' />
    <nd ref='-1640805' />
    <nd ref='-1640806' />
    <nd ref='-1640807' />
    <nd ref='-1640808' />
    <nd ref='-1640809' />
    <nd ref='-1640810' />
    <nd ref='-1640811' />
    <nd ref='-1640812' />
    <nd ref='-1640813' />
    <nd ref='-1640814' />
    <nd ref='-1640815' />
    <nd ref='-1640816' />
    <nd ref='-1640817' />
    <nd ref='-1640818' />
    <nd ref='-1640819' />
    <nd ref='-1640820' />
    <nd ref='-1640821' />
    <nd ref='-1640822' />
    <nd ref='-1640823' />
    <nd ref='-1640824' />
    <nd ref='-1640825' />
    <nd ref='-1640826' />
    <nd ref='-1640827' />
    <nd ref='-1640828' />
    <nd ref='-1640829' />
    <nd ref='-1640830' />
    <nd ref='-1640831' />
    <nd ref='-1640832' />
    <nd ref='-1640833' />
    <nd ref='-1640834' />
    <nd ref='-1640835' />
    <nd ref='-1640836' />
    <nd ref='-1640837' />
    <nd ref='-1640838' />
    <nd ref='-1640839' />
    <nd ref='-1640840' />
    <nd ref='-1640841' />
    <nd ref='-1640842' />
    <nd ref='-1640843' />
    <nd ref='-1640844' />
    <nd ref='-1640845' />
    <nd ref='-1640846' />
    <nd ref='-1640847' />
    <nd ref='-1640848' />
    <nd ref='-1640849' />
    <nd ref='-1640850' />
    <nd ref='-1640851' />
    <nd ref='-1640852' />
    <nd ref='-1640853' />
    <nd ref='-1640854' />
    <nd ref='-1640855' />
    <nd ref='-1640856' />
    <nd ref='-1640862' />
    <nd ref='-1640863' />
    <tag k='name' v='Long Track' />
    <tag k='park' v='Ku-ring-gai Chase National Park' />
    <tag k='photo' v='136319147@N08/49162576903' />
    <tag k='role' v='primary' />
    <tag k='style' v='return' />
    <tag k='transport' v='car;bus' />
  </way>
</osm>
