<?xml version='1.0' encoding='UTF-8'?>
<osm version='0.6' upload='false' generator='JOSM'>
  <node id='-1643299' action='modify' visible='true' lat='-33.6521612' lon='151.2280045' />
  <node id='-1643300' action='modify' visible='true' lat='-33.6521634' lon='151.2279486' />
  <node id='-1643301' action='modify' visible='true' lat='-33.652232' lon='151.2279104' />
  <node id='-1643302' action='modify' visible='true' lat='-33.6523252' lon='151.2278078' />
  <node id='-1643303' action='modify' visible='true' lat='-33.6525552' lon='151.2277072' />
  <node id='-1643304' action='modify' visible='true' lat='-33.6525826' lon='151.2276193' />
  <node id='-1643305' action='modify' visible='true' lat='-33.6525702' lon='151.2275054' />
  <node id='-1643306' action='modify' visible='true' lat='-33.6525524' lon='151.2274088' />
  <node id='-1643307' action='modify' visible='true' lat='-33.6524843' lon='151.2272626' />
  <node id='-1643308' action='modify' visible='true' lat='-33.6525524' lon='151.2268361' />
  <node id='-1643309' action='modify' visible='true' lat='-33.6524676' lon='151.2266162' />
  <node id='-1643310' action='modify' visible='true' lat='-33.6524073' lon='151.2264284' />
  <node id='-1643311' action='modify' visible='true' lat='-33.6522666' lon='151.2261334' />
  <node id='-1643312' action='modify' visible='true' lat='-33.6522242' lon='151.2259805' />
  <node id='-1643313' action='modify' visible='true' lat='-33.6522309' lon='151.2258384' />
  <node id='-1643314' action='modify' visible='true' lat='-33.652414' lon='151.2256023' />
  <node id='-1643315' action='modify' visible='true' lat='-33.652539' lon='151.2252617' />
  <node id='-1643316' action='modify' visible='true' lat='-33.6526238' lon='151.2250444' />
  <node id='-1643317' action='modify' visible='true' lat='-33.6526506' lon='151.2248969' />
  <node id='-1643318' action='modify' visible='true' lat='-33.6525591' lon='151.2242398' />
  <node id='-1643319' action='modify' visible='true' lat='-33.6524564' lon='151.2240627' />
  <node id='-1643320' action='modify' visible='true' lat='-33.6521706' lon='151.2239394' />
  <node id='-1643321' action='modify' visible='true' lat='-33.6520835' lon='151.2237221' />
  <node id='-1643322' action='modify' visible='true' lat='-33.6520567' lon='151.2234834' />
  <node id='-1643323' action='modify' visible='true' lat='-33.6519004' lon='151.2231427' />
  <node id='-1643324' action='modify' visible='true' lat='-33.6518178' lon='151.2227485' />
  <node id='-1643325' action='modify' visible='true' lat='-33.6518022' lon='151.222153' />
  <node id='-1643326' action='modify' visible='true' lat='-33.6517419' lon='151.2219143' />
  <node id='-1643327' action='modify' visible='true' lat='-33.6516347' lon='151.221756' />
  <node id='-1643328' action='modify' visible='true' lat='-33.6512887' lon='151.2215012' />
  <node id='-1643329' action='modify' visible='true' lat='-33.6509895' lon='151.2214261' />
  <node id='-1643330' action='modify' visible='true' lat='-33.6508645' lon='151.2213564' />
  <node id='-1643331' action='modify' visible='true' lat='-33.6507751' lon='151.2211794' />
  <node id='-1643332' action='modify' visible='true' lat='-33.6507171' lon='151.2208468' />
  <node id='-1643333' action='modify' visible='true' lat='-33.6505117' lon='151.2204766' />
  <node id='-1643334' action='modify' visible='true' lat='-33.6500964' lon='151.2199455' />
  <node id='-1643335' action='modify' visible='true' lat='-33.6499937' lon='151.219613' />
  <node id='-1643336' action='modify' visible='true' lat='-33.6497927' lon='151.219334' />
  <node id='-1643337' action='modify' visible='true' lat='-33.649623' lon='151.2189424' />
  <node id='-1643338' action='modify' visible='true' lat='-33.6492301' lon='151.218422' />
  <node id='-1643339' action='modify' visible='true' lat='-33.6489353' lon='151.2181646' />
  <node id='-1643340' action='modify' visible='true' lat='-33.6488639' lon='151.218009' />
  <node id='-1643341' action='modify' visible='true' lat='-33.6482164' lon='151.2175316' />
  <node id='-1643342' action='modify' visible='true' lat='-33.6479708' lon='151.2174618' />
  <node id='-1643343' action='modify' visible='true' lat='-33.6477698' lon='151.2173706' />
  <node id='-1643344' action='modify' visible='true' lat='-33.64735' lon='151.2172472' />
  <node id='-1643345' action='modify' visible='true' lat='-33.6469883' lon='151.2170005' />
  <node id='-1643346' action='modify' visible='true' lat='-33.6465507' lon='151.2163567' />
  <node id='-1643347' action='modify' visible='true' lat='-33.6461175' lon='151.2161261' />
  <node id='-1643348' action='modify' visible='true' lat='-33.6459433' lon='151.2160617' />
  <node id='-1643349' action='modify' visible='true' lat='-33.6458004' lon='151.2159437' />
  <node id='-1643350' action='modify' visible='true' lat='-33.6456932' lon='151.2158149' />
  <node id='-1643351' action='modify' visible='true' lat='-33.6456307' lon='151.2157506' />
  <way id='-1335463' action='modify' visible='true'>
    <nd ref='-1643299' />
    <nd ref='-1643300' />
    <nd ref='-1643301' />
    <nd ref='-1643302' />
    <nd ref='-1643303' />
    <nd ref='-1643304' />
    <nd ref='-1643305' />
    <nd ref='-1643306' />
    <nd ref='-1643307' />
    <nd ref='-1643308' />
    <nd ref='-1643309' />
    <nd ref='-1643310' />
    <nd ref='-1643311' />
    <nd ref='-1643312' />
    <nd ref='-1643313' />
    <nd ref='-1643314' />
    <nd ref='-1643315' />
    <nd ref='-1643316' />
    <nd ref='-1643317' />
    <nd ref='-1643318' />
    <nd ref='-1643319' />
    <nd ref='-1643320' />
    <nd ref='-1643321' />
    <nd ref='-1643322' />
    <nd ref='-1643323' />
    <nd ref='-1643324' />
    <nd ref='-1643325' />
    <nd ref='-1643326' />
    <nd ref='-1643327' />
    <nd ref='-1643328' />
    <nd ref='-1643329' />
    <nd ref='-1643330' />
    <nd ref='-1643331' />
    <nd ref='-1643332' />
    <nd ref='-1643333' />
    <nd ref='-1643334' />
    <nd ref='-1643335' />
    <nd ref='-1643336' />
    <nd ref='-1643337' />
    <nd ref='-1643338' />
    <nd ref='-1643339' />
    <nd ref='-1643340' />
    <nd ref='-1643341' />
    <nd ref='-1643342' />
    <nd ref='-1643343' />
    <nd ref='-1643344' />
    <nd ref='-1643345' />
    <nd ref='-1643346' />
    <nd ref='-1643347' />
    <nd ref='-1643348' />
    <nd ref='-1643349' />
    <nd ref='-1643350' />
    <nd ref='-1643351' />
    <tag k='name' v='Hungary Track' />
    <tag k='notice' v='Best done in winter or spring for wildflower viewing, quite overgrown, no lookout at the end so don&apos;t feel bad if you only do part of the walk.' />
    <tag k='park' v='Ku-ring-gai Chase National Park' />
    <tag k='photo' v='136319147@N08/50365840208' />
    <tag k='role' v='primary' />
    <tag k='style' v='return' />
    <tag k='transport' v='car' />
  </way>
</osm>
