<?xml version='1.0' encoding='UTF-8'?>
<osm version='0.6' upload='false' generator='JOSM'>
  <node id='-102122' action='modify' visible='true' lat='-33.6374513' lon='151.0468706' />
  <node id='-102123' action='modify' visible='true' lat='-33.637516' lon='151.0470678' />
  <node id='-102124' action='modify' visible='true' lat='-33.6375816' lon='151.0471689' />
  <node id='-102125' action='modify' visible='true' lat='-33.637535' lon='151.0474487' />
  <node id='-102126' action='modify' visible='true' lat='-33.6374033' lon='151.0476606' />
  <node id='-102127' action='modify' visible='true' lat='-33.6371822' lon='151.0478792' />
  <node id='-102128' action='modify' visible='true' lat='-33.6368818' lon='151.0480642' />
  <node id='-102129' action='modify' visible='true' lat='-33.6366931' lon='151.0482641' />
  <node id='-102130' action='modify' visible='true' lat='-33.6366384' lon='151.0483083' />
  <node id='-102131' action='modify' visible='true' lat='-33.6366368' lon='151.0483935' />
  <node id='-102132' action='modify' visible='true' lat='-33.6366284' lon='151.0485081' />
  <node id='-102133' action='modify' visible='true' lat='-33.6366686' lon='151.0485551' />
  <node id='-102134' action='modify' visible='true' lat='-33.6367601' lon='151.0485484' />
  <node id='-102135' action='modify' visible='true' lat='-33.6369399' lon='151.0483848' />
  <node id='-102136' action='modify' visible='true' lat='-33.6370906' lon='151.048433' />
  <node id='-102137' action='modify' visible='true' lat='-33.6374133' lon='151.0482278' />
  <node id='-102138' action='modify' visible='true' lat='-33.6376657' lon='151.0480307' />
  <node id='-102139' action='modify' visible='true' lat='-33.6378499' lon='151.0480629' />
  <node id='-102140' action='modify' visible='true' lat='-33.6377985' lon='151.047741' />
  <node id='-102141' action='modify' visible='true' lat='-33.6378264' lon='151.047674' />
  <node id='-102142' action='modify' visible='true' lat='-33.6378733' lon='151.047446' />
  <node id='-102143' action='modify' visible='true' lat='-33.6379828' lon='151.0472301' />
  <node id='-102144' action='modify' visible='true' lat='-33.6379939' lon='151.0471147' />
  <node id='-102145' action='modify' visible='true' lat='-33.6381156' lon='151.046927' />
  <node id='-102146' action='modify' visible='true' lat='-33.6381787' lon='151.0466909' />
  <node id='-102147' action='modify' visible='true' lat='-33.6381391' lon='151.0465287' />
  <node id='-102148' action='modify' visible='true' lat='-33.6380403' lon='151.0464395' />
  <node id='-102149' action='modify' visible='true' lat='-33.637889' lon='151.0463516' />
  <node id='-102150' action='modify' visible='true' lat='-33.6378521' lon='151.0463979' />
  <node id='-102151' action='modify' visible='true' lat='-33.6377996' lon='151.0464033' />
  <node id='-102152' action='modify' visible='true' lat='-33.6377086' lon='151.0463563' />
  <way id='-101861' action='modify' visible='true'>
    <nd ref='-102122' />
    <nd ref='-102123' />
    <nd ref='-102124' />
    <nd ref='-102125' />
    <nd ref='-102126' />
    <nd ref='-102127' />
    <nd ref='-102128' />
    <nd ref='-102129' />
    <nd ref='-102130' />
    <nd ref='-102131' />
    <nd ref='-102132' />
    <nd ref='-102133' />
    <nd ref='-102134' />
    <nd ref='-102135' />
    <nd ref='-102136' />
    <nd ref='-102137' />
    <nd ref='-102138' />
    <nd ref='-102139' />
    <nd ref='-102140' />
    <nd ref='-102141' />
    <nd ref='-102142' />
    <nd ref='-102143' />
    <nd ref='-102144' />
    <nd ref='-102145' />
    <nd ref='-102146' />
    <nd ref='-102147' />
    <nd ref='-102148' />
    <nd ref='-102149' />
    <nd ref='-102150' />
    <nd ref='-102151' />
    <nd ref='-102152' />
    <tag k='name' v='Carrs Bush' />
    <tag k='park' v='Fagan Park' />
    <tag k='photo' v='136319147@N08/50396877062' />
    <tag k='role' v='primary' />
    <tag k='style' v='loop' />
    <tag k='transport' v='car' />
  </way>
</osm>
