<?xml version='1.0' encoding='UTF-8'?>
<osm version='0.6' upload='false' generator='JOSM'>
  <node id='-102033' action='modify' visible='true' lat='-36.4316693' lon='148.3286543' />
  <node id='-102034' action='modify' visible='true' lat='-36.4315829' lon='148.3285264' />
  <node id='-102035' action='modify' visible='true' lat='-36.4313733' lon='148.3282569' />
  <node id='-102036' action='modify' visible='true' lat='-36.4312163' lon='148.3280383' />
  <node id='-102037' action='modify' visible='true' lat='-36.4311398' lon='148.3278035' />
  <node id='-102038' action='modify' visible='true' lat='-36.4310781' lon='148.3275355'>
  </node>
  <node id='-102039' action='modify' visible='true' lat='-36.431064' lon='148.3268214' />
  <node id='-102040' action='modify' visible='true' lat='-36.431056' lon='148.3264406' />
  <node id='-102041' action='modify' visible='true' lat='-36.431274' lon='148.3255681' />
  <node id='-102042' action='modify' visible='true' lat='-36.431316' lon='148.3251357' />
  <node id='-102043' action='modify' visible='true' lat='-36.4314327' lon='148.3248264' />
  <node id='-102044' action='modify' visible='true' lat='-36.4314187' lon='148.3245384' />
  <node id='-102045' action='modify' visible='true' lat='-36.4313788' lon='148.3242503' />
  <node id='-102046' action='modify' visible='true' lat='-36.4314473' lon='148.3235403' />
  <node id='-102047' action='modify' visible='true' lat='-36.4314974' lon='148.3229711' />
  <node id='-102048' action='modify' visible='true' lat='-36.431488' lon='148.3225771' />
  <node id='-102049' action='modify' visible='true' lat='-36.431477' lon='148.3225148' />
  <node id='-102050' action='modify' visible='true' lat='-36.4314468' lon='148.3224674' />
  <node id='-102051' action='modify' visible='true' lat='-36.4314032' lon='148.3224346' />
  <node id='-102052' action='modify' visible='true' lat='-36.4308032' lon='148.322137' />
  <node id='-102053' action='modify' visible='true' lat='-36.4306424' lon='148.3220816' />
  <node id='-102054' action='modify' visible='true' lat='-36.4305471' lon='148.3220871' />
  <node id='-102055' action='modify' visible='true' lat='-36.430428' lon='148.3221552' />
  <node id='-102056' action='modify' visible='true' lat='-36.4303613' lon='148.3221794' />
  <node id='-102057' action='modify' visible='true' lat='-36.4302869' lon='148.3221788' />
  <node id='-102058' action='modify' visible='true' lat='-36.4302181' lon='148.3221679' />
  <node id='-102059' action='modify' visible='true' lat='-36.4301298' lon='148.3221185'>
  </node>
  <node id='-102060' action='modify' visible='true' lat='-36.4299905' lon='148.3220248' />
  <node id='-102061' action='modify' visible='true' lat='-36.4299835' lon='148.3219571' />
  <node id='-102062' action='modify' visible='true' lat='-36.4299953' lon='148.3218738' />
  <node id='-102063' action='modify' visible='true' lat='-36.4300402' lon='148.3217404' />
  <node id='-102064' action='modify' visible='true' lat='-36.4300131' lon='148.3216777' />
  <node id='-102065' action='modify' visible='true' lat='-36.4298748' lon='148.3216579'>
  </node>
  <node id='-102066' action='modify' visible='true' lat='-36.4296672' lon='148.3215672' />
  <node id='-102067' action='modify' visible='true' lat='-36.4296114' lon='148.3215052' />
  <node id='-102068' action='modify' visible='true' lat='-36.4295739' lon='148.3214054' />
  <node id='-102069' action='modify' visible='true' lat='-36.4294942' lon='148.3210776' />
  <node id='-102070' action='modify' visible='true' lat='-36.4294185' lon='148.3209143' />
  <node id='-102071' action='modify' visible='true' lat='-36.4291926' lon='148.3206422' />
  <node id='-102072' action='modify' visible='true' lat='-36.4291226' lon='148.3203335' />
  <node id='-102073' action='modify' visible='true' lat='-36.4289799' lon='148.3201868' />
  <node id='-102074' action='modify' visible='true' lat='-36.4286941' lon='148.3199454'>
  </node>
  <node id='-102075' action='modify' visible='true' lat='-36.4286072' lon='148.3197299' />
  <node id='-102076' action='modify' visible='true' lat='-36.4285562' lon='148.3193046' />
  <node id='-102077' action='modify' visible='true' lat='-36.4285421' lon='148.3188213'>
  </node>
  <node id='-102078' action='modify' visible='true' lat='-36.4282635' lon='148.3182374' />
  <node id='-102079' action='modify' visible='true' lat='-36.4279551' lon='148.3174193' />
  <node id='-102080' action='modify' visible='true' lat='-36.4277587' lon='148.317087' />
  <node id='-102081' action='modify' visible='true' lat='-36.4276462' lon='148.3168857' />
  <node id='-102082' action='modify' visible='true' lat='-36.4274924' lon='148.3167667' />
  <node id='-102083' action='modify' visible='true' lat='-36.427437' lon='148.3167239' />
  <node id='-102084' action='modify' visible='true' lat='-36.4273951' lon='148.3166543' />
  <node id='-102085' action='modify' visible='true' lat='-36.4273881' lon='148.3165414' />
  <node id='-102086' action='modify' visible='true' lat='-36.4274025' lon='148.3163951' />
  <node id='-102087' action='modify' visible='true' lat='-36.4273387' lon='148.3161687' />
  <node id='-102088' action='modify' visible='true' lat='-36.427216' lon='148.3159567' />
  <node id='-102089' action='modify' visible='true' lat='-36.4270851' lon='148.3157447' />
  <node id='-102090' action='modify' visible='true' lat='-36.4269261' lon='148.3154991' />
  <node id='-102091' action='modify' visible='true' lat='-36.4267827' lon='148.3153074' />
  <node id='-102092' action='modify' visible='true' lat='-36.426553' lon='148.3151651' />
  <node id='-102093' action='modify' visible='true' lat='-36.4263606' lon='148.3150905' />
  <node id='-102094' action='modify' visible='true' lat='-36.4257458' lon='148.3150219' />
  <node id='-102095' action='modify' visible='true' lat='-36.4254917' lon='148.3150139' />
  <node id='-102096' action='modify' visible='true' lat='-36.425272' lon='148.3150333' />
  <node id='-102097' action='modify' visible='true' lat='-36.4250301' lon='148.315096' />
  <node id='-102098' action='modify' visible='true' lat='-36.4247446' lon='148.3152567' />
  <node id='-102099' action='modify' visible='true' lat='-36.4245959' lon='148.3152781' />
  <node id='-102100' action='modify' visible='true' lat='-36.4241655' lon='148.3152089'>
  </node>
  <node id='-102101' action='modify' visible='true' lat='-36.4236083' lon='148.3152205' />
  <node id='-102102' action='modify' visible='true' lat='-36.4234017' lon='148.3151844' />
  <node id='-102103' action='modify' visible='true' lat='-36.4230453' lon='148.3151728' />
  <node id='-102104' action='modify' visible='true' lat='-36.4228503' lon='148.3151093'>
  </node>
  <node id='-102105' action='modify' visible='true' lat='-36.422652' lon='148.3150818' />
  <node id='-102106' action='modify' visible='true' lat='-36.4225377' lon='148.3149999' />
  <node id='-102107' action='modify' visible='true' lat='-36.4221784' lon='148.3148101' />
  <node id='-102108' action='modify' visible='true' lat='-36.422064' lon='148.3146737' />
  <node id='-102109' action='modify' visible='true' lat='-36.4218809' lon='148.3146089'>
  </node>
  <node id='-102110' action='modify' visible='true' lat='-36.4217972' lon='148.3145569' />
  <node id='-102111' action='modify' visible='true' lat='-36.4216058' lon='148.3141796' />
  <node id='-102112' action='modify' visible='true' lat='-36.4214665' lon='148.3140151'>
  </node>
  <node id='-102113' action='modify' visible='true' lat='-36.4212071' lon='148.3138028' />
  <node id='-102114' action='modify' visible='true' lat='-36.4211396' lon='148.3137014' />
  <node id='-102115' action='modify' visible='true' lat='-36.4210647' lon='148.313407'>
  </node>
  <node id='-102116' action='modify' visible='true' lat='-36.4209754' lon='148.3131898' />
  <node id='-102117' action='modify' visible='true' lat='-36.4208512' lon='148.312998' />
  <node id='-102118' action='modify' visible='true' lat='-36.4206216' lon='148.3127578' />
  <node id='-102119' action='modify' visible='true' lat='-36.4205115' lon='148.3126173' />
  <node id='-102120' action='modify' visible='true' lat='-36.4203818' lon='148.3124076' />
  <node id='-102121' action='modify' visible='true' lat='-36.4202603' lon='148.3122669'>
  </node>
  <node id='-102122' action='modify' visible='true' lat='-36.4199792' lon='148.3120847' />
  <node id='-102123' action='modify' visible='true' lat='-36.4195246' lon='148.3118392' />
  <node id='-102124' action='modify' visible='true' lat='-36.4190641' lon='148.3115251'>
  </node>
  <node id='-102125' action='modify' visible='true' lat='-36.4186105' lon='148.3113593' />
  <node id='-102126' action='modify' visible='true' lat='-36.4184272' lon='148.3112578' />
  <node id='-102127' action='modify' visible='true' lat='-36.4176198' lon='148.3110458' />
  <node id='-102128' action='modify' visible='true' lat='-36.4173794' lon='148.3110142'>
  </node>
  <node id='-102129' action='modify' visible='true' lat='-36.4171961' lon='148.3110686' />
  <node id='-102130' action='modify' visible='true' lat='-36.4169217' lon='148.3110681' />
  <node id='-102131' action='modify' visible='true' lat='-36.4167241' lon='148.3109899' />
  <node id='-102132' action='modify' visible='true' lat='-36.416543' lon='148.3109904' />
  <node id='-102133' action='modify' visible='true' lat='-36.4161012' lon='148.3109288'>
  </node>
  <node id='-102134' action='modify' visible='true' lat='-36.4158475' lon='148.3108474' />
  <node id='-102135' action='modify' visible='true' lat='-36.4151949' lon='148.3104489' />
  <node id='-102136' action='modify' visible='true' lat='-36.414886' lon='148.31032' />
  <node id='-102137' action='modify' visible='true' lat='-36.414584' lon='148.3101038' />
  <node id='-102138' action='modify' visible='true' lat='-36.414272' lon='148.3098357'>
  </node>
  <node id='-102139' action='modify' visible='true' lat='-36.4141129' lon='148.309611'>
  </node>
  <node id='-102140' action='modify' visible='true' lat='-36.4139887' lon='148.3090269' />
  <node id='-102141' action='modify' visible='true' lat='-36.4138352' lon='148.3086849'>
  </node>
  <node id='-102142' action='modify' visible='true' lat='-36.4137052' lon='148.3084839' />
  <node id='-102143' action='modify' visible='true' lat='-36.4135095' lon='148.3083388' />
  <node id='-102144' action='modify' visible='true' lat='-36.4132595' lon='148.3082069'>
  </node>
  <node id='-102145' action='modify' visible='true' lat='-36.4128351' lon='148.3076983' />
  <node id='-102146' action='modify' visible='true' lat='-36.4124357' lon='148.3072104'>
  </node>
  <node id='-102147' action='modify' visible='true' lat='-36.4124119' lon='148.3071814' />
  <node id='-102148' action='modify' visible='true' lat='-36.4121516' lon='148.3071874'>
  </node>
  <node id='-102149' action='modify' visible='true' lat='-36.4118142' lon='148.3071182' />
  <node id='-102150' action='modify' visible='true' lat='-36.4116' lon='148.3070458' />
  <node id='-102151' action='modify' visible='true' lat='-36.4113608' lon='148.3068686'>
  </node>
  <node id='-102152' action='modify' visible='true' lat='-36.4111523' lon='148.3065259' />
  <node id='-102153' action='modify' visible='true' lat='-36.4108699' lon='148.3059811'>
  </node>
  <node id='-102154' action='modify' visible='true' lat='-36.4106473' lon='148.3058571' />
  <node id='-102155' action='modify' visible='true' lat='-36.4104376' lon='148.305698'>
  </node>
  <node id='-102156' action='modify' visible='true' lat='-36.410163' lon='148.3054648'>
  </node>
  <node id='-102157' action='modify' visible='true' lat='-36.4098353' lon='148.3055091' />
  <node id='-102158' action='modify' visible='true' lat='-36.4094017' lon='148.3057035'>
  </node>
  <node id='-102159' action='modify' visible='true' lat='-36.4090979' lon='148.3057764' />
  <node id='-102160' action='modify' visible='true' lat='-36.4086348' lon='148.3059394'>
  </node>
  <node id='-102161' action='modify' visible='true' lat='-36.4082319' lon='148.3060356'>
  </node>
  <node id='-102162' action='modify' visible='true' lat='-36.4078716' lon='148.3062178' />
  <node id='-102163' action='modify' visible='true' lat='-36.4077629' lon='148.3062913' />
  <node id='-102164' action='modify' visible='true' lat='-36.4076273' lon='148.3063743' />
  <node id='-102165' action='modify' visible='true' lat='-36.4075882' lon='148.3063786' />
  <node id='-102166' action='modify' visible='true' lat='-36.4075387' lon='148.3071158'>
  </node>
  <node id='-102167' action='modify' visible='true' lat='-36.4075536' lon='148.3076147' />
  <node id='-102168' action='modify' visible='true' lat='-36.4075225' lon='148.3081166' />
  <node id='-102169' action='modify' visible='true' lat='-36.4076453' lon='148.3090518'>
  </node>
  <node id='-102170' action='modify' visible='true' lat='-36.4076014' lon='148.3102927' />
  <node id='-102171' action='modify' visible='true' lat='-36.4076831' lon='148.3104459' />
  <node id='-102172' action='modify' visible='true' lat='-36.4077681' lon='148.3109383' />
  <node id='-102173' action='modify' visible='true' lat='-36.4077265' lon='148.3115579' />
  <node id='-102174' action='modify' visible='true' lat='-36.4076114' lon='148.3119411' />
  <node id='-102175' action='modify' visible='true' lat='-36.4076162' lon='148.3124793' />
  <node id='-102176' action='modify' visible='true' lat='-36.4074629' lon='148.3126944' />
  <node id='-102177' action='modify' visible='true' lat='-36.4073643' lon='148.3131871' />
  <node id='-102178' action='modify' visible='true' lat='-36.4071935' lon='148.3135025' />
  <node id='-102179' action='modify' visible='true' lat='-36.4071915' lon='148.313824' />
  <node id='-102180' action='modify' visible='true' lat='-36.4071562' lon='148.3139936' />
  <node id='-102181' action='modify' visible='true' lat='-36.4071841' lon='148.3145799' />
  <node id='-102182' action='modify' visible='true' lat='-36.4071959' lon='148.3148292' />
  <node id='-102183' action='modify' visible='true' lat='-36.4070778' lon='148.3151894' />
  <node id='-102184' action='modify' visible='true' lat='-36.4067205' lon='148.315339' />
  <node id='-102185' action='modify' visible='true' lat='-36.4065831' lon='148.3155952' />
  <node id='-102186' action='modify' visible='true' lat='-36.4064157' lon='148.3159071' />
  <node id='-102187' action='modify' visible='true' lat='-36.4061979' lon='148.3164937' />
  <node id='-102188' action='modify' visible='true' lat='-36.4060127' lon='148.3167496' />
  <node id='-102189' action='modify' visible='true' lat='-36.4060215' lon='148.3172214' />
  <node id='-102190' action='modify' visible='true' lat='-36.4061122' lon='148.3173663' />
  <node id='-102191' action='modify' visible='true' lat='-36.406182' lon='148.3176115' />
  <node id='-102192' action='modify' visible='true' lat='-36.4063308' lon='148.3178148' />
  <node id='-102193' action='modify' visible='true' lat='-36.406425' lon='148.317858' />
  <node id='-102194' action='modify' visible='true' lat='-36.4065044' lon='148.3179812' />
  <node id='-102195' action='modify' visible='true' lat='-36.4065738' lon='148.318086' />
  <node id='-102196' action='modify' visible='true' lat='-36.4066581' lon='148.3181537' />
  <node id='-102197' action='modify' visible='true' lat='-36.4068565' lon='148.3182523' />
  <node id='-102198' action='modify' visible='true' lat='-36.4070152' lon='148.3184002' />
  <node id='-102199' action='modify' visible='true' lat='-36.4071541' lon='148.318542' />
  <node id='-102200' action='modify' visible='true' lat='-36.4073177' lon='148.3186406' />
  <node id='-102201' action='modify' visible='true' lat='-36.407407' lon='148.318659' />
  <node id='-102202' action='modify' visible='true' lat='-36.4075558' lon='148.31877' />
  <node id='-102203' action='modify' visible='true' lat='-36.4077839' lon='148.3189548' />
  <node id='-102204' action='modify' visible='true' lat='-36.4079079' lon='148.3189918' />
  <node id='-102205' action='modify' visible='true' lat='-36.4080567' lon='148.3191212' />
  <node id='-102206' action='modify' visible='true' lat='-36.4082501' lon='148.3191643' />
  <node id='-102207' action='modify' visible='true' lat='-36.408498' lon='148.3192321' />
  <node id='-102208' action='modify' visible='true' lat='-36.408836' lon='148.3193996' />
  <node id='-102209' action='modify' visible='true' lat='-36.4091029' lon='148.319437' />
  <node id='-102210' action='modify' visible='true' lat='-36.409287' lon='148.319521' />
  <node id='-102211' action='modify' visible='true' lat='-36.409797' lon='148.3196019' />
  <node id='-102212' action='modify' visible='true' lat='-36.410147' lon='148.3195409' />
  <node id='-102213' action='modify' visible='true' lat='-36.4105331' lon='148.3193986' />
  <node id='-102214' action='modify' visible='true' lat='-36.4108701' lon='148.3191953' />
  <node id='-102215' action='modify' visible='true' lat='-36.4112791' lon='148.3188416' />
  <node id='-102216' action='modify' visible='true' lat='-36.4114394' lon='148.3187807' />
  <node id='-102217' action='modify' visible='true' lat='-36.4115572' lon='148.318679' />
  <node id='-102218' action='modify' visible='true' lat='-36.4118124' lon='148.3185245' />
  <node id='-102219' action='modify' visible='true' lat='-36.4119694' lon='148.3182643' />
  <node id='-102220' action='modify' visible='true' lat='-36.4120905' lon='148.3178415' />
  <node id='-102221' action='modify' visible='true' lat='-36.4123195' lon='148.3176098' />
  <node id='-102222' action='modify' visible='true' lat='-36.4125714' lon='148.3175163' />
  <node id='-102223' action='modify' visible='true' lat='-36.4126336' lon='148.317496' />
  <node id='-102224' action='modify' visible='true' lat='-36.412771' lon='148.3174919' />
  <node id='-102225' action='modify' visible='true' lat='-36.4129412' lon='148.3174594' />
  <node id='-102226' action='modify' visible='true' lat='-36.4130786' lon='148.3174878' />
  <node id='-102227' action='modify' visible='true' lat='-36.4132127' lon='148.3176464' />
  <node id='-102228' action='modify' visible='true' lat='-36.4132716' lon='148.3178171' />
  <way id='-102271' action='modify' visible='true'>
    <nd ref='-102033' />
    <nd ref='-102034' />
    <nd ref='-102035' />
    <nd ref='-102036' />
    <nd ref='-102037' />
    <nd ref='-102038' />
    <nd ref='-102039' />
    <nd ref='-102040' />
    <nd ref='-102041' />
    <nd ref='-102042' />
    <nd ref='-102043' />
    <nd ref='-102044' />
    <nd ref='-102045' />
    <nd ref='-102046' />
    <nd ref='-102047' />
    <nd ref='-102048' />
    <nd ref='-102049' />
    <nd ref='-102050' />
    <nd ref='-102051' />
    <nd ref='-102052' />
    <nd ref='-102053' />
    <nd ref='-102054' />
    <nd ref='-102055' />
    <nd ref='-102056' />
    <nd ref='-102057' />
    <nd ref='-102058' />
    <nd ref='-102059' />
    <nd ref='-102060' />
    <nd ref='-102061' />
    <nd ref='-102062' />
    <nd ref='-102063' />
    <nd ref='-102064' />
    <nd ref='-102065' />
    <nd ref='-102066' />
    <nd ref='-102067' />
    <nd ref='-102068' />
    <nd ref='-102069' />
    <nd ref='-102070' />
    <nd ref='-102071' />
    <nd ref='-102072' />
    <nd ref='-102073' />
    <nd ref='-102074' />
    <nd ref='-102075' />
    <nd ref='-102076' />
    <nd ref='-102077' />
    <nd ref='-102078' />
    <nd ref='-102079' />
    <nd ref='-102080' />
    <nd ref='-102081' />
    <nd ref='-102082' />
    <nd ref='-102083' />
    <nd ref='-102084' />
    <nd ref='-102085' />
    <nd ref='-102086' />
    <nd ref='-102087' />
    <nd ref='-102088' />
    <nd ref='-102089' />
    <nd ref='-102090' />
    <nd ref='-102091' />
    <nd ref='-102092' />
    <nd ref='-102093' />
    <nd ref='-102094' />
    <nd ref='-102095' />
    <nd ref='-102096' />
    <nd ref='-102097' />
    <nd ref='-102098' />
    <nd ref='-102099' />
    <nd ref='-102100' />
    <nd ref='-102101' />
    <nd ref='-102102' />
    <nd ref='-102103' />
    <nd ref='-102104' />
    <nd ref='-102105' />
    <nd ref='-102106' />
    <nd ref='-102107' />
    <nd ref='-102108' />
    <nd ref='-102109' />
    <nd ref='-102110' />
    <nd ref='-102111' />
    <nd ref='-102112' />
    <nd ref='-102113' />
    <nd ref='-102114' />
    <nd ref='-102115' />
    <nd ref='-102116' />
    <nd ref='-102117' />
    <nd ref='-102118' />
    <nd ref='-102119' />
    <nd ref='-102120' />
    <nd ref='-102121' />
    <nd ref='-102122' />
    <nd ref='-102123' />
    <nd ref='-102124' />
    <nd ref='-102125' />
    <nd ref='-102126' />
    <nd ref='-102127' />
    <nd ref='-102128' />
    <nd ref='-102129' />
    <nd ref='-102130' />
    <nd ref='-102131' />
    <nd ref='-102132' />
    <nd ref='-102133' />
    <nd ref='-102134' />
    <nd ref='-102135' />
    <nd ref='-102136' />
    <nd ref='-102137' />
    <nd ref='-102138' />
    <nd ref='-102139' />
    <nd ref='-102140' />
    <nd ref='-102141' />
    <nd ref='-102142' />
    <nd ref='-102143' />
    <nd ref='-102144' />
    <nd ref='-102145' />
    <nd ref='-102146' />
    <nd ref='-102147' />
    <nd ref='-102148' />
    <nd ref='-102149' />
    <nd ref='-102150' />
    <nd ref='-102151' />
    <nd ref='-102152' />
    <nd ref='-102153' />
    <nd ref='-102154' />
    <nd ref='-102155' />
    <nd ref='-102156' />
    <nd ref='-102157' />
    <nd ref='-102158' />
    <nd ref='-102159' />
    <nd ref='-102160' />
    <nd ref='-102161' />
    <nd ref='-102162' />
    <nd ref='-102163' />
    <nd ref='-102164' />
    <nd ref='-102165' />
    <nd ref='-102166' />
    <nd ref='-102167' />
    <nd ref='-102168' />
    <nd ref='-102169' />
    <nd ref='-102170' />
    <nd ref='-102171' />
    <nd ref='-102172' />
    <nd ref='-102173' />
    <nd ref='-102174' />
    <nd ref='-102175' />
    <nd ref='-102176' />
    <nd ref='-102177' />
    <nd ref='-102178' />
    <nd ref='-102179' />
    <nd ref='-102180' />
    <nd ref='-102181' />
    <nd ref='-102182' />
    <nd ref='-102183' />
    <nd ref='-102184' />
    <nd ref='-102185' />
    <nd ref='-102186' />
    <nd ref='-102187' />
    <nd ref='-102188' />
    <nd ref='-102189' />
    <nd ref='-102190' />
    <nd ref='-102191' />
    <tag k='name' v='Blue Lake from Charlotte Pass' />
    <tag k='park' v='Kosciuszko National Park' />
    <tag k='photo' v='155823486@N07/50790729007' />
    <tag k='role' v='primary' />
    <tag k='style' v='return' />
    <tag k='transport' v='car' />
  </way>
  <way id='-102274' action='modify' visible='true'>
    <nd ref='-102191' />
    <nd ref='-102192' />
    <nd ref='-102193' />
    <nd ref='-102194' />
    <nd ref='-102195' />
    <nd ref='-102196' />
    <nd ref='-102197' />
    <nd ref='-102198' />
    <nd ref='-102199' />
    <nd ref='-102200' />
    <nd ref='-102201' />
    <nd ref='-102202' />
    <nd ref='-102203' />
    <nd ref='-102204' />
    <nd ref='-102205' />
    <nd ref='-102206' />
    <nd ref='-102207' />
    <nd ref='-102208' />
    <nd ref='-102209' />
    <nd ref='-102210' />
    <nd ref='-102211' />
    <nd ref='-102212' />
    <nd ref='-102213' />
    <nd ref='-102214' />
    <nd ref='-102215' />
    <nd ref='-102216' />
    <nd ref='-102217' />
    <nd ref='-102218' />
    <nd ref='-102219' />
    <nd ref='-102220' />
    <nd ref='-102221' />
    <nd ref='-102222' />
    <nd ref='-102223' />
    <nd ref='-102224' />
    <nd ref='-102225' />
    <nd ref='-102226' />
    <nd ref='-102227' />
    <nd ref='-102228' />
    <tag k='name' v='Hedley Tarn' />
    <tag k='role' v='sidetrack' />
    <tag k='style' v='return' />
  </way>
</osm>
