<?xml version='1.0' encoding='UTF-8'?>
<osm version='0.6' upload='false' generator='JOSM'>
  <node id='-102356' action='modify' visible='true' lat='-33.7876793' lon='151.0045088' />
  <node id='-102357' action='modify' visible='true' lat='-33.7876254' lon='151.0045632' />
  <node id='-102358' action='modify' visible='true' lat='-33.787484' lon='151.0044936' />
  <node id='-102359' action='modify' visible='true' lat='-33.7873927' lon='151.0043988' />
  <node id='-102360' action='modify' visible='true' lat='-33.7873069' lon='151.0042412' />
  <node id='-102361' action='modify' visible='true' lat='-33.7872373' lon='151.0040911' />
  <node id='-102362' action='modify' visible='true' lat='-33.7870916' lon='151.003868' />
  <node id='-102363' action='modify' visible='true' lat='-33.7869957' lon='151.0037956' />
  <node id='-102364' action='modify' visible='true' lat='-33.7868691' lon='151.0036753' />
  <node id='-102365' action='modify' visible='true' lat='-33.7867869' lon='151.0036628' />
  <node id='-102366' action='modify' visible='true' lat='-33.7867268' lon='151.0036785' />
  <node id='-102367' action='modify' visible='true' lat='-33.7866244' lon='151.0037524' />
  <node id='-102368' action='modify' visible='true' lat='-33.786545' lon='151.0039281' />
  <node id='-102369' action='modify' visible='true' lat='-33.786522' lon='151.0040143' />
  <node id='-102370' action='modify' visible='true' lat='-33.7864323' lon='151.0039989' />
  <node id='-102371' action='modify' visible='true' lat='-33.7863606' lon='151.0039958' />
  <node id='-102372' action='modify' visible='true' lat='-33.7863197' lon='151.0040451' />
  <node id='-102373' action='modify' visible='true' lat='-33.7862889' lon='151.0041252' />
  <node id='-102374' action='modify' visible='true' lat='-33.7862428' lon='151.0041838' />
  <node id='-102375' action='modify' visible='true' lat='-33.7861788' lon='151.0041684' />
  <node id='-102376' action='modify' visible='true' lat='-33.7860636' lon='151.0041406' />
  <node id='-102377' action='modify' visible='true' lat='-33.785974' lon='151.004153' />
  <node id='-102378' action='modify' visible='true' lat='-33.7859279' lon='151.0042362' />
  <node id='-102379' action='modify' visible='true' lat='-33.7859637' lon='151.0043163' />
  <node id='-102380' action='modify' visible='true' lat='-33.7860457' lon='151.0044241' />
  <node id='-102381' action='modify' visible='true' lat='-33.7861097' lon='151.0044765' />
  <node id='-102382' action='modify' visible='true' lat='-33.7862198' lon='151.0045289' />
  <node id='-102383' action='modify' visible='true' lat='-33.7863222' lon='151.0046275' />
  <node id='-102384' action='modify' visible='true' lat='-33.7864349' lon='151.004686' />
  <node id='-102385' action='modify' visible='true' lat='-33.7865168' lon='151.0047291' />
  <node id='-102386' action='modify' visible='true' lat='-33.7866577' lon='151.0048031' />
  <node id='-102387' action='modify' visible='true' lat='-33.7867985' lon='151.0049448' />
  <node id='-102388' action='modify' visible='true' lat='-33.7869675' lon='151.005068' />
  <node id='-102389' action='modify' visible='true' lat='-33.787134' lon='151.0051697' />
  <node id='-102390' action='modify' visible='true' lat='-33.7871775' lon='151.0052899' />
  <node id='-102391' action='modify' visible='true' lat='-33.7872722' lon='151.0055302' />
  <node id='-102392' action='modify' visible='true' lat='-33.7873311' lon='151.0057058' />
  <node id='-102393' action='modify' visible='true' lat='-33.7873158' lon='151.0059307' />
  <node id='-102394' action='modify' visible='true' lat='-33.7872543' lon='151.0061341' />
  <node id='-102395' action='modify' visible='true' lat='-33.7871391' lon='151.0063035' />
  <node id='-102396' action='modify' visible='true' lat='-33.7870111' lon='151.0064484' />
  <node id='-102397' action='modify' visible='true' lat='-33.7868728' lon='151.0065624' />
  <node id='-102398' action='modify' visible='true' lat='-33.786796' lon='151.0066948' />
  <node id='-102399' action='modify' visible='true' lat='-33.7866859' lon='151.0067411' />
  <node id='-102400' action='modify' visible='true' lat='-33.7865783' lon='151.0067657' />
  <node id='-102401' action='modify' visible='true' lat='-33.7864067' lon='151.0067749' />
  <node id='-102402' action='modify' visible='true' lat='-33.7862864' lon='151.0067873' />
  <node id='-102403' action='modify' visible='true' lat='-33.786184' lon='151.0069228' />
  <node id='-102404' action='modify' visible='true' lat='-33.7860841' lon='151.0071723' />
  <node id='-102405' action='modify' visible='true' lat='-33.7860764' lon='151.0073295' />
  <node id='-102406' action='modify' visible='true' lat='-33.7860149' lon='151.0073788' />
  <node id='-102407' action='modify' visible='true' lat='-33.7859151' lon='151.0072986' />
  <node id='-102408' action='modify' visible='true' lat='-33.7858101' lon='151.0071323' />
  <node id='-102409' action='modify' visible='true' lat='-33.7855771' lon='151.0069998' />
  <node id='-102410' action='modify' visible='true' lat='-33.7854695' lon='151.0068765' />
  <node id='-102411' action='modify' visible='true' lat='-33.7853031' lon='151.0068365' />
  <node id='-102412' action='modify' visible='true' lat='-33.7852083' lon='151.006818' />
  <node id='-102413' action='modify' visible='true' lat='-33.7850291' lon='151.0068272' />
  <node id='-102414' action='modify' visible='true' lat='-33.7849138' lon='151.0067995' />
  <node id='-102415' action='modify' visible='true' lat='-33.7848012' lon='151.0067441' />
  <node id='-102416' action='modify' visible='true' lat='-33.7846987' lon='151.0067934' />
  <node id='-102417' action='modify' visible='true' lat='-33.7845835' lon='151.006855' />
  <node id='-102418' action='modify' visible='true' lat='-33.7844759' lon='151.0069197' />
  <node id='-102419' action='modify' visible='true' lat='-33.7843658' lon='151.0070244' />
  <node id='-102420' action='modify' visible='true' lat='-33.7842634' lon='151.0070121' />
  <node id='-102421' action='modify' visible='true' lat='-33.7841712' lon='151.0069998' />
  <node id='-102422' action='modify' visible='true' lat='-33.7840867' lon='151.0070891' />
  <node id='-102423' action='modify' visible='true' lat='-33.7839945' lon='151.0071384' />
  <node id='-102424' action='modify' visible='true' lat='-33.7839407' lon='151.007123' />
  <node id='-102425' action='modify' visible='true' lat='-33.7838767' lon='151.0071754' />
  <node id='-102426' action='modify' visible='true' lat='-33.783764' lon='151.0072678' />
  <node id='-102427' action='modify' visible='true' lat='-33.7836616' lon='151.0073541' />
  <node id='-102428' action='modify' visible='true' lat='-33.7835489' lon='151.0074096' />
  <node id='-102429' action='modify' visible='true' lat='-33.7834183' lon='151.0075143' />
  <node id='-102430' action='modify' visible='true' lat='-33.7832698' lon='151.007653' />
  <node id='-102431' action='modify' visible='true' lat='-33.7831469' lon='151.0077916' />
  <node id='-102432' action='modify' visible='true' lat='-33.7830931' lon='151.0078748' />
  <node id='-102433' action='modify' visible='true' lat='-33.7830317' lon='151.0079518' />
  <node id='-102434' action='modify' visible='true' lat='-33.7829523' lon='151.0080104' />
  <node id='-102435' action='modify' visible='true' lat='-33.7828575' lon='151.0080289' />
  <node id='-102436' action='modify' visible='true' lat='-33.7827781' lon='151.0080782' />
  <node id='-102437' action='modify' visible='true' lat='-33.7826987' lon='151.008186' />
  <node id='-102438' action='modify' visible='true' lat='-33.782645' lon='151.0082784' />
  <node id='-102439' action='modify' visible='true' lat='-33.7826091' lon='151.0084263' />
  <node id='-102440' action='modify' visible='true' lat='-33.7826014' lon='151.008528' />
  <node id='-102441' action='modify' visible='true' lat='-33.7825963' lon='151.0087159' />
  <node id='-102442' action='modify' visible='true' lat='-33.7826142' lon='151.0088638' />
  <node id='-102443' action='modify' visible='true' lat='-33.7825809' lon='151.0089347' />
  <node id='-102444' action='modify' visible='true' lat='-33.7824606' lon='151.0091442' />
  <node id='-102445' action='modify' visible='true' lat='-33.7823146' lon='151.0092613' />
  <node id='-102446' action='modify' visible='true' lat='-33.7820995' lon='151.0094985' />
  <node id='-102447' action='modify' visible='true' lat='-33.7820278' lon='151.0095817' />
  <node id='-102448' action='modify' visible='true' lat='-33.7818793' lon='151.0097265' />
  <node id='-102449' action='modify' visible='true' lat='-33.7817077' lon='151.0098313' />
  <node id='-102450' action='modify' visible='true' lat='-33.7816462' lon='151.0099422' />
  <node id='-102451' action='modify' visible='true' lat='-33.7815464' lon='151.0099545' />
  <node id='-102452' action='modify' visible='true' lat='-33.7814849' lon='151.0100038' />
  <node id='-102453' action='modify' visible='true' lat='-33.7813722' lon='151.0100747' />
  <node id='-102454' action='modify' visible='true' lat='-33.7812544' lon='151.0101024' />
  <node id='-102455' action='modify' visible='true' lat='-33.7811469' lon='151.0101363' />
  <node id='-102456' action='modify' visible='true' lat='-33.7810291' lon='151.0101856' />
  <node id='-102457' action='modify' visible='true' lat='-33.7808805' lon='151.0102472' />
  <node id='-102458' action='modify' visible='true' lat='-33.7807935' lon='151.0102503' />
  <node id='-102459' action='modify' visible='true' lat='-33.780691' lon='151.0102287' />
  <node id='-102460' action='modify' visible='true' lat='-33.7805835' lon='151.0102719' />
  <node id='-102461' action='modify' visible='true' lat='-33.7804657' lon='151.0102441' />
  <node id='-102462' action='modify' visible='true' lat='-33.7803607' lon='151.010201' />
  <node id='-102463' action='modify' visible='true' lat='-33.7802429' lon='151.0102503' />
  <node id='-102464' action='modify' visible='true' lat='-33.7801353' lon='151.0102811' />
  <node id='-102465' action='modify' visible='true' lat='-33.7800022' lon='151.0102996' />
  <node id='-102466' action='modify' visible='true' lat='-33.7799253' lon='151.0102903' />
  <node id='-102467' action='modify' visible='true' lat='-33.7797435' lon='151.0102719' />
  <node id='-102468' action='modify' visible='true' lat='-33.7795284' lon='151.0102226' />
  <node id='-102469' action='modify' visible='true' lat='-33.779408' lon='151.0101548' />
  <node id='-102470' action='modify' visible='true' lat='-33.7793696' lon='151.0100747' />
  <node id='-102471' action='modify' visible='true' lat='-33.7791903' lon='151.009896' />
  <node id='-102472' action='modify' visible='true' lat='-33.7790725' lon='151.0097111' />
  <node id='-102473' action='modify' visible='true' lat='-33.7788702' lon='151.0094954' />
  <node id='-102474' action='modify' visible='true' lat='-33.7787908' lon='151.009326' />
  <node id='-102475' action='modify' visible='true' lat='-33.7787294' lon='151.0092243' />
  <node id='-102476' action='modify' visible='true' lat='-33.7786372' lon='151.0091165' />
  <node id='-102477' action='modify' visible='true' lat='-33.7784374' lon='151.0089686' />
  <node id='-102478' action='modify' visible='true' lat='-33.7782889' lon='151.0088238' />
  <node id='-102479' action='modify' visible='true' lat='-33.778125' lon='151.0087775' />
  <node id='-102480' action='modify' visible='true' lat='-33.7780379' lon='151.0087437' />
  <node id='-102481' action='modify' visible='true' lat='-33.7779219' lon='151.0087534' />
  <node id='-102482' action='modify' visible='true' lat='-33.7777406' lon='151.0087992' />
  <node id='-102483' action='modify' visible='true' lat='-33.7776977' lon='151.0088716' />
  <node id='-102484' action='modify' visible='true' lat='-33.7776346' lon='151.0089509' />
  <node id='-102485' action='modify' visible='true' lat='-33.7775458' lon='151.0089199' />
  <node id='-102486' action='modify' visible='true' lat='-33.7774914' lon='151.0087579' />
  <node id='-102487' action='modify' visible='true' lat='-33.7774226' lon='151.0086338' />
  <node id='-102488' action='modify' visible='true' lat='-33.7773366' lon='151.0085924' />
  <node id='-102489' action='modify' visible='true' lat='-33.777265' lon='151.0085097' />
  <node id='-102490' action='modify' visible='true' lat='-33.7772192' lon='151.0084546' />
  <node id='-102491' action='modify' visible='true' lat='-33.7771819' lon='151.0083374' />
  <node id='-102492' action='modify' visible='true' lat='-33.7771504' lon='151.0082443' />
  <node id='-102493' action='modify' visible='true' lat='-33.7770902' lon='151.0081719' />
  <node id='-102494' action='modify' visible='true' lat='-33.7770243' lon='151.0080995' />
  <node id='-102495' action='modify' visible='true' lat='-33.7769155' lon='151.0079651' />
  <node id='-102496' action='modify' visible='true' lat='-33.7768496' lon='151.0079306' />
  <node id='-102497' action='modify' visible='true' lat='-33.7767837' lon='151.0079272' />
  <node id='-102498' action='modify' visible='true' lat='-33.7767894' lon='151.0079754' />
  <node id='-102499' action='modify' visible='true' lat='-33.7768123' lon='151.0080547' />
  <node id='-102500' action='modify' visible='true' lat='-33.7768668' lon='151.0081133' />
  <node id='-102501' action='modify' visible='true' lat='-33.7768983' lon='151.0081685' />
  <node id='-102502' action='modify' visible='true' lat='-33.7767865' lon='151.0081236' />
  <node id='-102503' action='modify' visible='true' lat='-33.7767206' lon='151.0080616' />
  <node id='-102504' action='modify' visible='true' lat='-33.7766633' lon='151.0079892' />
  <node id='-102505' action='modify' visible='true' lat='-33.7765701' lon='151.007964' />
  <node id='-102506' action='modify' visible='true' lat='-33.7763351' lon='151.0077955' />
  <node id='-102507' action='modify' visible='true' lat='-33.7762412' lon='151.0075166' />
  <node id='-102508' action='modify' visible='true' lat='-33.7763023' lon='151.0072619' />
  <node id='-102509' action='modify' visible='true' lat='-33.7763259' lon='151.0071374' />
  <node id='-102510' action='modify' visible='true' lat='-33.7763138' lon='151.006931' />
  <node id='-102511' action='modify' visible='true' lat='-33.7763825' lon='151.0066725' />
  <node id='-102512' action='modify' visible='true' lat='-33.776792' lon='151.0062133' />
  <node id='-102513' action='modify' visible='true' lat='-33.7769329' lon='151.0059933' />
  <node id='-102514' action='modify' visible='true' lat='-33.7768385' lon='151.005697' />
  <node id='-102515' action='modify' visible='true' lat='-33.7768281' lon='151.0053969' />
  <node id='-102516' action='modify' visible='true' lat='-33.7767969' lon='151.0052387' />
  <node id='-102517' action='modify' visible='true' lat='-33.7767562' lon='151.0051473' />
  <node id='-102518' action='modify' visible='true' lat='-33.7768031' lon='151.0050852' />
  <node id='-102519' action='modify' visible='true' lat='-33.7768383' lon='151.0050127' />
  <node id='-102520' action='modify' visible='true' lat='-33.7768479' lon='151.0048826' />
  <node id='-102521' action='modify' visible='true' lat='-33.7767669' lon='151.0047736' />
  <node id='-102522' action='modify' visible='true' lat='-33.7766317' lon='151.0047567' />
  <node id='-102523' action='modify' visible='true' lat='-33.7763954' lon='151.0048154' />
  <node id='-102524' action='modify' visible='true' lat='-33.7762335' lon='151.0049332' />
  <node id='-102525' action='modify' visible='true' lat='-33.7761592' lon='151.0051821' />
  <node id='-102526' action='modify' visible='true' lat='-33.7760828' lon='151.0050512' />
  <node id='-102527' action='modify' visible='true' lat='-33.776058' lon='151.0050815' />
  <node id='-102528' action='modify' visible='true' lat='-33.7760379' lon='151.0052183' />
  <node id='-102529' action='modify' visible='true' lat='-33.7757676' lon='151.0054221' />
  <node id='-102530' action='modify' visible='true' lat='-33.7757197' lon='151.0053475'>
  </node>
  <node id='-102531' action='modify' visible='true' lat='-33.7756928' lon='151.0053057' />
  <node id='-102532' action='modify' visible='true' lat='-33.7753477' lon='151.0055138' />
  <node id='-102533' action='modify' visible='true' lat='-33.7751309' lon='151.0056138' />
  <node id='-102534' action='modify' visible='true' lat='-33.7750279' lon='151.0056356' />
  <node id='-102535' action='modify' visible='true' lat='-33.7746341' lon='151.0056747' />
  <node id='-102536' action='modify' visible='true' lat='-33.7744461' lon='151.0056356' />
  <node id='-102537' action='modify' visible='true' lat='-33.7743052' lon='151.005603' />
  <node id='-102538' action='modify' visible='true' lat='-33.7739475' lon='151.0053986' />
  <node id='-102539' action='modify' visible='true' lat='-33.7737686' lon='151.0053378' />
  <node id='-102540' action='modify' visible='true' lat='-33.773568' lon='151.0052769' />
  <node id='-102541' action='modify' visible='true' lat='-33.7732898' lon='151.0053139' />
  <node id='-102542' action='modify' visible='true' lat='-33.7730874' lon='151.0052595' />
  <node id='-102543' action='modify' visible='true' lat='-33.7728489' lon='151.0052074' />
  <node id='-102544' action='modify' visible='true' lat='-33.7726791' lon='151.0051965' />
  <node id='-102545' action='modify' visible='true' lat='-33.7725038' lon='151.0052095' />
  <node id='-102546' action='modify' visible='true' lat='-33.7722581' lon='151.0052769' />
  <node id='-102547' action='modify' visible='true' lat='-33.7721081' lon='151.0053269' />
  <node id='-102548' action='modify' visible='true' lat='-33.7718913' lon='151.005629' />
  <node id='-102549' action='modify' visible='true' lat='-33.7718299' lon='151.0058986' />
  <node id='-102550' action='modify' visible='true' lat='-33.7717558' lon='151.006042' />
  <node id='-102551' action='modify' visible='true' lat='-33.771651' lon='151.0062637' />
  <node id='-102552' action='modify' visible='true' lat='-33.771604' lon='151.0064441' />
  <node id='-102553' action='modify' visible='true' lat='-33.7715227' lon='151.0065181' />
  <node id='-102554' action='modify' visible='true' lat='-33.7714089' lon='151.0065963' />
  <node id='-102555' action='modify' visible='true' lat='-33.7713023' lon='151.0066137' />
  <node id='-102556' action='modify' visible='true' lat='-33.77108' lon='151.0067093' />
  <node id='-102557' action='modify' visible='true' lat='-33.7709012' lon='151.0067789' />
  <node id='-102558' action='modify' visible='true' lat='-33.7706554' lon='151.0068571' />
  <node id='-102559' action='modify' visible='true' lat='-33.7705452' lon='151.006768' />
  <node id='-102560' action='modify' visible='true' lat='-33.7704693' lon='151.0066441' />
  <node id='-102561' action='modify' visible='true' lat='-33.7703484' lon='151.0064917' />
  <node id='-102562' action='modify' visible='true' lat='-33.7702622' lon='151.0061991' />
  <node id='-102563' action='modify' visible='true' lat='-33.7702328' lon='151.0060943' />
  <node id='-102564' action='modify' visible='true' lat='-33.7702151' lon='151.0059975' />
  <node id='-102565' action='modify' visible='true' lat='-33.7701396' lon='151.0058388' />
  <node id='-102566' action='modify' visible='true' lat='-33.77006' lon='151.0056854' />
  <node id='-102567' action='modify' visible='true' lat='-33.7699147' lon='151.0056255' />
  <node id='-102568' action='modify' visible='true' lat='-33.7697838' lon='151.0055437' />
  <node id='-102569' action='modify' visible='true' lat='-33.7694944' lon='151.0055228' />
  <node id='-102570' action='modify' visible='true' lat='-33.7691533' lon='151.0053654'>
  </node>
  <node id='-102571' action='modify' visible='true' lat='-33.7683905' lon='151.0054759'>
  </node>
  <node id='-102572' action='modify' visible='true' lat='-33.7678992' lon='151.0056302'>
  </node>
  <node id='-102573' action='modify' visible='true' lat='-33.7676281' lon='151.0056175' />
  <node id='-102574' action='modify' visible='true' lat='-33.767427' lon='151.0053971' />
  <node id='-102575' action='modify' visible='true' lat='-33.7671907' lon='151.0051553'>
  </node>
  <node id='-102576' action='modify' visible='true' lat='-33.7669442' lon='151.0049811'>
  </node>
  <node id='-102577' action='modify' visible='true' lat='-33.7666436' lon='151.0050028'>
  </node>
  <node id='-102578' action='modify' visible='true' lat='-33.7665252' lon='151.0050782'>
  </node>
  <node id='-102579' action='modify' visible='true' lat='-33.766394' lon='151.0053986' />
  <node id='-102580' action='modify' visible='true' lat='-33.7662711' lon='151.0054812' />
  <node id='-102581' action='modify' visible='true' lat='-33.766047' lon='151.0055855' />
  <node id='-102582' action='modify' visible='true' lat='-33.7657652' lon='151.0057377' />
  <node id='-102583' action='modify' visible='true' lat='-33.7654652' lon='151.0060115' />
  <node id='-102584' action='modify' visible='true' lat='-33.7653098' lon='151.0063245' />
  <node id='-102585' action='modify' visible='true' lat='-33.7652917' lon='151.0066071' />
  <node id='-102586' action='modify' visible='true' lat='-33.7654001' lon='151.0070245' />
  <node id='-102587' action='modify' visible='true' lat='-33.7654254' lon='151.0071983' />
  <node id='-102588' action='modify' visible='true' lat='-33.7655447' lon='151.007494' />
  <node id='-102589' action='modify' visible='true' lat='-33.7654724' lon='151.0077635' />
  <node id='-102590' action='modify' visible='true' lat='-33.7653351' lon='151.0081504' />
  <node id='-102591' action='modify' visible='true' lat='-33.765225' lon='151.0084141' />
  <node id='-102592' action='modify' visible='true' lat='-33.7649865' lon='151.0086337' />
  <node id='-102593' action='modify' visible='true' lat='-33.7649552' lon='151.0087201'>
  </node>
  <node id='-102594' action='modify' visible='true' lat='-33.7647677' lon='151.0088068' />
  <node id='-102595' action='modify' visible='true' lat='-33.7644263' lon='151.008988' />
  <node id='-102596' action='modify' visible='true' lat='-33.7641479' lon='151.0091611' />
  <node id='-102597' action='modify' visible='true' lat='-33.7639294' lon='151.0092075' />
  <node id='-102598' action='modify' visible='true' lat='-33.7637434' lon='151.0093147' />
  <node id='-102599' action='modify' visible='true' lat='-33.763463' lon='151.0094024' />
  <node id='-102600' action='modify' visible='true' lat='-33.7633058' lon='151.0096219' />
  <node id='-102601' action='modify' visible='true' lat='-33.7632788' lon='151.0095933'>
  </node>
  <node id='-102602' action='modify' visible='true' lat='-33.7631667' lon='151.0095459' />
  <node id='-102603' action='modify' visible='true' lat='-33.7629535' lon='151.0095459' />
  <node id='-102604' action='modify' visible='true' lat='-33.7626174' lon='151.0095415' />
  <node id='-102605' action='modify' visible='true' lat='-33.7622198' lon='151.0093589' />
  <node id='-102606' action='modify' visible='true' lat='-33.7617753' lon='151.0092459' />
  <node id='-102607' action='modify' visible='true' lat='-33.7615512' lon='151.0092459' />
  <node id='-102608' action='modify' visible='true' lat='-33.7614572' lon='151.009385' />
  <node id='-102609' action='modify' visible='true' lat='-33.7614267' lon='151.0095682' />
  <node id='-102610' action='modify' visible='true' lat='-33.7611995' lon='151.0097948' />
  <node id='-102611' action='modify' visible='true' lat='-33.7609811' lon='151.0099423' />
  <node id='-102612' action='modify' visible='true' lat='-33.7607703' lon='151.0100184' />
  <node id='-102613' action='modify' visible='true' lat='-33.7606265' lon='151.0100441' />
  <node id='-102614' action='modify' visible='true' lat='-33.7602776' lon='151.0098684' />
  <node id='-102615' action='modify' visible='true' lat='-33.7598753' lon='151.009948' />
  <node id='-102616' action='modify' visible='true' lat='-33.7596686' lon='151.0101117' />
  <node id='-102617' action='modify' visible='true' lat='-33.7595091' lon='151.0102026' />
  <node id='-102618' action='modify' visible='true' lat='-33.7593581' lon='151.010217' />
  <node id='-102619' action='modify' visible='true' lat='-33.7591393' lon='151.0103159' />
  <node id='-102620' action='modify' visible='true' lat='-33.7589865' lon='151.0103739' />
  <node id='-102621' action='modify' visible='true' lat='-33.7589285' lon='151.0104973' />
  <node id='-102622' action='modify' visible='true' lat='-33.758817' lon='151.0107762' />
  <node id='-102623' action='modify' visible='true' lat='-33.7586342' lon='151.011082' />
  <node id='-102624' action='modify' visible='true' lat='-33.758438' lon='151.0114361' />
  <node id='-102625' action='modify' visible='true' lat='-33.7582564' lon='151.0115817' />
  <node id='-102626' action='modify' visible='true' lat='-33.758114' lon='151.0120097' />
  <node id='-102627' action='modify' visible='true' lat='-33.758114' lon='151.0122237' />
  <node id='-102628' action='modify' visible='true' lat='-33.7582421' lon='151.0124463' />
  <node id='-102629' action='modify' visible='true' lat='-33.7588186' lon='151.0131311' />
  <node id='-102630' action='modify' visible='true' lat='-33.7594235' lon='151.0137645' />
  <node id='-102631' action='modify' visible='true' lat='-33.7595445' lon='151.0141326' />
  <node id='-102632' action='modify' visible='true' lat='-33.7596085' lon='151.0148602' />
  <node id='-102633' action='modify' visible='true' lat='-33.7595303' lon='151.0154765' />
  <node id='-102634' action='modify' visible='true' lat='-33.7595089' lon='151.0158189' />
  <node id='-102635' action='modify' visible='true' lat='-33.7596299' lon='151.0162469' />
  <node id='-102636' action='modify' visible='true' lat='-33.7597011' lon='151.0165722' />
  <node id='-102637' action='modify' visible='true' lat='-33.759758' lon='151.0169831' />
  <node id='-102638' action='modify' visible='true' lat='-33.7596655' lon='151.0175395' />
  <node id='-102639' action='modify' visible='true' lat='-33.759637' lon='151.018036' />
  <node id='-102640' action='modify' visible='true' lat='-33.7595374' lon='151.0183527' />
  <node id='-102641' action='modify' visible='true' lat='-33.759452' lon='151.0187807' />
  <node id='-102642' action='modify' visible='true' lat='-33.7594235' lon='151.0190546' />
  <node id='-102643' action='modify' visible='true' lat='-33.7595374' lon='151.0191488' />
  <node id='-102644' action='modify' visible='true' lat='-33.7596212' lon='151.0191286' />
  <node id='-102645' action='modify' visible='true' lat='-33.7596751' lon='151.0193298' />
  <node id='-102646' action='modify' visible='true' lat='-33.7597893' lon='151.0195793' />
  <node id='-102647' action='modify' visible='true' lat='-33.7598892' lon='151.0198663' />
  <node id='-102648' action='modify' visible='true' lat='-33.760023' lon='151.0200647' />
  <node id='-102649' action='modify' visible='true' lat='-33.7600275' lon='151.0203115' />
  <node id='-102650' action='modify' visible='true' lat='-33.7599918' lon='151.0205904' />
  <node id='-102651' action='modify' visible='true' lat='-33.7600346' lon='151.0208289' />
  <node id='-102652' action='modify' visible='true' lat='-33.7601485' lon='151.0210177' />
  <node id='-102653' action='modify' visible='true' lat='-33.7603463' lon='151.0213007' />
  <node id='-102654' action='modify' visible='true' lat='-33.7604522' lon='151.0214941' />
  <node id='-102655' action='modify' visible='true' lat='-33.7605787' lon='151.0217891' />
  <node id='-102656' action='modify' visible='true' lat='-33.760659' lon='151.0219822' />
  <node id='-102657' action='modify' visible='true' lat='-33.7608507' lon='151.0225401' />
  <node id='-102658' action='modify' visible='true' lat='-33.7609121' lon='151.022854' />
  <node id='-102659' action='modify' visible='true' lat='-33.7610398' lon='151.0231278' />
  <node id='-102660' action='modify' visible='true' lat='-33.7610844' lon='151.0234229' />
  <node id='-102661' action='modify' visible='true' lat='-33.7611763' lon='151.0235969' />
  <node id='-102662' action='modify' visible='true' lat='-33.7613101' lon='151.0237471' />
  <node id='-102663' action='modify' visible='true' lat='-33.7614573' lon='151.024128' />
  <node id='-102664' action='modify' visible='true' lat='-33.7615777' lon='151.0244821' />
  <node id='-102665' action='modify' visible='true' lat='-33.761672' lon='151.0246179' />
  <node id='-102666' action='modify' visible='true' lat='-33.7617109' lon='151.0247017' />
  <node id='-102667' action='modify' visible='true' lat='-33.7618725' lon='151.0249932' />
  <node id='-102668' action='modify' visible='true' lat='-33.7621574' lon='151.025594' />
  <node id='-102669' action='modify' visible='true' lat='-33.7622655' lon='151.0261144' />
  <node id='-102670' action='modify' visible='true' lat='-33.7623466' lon='151.0263339' />
  <node id='-102671' action='modify' visible='true' lat='-33.7625224' lon='151.0265454' />
  <node id='-102672' action='modify' visible='true' lat='-33.7627049' lon='151.0267893' />
  <node id='-102673' action='modify' visible='true' lat='-33.7629246' lon='151.0270061' />
  <node id='-102674' action='modify' visible='true' lat='-33.763053' lon='151.0273232' />
  <node id='-102675' action='modify' visible='true' lat='-33.763195' lon='151.0277541' />
  <node id='-102676' action='modify' visible='true' lat='-33.763249' lon='151.0282013' />
  <node id='-102677' action='modify' visible='true' lat='-33.7634248' lon='151.0285754' />
  <node id='-102678' action='modify' visible='true' lat='-33.7636276' lon='151.0289169' />
  <node id='-102679' action='modify' visible='true' lat='-33.763952' lon='151.0290551' />
  <node id='-102680' action='modify' visible='true' lat='-33.7639926' lon='151.0292746' />
  <node id='-102681' action='modify' visible='true' lat='-33.7639115' lon='151.0295348' />
  <node id='-102682' action='modify' visible='true' lat='-33.7637628' lon='151.0296974' />
  <node id='-102683' action='modify' visible='true' lat='-33.7636479' lon='151.0298926' />
  <node id='-102684' action='modify' visible='true' lat='-33.7636681' lon='151.030169' />
  <node id='-102685' action='modify' visible='true' lat='-33.7636749' lon='151.0306162' />
  <node id='-102686' action='modify' visible='true' lat='-33.7638322' lon='151.0308708' />
  <node id='-102687' action='modify' visible='true' lat='-33.7638709' lon='151.0309333' />
  <node id='-102688' action='modify' visible='true' lat='-33.7640574' lon='151.0311602' />
  <node id='-102689' action='modify' visible='true' lat='-33.7644522' lon='151.0313399' />
  <node id='-102690' action='modify' visible='true' lat='-33.7646821' lon='151.0313887' />
  <node id='-102691' action='modify' visible='true' lat='-33.764797' lon='151.0315675' />
  <node id='-102692' action='modify' visible='true' lat='-33.7648984' lon='151.0317464' />
  <node id='-102693' action='modify' visible='true' lat='-33.7651417' lon='151.0318115' />
  <node id='-102694' action='modify' visible='true' lat='-33.7653107' lon='151.0319741' />
  <node id='-102695' action='modify' visible='true' lat='-33.7654797' lon='151.0323318' />
  <node id='-102696' action='modify' visible='true' lat='-33.7655067' lon='151.0326083' />
  <node id='-102697' action='modify' visible='true' lat='-33.7655722' lon='151.0326854' />
  <way id='-105526' action='modify' visible='true'>
    <nd ref='-102356' />
    <nd ref='-102357' />
    <nd ref='-102358' />
    <nd ref='-102359' />
    <nd ref='-102360' />
    <nd ref='-102361' />
    <nd ref='-102362' />
    <nd ref='-102363' />
    <nd ref='-102364' />
    <nd ref='-102365' />
    <nd ref='-102366' />
    <nd ref='-102367' />
    <nd ref='-102368' />
    <nd ref='-102369' />
    <nd ref='-102370' />
    <nd ref='-102371' />
    <nd ref='-102372' />
    <nd ref='-102373' />
    <nd ref='-102374' />
    <nd ref='-102375' />
    <nd ref='-102376' />
    <nd ref='-102377' />
    <nd ref='-102378' />
    <nd ref='-102379' />
    <nd ref='-102380' />
    <nd ref='-102381' />
    <nd ref='-102382' />
    <nd ref='-102383' />
    <nd ref='-102384' />
    <nd ref='-102385' />
    <nd ref='-102386' />
    <nd ref='-102387' />
    <nd ref='-102388' />
    <nd ref='-102389' />
    <nd ref='-102390' />
    <nd ref='-102391' />
    <nd ref='-102392' />
    <nd ref='-102393' />
    <nd ref='-102394' />
    <nd ref='-102395' />
    <nd ref='-102396' />
    <nd ref='-102397' />
    <nd ref='-102398' />
    <nd ref='-102399' />
    <nd ref='-102400' />
    <nd ref='-102401' />
    <nd ref='-102402' />
    <nd ref='-102403' />
    <nd ref='-102404' />
    <nd ref='-102405' />
    <nd ref='-102406' />
    <nd ref='-102407' />
    <nd ref='-102408' />
    <nd ref='-102409' />
    <nd ref='-102410' />
    <nd ref='-102411' />
    <nd ref='-102412' />
    <nd ref='-102413' />
    <nd ref='-102414' />
    <nd ref='-102415' />
    <nd ref='-102416' />
    <nd ref='-102417' />
    <nd ref='-102418' />
    <nd ref='-102419' />
    <nd ref='-102420' />
    <nd ref='-102421' />
    <nd ref='-102422' />
    <nd ref='-102423' />
    <nd ref='-102424' />
    <nd ref='-102425' />
    <nd ref='-102426' />
    <nd ref='-102427' />
    <nd ref='-102428' />
    <nd ref='-102429' />
    <nd ref='-102430' />
    <nd ref='-102431' />
    <nd ref='-102432' />
    <nd ref='-102433' />
    <nd ref='-102434' />
    <nd ref='-102435' />
    <nd ref='-102436' />
    <nd ref='-102437' />
    <nd ref='-102438' />
    <nd ref='-102439' />
    <nd ref='-102440' />
    <nd ref='-102441' />
    <nd ref='-102442' />
    <nd ref='-102443' />
    <nd ref='-102444' />
    <nd ref='-102445' />
    <nd ref='-102446' />
    <nd ref='-102447' />
    <nd ref='-102448' />
    <nd ref='-102449' />
    <nd ref='-102450' />
    <nd ref='-102451' />
    <nd ref='-102452' />
    <nd ref='-102453' />
    <nd ref='-102454' />
    <nd ref='-102455' />
    <nd ref='-102456' />
    <nd ref='-102457' />
    <nd ref='-102458' />
    <nd ref='-102459' />
    <nd ref='-102460' />
    <nd ref='-102461' />
    <nd ref='-102462' />
    <nd ref='-102463' />
    <nd ref='-102464' />
    <nd ref='-102465' />
    <nd ref='-102466' />
    <nd ref='-102467' />
    <nd ref='-102468' />
    <nd ref='-102469' />
    <nd ref='-102470' />
    <nd ref='-102471' />
    <nd ref='-102472' />
    <nd ref='-102473' />
    <nd ref='-102474' />
    <nd ref='-102475' />
    <nd ref='-102476' />
    <nd ref='-102477' />
    <nd ref='-102478' />
    <nd ref='-102479' />
    <nd ref='-102480' />
    <nd ref='-102481' />
    <nd ref='-102482' />
    <nd ref='-102483' />
    <nd ref='-102484' />
    <nd ref='-102485' />
    <nd ref='-102486' />
    <nd ref='-102487' />
    <nd ref='-102488' />
    <nd ref='-102489' />
    <nd ref='-102490' />
    <nd ref='-102491' />
    <nd ref='-102492' />
    <nd ref='-102493' />
    <nd ref='-102494' />
    <nd ref='-102495' />
    <nd ref='-102496' />
    <nd ref='-102497' />
    <nd ref='-102498' />
    <nd ref='-102499' />
    <nd ref='-102500' />
    <nd ref='-102501' />
    <nd ref='-102502' />
    <nd ref='-102503' />
    <nd ref='-102504' />
    <nd ref='-102505' />
    <nd ref='-102506' />
    <nd ref='-102507' />
    <nd ref='-102508' />
    <nd ref='-102509' />
    <nd ref='-102510' />
    <nd ref='-102511' />
    <nd ref='-102512' />
    <nd ref='-102513' />
    <nd ref='-102514' />
    <nd ref='-102515' />
    <nd ref='-102516' />
    <nd ref='-102517' />
    <nd ref='-102518' />
    <nd ref='-102519' />
    <nd ref='-102520' />
    <nd ref='-102521' />
    <nd ref='-102522' />
    <nd ref='-102523' />
    <nd ref='-102524' />
    <nd ref='-102525' />
    <nd ref='-102526' />
    <nd ref='-102527' />
    <nd ref='-102528' />
    <nd ref='-102529' />
    <nd ref='-102530' />
    <nd ref='-102531' />
    <nd ref='-102532' />
    <nd ref='-102533' />
    <nd ref='-102534' />
    <nd ref='-102535' />
    <nd ref='-102536' />
    <nd ref='-102537' />
    <nd ref='-102538' />
    <nd ref='-102539' />
    <nd ref='-102540' />
    <nd ref='-102541' />
    <nd ref='-102542' />
    <nd ref='-102543' />
    <nd ref='-102544' />
    <nd ref='-102545' />
    <nd ref='-102546' />
    <nd ref='-102547' />
    <nd ref='-102548' />
    <nd ref='-102549' />
    <nd ref='-102550' />
    <nd ref='-102551' />
    <nd ref='-102552' />
    <nd ref='-102553' />
    <nd ref='-102554' />
    <nd ref='-102555' />
    <nd ref='-102556' />
    <nd ref='-102557' />
    <nd ref='-102558' />
    <nd ref='-102559' />
    <nd ref='-102560' />
    <nd ref='-102561' />
    <nd ref='-102562' />
    <nd ref='-102563' />
    <nd ref='-102564' />
    <nd ref='-102565' />
    <nd ref='-102566' />
    <nd ref='-102567' />
    <nd ref='-102568' />
    <nd ref='-102569' />
    <nd ref='-102570' />
    <nd ref='-102571' />
    <nd ref='-102572' />
    <nd ref='-102573' />
    <nd ref='-102574' />
    <nd ref='-102575' />
    <nd ref='-102576' />
    <nd ref='-102577' />
    <nd ref='-102578' />
    <nd ref='-102579' />
    <nd ref='-102580' />
    <nd ref='-102581' />
    <nd ref='-102582' />
    <nd ref='-102583' />
    <nd ref='-102584' />
    <nd ref='-102585' />
    <nd ref='-102586' />
    <nd ref='-102587' />
    <nd ref='-102588' />
    <nd ref='-102589' />
    <nd ref='-102590' />
    <nd ref='-102591' />
    <nd ref='-102592' />
    <nd ref='-102593' />
    <nd ref='-102594' />
    <nd ref='-102595' />
    <nd ref='-102596' />
    <nd ref='-102597' />
    <nd ref='-102598' />
    <nd ref='-102599' />
    <nd ref='-102600' />
    <nd ref='-102601' />
    <nd ref='-102602' />
    <nd ref='-102603' />
    <nd ref='-102604' />
    <nd ref='-102605' />
    <nd ref='-102606' />
    <nd ref='-102607' />
    <nd ref='-102608' />
    <nd ref='-102609' />
    <nd ref='-102610' />
    <nd ref='-102611' />
    <nd ref='-102612' />
    <nd ref='-102613' />
    <nd ref='-102614' />
    <nd ref='-102615' />
    <nd ref='-102616' />
    <nd ref='-102617' />
    <nd ref='-102618' />
    <nd ref='-102619' />
    <nd ref='-102620' />
    <nd ref='-102621' />
    <nd ref='-102622' />
    <nd ref='-102623' />
    <nd ref='-102624' />
    <nd ref='-102625' />
    <nd ref='-102626' />
    <nd ref='-102627' />
    <nd ref='-102628' />
    <nd ref='-102629' />
    <nd ref='-102630' />
    <nd ref='-102631' />
    <nd ref='-102632' />
    <nd ref='-102633' />
    <nd ref='-102634' />
    <nd ref='-102635' />
    <nd ref='-102636' />
    <nd ref='-102637' />
    <nd ref='-102638' />
    <nd ref='-102639' />
    <nd ref='-102640' />
    <nd ref='-102641' />
    <nd ref='-102642' />
    <nd ref='-102643' />
    <nd ref='-102644' />
    <nd ref='-102645' />
    <nd ref='-102646' />
    <nd ref='-102647' />
    <nd ref='-102648' />
    <nd ref='-102649' />
    <nd ref='-102650' />
    <nd ref='-102651' />
    <nd ref='-102652' />
    <nd ref='-102653' />
    <nd ref='-102654' />
    <nd ref='-102655' />
    <nd ref='-102656' />
    <nd ref='-102657' />
    <nd ref='-102658' />
    <nd ref='-102659' />
    <nd ref='-102660' />
    <nd ref='-102661' />
    <nd ref='-102662' />
    <nd ref='-102663' />
    <nd ref='-102664' />
    <nd ref='-102665' />
    <nd ref='-102666' />
    <nd ref='-102667' />
    <nd ref='-102668' />
    <nd ref='-102669' />
    <nd ref='-102670' />
    <nd ref='-102671' />
    <nd ref='-102672' />
    <nd ref='-102673' />
    <nd ref='-102674' />
    <nd ref='-102675' />
    <nd ref='-102676' />
    <nd ref='-102677' />
    <nd ref='-102678' />
    <nd ref='-102679' />
    <nd ref='-102680' />
    <nd ref='-102681' />
    <nd ref='-102682' />
    <nd ref='-102683' />
    <nd ref='-102684' />
    <nd ref='-102685' />
    <nd ref='-102686' />
    <nd ref='-102687' />
    <nd ref='-102688' />
    <nd ref='-102689' />
    <nd ref='-102690' />
    <nd ref='-102691' />
    <nd ref='-102692' />
    <nd ref='-102693' />
    <nd ref='-102694' />
    <nd ref='-102695' />
    <nd ref='-102696' />
    <nd ref='-102697' />
    <tag k='name' v='Darling Mills Creek' />
    <tag k='park' v='Bidjigal Reserve' />
    <tag k='role' v='primary' />
    <tag k='style' v='oneway' />
    <tag k='transport' v='car_shuffle' />
  </way>
</osm>
