<?xml version='1.0' encoding='UTF-8'?>
<osm version='0.6' upload='false' generator='JOSM'>
  <node id='7943590471' timestamp='2020-09-26T00:42:28Z' uid='156866' user='bertboy' visible='true' version='1' changeset='91535185' lat='-33.4841661' lon='150.6233888' />
  <node id='7943590472' timestamp='2020-09-26T00:42:28Z' uid='156866' user='bertboy' visible='true' version='1' changeset='91535185' lat='-33.4840835' lon='150.6235445' />
  <node id='7943590473' timestamp='2020-09-26T00:42:28Z' uid='156866' user='bertboy' visible='true' version='1' changeset='91535185' lat='-33.4840067' lon='150.6237073' />
  <node id='7943590474' timestamp='2020-09-26T00:42:28Z' uid='156866' user='bertboy' visible='true' version='1' changeset='91535185' lat='-33.4840067' lon='150.6238984' />
  <node id='7943590475' timestamp='2020-09-26T00:42:28Z' uid='156866' user='bertboy' visible='true' version='1' changeset='91535185' lat='-33.4838591' lon='150.6242028' />
  <node id='7943590476' timestamp='2020-09-26T00:42:28Z' uid='156866' user='bertboy' visible='true' version='1' changeset='91535185' lat='-33.4838001' lon='150.6243868' />
  <node id='7943590477' timestamp='2020-09-26T00:42:28Z' uid='156866' user='bertboy' visible='true' version='1' changeset='91535185' lat='-33.4837587' lon='150.6245992' />
  <node id='7943590478' timestamp='2020-09-26T00:42:28Z' uid='156866' user='bertboy' visible='true' version='1' changeset='91535185' lat='-33.4838178' lon='150.6246983' />
  <node id='7943590479' timestamp='2020-09-26T00:42:28Z' uid='156866' user='bertboy' visible='true' version='1' changeset='91535185' lat='-33.4839595' lon='150.6248186' />
  <node id='7943590480' timestamp='2020-09-26T00:42:28Z' uid='156866' user='bertboy' visible='true' version='1' changeset='91535185' lat='-33.4840008' lon='150.6248894' />
  <node id='7943590481' timestamp='2020-09-26T00:42:28Z' uid='156866' user='bertboy' visible='true' version='1' changeset='91535185' lat='-33.484048' lon='150.6249955' />
  <node id='7943590482' timestamp='2020-09-26T00:42:28Z' uid='156866' user='bertboy' visible='true' version='1' changeset='91535185' lat='-33.4840657' lon='150.6251584' />
  <node id='7943590483' timestamp='2020-09-26T00:42:28Z' uid='156866' user='bertboy' visible='true' version='1' changeset='91535185' lat='-33.4842251' lon='150.6252787' />
  <node id='7943590484' timestamp='2020-09-26T00:42:28Z' uid='156866' user='bertboy' visible='true' version='1' changeset='91535185' lat='-33.4842192' lon='150.6257105' />
  <node id='7943602285' timestamp='2020-09-26T00:42:28Z' uid='156866' user='bertboy' visible='true' version='1' changeset='91535185' lat='-33.4842428' lon='150.626029' />
  <node id='7943602286' timestamp='2020-09-26T00:42:28Z' uid='156866' user='bertboy' visible='true' version='1' changeset='91535185' lat='-33.4842901' lon='150.6263688' />
  <node id='7943602287' timestamp='2020-09-26T00:42:28Z' uid='156866' user='bertboy' visible='true' version='1' changeset='91535185' lat='-33.4843314' lon='150.6266094' />
  <node id='7943602288' timestamp='2020-09-26T00:42:28Z' uid='156866' user='bertboy' visible='true' version='1' changeset='91535185' lat='-33.4843727' lon='150.6267085' />
  <node id='7943602289' timestamp='2020-09-26T00:42:28Z' uid='156866' user='bertboy' visible='true' version='1' changeset='91535185' lat='-33.484296' lon='150.6269704' />
  <node id='7943602290' timestamp='2020-09-26T00:42:28Z' uid='156866' user='bertboy' visible='true' version='1' changeset='91535185' lat='-33.4843019' lon='150.6271828' />
  <node id='7943602291' timestamp='2020-09-26T00:42:28Z' uid='156866' user='bertboy' visible='true' version='1' changeset='91535185' lat='-33.4844022' lon='150.6273173' />
  <node id='7943602292' timestamp='2020-09-26T00:42:28Z' uid='156866' user='bertboy' visible='true' version='1' changeset='91535185' lat='-33.4844259' lon='150.6275438' />
  <node id='7943602293' timestamp='2020-09-26T00:42:28Z' uid='156866' user='bertboy' visible='true' version='1' changeset='91535185' lat='-33.4846797' lon='150.6276499' />
  <node id='7943602294' timestamp='2020-09-26T00:42:28Z' uid='156866' user='bertboy' visible='true' version='1' changeset='91535185' lat='-33.4850221' lon='150.6276146' />
  <node id='7943602295' timestamp='2020-09-26T00:42:28Z' uid='156866' user='bertboy' visible='true' version='1' changeset='91535185' lat='-33.4851579' lon='150.6276146' />
  <node id='7943602296' timestamp='2020-09-26T00:42:28Z' uid='156866' user='bertboy' visible='true' version='1' changeset='91535185' lat='-33.4852465' lon='150.6279118' />
  <node id='7943602297' timestamp='2020-09-26T00:42:28Z' uid='156866' user='bertboy' visible='true' version='1' changeset='91535185' lat='-33.4854413' lon='150.6281313' />
  <node id='7943602298' timestamp='2020-09-26T00:42:28Z' uid='156866' user='bertboy' visible='true' version='1' changeset='91535185' lat='-33.485884' lon='150.6282587' />
  <node id='7943602299' timestamp='2020-09-26T00:42:28Z' uid='156866' user='bertboy' visible='true' version='1' changeset='91535185' lat='-33.4859018' lon='150.6285206' />
  <node id='7943602300' timestamp='2020-09-26T00:42:28Z' uid='156866' user='bertboy' visible='true' version='1' changeset='91535185' lat='-33.4842181' lon='150.623306' />
  <way id='851695719' action='modify' timestamp='2020-09-26T00:42:28Z' uid='156866' user='bertboy' visible='true' version='1' changeset='91535185'>
    <nd ref='7943602300' />
    <nd ref='7943590471' />
    <nd ref='7943590472' />
    <nd ref='7943590473' />
    <nd ref='7943590474' />
    <nd ref='7943590475' />
    <nd ref='7943590476' />
    <nd ref='7943590477' />
    <nd ref='7943590478' />
    <nd ref='7943590479' />
    <nd ref='7943590480' />
    <nd ref='7943590481' />
    <nd ref='7943590482' />
    <nd ref='7943590483' />
    <nd ref='7943590484' />
    <nd ref='7943602285' />
    <nd ref='7943602286' />
    <nd ref='7943602287' />
    <nd ref='7943602288' />
    <nd ref='7943602289' />
    <nd ref='7943602290' />
    <nd ref='7943602291' />
    <nd ref='7943602292' />
    <nd ref='7943602293' />
    <nd ref='7943602294' />
    <nd ref='7943602295' />
    <nd ref='7943602296' />
    <nd ref='7943602297' />
    <nd ref='7943602298' />
    <nd ref='7943602299' />
    <tag k='name' v='Wheeny Gap' />
    <tag k='park' v='Wollemi National Park' />
    <tag k='role' v='primary' />
    <tag k='style' v='return' />
    <tag k='transport' v='car' />
  </way>
</osm>
