<?xml version='1.0' encoding='UTF-8'?>
<osm version='0.6' upload='false' generator='JOSM'>
  <node id='-103178' action='modify' visible='true' lat='-33.7389198' lon='151.1316792' />
  <node id='-103179' action='modify' visible='true' lat='-33.7388144' lon='151.1316815' />
  <node id='-103180' action='modify' visible='true' lat='-33.738745' lon='151.1319009' />
  <node id='-103181' action='modify' visible='true' lat='-33.73924407365' lon='151.13158722884' />
  <node id='-103182' action='modify' visible='true' lat='-33.73900842679' lon='151.13170489535' />
  <node id='-103185' action='modify' visible='true' lat='-33.73936190495' lon='151.13163069203' />
  <node id='-103186' action='modify' visible='true' lat='-33.73951808564' lon='151.13154396281' />
  <node id='-103187' action='modify' visible='true' lat='-33.73996005019' lon='151.13122297298' />
  <node id='-103188' action='modify' visible='true' lat='-33.7402878' lon='151.1311951' />
  <node id='-103189' action='modify' visible='true' lat='-33.7405205' lon='151.1309662' />
  <node id='-103190' action='modify' visible='true' lat='-33.7406693' lon='151.1306915' />
  <node id='-103191' action='modify' visible='true' lat='-33.740799' lon='151.1304474' />
  <node id='-103192' action='modify' visible='true' lat='-33.7409058' lon='151.1304169' />
  <node id='-103193' action='modify' visible='true' lat='-33.74110503212' lon='151.13013484418' />
  <node id='-103194' action='modify' visible='true' lat='-33.74116794966' lon='151.13001731534' />
  <node id='-103195' action='modify' visible='true' lat='-33.74120088647' lon='151.12996078651' />
  <node id='-103196' action='modify' visible='true' lat='-33.741127' lon='151.1298828' />
  <node id='-103197' action='modify' visible='true' lat='-33.7410393' lon='151.1298676' />
  <node id='-103198' action='modify' visible='true' lat='-33.74121990048' lon='151.12992524967' />
  <node id='-103199' action='modify' visible='true' lat='-33.7412343981' lon='151.12964093551' />
  <node id='-103200' action='modify' visible='true' lat='-33.74120132084' lon='151.12958649894' />
  <node id='-103201' action='modify' visible='true' lat='-33.7410011' lon='151.1296997' />
  <node id='-103202' action='modify' visible='true' lat='-33.7410584' lon='151.1296845' />
  <node id='-103203' action='modify' visible='true' lat='-33.7411156' lon='151.1296845' />
  <node id='-103204' action='modify' visible='true' lat='-33.7412224' lon='151.1295624' />
  <node id='-103205' action='modify' visible='true' lat='-33.7412567' lon='151.1294251' />
  <node id='-103206' action='modify' visible='true' lat='-33.7413101' lon='151.1293945' />
  <node id='-103207' action='modify' visible='true' lat='-33.7413559' lon='151.1294861' />
  <node id='-103208' action='modify' visible='true' lat='-33.7414742' lon='151.1294861' />
  <node id='-103209' action='modify' visible='true' lat='-33.741516' lon='151.1294338' />
  <node id='-103210' action='modify' visible='true' lat='-33.7415352' lon='151.1294098' />
  <node id='-103211' action='modify' visible='true' lat='-33.7416039' lon='151.129364' />
  <node id='-103212' action='modify' visible='true' lat='-33.74158954728' lon='151.12922287913' />
  <node id='-103213' action='modify' visible='true' lat='-33.74156035669' lon='151.12916025584' />
  <node id='-103214' action='modify' visible='true' lat='-33.74164317991' lon='151.12904071534' />
  <node id='-103215' action='modify' visible='true' lat='-33.7418861' lon='151.1289063' />
  <node id='-103216' action='modify' visible='true' lat='-33.74198401387' lon='151.1288767957' />
  <node id='-103217' action='modify' visible='true' lat='-33.7421417' lon='151.1287994' />
  <node id='-103218' action='modify' visible='true' lat='-33.7422676' lon='151.1286774' />
  <node id='-103219' action='modify' visible='true' lat='-33.7423363' lon='151.1286774' />
  <node id='-103220' action='modify' visible='true' lat='-33.7424314' lon='151.1287049'>
  </node>
  <node id='-103221' action='modify' visible='true' lat='-33.7425842' lon='151.1285706' />
  <node id='-103222' action='modify' visible='true' lat='-33.7427673' lon='151.1284332' />
  <node id='-103223' action='modify' visible='true' lat='-33.7430077' lon='151.1283722' />
  <node id='-103224' action='modify' visible='true' lat='-33.7431189' lon='151.1282716'>
  </node>
  <node id='-103225' action='modify' visible='true' lat='-33.74329' lon='151.1281433' />
  <node id='-103226' action='modify' visible='true' lat='-33.7434425' lon='151.1280365' />
  <node id='-103227' action='modify' visible='true' lat='-33.7436964102' lon='151.12774668347' />
  <node id='-103228' action='modify' visible='true' lat='-33.7436905' lon='151.1273499' />
  <node id='-103229' action='modify' visible='true' lat='-33.7437973' lon='151.1273041' />
  <node id='-103230' action='modify' visible='true' lat='-33.7439919' lon='151.1274109' />
  <node id='-103231' action='modify' visible='true' lat='-33.7440414' lon='151.1272736' />
  <node id='-103232' action='modify' visible='true' lat='-33.7440529' lon='151.1269226' />
  <node id='-103233' action='modify' visible='true' lat='-33.744407' lon='151.1262544'>
  </node>
  <node id='-103234' action='modify' visible='true' lat='-33.7446938' lon='151.1257935' />
  <node id='-103235' action='modify' visible='true' lat='-33.7448731' lon='151.1255035' />
  <node id='-103236' action='modify' visible='true' lat='-33.7452927' lon='151.1249847' />
  <node id='-103237' action='modify' visible='true' lat='-33.74550551397' lon='151.12437307701' />
  <node id='-103238' action='modify' visible='true' lat='-33.74555926101' lon='151.12410750122' />
  <node id='-103239' action='modify' visible='true' lat='-33.74559852406' lon='151.12401535337' />
  <node id='-103240' action='modify' visible='true' lat='-33.7458611' lon='151.1237335' />
  <node id='-103241' action='modify' visible='true' lat='-33.74602497333' lon='151.12369141842' />
  <node id='-103242' action='modify' visible='true' lat='-33.74614850046' lon='151.12366673069' />
  <node id='-103243' action='modify' visible='true' lat='-33.7463913' lon='151.1236572' />
  <node id='-103244' action='modify' visible='true' lat='-33.74669918487' lon='151.12369863128' />
  <node id='-103245' action='modify' visible='true' lat='-33.7469945843' lon='151.12374343558' />
  <node id='-103246' action='modify' visible='true' lat='-33.74707339503' lon='151.12388759717' />
  <node id='-103247' action='modify' visible='true' lat='-33.7470991504' lon='151.12404400493' />
  <node id='-103248' action='modify' visible='true' lat='-33.74714141768' lon='151.1241048561' />
  <node id='-103249' action='modify' visible='true' lat='-33.7472916' lon='151.124176' />
  <node id='-103250' action='modify' visible='true' lat='-33.74751275344' lon='151.12426310644' />
  <node id='-103251' action='modify' visible='true' lat='-33.7476463' lon='151.1244354' />
  <node id='-103252' action='modify' visible='true' lat='-33.7476959' lon='151.1246033' />
  <node id='-103253' action='modify' visible='true' lat='-33.7477244' lon='151.1249544'>
  </node>
  <node id='-103254' action='modify' visible='true' lat='-33.74781965583' lon='151.12537624848' />
  <node id='-103255' action='modify' visible='true' lat='-33.7479059861' lon='151.12559469511' />
  <node id='-103256' action='modify' visible='true' lat='-33.74792514885' lon='151.12598196442' />
  <node id='-103257' action='modify' visible='true' lat='-33.74796372153' lon='151.1260602816' />
  <node id='-103258' action='modify' visible='true' lat='-33.7454681' lon='151.1241913' />
  <node id='-103259' action='modify' visible='true' lat='-33.7452965' lon='151.1243286' />
  <node id='-103260' action='modify' visible='true' lat='-33.7452423' lon='151.1243695' />
  <node id='-103261' action='modify' visible='true' lat='-33.7452003' lon='151.1243611' />
  <node id='-103262' action='modify' visible='true' lat='-33.7451638' lon='151.1243539' />
  <node id='-103263' action='modify' visible='true' lat='-33.744957' lon='151.1245728' />
  <node id='-103264' action='modify' visible='true' lat='-33.7449493' lon='151.124649' />
  <node id='-103265' action='modify' visible='true' lat='-33.744812' lon='151.1247711' />
  <node id='-103266' action='modify' visible='true' lat='-33.7447321' lon='151.1247568' />
  <node id='-103267' action='modify' visible='true' lat='-33.7446289' lon='151.1248627' />
  <node id='-103268' action='modify' visible='true' lat='-33.7444878' lon='151.1249237' />
  <node id='-103269' action='modify' visible='true' lat='-33.7443962' lon='151.124939' />
  <node id='-103270' action='modify' visible='true' lat='-33.7443085' lon='151.1248627' />
  <node id='-103271' action='modify' visible='true' lat='-33.7441597' lon='151.1247864' />
  <node id='-103272' action='modify' visible='true' lat='-33.7440031' lon='151.1246326' />
  <node id='-103273' action='modify' visible='true' lat='-33.7439194' lon='151.1246185' />
  <node id='-103274' action='modify' visible='true' lat='-33.7438202' lon='151.1245117' />
  <node id='-103275' action='modify' visible='true' lat='-33.7437248' lon='151.1244202' />
  <node id='-103276' action='modify' visible='true' lat='-33.7436333' lon='151.1243591' />
  <node id='-103277' action='modify' visible='true' lat='-33.7435226' lon='151.1242981' />
  <node id='-103278' action='modify' visible='true' lat='-33.7433929' lon='151.1242065' />
  <node id='-103279' action='modify' visible='true' lat='-33.7433434' lon='151.1241455' />
  <node id='-103280' action='modify' visible='true' lat='-33.7433281' lon='151.1240387' />
  <node id='-103281' action='modify' visible='true' lat='-33.7432938' lon='151.1239624' />
  <node id='-103282' action='modify' visible='true' lat='-33.7431036' lon='151.1238274' />
  <node id='-103307' action='modify' visible='true' lat='-33.7430691' lon='151.1238416' />
  <node id='-103308' action='modify' visible='true' lat='-33.7429657' lon='151.1239014' />
  <node id='-103309' action='modify' visible='true' lat='-33.7429047' lon='151.1239319' />
  <node id='-103319' action='modify' visible='true' lat='-33.7421784' lon='151.1244871' />
  <node id='-103320' action='modify' visible='true' lat='-33.7428832' lon='151.1240707' />
  <node id='-103321' action='modify' visible='true' lat='-33.7428899' lon='151.1241337' />
  <node id='-103322' action='modify' visible='true' lat='-33.7429458' lon='151.1241403' />
  <node id='-103323' action='modify' visible='true' lat='-33.7429825' lon='151.1241675' />
  <node id='-103324' action='modify' visible='true' lat='-33.7429646' lon='151.12425' />
  <node id='-103325' action='modify' visible='true' lat='-33.7429924' lon='151.1242676' />
  <node id='-103326' action='modify' visible='true' lat='-33.7431374' lon='151.1243439' />
  <node id='-103327' action='modify' visible='true' lat='-33.7434006' lon='151.1244965' />
  <node id='-103328' action='modify' visible='true' lat='-33.7435036' lon='151.124588' />
  <node id='-103329' action='modify' visible='true' lat='-33.7436638' lon='151.1248779' />
  <node id='-103330' action='modify' visible='true' lat='-33.743721' lon='151.1249695' />
  <node id='-103331' action='modify' visible='true' lat='-33.7439423' lon='151.1251984' />
  <node id='-103332' action='modify' visible='true' lat='-33.7439613' lon='151.1253204' />
  <node id='-103333' action='modify' visible='true' lat='-33.7439117' lon='151.1254272' />
  <node id='-103334' action='modify' visible='true' lat='-33.7437897' lon='151.1257172' />
  <node id='-103335' action='modify' visible='true' lat='-33.7436714' lon='151.1259918' />
  <node id='-103336' action='modify' visible='true' lat='-33.7435493' lon='151.1262207' />
  <node id='-103337' action='modify' visible='true' lat='-33.7434196' lon='151.1264954' />
  <node id='-103338' action='modify' visible='true' lat='-33.7433739' lon='151.1265411' />
  <node id='-103339' action='modify' visible='true' lat='-33.7433288' lon='151.1265467' />
  <node id='-103340' action='modify' visible='true' lat='-33.7432863' lon='151.1264883' />
  <node id='-103341' action='modify' visible='true' lat='-33.7433128' lon='151.1264038' />
  <node id='-103342' action='modify' visible='true' lat='-33.7433434' lon='151.1262817' />
  <node id='-103343' action='modify' visible='true' lat='-33.7434017' lon='151.1260134' />
  <node id='-103344' action='modify' visible='true' lat='-33.7433835' lon='151.1258673' />
  <node id='-103345' action='modify' visible='true' lat='-33.7434235' lon='151.1257782' />
  <node id='-103346' action='modify' visible='true' lat='-33.743454' lon='151.1256256' />
  <node id='-103347' action='modify' visible='true' lat='-33.7434235' lon='151.1253967' />
  <node id='-103348' action='modify' visible='true' lat='-33.7433281' lon='151.1252289' />
  <node id='-103349' action='modify' visible='true' lat='-33.7432098' lon='151.1250916' />
  <node id='-103350' action='modify' visible='true' lat='-33.7430573' lon='151.1249237' />
  <node id='-103351' action='modify' visible='true' lat='-33.7429733' lon='151.1248627' />
  <node id='-103352' action='modify' visible='true' lat='-33.7428975' lon='151.1247203' />
  <node id='-103353' action='modify' visible='true' lat='-33.7428436' lon='151.1246643' />
  <node id='-103354' action='modify' visible='true' lat='-33.7426423' lon='151.1244719' />
  <node id='-103355' action='modify' visible='true' lat='-33.7424164' lon='151.1244507' />
  <node id='-103356' action='modify' visible='true' lat='-33.7423134' lon='151.1244049' />
  <node id='-103357' action='modify' visible='true' lat='-33.7420834' lon='151.1245157' />
  <node id='-103358' action='modify' visible='true' lat='-33.7417755' lon='151.1247406' />
  <node id='-103359' action='modify' visible='true' lat='-33.7418137' lon='151.1247864' />
  <node id='-103360' action='modify' visible='true' lat='-33.7418538' lon='151.1247922' />
  <node id='-103361' action='modify' visible='true' lat='-33.7420616' lon='151.1248169' />
  <node id='-103362' action='modify' visible='true' lat='-33.742382' lon='151.1249084' />
  <node id='-103363' action='modify' visible='true' lat='-33.7424469' lon='151.125' />
  <node id='-103364' action='modify' visible='true' lat='-33.7424316' lon='151.1250305' />
  <node id='-103365' action='modify' visible='true' lat='-33.7421935' lon='151.1251553' />
  <node id='-103366' action='modify' visible='true' lat='-33.7422018' lon='151.1252446' />
  <node id='-103367' action='modify' visible='true' lat='-33.7421074' lon='151.1252594' />
  <node id='-103368' action='modify' visible='true' lat='-33.742064' lon='151.125328' />
  <node id='-103369' action='modify' visible='true' lat='-33.7420753' lon='151.125364' />
  <node id='-103370' action='modify' visible='true' lat='-33.74802039774' lon='151.12606046933' />
  <node id='-103371' action='modify' visible='true' lat='-33.7480457' lon='151.126146' />
  <node id='-103372' action='modify' visible='true' lat='-33.7481061' lon='151.1261437' />
  <node id='-103373' action='modify' visible='true' lat='-33.748169' lon='151.1262817' />
  <node id='-103374' action='modify' visible='true' lat='-33.748169' lon='151.126648' />
  <node id='-103375' action='modify' visible='true' lat='-33.7481509' lon='151.1269218'>
  </node>
  <node id='-103376' action='modify' visible='true' lat='-33.7481461' lon='151.1272583' />
  <node id='-103377' action='modify' visible='true' lat='-33.748024' lon='151.1273956' />
  <node id='-103378' action='modify' visible='true' lat='-33.7479401' lon='151.1275635' />
  <node id='-103379' action='modify' visible='true' lat='-33.7478256' lon='151.1277466' />
  <node id='-103380' action='modify' visible='true' lat='-33.7477648' lon='151.1278878' />
  <node id='-103497' action='modify' visible='true' lat='-33.73278856049' lon='151.12884029612' />
  <node id='-103498' action='modify' visible='true' lat='-33.73254207632' lon='151.12919837102' />
  <node id='-103499' action='modify' visible='true' lat='-33.73310865427' lon='151.12982198462' />
  <node id='-103500' action='modify' visible='true' lat='-33.73333840726' lon='151.12989440426' />
  <node id='-103501' action='modify' visible='true' lat='-33.73328710325' lon='151.13030344114' />
  <node id='-103502' action='modify' visible='true' lat='-33.73337521229' lon='151.13078489766' />
  <node id='-103503' action='modify' visible='true' lat='-33.73359827276' lon='151.13120734558' />
  <node id='-103504' action='modify' visible='true' lat='-33.73389717288' lon='151.13146215543' />
  <node id='-103505' action='modify' visible='true' lat='-33.73467676194' lon='151.13200127944' />
  <node id='-103506' action='modify' visible='true' lat='-33.73585115098' lon='151.13272547588' />
  <node id='-103507' action='modify' visible='true' lat='-33.7368699461' lon='151.13328471713' />
  <node id='-103508' action='modify' visible='true' lat='-33.73691455642' lon='151.13321699135' />
  <node id='-103509' action='modify' visible='true' lat='-33.73696028197' lon='151.13304600053' />
  <node id='-103510' action='modify' visible='true' lat='-33.73699150917' lon='151.1329353594' />
  <node id='-103511' action='modify' visible='true' lat='-33.73719337041' lon='151.13262556426' />
  <node id='-103512' action='modify' visible='true' lat='-33.73735285161' lon='151.13254375689' />
  <node id='-103513' action='modify' visible='true' lat='-33.73766289112' lon='151.13246262006' />
  <node id='-103514' action='modify' visible='true' lat='-33.73790434143' lon='151.13228157029' />
  <node id='-103515' action='modify' visible='true' lat='-33.73810508528' lon='151.13214611873' />
  <node id='-103516' action='modify' visible='true' lat='-33.73831363534' lon='151.13214075431' />
  <node id='-103517' action='modify' visible='true' lat='-33.73864709133' lon='151.13197848067' />
  <node id='-103518' action='modify' visible='true' lat='-33.73795787205' lon='151.13015860051' />
  <node id='-103519' action='modify' visible='true' lat='-33.73791549276' lon='151.13029539317' />
  <node id='-103520' action='modify' visible='true' lat='-33.73795787205' lon='151.13048851222' />
  <node id='-103521' action='modify' visible='true' lat='-33.73821214736' lon='151.13091766566' />
  <node id='-103522' action='modify' visible='true' lat='-33.73828575323' lon='151.13126635283' />
  <node id='-103523' action='modify' visible='true' lat='-33.73830805802' lon='151.13171696395' />
  <node id='-103524' action='modify' visible='true' lat='-33.73826121794' lon='151.13199591368' />
  <node id='-103525' action='modify' visible='true' lat='-33.73824672093' lon='151.13205760583' />
  <way id='-105285' action='modify' visible='true'>
    <nd ref='-103195' />
    <nd ref='-103198' />
    <nd ref='-103199' />
    <nd ref='-103200' />
  </way>
  <way id='-105289' action='modify' visible='true'>
    <nd ref='-103180' />
    <nd ref='-103179' />
    <nd ref='-103178' />
    <nd ref='-103182' />
    <nd ref='-103181' />
    <nd ref='-103185' />
    <nd ref='-103186' />
    <nd ref='-103187' />
    <nd ref='-103188' />
    <nd ref='-103189' />
    <nd ref='-103190' />
    <nd ref='-103191' />
    <nd ref='-103192' />
    <nd ref='-103193' />
    <nd ref='-103194' />
    <nd ref='-103195' />
    <nd ref='-103196' />
    <nd ref='-103197' />
    <nd ref='-103201' />
    <nd ref='-103202' />
    <nd ref='-103203' />
    <nd ref='-103200' />
    <nd ref='-103204' />
    <nd ref='-103205' />
    <nd ref='-103206' />
    <nd ref='-103207' />
    <nd ref='-103208' />
    <nd ref='-103209' />
    <nd ref='-103210' />
    <nd ref='-103211' />
    <nd ref='-103212' />
    <nd ref='-103213' />
    <nd ref='-103214' />
    <nd ref='-103215' />
    <nd ref='-103216' />
    <nd ref='-103217' />
    <nd ref='-103218' />
    <nd ref='-103219' />
    <nd ref='-103220' />
    <nd ref='-103221' />
    <nd ref='-103222' />
    <nd ref='-103223' />
    <nd ref='-103224' />
    <nd ref='-103225' />
    <nd ref='-103226' />
    <nd ref='-103227' />
    <nd ref='-103228' />
    <nd ref='-103229' />
    <nd ref='-103230' />
    <nd ref='-103231' />
    <nd ref='-103232' />
    <nd ref='-103233' />
    <nd ref='-103234' />
    <nd ref='-103235' />
    <nd ref='-103236' />
    <nd ref='-103237' />
    <nd ref='-103238' />
    <nd ref='-103258' />
    <nd ref='-103259' />
    <nd ref='-103260' />
    <nd ref='-103261' />
    <nd ref='-103262' />
    <nd ref='-103263' />
    <nd ref='-103264' />
    <nd ref='-103265' />
    <nd ref='-103266' />
    <nd ref='-103267' />
    <nd ref='-103268' />
    <nd ref='-103269' />
    <nd ref='-103270' />
    <nd ref='-103271' />
    <nd ref='-103272' />
    <nd ref='-103273' />
    <nd ref='-103274' />
    <nd ref='-103275' />
    <nd ref='-103276' />
    <nd ref='-103277' />
    <nd ref='-103278' />
    <nd ref='-103279' />
    <nd ref='-103280' />
    <nd ref='-103281' />
    <nd ref='-103282' />
    <nd ref='-103307' />
    <nd ref='-103308' />
    <nd ref='-103309' />
    <nd ref='-103320' />
    <nd ref='-103321' />
    <nd ref='-103322' />
    <nd ref='-103323' />
    <nd ref='-103324' />
    <nd ref='-103325' />
    <nd ref='-103326' />
    <nd ref='-103327' />
    <nd ref='-103328' />
    <nd ref='-103329' />
    <nd ref='-103330' />
    <nd ref='-103331' />
    <nd ref='-103332' />
    <nd ref='-103333' />
    <nd ref='-103334' />
    <nd ref='-103335' />
    <nd ref='-103336' />
    <nd ref='-103337' />
    <nd ref='-103338' />
    <nd ref='-103339' />
    <nd ref='-103340' />
    <nd ref='-103341' />
    <nd ref='-103342' />
    <nd ref='-103343' />
    <nd ref='-103344' />
    <nd ref='-103345' />
    <nd ref='-103346' />
    <nd ref='-103347' />
    <nd ref='-103348' />
    <nd ref='-103349' />
    <nd ref='-103350' />
    <nd ref='-103351' />
    <nd ref='-103352' />
    <nd ref='-103353' />
    <nd ref='-103354' />
    <nd ref='-103355' />
    <nd ref='-103356' />
    <nd ref='-103319' />
    <nd ref='-103357' />
    <nd ref='-103358' />
    <nd ref='-103359' />
    <nd ref='-103360' />
    <nd ref='-103361' />
    <nd ref='-103362' />
    <nd ref='-103363' />
    <nd ref='-103364' />
    <nd ref='-103365' />
    <nd ref='-103366' />
    <nd ref='-103367' />
    <nd ref='-103368' />
    <nd ref='-103369' />
    <nd ref='-103518' />
    <nd ref='-103519' />
    <nd ref='-103520' />
    <nd ref='-103521' />
    <nd ref='-103522' />
    <nd ref='-103523' />
    <nd ref='-103524' />
    <nd ref='-103525' />
    <nd ref='-103516' />
    <tag k='name' v='Sheldon Forest and Rofe Park Loop' />
    <tag k='photo' v='136319147@N08/51286777338' />
    <tag k='role' v='primary' />
    <tag k='style' v='loop' />
    <tag k='transport' v='car;train' />
  </way>
  <way id='-105325' action='modify' visible='true'>
    <nd ref='-103238' />
    <nd ref='-103239' />
    <nd ref='-103240' />
    <nd ref='-103241' />
    <nd ref='-103242' />
    <nd ref='-103243' />
    <nd ref='-103244' />
    <nd ref='-103245' />
    <nd ref='-103246' />
    <nd ref='-103247' />
    <nd ref='-103248' />
    <nd ref='-103249' />
    <nd ref='-103250' />
    <nd ref='-103251' />
    <nd ref='-103252' />
    <nd ref='-103253' />
    <nd ref='-103254' />
    <nd ref='-103255' />
    <nd ref='-103256' />
    <nd ref='-103257' />
    <nd ref='-103370' />
    <nd ref='-103371' />
    <nd ref='-103372' />
    <nd ref='-103373' />
    <nd ref='-103374' />
    <nd ref='-103375' />
    <nd ref='-103376' />
    <nd ref='-103377' />
    <nd ref='-103378' />
    <nd ref='-103379' />
    <nd ref='-103380' />
    <tag k='role' v='sidetrack' />
    <tag k='style' v='return' />
  </way>
  <way id='-105648' action='modify' visible='true'>
    <nd ref='-103497' />
    <nd ref='-103498' />
    <nd ref='-103499' />
    <nd ref='-103500' />
    <nd ref='-103501' />
    <nd ref='-103502' />
    <nd ref='-103503' />
    <nd ref='-103504' />
    <nd ref='-103505' />
    <nd ref='-103506' />
    <nd ref='-103507' />
    <nd ref='-103508' />
    <nd ref='-103509' />
    <nd ref='-103510' />
    <nd ref='-103511' />
    <nd ref='-103512' />
    <nd ref='-103513' />
    <nd ref='-103514' />
    <nd ref='-103515' />
    <nd ref='-103516' />
    <nd ref='-103517' />
    <nd ref='-103180' />
    <tag k='role' v='transit_connection' />
  </way>
</osm>
