<?xml version='1.0' encoding='UTF-8'?>
<osm version='0.6' upload='false' generator='JOSM'>
  <node id='-102173' action='modify' visible='true' lat='-33.7593952' lon='151.2554345' />
  <node id='-102174' action='modify' visible='true' lat='-33.75949' lon='151.2554634' />
  <node id='-102175' action='modify' visible='true' lat='-33.7595748' lon='151.2554663' />
  <node id='-102176' action='modify' visible='true' lat='-33.7597569' lon='151.2553749' />
  <node id='-102177' action='modify' visible='true' lat='-33.7600809' lon='151.2556035' />
  <node id='-102178' action='modify' visible='true' lat='-33.7603352' lon='151.2558448' />
  <node id='-102179' action='modify' visible='true' lat='-33.7603196' lon='151.2558574' />
  <node id='-102180' action='modify' visible='true' lat='-33.760346' lon='151.2559204' />
  <node id='-102181' action='modify' visible='true' lat='-33.760403' lon='151.2559707' />
  <node id='-102182' action='modify' visible='true' lat='-33.7604389' lon='151.2559911' />
  <node id='-102183' action='modify' visible='true' lat='-33.7604593' lon='151.2560708' />
  <node id='-102184' action='modify' visible='true' lat='-33.7604894' lon='151.2561157' />
  <node id='-102185' action='modify' visible='true' lat='-33.7604834' lon='151.2561527' />
  <node id='-102186' action='modify' visible='true' lat='-33.7604465' lon='151.256203' />
  <node id='-102187' action='modify' visible='true' lat='-33.7604389' lon='151.2562226' />
  <node id='-102188' action='modify' visible='true' lat='-33.7604172' lon='151.2562716' />
  <node id='-102189' action='modify' visible='true' lat='-33.7604064' lon='151.2563074' />
  <node id='-102190' action='modify' visible='true' lat='-33.760382' lon='151.2563792' />
  <node id='-102191' action='modify' visible='true' lat='-33.7603901' lon='151.2564705' />
  <node id='-102192' action='modify' visible='true' lat='-33.760413' lon='151.2565421' />
  <node id='-102193' action='modify' visible='true' lat='-33.7603945' lon='151.2566003' />
  <node id='-102194' action='modify' visible='true' lat='-33.7603744' lon='151.2566547' />
  <node id='-102195' action='modify' visible='true' lat='-33.7603572' lon='151.2567117' />
  <node id='-102196' action='modify' visible='true' lat='-33.760317' lon='151.2567841' />
  <node id='-102197' action='modify' visible='true' lat='-33.760288' lon='151.2568753' />
  <node id='-102198' action='modify' visible='true' lat='-33.7602535' lon='151.2569779' />
  <node id='-102199' action='modify' visible='true' lat='-33.7602412' lon='151.2570577' />
  <node id='-102200' action='modify' visible='true' lat='-33.760261' lon='151.2570626' />
  <node id='-102201' action='modify' visible='true' lat='-33.7602936' lon='151.257051' />
  <node id='-102202' action='modify' visible='true' lat='-33.760361' lon='151.2570302' />
  <node id='-102203' action='modify' visible='true' lat='-33.7604118' lon='151.2570343' />
  <node id='-102204' action='modify' visible='true' lat='-33.760487' lon='151.2570114' />
  <node id='-102205' action='modify' visible='true' lat='-33.7605847' lon='151.2569745' />
  <node id='-102206' action='modify' visible='true' lat='-33.7606356' lon='151.256946' />
  <node id='-102207' action='modify' visible='true' lat='-33.7606803' lon='151.2569634' />
  <node id='-102208' action='modify' visible='true' lat='-33.7607308' lon='151.2570528' />
  <node id='-102209' action='modify' visible='true' lat='-33.76077' lon='151.2570993' />
  <node id='-102210' action='modify' visible='true' lat='-33.7608066' lon='151.2571371' />
  <node id='-102211' action='modify' visible='true' lat='-33.7608482' lon='151.2571814' />
  <node id='-102212' action='modify' visible='true' lat='-33.7609076' lon='151.257019' />
  <node id='-102213' action='modify' visible='true' lat='-33.7609335' lon='151.2569678' />
  <node id='-102214' action='modify' visible='true' lat='-33.7609807' lon='151.2569853' />
  <node id='-102215' action='modify' visible='true' lat='-33.7610139' lon='151.2569977' />
  <node id='-102216' action='modify' visible='true' lat='-33.7612151' lon='151.2567521' />
  <node id='-102217' action='modify' visible='true' lat='-33.7613469' lon='151.2566194' />
  <node id='-102218' action='modify' visible='true' lat='-33.7615066' lon='151.2565579' />
  <node id='-102219' action='modify' visible='true' lat='-33.7617192' lon='151.256471' />
  <node id='-102220' action='modify' visible='true' lat='-33.7619018' lon='151.2562015' />
  <node id='-102221' action='modify' visible='true' lat='-33.7619501' lon='151.2559958' />
  <node id='-102222' action='modify' visible='true' lat='-33.7621843' lon='151.2557415' />
  <node id='-102223' action='modify' visible='true' lat='-33.7623303' lon='151.2557209' />
  <node id='-102224' action='modify' visible='true' lat='-33.7624712' lon='151.2557669' />
  <node id='-102225' action='modify' visible='true' lat='-33.7627224' lon='151.2559398' />
  <node id='-102226' action='modify' visible='true' lat='-33.7627861' lon='151.2560339' />
  <node id='-102227' action='modify' visible='true' lat='-33.7627842' lon='151.2561469' />
  <node id='-102228' action='modify' visible='true' lat='-33.7629018' lon='151.2562374' />
  <node id='-102229' action='modify' visible='true' lat='-33.7628331' lon='151.2563445' />
  <node id='-102230' action='modify' visible='true' lat='-33.7624474' lon='151.2567206' />
  <node id='-102231' action='modify' visible='true' lat='-33.7623721' lon='151.2568588' />
  <node id='-102232' action='modify' visible='true' lat='-33.7623431' lon='151.2569795' />
  <node id='-102233' action='modify' visible='true' lat='-33.762293' lon='151.2571934' />
  <node id='-102234' action='modify' visible='true' lat='-33.7622841' lon='151.2572735' />
  <node id='-102235' action='modify' visible='true' lat='-33.7621958' lon='151.2573213' />
  <node id='-102236' action='modify' visible='true' lat='-33.7620485' lon='151.2574109' />
  <node id='-102237' action='modify' visible='true' lat='-33.7619698' lon='151.2574267' />
  <node id='-102238' action='modify' visible='true' lat='-33.761878' lon='151.2574393' />
  <node id='-102239' action='modify' visible='true' lat='-33.7617704' lon='151.2574362' />
  <node id='-102240' action='modify' visible='true' lat='-33.7616917' lon='151.2573983' />
  <node id='-102241' action='modify' visible='true' lat='-33.7615842' lon='151.2573257' />
  <node id='-102242' action='modify' visible='true' lat='-33.7614688' lon='151.2572374' />
  <node id='-102243' action='modify' visible='true' lat='-33.7613691' lon='151.2571364' />
  <node id='-102244' action='modify' visible='true' lat='-33.7612878' lon='151.2570859' />
  <node id='-102245' action='modify' visible='true' lat='-33.7612143' lon='151.2570859' />
  <node id='-102246' action='modify' visible='true' lat='-33.7611802' lon='151.2571427' />
  <node id='-102247' action='modify' visible='true' lat='-33.7611723' lon='151.2572058' />
  <node id='-102248' action='modify' visible='true' lat='-33.761196' lon='151.2573068' />
  <node id='-102249' action='modify' visible='true' lat='-33.761314' lon='151.2575024' />
  <node id='-102250' action='modify' visible='true' lat='-33.7614242' lon='151.2576886' />
  <node id='-102251' action='modify' visible='true' lat='-33.7615396' lon='151.2579126' />
  <node id='-102252' action='modify' visible='true' lat='-33.7616393' lon='151.2581177' />
  <node id='-102253' action='modify' visible='true' lat='-33.7616944' lon='151.258285' />
  <node id='-102254' action='modify' visible='true' lat='-33.7617363' lon='151.2584932' />
  <node id='-102255' action='modify' visible='true' lat='-33.7617363' lon='151.2586005' />
  <node id='-102256' action='modify' visible='true' lat='-33.7617809' lon='151.2588182' />
  <node id='-102257' action='modify' visible='true' lat='-33.7618203' lon='151.2590265' />
  <node id='-102258' action='modify' visible='true' lat='-33.7618413' lon='151.2592347' />
  <node id='-102259' action='modify' visible='true' lat='-33.761857' lon='151.2595124' />
  <node id='-102260' action='modify' visible='true' lat='-33.761857' lon='151.2596638' />
  <node id='-102261' action='modify' visible='true' lat='-33.7618775' lon='151.2598251' />
  <node id='-102262' action='modify' visible='true' lat='-33.7618927' lon='151.2599199' />
  <node id='-102263' action='modify' visible='true' lat='-33.7616758' lon='151.2600003' />
  <node id='-102264' action='modify' visible='true' lat='-33.7615744' lon='151.260007' />
  <node id='-102265' action='modify' visible='true' lat='-33.7614818' lon='151.2599333' />
  <node id='-102266' action='modify' visible='true' lat='-33.7613614' lon='151.2599386' />
  <node id='-102267' action='modify' visible='true' lat='-33.7613034' lon='151.2599963' />
  <node id='-102268' action='modify' visible='true' lat='-33.7611697' lon='151.2600486' />
  <node id='-102269' action='modify' visible='true' lat='-33.7610604' lon='151.2600875' />
  <node id='-102270' action='modify' visible='true' lat='-33.7608045' lon='151.2601599' />
  <node id='-102271' action='modify' visible='true' lat='-33.7607371' lon='151.2602444' />
  <node id='-102272' action='modify' visible='true' lat='-33.7606175' lon='151.2602541' />
  <node id='-102273' action='modify' visible='true' lat='-33.7606144' lon='151.2602403' />
  <node id='-102274' action='modify' visible='true' lat='-33.7605619' lon='151.2601159' />
  <node id='-102275' action='modify' visible='true' lat='-33.7605738' lon='151.2600461' />
  <node id='-102276' action='modify' visible='true' lat='-33.760593' lon='151.2599911' />
  <node id='-102277' action='modify' visible='true' lat='-33.7606213' lon='151.259926' />
  <node id='-102278' action='modify' visible='true' lat='-33.7606508' lon='151.2598195' />
  <node id='-102279' action='modify' visible='true' lat='-33.7607953' lon='151.2595783' />
  <node id='-102280' action='modify' visible='true' lat='-33.7608475' lon='151.2594377' />
  <node id='-102281' action='modify' visible='true' lat='-33.7608868' lon='151.2592164' />
  <node id='-102282' action='modify' visible='true' lat='-33.7609028' lon='151.258927' />
  <node id='-102283' action='modify' visible='true' lat='-33.7608366' lon='151.2587835' />
  <node id='-102284' action='modify' visible='true' lat='-33.7608059' lon='151.258675' />
  <node id='-102285' action='modify' visible='true' lat='-33.7608478' lon='151.258561' />
  <node id='-102286' action='modify' visible='true' lat='-33.7608868' lon='151.2582123' />
  <node id='-102287' action='modify' visible='true' lat='-33.7609149' lon='151.2581348' />
  <node id='-102288' action='modify' visible='true' lat='-33.7609278' lon='151.2580734' />
  <node id='-102289' action='modify' visible='true' lat='-33.7609362' lon='151.2579787' />
  <node id='-102290' action='modify' visible='true' lat='-33.7609323' lon='151.2578897' />
  <node id='-102291' action='modify' visible='true' lat='-33.7609263' lon='151.2578326' />
  <node id='-102292' action='modify' visible='true' lat='-33.7608897' lon='151.2577511' />
  <node id='-102293' action='modify' visible='true' lat='-33.7608514' lon='151.2576979' />
  <node id='-102294' action='modify' visible='true' lat='-33.7608455' lon='151.2576517' />
  <node id='-102295' action='modify' visible='true' lat='-33.7607953' lon='151.2575311' />
  <node id='-102296' action='modify' visible='true' lat='-33.7607865' lon='151.2574495' />
  <node id='-102297' action='modify' visible='true' lat='-33.7608307' lon='151.2573785' />
  <node id='-102298' action='modify' visible='true' lat='-33.7608337' lon='151.2573253' />
  <node id='-102299' action='modify' visible='true' lat='-33.7608471' lon='151.2572492' />
  <node id='-102303' action='modify' visible='true' lat='-33.76084224533' lon='151.2571894903' />
  <node id='-102304' action='modify' visible='true' lat='-33.75939702223' lon='151.25544620247' />
  <node id='-102305' action='modify' visible='true' lat='-33.75948875385' lon='151.25547416706' />
  <node id='-102306' action='modify' visible='true' lat='-33.75957647621' lon='151.255477167' />
  <node id='-102307' action='modify' visible='true' lat='-33.75975622195' lon='151.25538694866' />
  <node id='-102308' action='modify' visible='true' lat='-33.76007582159' lon='151.25561244396' />
  <node id='-102309' action='modify' visible='true' lat='-33.76031995549' lon='151.25584409752' />
  <node id='-102310' action='modify' visible='true' lat='-33.76030800916' lon='151.25585374647' />
  <node id='-102311' action='modify' visible='true' lat='-33.76033894834' lon='151.25592757858' />
  <node id='-102312' action='modify' visible='true' lat='-33.76039838224' lon='151.25598002639' />
  <node id='-102313' action='modify' visible='true' lat='-33.76043148034' lon='151.25599883422' />
  <node id='-102314' action='modify' visible='true' lat='-33.76045122277' lon='151.25607596517' />
  <node id='-102315' action='modify' visible='true' lat='-33.76047978251' lon='151.25611856757' />
  <node id='-102316' action='modify' visible='true' lat='-33.76047505004' lon='151.25614775112' />
  <node id='-102317' action='modify' visible='true' lat='-33.76043890664' lon='151.25619701977' />
  <node id='-102318' action='modify' visible='true' lat='-33.76043085949' lon='151.25621777293' />
  <node id='-102319' action='modify' visible='true' lat='-33.76040897251' lon='151.25626719515' />
  <node id='-102320' action='modify' visible='true' lat='-33.76039801677' lon='151.25630351136' />
  <node id='-102321' action='modify' visible='true' lat='-33.76037282699' lon='151.25637763541' />
  <node id='-102322' action='modify' visible='true' lat='-33.76038129259' lon='151.25647305639' />
  <node id='-102323' action='modify' visible='true' lat='-33.76040337879' lon='151.25654211191' />
  <node id='-102324' action='modify' visible='true' lat='-33.76038619427' lon='151.25659617348' />
  <node id='-102325' action='modify' visible='true' lat='-33.76036606319' lon='151.25665065759' />
  <node id='-102326' action='modify' visible='true' lat='-33.76034912641' lon='151.25670678529' />
  <node id='-102327' action='modify' visible='true' lat='-33.76030896974' lon='151.25677910724' />
  <node id='-102328' action='modify' visible='true' lat='-33.76027964012' lon='151.25687134385' />
  <node id='-102329' action='modify' visible='true' lat='-33.76024483246' lon='151.25697485877' />
  <node id='-102330' action='modify' visible='true' lat='-33.76023076151' lon='151.25706614837' />
  <node id='-102331' action='modify' visible='true' lat='-33.76026139211' lon='151.25707372867' />
  <node id='-102332' action='modify' visible='true' lat='-33.76029599118' lon='151.25706141735' />
  <node id='-102333' action='modify' visible='true' lat='-33.76036183652' lon='151.25704109712' />
  <node id='-102334' action='modify' visible='true' lat='-33.76041262187' lon='151.25704519594' />
  <node id='-102335' action='modify' visible='true' lat='-33.76048944987' lon='151.25702180018' />
  <node id='-102336' action='modify' visible='true' lat='-33.76058795513' lon='151.25698459604' />
  <node id='-102337' action='modify' visible='true' lat='-33.76063619168' lon='151.25695758736' />
  <node id='-102338' action='modify' visible='true' lat='-33.76067460181' lon='151.25697253895' />
  <node id='-102339' action='modify' visible='true' lat='-33.7607238649' lon='151.25705974926' />
  <node id='-102340' action='modify' visible='true' lat='-33.76076391292' lon='151.25710725519' />
  <node id='-102341' action='modify' visible='true' lat='-33.76080069634' lon='151.25714524462' />
  <way id='-101999' action='modify' visible='true'>
    <nd ref='-102173' />
    <nd ref='-102174' />
    <nd ref='-102175' />
    <nd ref='-102176' />
    <nd ref='-102177' />
    <nd ref='-102178' />
    <nd ref='-102179' />
    <nd ref='-102180' />
    <nd ref='-102181' />
    <nd ref='-102182' />
    <nd ref='-102183' />
    <nd ref='-102184' />
    <nd ref='-102185' />
    <nd ref='-102186' />
    <nd ref='-102187' />
    <nd ref='-102188' />
    <nd ref='-102189' />
    <nd ref='-102190' />
    <nd ref='-102191' />
    <nd ref='-102192' />
    <nd ref='-102193' />
    <nd ref='-102194' />
    <nd ref='-102195' />
    <nd ref='-102196' />
    <nd ref='-102197' />
    <nd ref='-102198' />
    <nd ref='-102199' />
    <nd ref='-102200' />
    <nd ref='-102201' />
    <nd ref='-102202' />
    <nd ref='-102203' />
    <nd ref='-102204' />
    <nd ref='-102205' />
    <nd ref='-102206' />
    <nd ref='-102207' />
    <nd ref='-102208' />
    <nd ref='-102209' />
    <nd ref='-102210' />
    <nd ref='-102211' />
    <nd ref='-102212' />
    <nd ref='-102213' />
    <nd ref='-102214' />
    <nd ref='-102215' />
    <nd ref='-102216' />
    <nd ref='-102217' />
    <nd ref='-102218' />
    <nd ref='-102219' />
    <nd ref='-102220' />
    <nd ref='-102221' />
    <nd ref='-102222' />
    <nd ref='-102223' />
    <nd ref='-102224' />
    <nd ref='-102225' />
    <nd ref='-102226' />
    <nd ref='-102227' />
    <nd ref='-102228' />
    <nd ref='-102229' />
    <nd ref='-102230' />
    <nd ref='-102231' />
    <nd ref='-102232' />
    <nd ref='-102233' />
    <nd ref='-102234' />
    <nd ref='-102235' />
    <nd ref='-102236' />
    <nd ref='-102237' />
    <nd ref='-102238' />
    <nd ref='-102239' />
    <nd ref='-102240' />
    <nd ref='-102241' />
    <nd ref='-102242' />
    <nd ref='-102243' />
    <nd ref='-102244' />
    <nd ref='-102245' />
    <nd ref='-102246' />
    <nd ref='-102247' />
    <nd ref='-102248' />
    <nd ref='-102249' />
    <nd ref='-102250' />
    <nd ref='-102251' />
    <nd ref='-102252' />
    <nd ref='-102253' />
    <nd ref='-102254' />
    <nd ref='-102255' />
    <nd ref='-102256' />
    <nd ref='-102257' />
    <nd ref='-102258' />
    <nd ref='-102259' />
    <nd ref='-102260' />
    <nd ref='-102261' />
    <nd ref='-102262' />
    <nd ref='-102263' />
    <nd ref='-102264' />
    <nd ref='-102265' />
    <nd ref='-102266' />
    <nd ref='-102267' />
    <nd ref='-102268' />
    <nd ref='-102269' />
    <nd ref='-102270' />
    <nd ref='-102271' />
    <nd ref='-102272' />
    <nd ref='-102273' />
    <nd ref='-102274' />
    <nd ref='-102275' />
    <nd ref='-102276' />
    <nd ref='-102277' />
    <nd ref='-102278' />
    <nd ref='-102279' />
    <nd ref='-102280' />
    <nd ref='-102281' />
    <nd ref='-102282' />
    <nd ref='-102283' />
    <nd ref='-102284' />
    <nd ref='-102285' />
    <nd ref='-102286' />
    <nd ref='-102287' />
    <nd ref='-102288' />
    <nd ref='-102289' />
    <nd ref='-102290' />
    <nd ref='-102291' />
    <nd ref='-102292' />
    <nd ref='-102293' />
    <nd ref='-102294' />
    <nd ref='-102295' />
    <nd ref='-102296' />
    <nd ref='-102297' />
    <nd ref='-102298' />
    <nd ref='-102299' />
    <nd ref='-102303' />
    <nd ref='-102341' />
    <nd ref='-102340' />
    <nd ref='-102339' />
    <nd ref='-102338' />
    <nd ref='-102337' />
    <nd ref='-102336' />
    <nd ref='-102335' />
    <nd ref='-102334' />
    <nd ref='-102333' />
    <nd ref='-102332' />
    <nd ref='-102331' />
    <nd ref='-102330' />
    <nd ref='-102329' />
    <nd ref='-102328' />
    <nd ref='-102327' />
    <nd ref='-102326' />
    <nd ref='-102325' />
    <nd ref='-102324' />
    <nd ref='-102323' />
    <nd ref='-102322' />
    <nd ref='-102321' />
    <nd ref='-102320' />
    <nd ref='-102319' />
    <nd ref='-102318' />
    <nd ref='-102317' />
    <nd ref='-102316' />
    <nd ref='-102315' />
    <nd ref='-102314' />
    <nd ref='-102313' />
    <nd ref='-102312' />
    <nd ref='-102311' />
    <nd ref='-102310' />
    <nd ref='-102309' />
    <nd ref='-102308' />
    <nd ref='-102307' />
    <nd ref='-102306' />
    <nd ref='-102305' />
    <nd ref='-102304' />
    <tag k='name' v='Allenby Falls' />
    <tag k='photo' v='155823486@N07/51362435211' />
    <tag k='role' v='primary' />
    <tag k='style' v='loop' />
    <tag k='transport' v='car' />
  </way>
</osm>
