<?xml version='1.0' encoding='UTF-8'?>
<osm version='0.6' upload='false' generator='JOSM'>
  <node id='-103212' action='modify' visible='true' lat='-33.7651114' lon='151.2201467' />
  <node id='-103213' action='modify' visible='true' lat='-33.7651477' lon='151.2202153' />
  <node id='-103214' action='modify' visible='true' lat='-33.7651479' lon='151.220334' />
  <node id='-103215' action='modify' visible='true' lat='-33.765027' lon='151.220641' />
  <node id='-103216' action='modify' visible='true' lat='-33.764974' lon='151.220727' />
  <node id='-103217' action='modify' visible='true' lat='-33.764739' lon='151.221006' />
  <node id='-103218' action='modify' visible='true' lat='-33.764574' lon='151.221246' />
  <node id='-103219' action='modify' visible='true' lat='-33.76429' lon='151.221556' />
  <node id='-103220' action='modify' visible='true' lat='-33.764184' lon='151.221754' />
  <node id='-103221' action='modify' visible='true' lat='-33.764109' lon='151.221843' />
  <node id='-103222' action='modify' visible='true' lat='-33.763978' lon='151.221934' />
  <node id='-103223' action='modify' visible='true' lat='-33.7638134' lon='151.2219516' />
  <node id='-103224' action='modify' visible='true' lat='-33.7637157' lon='151.2221003' />
  <node id='-103225' action='modify' visible='true' lat='-33.763671' lon='151.222204' />
  <node id='-103226' action='modify' visible='true' lat='-33.7661259' lon='151.221214' />
  <node id='-103227' action='modify' visible='true' lat='-33.765939' lon='151.221121' />
  <node id='-103228' action='modify' visible='true' lat='-33.765804' lon='151.221037' />
  <node id='-103229' action='modify' visible='true' lat='-33.765463' lon='151.220761' />
  <node id='-103230' action='modify' visible='true' lat='-33.765398' lon='151.220748' />
  <node id='-103231' action='modify' visible='true' lat='-33.765331' lon='151.22077' />
  <node id='-103232' action='modify' visible='true' lat='-33.765105' lon='151.220901' />
  <node id='-103233' action='modify' visible='true' lat='-33.765036' lon='151.220982' />
  <node id='-103234' action='modify' visible='true' lat='-33.764758' lon='151.221439' />
  <node id='-103235' action='modify' visible='true' lat='-33.7645343' lon='151.2217608' />
  <node id='-103236' action='modify' visible='true' lat='-33.764466' lon='151.221859' />
  <node id='-103237' action='modify' visible='true' lat='-33.764276' lon='151.222088' />
  <node id='-103238' action='modify' visible='true' lat='-33.764195' lon='151.222154' />
  <node id='-103239' action='modify' visible='true' lat='-33.764103' lon='151.222194' />
  <node id='-103240' action='modify' visible='true' lat='-33.76396' lon='151.222215' />
  <node id='-103263' action='modify' visible='true' lat='-33.7662048' lon='151.2216618' />
  <node id='-103264' action='modify' visible='true' lat='-33.7661651' lon='151.2217961' />
  <node id='-103265' action='modify' visible='true' lat='-33.7660858' lon='151.2220064' />
  <node id='-103266' action='modify' visible='true' lat='-33.7660435' lon='151.2222274' />
  <node id='-103267' action='modify' visible='true' lat='-33.7660179' lon='151.222347' />
  <node id='-103268' action='modify' visible='true' lat='-33.766021' lon='151.2224694' />
  <node id='-103269' action='modify' visible='true' lat='-33.7660788' lon='151.2226003' />
  <node id='-103270' action='modify' visible='true' lat='-33.7662028' lon='151.2227413' />
  <node id='-103271' action='modify' visible='true' lat='-33.7662555' lon='151.2228315' />
  <node id='-103272' action='modify' visible='true' lat='-33.7662697' lon='151.222908' />
  <node id='-103273' action='modify' visible='true' lat='-33.7662522' lon='151.2229988' />
  <node id='-103274' action='modify' visible='true' lat='-33.7662206' lon='151.2231155' />
  <node id='-103275' action='modify' visible='true' lat='-33.7662257' lon='151.2233083' />
  <node id='-103276' action='modify' visible='true' lat='-33.766159' lon='151.2235216' />
  <node id='-103277' action='modify' visible='true' lat='-33.7661312' lon='151.2236744' />
  <node id='-103278' action='modify' visible='true' lat='-33.7661307' lon='151.2237772' />
  <node id='-103279' action='modify' visible='true' lat='-33.7661055' lon='151.2238551' />
  <node id='-103280' action='modify' visible='true' lat='-33.7660474' lon='151.223938' />
  <node id='-103281' action='modify' visible='true' lat='-33.7660144' lon='151.2241022' />
  <node id='-103282' action='modify' visible='true' lat='-33.7659464' lon='151.2244231' />
  <node id='-103283' action='modify' visible='true' lat='-33.7659012' lon='151.2245894' />
  <node id='-103284' action='modify' visible='true' lat='-33.7659697' lon='151.2247825' />
  <node id='-103285' action='modify' visible='true' lat='-33.7659614' lon='151.2251436' />
  <node id='-103286' action='modify' visible='true' lat='-33.7658282' lon='151.2252183' />
  <node id='-103287' action='modify' visible='true' lat='-33.7656096' lon='151.2252897' />
  <node id='-103288' action='modify' visible='true' lat='-33.7655751' lon='151.2253479' />
  <node id='-103289' action='modify' visible='true' lat='-33.7655879' lon='151.2254923' />
  <node id='-103290' action='modify' visible='true' lat='-33.7655123' lon='151.2257583' />
  <node id='-103291' action='modify' visible='true' lat='-33.7655628' lon='151.2260243' />
  <node id='-103292' action='modify' visible='true' lat='-33.7653856' lon='151.2261888' />
  <node id='-103293' action='modify' visible='true' lat='-33.7652261' lon='151.226233' />
  <node id='-103294' action='modify' visible='true' lat='-33.7648993' lon='151.22639' />
  <node id='-103295' action='modify' visible='true' lat='-33.7648756' lon='151.2264393' />
  <node id='-103296' action='modify' visible='true' lat='-33.7649399' lon='151.2265396' />
  <node id='-103297' action='modify' visible='true' lat='-33.7649799' lon='151.226605' />
  <node id='-103298' action='modify' visible='true' lat='-33.7650646' lon='151.226631' />
  <node id='-103299' action='modify' visible='true' lat='-33.7651069' lon='151.2267134' />
  <node id='-103300' action='modify' visible='true' lat='-33.7650898' lon='151.2267733' />
  <node id='-103301' action='modify' visible='true' lat='-33.7650481' lon='151.2267904' />
  <node id='-103302' action='modify' visible='true' lat='-33.7649409' lon='151.2267895' />
  <node id='-103303' action='modify' visible='true' lat='-33.7649051' lon='151.2267568' />
  <node id='-103304' action='modify' visible='true' lat='-33.7648649' lon='151.2267805' />
  <node id='-103305' action='modify' visible='true' lat='-33.7648154' lon='151.2269159' />
  <node id='-103306' action='modify' visible='true' lat='-33.7647505' lon='151.2269793' />
  <node id='-103307' action='modify' visible='true' lat='-33.7647154' lon='151.227131' />
  <node id='-103308' action='modify' visible='true' lat='-33.7646994' lon='151.2272512' />
  <node id='-103309' action='modify' visible='true' lat='-33.7647452' lon='151.2273545' />
  <node id='-103310' action='modify' visible='true' lat='-33.7648614' lon='151.2274336' />
  <node id='-103311' action='modify' visible='true' lat='-33.7650147' lon='151.2274999' />
  <node id='-103312' action='modify' visible='true' lat='-33.7650357' lon='151.2275769' />
  <node id='-103313' action='modify' visible='true' lat='-33.7651442' lon='151.2277195' />
  <node id='-103314' action='modify' visible='true' lat='-33.7652716' lon='151.2278533' />
  <node id='-103315' action='modify' visible='true' lat='-33.7653588' lon='151.2279023' />
  <node id='-103316' action='modify' visible='true' lat='-33.7654714' lon='151.2278963' />
  <node id='-103317' action='modify' visible='true' lat='-33.7656712' lon='151.2280126' />
  <node id='-103318' action='modify' visible='true' lat='-33.7657773' lon='151.2280535' />
  <node id='-103319' action='modify' visible='true' lat='-33.766028' lon='151.2280078' />
  <node id='-103320' action='modify' visible='true' lat='-33.7667344' lon='151.2280513' />
  <node id='-103321' action='modify' visible='true' lat='-33.766724' lon='151.22816' />
  <node id='-103322' action='modify' visible='true' lat='-33.7667324' lon='151.2284745' />
  <node id='-103371' action='modify' visible='true' lat='-33.7663256' lon='151.2279605' />
  <node id='-103372' action='modify' visible='true' lat='-33.7665791' lon='151.2280367' />
  <way id='-104224' action='modify' visible='true'>
    <nd ref='-103212' />
    <nd ref='-103213' />
    <nd ref='-103214' />
    <nd ref='-103215' />
    <nd ref='-103216' />
    <nd ref='-103217' />
    <nd ref='-103218' />
    <nd ref='-103219' />
    <nd ref='-103220' />
    <nd ref='-103221' />
    <nd ref='-103222' />
    <nd ref='-103223' />
    <nd ref='-103224' />
    <nd ref='-103225' />
    <nd ref='-103240' />
    <nd ref='-103239' />
    <nd ref='-103238' />
    <nd ref='-103237' />
    <nd ref='-103236' />
    <nd ref='-103235' />
    <nd ref='-103234' />
    <nd ref='-103233' />
    <nd ref='-103232' />
    <nd ref='-103231' />
    <nd ref='-103230' />
    <nd ref='-103229' />
    <nd ref='-103228' />
    <nd ref='-103227' />
    <nd ref='-103226' />
    <nd ref='-103263' />
    <nd ref='-103264' />
    <nd ref='-103265' />
    <nd ref='-103266' />
    <nd ref='-103267' />
    <nd ref='-103268' />
    <nd ref='-103269' />
    <nd ref='-103270' />
    <nd ref='-103271' />
    <nd ref='-103272' />
    <nd ref='-103273' />
    <nd ref='-103274' />
    <nd ref='-103275' />
    <nd ref='-103276' />
    <nd ref='-103277' />
    <nd ref='-103278' />
    <nd ref='-103279' />
    <nd ref='-103280' />
    <nd ref='-103281' />
    <nd ref='-103282' />
    <nd ref='-103283' />
    <nd ref='-103284' />
    <nd ref='-103285' />
    <nd ref='-103286' />
    <nd ref='-103287' />
    <nd ref='-103288' />
    <nd ref='-103289' />
    <nd ref='-103290' />
    <nd ref='-103291' />
    <nd ref='-103292' />
    <nd ref='-103293' />
    <nd ref='-103294' />
    <nd ref='-103295' />
    <nd ref='-103296' />
    <nd ref='-103297' />
    <nd ref='-103298' />
    <nd ref='-103299' />
    <nd ref='-103300' />
    <nd ref='-103301' />
    <nd ref='-103302' />
    <nd ref='-103303' />
    <nd ref='-103304' />
    <nd ref='-103305' />
    <nd ref='-103306' />
    <nd ref='-103307' />
    <nd ref='-103308' />
    <nd ref='-103309' />
    <nd ref='-103310' />
    <nd ref='-103311' />
    <nd ref='-103312' />
    <nd ref='-103313' />
    <nd ref='-103314' />
    <nd ref='-103315' />
    <nd ref='-103316' />
    <nd ref='-103317' />
    <nd ref='-103318' />
    <nd ref='-103319' />
    <nd ref='-103371' />
    <nd ref='-103372' />
    <nd ref='-103320' />
    <nd ref='-103321' />
    <nd ref='-103322' />
    <tag k='name' v='Natural Bridge Track from Cannons Parade' />
    <tag k='park' v='Garigal National Park' />
    <tag k='photo' v='136319147@N08/51377979799' />
    <tag k='role' v='primary' />
    <tag k='style' v='return' />
    <tag k='transport' v='car' />
  </way>
</osm>
