<?xml version='1.0' encoding='UTF-8'?>
<osm version='0.6' upload='false' generator='JOSM'>
  <node id='-101879' action='modify' visible='true' lat='-33.7531809' lon='151.2001604' />
  <node id='-101908' action='modify' visible='true' lat='-33.75284688904' lon='151.19415527391' />
  <node id='-101909' action='modify' visible='true' lat='-33.7527214' lon='151.1942527' />
  <node id='-101910' action='modify' visible='true' lat='-33.7526616' lon='151.1947136' />
  <node id='-101911' action='modify' visible='true' lat='-33.7527265' lon='151.1949934' />
  <node id='-101912' action='modify' visible='true' lat='-33.7527514' lon='151.1953659' />
  <node id='-101913' action='modify' visible='true' lat='-33.7532184' lon='151.1956746' />
  <node id='-101914' action='modify' visible='true' lat='-33.7537486' lon='151.195906' />
  <node id='-101915' action='modify' visible='true' lat='-33.7533977' lon='151.1972991' />
  <node id='-101916' action='modify' visible='true' lat='-33.7534364' lon='151.1975538' />
  <node id='-101917' action='modify' visible='true' lat='-33.7535414' lon='151.1982447' />
  <node id='-101918' action='modify' visible='true' lat='-33.7535294' lon='151.1988312' />
  <node id='-101919' action='modify' visible='true' lat='-33.7534875' lon='151.1992921' />
  <node id='-101920' action='modify' visible='true' lat='-33.7531105' lon='151.1996691' />
  <node id='-101921' action='modify' visible='true' lat='-33.7530082' lon='151.2001062' />
  <node id='-101922' action='modify' visible='true' lat='-33.7530236' lon='151.2001465' />
  <node id='-101923' action='modify' visible='true' lat='-33.7530778' lon='151.2001592' />
  <node id='-101924' action='modify' visible='true' lat='-33.7532601' lon='151.2001659' />
  <node id='-101925' action='modify' visible='true' lat='-33.7532191' lon='151.200366' />
  <node id='-101926' action='modify' visible='true' lat='-33.7532274' lon='151.2005067' />
  <node id='-101927' action='modify' visible='true' lat='-33.753284' lon='151.200798' />
  <node id='-101928' action='modify' visible='true' lat='-33.7532519' lon='151.2029897' />
  <node id='-101929' action='modify' visible='true' lat='-33.7532162' lon='151.2036077' />
  <node id='-101930' action='modify' visible='true' lat='-33.7533732' lon='151.2045175' />
  <node id='-101931' action='modify' visible='true' lat='-33.7536658' lon='151.2052471' />
  <node id='-101932' action='modify' visible='true' lat='-33.7536699' lon='151.2059519' />
  <node id='-101933' action='modify' visible='true' lat='-33.7540027' lon='151.2067699' />
  <node id='-101934' action='modify' visible='true' lat='-33.7541679' lon='151.2070148' />
  <node id='-101935' action='modify' visible='true' lat='-33.7542451' lon='151.207302' />
  <node id='-101936' action='modify' visible='true' lat='-33.754293' lon='151.2074841' />
  <node id='-101937' action='modify' visible='true' lat='-33.7543215' lon='151.2077143' />
  <node id='-101938' action='modify' visible='true' lat='-33.7544071' lon='151.2076899' />
  <node id='-101939' action='modify' visible='true' lat='-33.7544338' lon='151.2079328' />
  <node id='-101940' action='modify' visible='true' lat='-33.7545348' lon='151.208665' />
  <node id='-101941' action='modify' visible='true' lat='-33.7546536' lon='151.2089114' />
  <node id='-101942' action='modify' visible='true' lat='-33.7547733' lon='151.2091635' />
  <node id='-101943' action='modify' visible='true' lat='-33.7549' lon='151.2094043' />
  <node id='-101944' action='modify' visible='true' lat='-33.755096' lon='151.2096757' />
  <node id='-101945' action='modify' visible='true' lat='-33.755295' lon='151.2099508' />
  <node id='-101946' action='modify' visible='true' lat='-33.7554723' lon='151.2100417' />
  <node id='-101947' action='modify' visible='true' lat='-33.7556064' lon='151.2101236' />
  <node id='-101948' action='modify' visible='true' lat='-33.7556378' lon='151.2101784' />
  <node id='-101949' action='modify' visible='true' lat='-33.7556803' lon='151.2103932' />
  <node id='-101950' action='modify' visible='true' lat='-33.7557317' lon='151.2104345' />
  <node id='-101951' action='modify' visible='true' lat='-33.7557896' lon='151.2103155' />
  <node id='-101952' action='modify' visible='true' lat='-33.7558889' lon='151.2100579' />
  <node id='-101953' action='modify' visible='true' lat='-33.7559334' lon='151.2098329' />
  <node id='-101954' action='modify' visible='true' lat='-33.7559186' lon='151.2095293' />
  <node id='-101955' action='modify' visible='true' lat='-33.755978' lon='151.2093793' />
  <node id='-101956' action='modify' visible='true' lat='-33.7560952' lon='151.2093303' />
  <node id='-101957' action='modify' visible='true' lat='-33.7563497' lon='151.2097297' />
  <node id='-101958' action='modify' visible='true' lat='-33.7562471' lon='151.2095493' />
  <node id='-101959' action='modify' visible='true' lat='-33.7561887' lon='151.2094571' />
  <node id='-101960' action='modify' visible='true' lat='-33.7566317' lon='151.2105362' />
  <node id='-101961' action='modify' visible='true' lat='-33.7565659' lon='151.210423' />
  <node id='-101962' action='modify' visible='true' lat='-33.7564995' lon='151.2103' />
  <node id='-101963' action='modify' visible='true' lat='-33.7564151' lon='151.2099136' />
  <way id='-101899' action='modify' visible='true'>
    <nd ref='-101960' />
    <nd ref='-101961' />
    <nd ref='-101962' />
    <nd ref='-101963' />
    <nd ref='-101957' />
    <nd ref='-101958' />
    <nd ref='-101959' />
    <nd ref='-101956' />
    <nd ref='-101955' />
    <nd ref='-101954' />
    <nd ref='-101953' />
    <nd ref='-101952' />
    <nd ref='-101951' />
    <nd ref='-101950' />
    <nd ref='-101949' />
    <nd ref='-101948' />
    <nd ref='-101947' />
    <nd ref='-101946' />
    <nd ref='-101945' />
    <nd ref='-101944' />
    <nd ref='-101943' />
    <nd ref='-101942' />
    <nd ref='-101941' />
    <nd ref='-101940' />
    <nd ref='-101939' />
    <nd ref='-101938' />
    <nd ref='-101937' />
    <nd ref='-101936' />
    <nd ref='-101935' />
    <nd ref='-101934' />
    <nd ref='-101933' />
    <nd ref='-101932' />
    <nd ref='-101931' />
    <nd ref='-101930' />
    <nd ref='-101929' />
    <nd ref='-101928' />
    <nd ref='-101927' />
    <nd ref='-101926' />
    <nd ref='-101925' />
    <nd ref='-101924' />
    <nd ref='-101879' />
    <nd ref='-101923' />
    <nd ref='-101922' />
    <nd ref='-101921' />
    <nd ref='-101920' />
    <nd ref='-101919' />
    <nd ref='-101918' />
    <nd ref='-101917' />
    <nd ref='-101916' />
    <nd ref='-101915' />
    <nd ref='-101914' />
    <nd ref='-101913' />
    <nd ref='-101912' />
    <nd ref='-101911' />
    <nd ref='-101910' />
    <nd ref='-101909' />
    <nd ref='-101908' />
    <tag k='name' v='Carroll Creek Track to Middle Harbour Creek' />
    <tag k='park' v='Garigal National Park' />
    <tag k='photo' v='136319147@N08/50254533741' />
    <tag k='role' v='primary' />
    <tag k='style' v='return' />
    <tag k='transport' v='car;bus+walk' />
  </way>
</osm>
