<?xml version='1.0' encoding='UTF-8'?>
<osm version='0.6' upload='false' generator='JOSM'>
  <node id='-102857' action='modify' visible='true' lat='-33.7193224' lon='151.1500502' />
  <node id='-102858' action='modify' visible='true' lat='-33.7193348' lon='151.1501109' />
  <node id='-102859' action='modify' visible='true' lat='-33.7193422' lon='151.1501472' />
  <node id='-102860' action='modify' visible='true' lat='-33.7193388' lon='151.1502371' />
  <node id='-102861' action='modify' visible='true' lat='-33.7191526' lon='151.1503832' />
  <node id='-102862' action='modify' visible='true' lat='-33.7191091' lon='151.1505562' />
  <node id='-102863' action='modify' visible='true' lat='-33.7190555' lon='151.1506313' />
  <node id='-102864' action='modify' visible='true' lat='-33.7182079' lon='151.1509868' />
  <node id='-102865' action='modify' visible='true' lat='-33.7179304' lon='151.1515973' />
  <node id='-102866' action='modify' visible='true' lat='-33.7178378' lon='151.152036' />
  <node id='-102867' action='modify' visible='true' lat='-33.7176774' lon='151.1523106' />
  <node id='-102868' action='modify' visible='true' lat='-33.7174339' lon='151.1525366' />
  <node id='-102869' action='modify' visible='true' lat='-33.7171188' lon='151.1527745' />
  <node id='-102870' action='modify' visible='true' lat='-33.7169332' lon='151.1528818' />
  <node id='-102871' action='modify' visible='true' lat='-33.7167002' lon='151.152912' />
  <node id='-102872' action='modify' visible='true' lat='-33.7164815' lon='151.1532066' />
  <node id='-102873' action='modify' visible='true' lat='-33.7162503' lon='151.1532523' />
  <node id='-102874' action='modify' visible='true' lat='-33.7161884' lon='151.1530456' />
  <node id='-102875' action='modify' visible='true' lat='-33.7160165' lon='151.1529709' />
  <node id='-102876' action='modify' visible='true' lat='-33.7157134' lon='151.153214' />
  <node id='-102877' action='modify' visible='true' lat='-33.7154352' lon='151.1535159' />
  <node id='-102878' action='modify' visible='true' lat='-33.7152582' lon='151.1539761' />
  <node id='-102879' action='modify' visible='true' lat='-33.7148641' lon='151.1541843' />
  <node id='-102880' action='modify' visible='true' lat='-33.7147237' lon='151.1542825' />
  <node id='-102881' action='modify' visible='true' lat='-33.7145131' lon='151.1544297' />
  <node id='-102882' action='modify' visible='true' lat='-33.7138576' lon='151.1543946' />
  <node id='-102883' action='modify' visible='true' lat='-33.7134756' lon='151.1546914' />
  <node id='-102884' action='modify' visible='true' lat='-33.713123' lon='151.1546102' />
  <node id='-102885' action='modify' visible='true' lat='-33.7128308' lon='151.1546353' />
  <node id='-102886' action='modify' visible='true' lat='-33.712513' lon='151.1546918' />
  <node id='-102887' action='modify' visible='true' lat='-33.7124475' lon='151.1547682' />
  <node id='-102888' action='modify' visible='true' lat='-33.712358' lon='151.1548726' />
  <node id='-102889' action='modify' visible='true' lat='-33.7118239' lon='151.1549813' />
  <node id='-102890' action='modify' visible='true' lat='-33.7112942' lon='151.1550497' />
  <node id='-102891' action='modify' visible='true' lat='-33.7111452' lon='151.1551368' />
  <node id='-102892' action='modify' visible='true' lat='-33.710943' lon='151.1551969' />
  <node id='-102893' action='modify' visible='true' lat='-33.7102695' lon='151.1550102' />
  <node id='-102894' action='modify' visible='true' lat='-33.710081' lon='151.1548926' />
  <node id='-102895' action='modify' visible='true' lat='-33.7098605' lon='151.1548268' />
  <node id='-102896' action='modify' visible='true' lat='-33.7097763' lon='151.1549789' />
  <node id='-102897' action='modify' visible='true' lat='-33.7096071' lon='151.15498' />
  <node id='-102898' action='modify' visible='true' lat='-33.7093732' lon='151.1552757' />
  <node id='-102899' action='modify' visible='true' lat='-33.7090035' lon='151.1552891' />
  <node id='-102900' action='modify' visible='true' lat='-33.7084993' lon='151.1552196' />
  <node id='-102901' action='modify' visible='true' lat='-33.7081309' lon='151.1552048' />
  <node id='-102902' action='modify' visible='true' lat='-33.7079339' lon='151.1552831' />
  <node id='-102903' action='modify' visible='true' lat='-33.7077577' lon='151.1553743' />
  <node id='-102904' action='modify' visible='true' lat='-33.7070443' lon='151.1556876' />
  <node id='-102905' action='modify' visible='true' lat='-33.7068199' lon='151.1559081' />
  <node id='-102906' action='modify' visible='true' lat='-33.7067444' lon='151.1560775' />
  <node id='-102907' action='modify' visible='true' lat='-33.7065484' lon='151.1565566' />
  <node id='-102908' action='modify' visible='true' lat='-33.7064476' lon='151.156683' />
  <node id='-102909' action='modify' visible='true' lat='-33.7062941' lon='151.1567799' />
  <node id='-102910' action='modify' visible='true' lat='-33.7061921' lon='151.1569431' />
  <node id='-102911' action='modify' visible='true' lat='-33.7061731' lon='151.1570638' />
  <node id='-102912' action='modify' visible='true' lat='-33.7061843' lon='151.1572328' />
  <node id='-102913' action='modify' visible='true' lat='-33.7061689' lon='151.1572894' />
  <node id='-102914' action='modify' visible='true' lat='-33.7060917' lon='151.1573334' />
  <node id='-102915' action='modify' visible='true' lat='-33.7059433' lon='151.1573576' />
  <node id='-102916' action='modify' visible='true' lat='-33.7058496' lon='151.1573421' />
  <node id='-102917' action='modify' visible='true' lat='-33.7057966' lon='151.1573173' />
  <node id='-102918' action='modify' visible='true' lat='-33.7056321' lon='151.1571413' />
  <node id='-102919' action='modify' visible='true' lat='-33.7055178' lon='151.1570272' />
  <node id='-102920' action='modify' visible='true' lat='-33.7053877' lon='151.1569472' />
  <node id='-102921' action='modify' visible='true' lat='-33.7053179' lon='151.1569237' />
  <node id='-102922' action='modify' visible='true' lat='-33.7051876' lon='151.1569402' />
  <node id='-102923' action='modify' visible='true' lat='-33.7048885' lon='151.1569328' />
  <node id='-102924' action='modify' visible='true' lat='-33.7047774' lon='151.1569666' />
  <node id='-102925' action='modify' visible='true' lat='-33.7046943' lon='151.1570095' />
  <node id='-102926' action='modify' visible='true' lat='-33.7046536' lon='151.1570578' />
  <node id='-102927' action='modify' visible='true' lat='-33.7045415' lon='151.1575014' />
  <node id='-102928' action='modify' visible='true' lat='-33.7044516' lon='151.1576492' />
  <node id='-102929' action='modify' visible='true' lat='-33.7044062' lon='151.1577296' />
  <node id='-102930' action='modify' visible='true' lat='-33.7043803' lon='151.1577457' />
  <node id='-102931' action='modify' visible='true' lat='-33.7042999' lon='151.15778' />
  <node id='-102932' action='modify' visible='true' lat='-33.7040656' lon='151.1578229' />
  <node id='-102933' action='modify' visible='true' lat='-33.7038832' lon='151.1579125' />
  <node id='-102934' action='modify' visible='true' lat='-33.7034447' lon='151.1584776' />
  <node id='-102935' action='modify' visible='true' lat='-33.7033371' lon='151.1586453' />
  <node id='-102936' action='modify' visible='true' lat='-33.7033044' lon='151.1587774' />
  <node id='-102937' action='modify' visible='true' lat='-33.7033315' lon='151.1587644' />
  <node id='-102938' action='modify' visible='true' lat='-33.7035245' lon='151.1586705' />
  <node id='-102939' action='modify' visible='true' lat='-33.7035549' lon='151.1586661' />
  <node id='-102940' action='modify' visible='true' lat='-33.7032526' lon='151.1592139' />
  <node id='-102941' action='modify' visible='true' lat='-33.7030453' lon='151.1596496' />
  <node id='-102942' action='modify' visible='true' lat='-33.7027588' lon='151.1600531'>
  </node>
  <node id='-102943' action='modify' visible='true' lat='-33.7026531' lon='151.1601377' />
  <node id='-102944' action='modify' visible='true' lat='-33.7023358' lon='151.1602992'>
  </node>
  <node id='-102945' action='modify' visible='true' lat='-33.7022559' lon='151.1605195' />
  <node id='-102946' action='modify' visible='true' lat='-33.7022356' lon='151.1605205' />
  <node id='-102947' action='modify' visible='true' lat='-33.7022043' lon='151.1605886' />
  <node id='-102948' action='modify' visible='true' lat='-33.7021743' lon='151.160676'>
  </node>
  <node id='-102949' action='modify' visible='true' lat='-33.7021812' lon='151.1609115' />
  <node id='-102950' action='modify' visible='true' lat='-33.7022822' lon='151.1610322' />
  <node id='-102951' action='modify' visible='true' lat='-33.702264' lon='151.1610939' />
  <node id='-102952' action='modify' visible='true' lat='-33.7022711' lon='151.1611837' />
  <node id='-102953' action='modify' visible='true' lat='-33.7024113' lon='151.1616743' />
  <node id='-102954' action='modify' visible='true' lat='-33.7023742' lon='151.1618603' />
  <node id='-102955' action='modify' visible='true' lat='-33.7023583' lon='151.1618895' />
  <node id='-102956' action='modify' visible='true' lat='-33.7023223' lon='151.161869' />
  <node id='-102957' action='modify' visible='true' lat='-33.7015855' lon='151.160937' />
  <node id='-102958' action='modify' visible='true' lat='-33.7014549' lon='151.1609504' />
  <node id='-102959' action='modify' visible='true' lat='-33.701186' lon='151.1606446' />
  <node id='-102960' action='modify' visible='true' lat='-33.7010164' lon='151.1603951' />
  <node id='-102961' action='modify' visible='true' lat='-33.7009228' lon='151.1603436' />
  <node id='-102962' action='modify' visible='true' lat='-33.7008178' lon='151.160371' />
  <node id='-102963' action='modify' visible='true' lat='-33.7005623' lon='151.1603925' />
  <node id='-102964' action='modify' visible='true' lat='-33.7003057' lon='151.1605883' />
  <node id='-102965' action='modify' visible='true' lat='-33.7001812' lon='151.1607592' />
  <node id='-102966' action='modify' visible='true' lat='-33.700164' lon='151.1608806' />
  <node id='-102967' action='modify' visible='true' lat='-33.7001688' lon='151.1610864' />
  <node id='-102968' action='modify' visible='true' lat='-33.7001327' lon='151.1612795' />
  <node id='-102969' action='modify' visible='true' lat='-33.7000852' lon='151.1613775' />
  <node id='-102970' action='modify' visible='true' lat='-33.7000117' lon='151.161466' />
  <node id='-102971' action='modify' visible='true' lat='-33.6999278' lon='151.1615183' />
  <node id='-102972' action='modify' visible='true' lat='-33.6998743' lon='151.1615075' />
  <node id='-102973' action='modify' visible='true' lat='-33.6998364' lon='151.1615236' />
  <node id='-102974' action='modify' visible='true' lat='-33.6998057' lon='151.1615604'>
  </node>
  <node id='-102975' action='modify' visible='true' lat='-33.6996329' lon='151.1618301' />
  <node id='-102976' action='modify' visible='true' lat='-33.6996106' lon='151.1619414' />
  <node id='-102977' action='modify' visible='true' lat='-33.6994948' lon='151.1620751' />
  <node id='-102978' action='modify' visible='true' lat='-33.6995113' lon='151.1621111' />
  <node id='-102979' action='modify' visible='true' lat='-33.6996307' lon='151.162158' />
  <node id='-102980' action='modify' visible='true' lat='-33.699634' lon='151.1622097' />
  <node id='-102981' action='modify' visible='true' lat='-33.6995788' lon='151.1624169' />
  <node id='-102982' action='modify' visible='true' lat='-33.699586' lon='151.1624964' />
  <node id='-102983' action='modify' visible='true' lat='-33.6996113' lon='151.1626204' />
  <node id='-102984' action='modify' visible='true' lat='-33.6996117' lon='151.1628232' />
  <node id='-102985' action='modify' visible='true' lat='-33.6995888' lon='151.1631934' />
  <node id='-102986' action='modify' visible='true' lat='-33.6996206' lon='151.1633422' />
  <node id='-102987' action='modify' visible='true' lat='-33.6996234' lon='151.1635164' />
  <node id='-102988' action='modify' visible='true' lat='-33.6997462' lon='151.164026' />
  <node id='-102989' action='modify' visible='true' lat='-33.69975' lon='151.1640812' />
  <node id='-102990' action='modify' visible='true' lat='-33.6997428' lon='151.1641274' />
  <node id='-102991' action='modify' visible='true' lat='-33.6997242' lon='151.1641575' />
  <node id='-102992' action='modify' visible='true' lat='-33.6995799' lon='151.1643069' />
  <node id='-102993' action='modify' visible='true' lat='-33.6994761' lon='151.1642984' />
  <node id='-102994' action='modify' visible='true' lat='-33.6993757' lon='151.1643071' />
  <node id='-102995' action='modify' visible='true' lat='-33.6992014' lon='151.1643627' />
  <node id='-102996' action='modify' visible='true' lat='-33.6990004' lon='151.1643243' />
  <node id='-102997' action='modify' visible='true' lat='-33.6988848' lon='151.1643487' />
  <node id='-102998' action='modify' visible='true' lat='-33.6988331' lon='151.1643948' />
  <node id='-102999' action='modify' visible='true' lat='-33.6986125' lon='151.1648221' />
  <node id='-103000' action='modify' visible='true' lat='-33.6985037' lon='151.1651393' />
  <node id='-103001' action='modify' visible='true' lat='-33.6983599' lon='151.1653133'>
  </node>
  <node id='-103002' action='modify' visible='true' lat='-33.698125' lon='151.1654911' />
  <node id='-103003' action='modify' visible='true' lat='-33.6979523' lon='151.1655287'>
  </node>
  <node id='-103004' action='modify' visible='true' lat='-33.6977908' lon='151.165621'>
  </node>
  <node id='-103005' action='modify' visible='true' lat='-33.6976908' lon='151.1657055'>
  </node>
  <node id='-103006' action='modify' visible='true' lat='-33.6976062' lon='151.165621'>
  </node>
  <node id='-103007' action='modify' visible='true' lat='-33.6975514' lon='151.1655899' />
  <node id='-103008' action='modify' visible='true' lat='-33.6974832' lon='151.1655902'>
  </node>
  <node id='-103009' action='modify' visible='true' lat='-33.6973409' lon='151.1657083' />
  <node id='-103010' action='modify' visible='true' lat='-33.6972089' lon='151.1659688' />
  <node id='-103011' action='modify' visible='true' lat='-33.6970979' lon='151.1661538' />
  <node id='-103012' action='modify' visible='true' lat='-33.6969954' lon='151.1662513' />
  <node id='-103013' action='modify' visible='true' lat='-33.6968394' lon='151.1665695' />
  <node id='-103014' action='modify' visible='true' lat='-33.6967758' lon='151.1669164' />
  <node id='-103015' action='modify' visible='true' lat='-33.6968044' lon='151.1670323' />
  <node id='-103016' action='modify' visible='true' lat='-33.6967782' lon='151.1671624' />
  <node id='-103017' action='modify' visible='true' lat='-33.6967793' lon='151.1674038' />
  <node id='-103018' action='modify' visible='true' lat='-33.6967063' lon='151.1676376' />
  <node id='-103019' action='modify' visible='true' lat='-33.6967664' lon='151.1676327' />
  <node id='-103020' action='modify' visible='true' lat='-33.696903' lon='151.167689' />
  <node id='-103021' action='modify' visible='true' lat='-33.697019' lon='151.167689' />
  <node id='-103022' action='modify' visible='true' lat='-33.697104' lon='151.167667' />
  <node id='-103023' action='modify' visible='true' lat='-33.697165' lon='151.167625' />
  <node id='-103024' action='modify' visible='true' lat='-33.697349' lon='151.167403' />
  <node id='-103025' action='modify' visible='true' lat='-33.697443' lon='151.167225' />
  <node id='-103026' action='modify' visible='true' lat='-33.6976447' lon='151.1668733' />
  <node id='-103027' action='modify' visible='true' lat='-33.6977368' lon='151.1667788' />
  <node id='-103028' action='modify' visible='true' lat='-33.6979579' lon='151.1667081' />
  <node id='-103029' action='modify' visible='true' lat='-33.6981733' lon='151.1666585' />
  <node id='-103030' action='modify' visible='true' lat='-33.698381' lon='151.166607' />
  <node id='-103031' action='modify' visible='true' lat='-33.6986703' lon='151.1664803' />
  <node id='-103032' action='modify' visible='true' lat='-33.6989197' lon='151.1664368' />
  <node id='-103033' action='modify' visible='true' lat='-33.699834' lon='151.165971' />
  <node id='-103034' action='modify' visible='true' lat='-33.700079' lon='151.165858' />
  <node id='-103035' action='modify' visible='true' lat='-33.7002839' lon='151.1657998' />
  <node id='-103036' action='modify' visible='true' lat='-33.7004595' lon='151.1657499' />
  <node id='-103037' action='modify' visible='true' lat='-33.7006531' lon='151.1657618' />
  <node id='-103132' action='modify' visible='true' lat='-33.6907759' lon='151.1682138' />
  <node id='-103133' action='modify' visible='true' lat='-33.6905743' lon='151.1684421' />
  <node id='-103134' action='modify' visible='true' lat='-33.6905652' lon='151.1685558' />
  <node id='-103135' action='modify' visible='true' lat='-33.6906248' lon='151.1687048' />
  <node id='-103136' action='modify' visible='true' lat='-33.6907569' lon='151.1688566' />
  <node id='-103137' action='modify' visible='true' lat='-33.6909122' lon='151.168928' />
  <node id='-103138' action='modify' visible='true' lat='-33.6911589' lon='151.1693016' />
  <node id='-103139' action='modify' visible='true' lat='-33.6915854' lon='151.1695246' />
  <node id='-103140' action='modify' visible='true' lat='-33.691735' lon='151.1698678' />
  <node id='-103141' action='modify' visible='true' lat='-33.6919181' lon='151.1704675' />
  <node id='-103142' action='modify' visible='true' lat='-33.6921196' lon='151.1708808' />
  <node id='-103143' action='modify' visible='true' lat='-33.6922942' lon='151.1710794' />
  <node id='-103144' action='modify' visible='true' lat='-33.6924396' lon='151.171166' />
  <node id='-103145' action='modify' visible='true' lat='-33.692497' lon='151.1711888' />
  <node id='-103152' action='modify' visible='true' lat='-33.6906038' lon='151.1684317' />
  <node id='-103153' action='modify' visible='true' lat='-33.6905318' lon='151.1684387' />
  <node id='-103154' action='modify' visible='true' lat='-33.69046122206' lon='151.16834937482' />
  <node id='-103155' action='modify' visible='true' lat='-33.690342' lon='151.16818' />
  <node id='-103156' action='modify' visible='true' lat='-33.69027' lon='151.168107' />
  <node id='-103157' action='modify' visible='true' lat='-33.690178' lon='151.168066' />
  <node id='-103158' action='modify' visible='true' lat='-33.6900249' lon='151.1680029' />
  <node id='-103159' action='modify' visible='true' lat='-33.689812' lon='151.167976' />
  <node id='-103160' action='modify' visible='true' lat='-33.689551' lon='151.167947' />
  <node id='-103161' action='modify' visible='true' lat='-33.689465' lon='151.167952' />
  <node id='-103162' action='modify' visible='true' lat='-33.689407' lon='151.167916' />
  <node id='-103163' action='modify' visible='true' lat='-33.6906752' lon='151.1683812' />
  <node id='-103183' action='modify' visible='true' lat='-33.6967063' lon='151.1676376' />
  <node id='-103184' action='modify' visible='true' lat='-33.696612' lon='151.167676' />
  <node id='-103185' action='modify' visible='true' lat='-33.6961834' lon='151.167922' />
  <node id='-103186' action='modify' visible='true' lat='-33.6960202' lon='151.168031' />
  <node id='-103187' action='modify' visible='true' lat='-33.6959313' lon='151.1680622' />
  <node id='-103188' action='modify' visible='true' lat='-33.6958115' lon='151.1680792' />
  <node id='-103189' action='modify' visible='true' lat='-33.6956178' lon='151.1680839' />
  <node id='-103190' action='modify' visible='true' lat='-33.6955101' lon='151.1680676' />
  <node id='-103191' action='modify' visible='true' lat='-33.6952412' lon='151.1680676' />
  <node id='-103192' action='modify' visible='true' lat='-33.6951265' lon='151.1680458' />
  <node id='-103193' action='modify' visible='true' lat='-33.6950128' lon='151.1680462' />
  <node id='-103194' action='modify' visible='true' lat='-33.694711' lon='151.168139' />
  <node id='-103195' action='modify' visible='true' lat='-33.6944834' lon='151.1682543' />
  <node id='-103196' action='modify' visible='true' lat='-33.6943634' lon='151.1683066' />
  <node id='-103197' action='modify' visible='true' lat='-33.6942018' lon='151.1683352' />
  <node id='-103198' action='modify' visible='true' lat='-33.693972' lon='151.1683164' />
  <node id='-103199' action='modify' visible='true' lat='-33.693722' lon='151.168371' />
  <node id='-103200' action='modify' visible='true' lat='-33.693352' lon='151.168518' />
  <node id='-103201' action='modify' visible='true' lat='-33.693196' lon='151.168531' />
  <node id='-103202' action='modify' visible='true' lat='-33.692899' lon='151.1685117' />
  <node id='-103203' action='modify' visible='true' lat='-33.6927516' lon='151.1685502' />
  <node id='-103204' action='modify' visible='true' lat='-33.6925861' lon='151.168639' />
  <node id='-103205' action='modify' visible='true' lat='-33.6924035' lon='151.1686642' />
  <node id='-103206' action='modify' visible='true' lat='-33.6922717' lon='151.1686572' />
  <node id='-103207' action='modify' visible='true' lat='-33.6916316' lon='151.1682656' />
  <node id='-103208' action='modify' visible='true' lat='-33.6914876' lon='151.1682124' />
  <node id='-103209' action='modify' visible='true' lat='-33.6913762' lon='151.1682101' />
  <node id='-103210' action='modify' visible='true' lat='-33.6911352' lon='151.1682446' />
  <node id='-103211' action='modify' visible='true' lat='-33.6910429' lon='151.1682165' />
  <node id='-103212' action='modify' visible='true' lat='-33.6909551' lon='151.1681643' />
  <node id='-103213' action='modify' visible='true' lat='-33.6908649' lon='151.1681567' />
  <node id='-103214' action='modify' visible='true' lat='-33.6908108' lon='151.1681742' />
  <way id='-103234' action='modify' visible='true'>
    <nd ref='-102857' />
    <nd ref='-102858' />
    <nd ref='-102859' />
    <nd ref='-102860' />
    <nd ref='-102861' />
    <nd ref='-102862' />
    <nd ref='-102863' />
    <nd ref='-102864' />
    <nd ref='-102865' />
    <nd ref='-102866' />
    <nd ref='-102867' />
    <nd ref='-102868' />
    <nd ref='-102869' />
    <nd ref='-102870' />
    <nd ref='-102871' />
    <nd ref='-102872' />
    <nd ref='-102873' />
    <nd ref='-102874' />
    <nd ref='-102875' />
    <nd ref='-102876' />
    <nd ref='-102877' />
    <nd ref='-102878' />
    <nd ref='-102879' />
    <nd ref='-102880' />
    <nd ref='-102881' />
    <nd ref='-102882' />
    <nd ref='-102883' />
    <nd ref='-102884' />
    <nd ref='-102885' />
    <nd ref='-102886' />
    <nd ref='-102887' />
    <nd ref='-102888' />
    <nd ref='-102889' />
    <nd ref='-102890' />
    <nd ref='-102891' />
    <nd ref='-102892' />
    <nd ref='-102893' />
    <nd ref='-102894' />
    <nd ref='-102895' />
    <nd ref='-102896' />
    <nd ref='-102897' />
    <nd ref='-102898' />
    <nd ref='-102899' />
    <nd ref='-102900' />
    <nd ref='-102901' />
    <nd ref='-102902' />
    <nd ref='-102903' />
    <nd ref='-102904' />
    <nd ref='-102905' />
    <nd ref='-102906' />
    <nd ref='-102907' />
    <nd ref='-102908' />
    <nd ref='-102909' />
    <nd ref='-102910' />
    <nd ref='-102911' />
    <nd ref='-102912' />
    <nd ref='-102913' />
    <nd ref='-102914' />
    <nd ref='-102915' />
    <nd ref='-102916' />
    <nd ref='-102917' />
    <nd ref='-102918' />
    <nd ref='-102919' />
    <nd ref='-102920' />
    <nd ref='-102921' />
    <nd ref='-102922' />
    <nd ref='-102923' />
    <nd ref='-102924' />
    <nd ref='-102925' />
    <nd ref='-102926' />
    <nd ref='-102927' />
    <nd ref='-102928' />
    <nd ref='-102929' />
    <nd ref='-102930' />
    <nd ref='-102931' />
    <nd ref='-102932' />
    <nd ref='-102933' />
    <nd ref='-102934' />
    <nd ref='-102935' />
    <nd ref='-102936' />
    <nd ref='-102937' />
    <nd ref='-102938' />
    <nd ref='-102939' />
    <nd ref='-102940' />
    <nd ref='-102941' />
    <nd ref='-102942' />
    <nd ref='-102943' />
    <nd ref='-102944' />
    <nd ref='-102945' />
    <nd ref='-102946' />
    <nd ref='-102947' />
    <nd ref='-102948' />
    <nd ref='-102949' />
    <nd ref='-102950' />
    <nd ref='-102951' />
    <nd ref='-102952' />
    <nd ref='-102953' />
    <nd ref='-102954' />
    <nd ref='-102955' />
    <nd ref='-102956' />
    <nd ref='-102957' />
    <nd ref='-102958' />
    <nd ref='-102959' />
    <nd ref='-102960' />
    <nd ref='-102961' />
    <nd ref='-102962' />
    <nd ref='-102963' />
    <nd ref='-102964' />
    <nd ref='-102965' />
    <nd ref='-102966' />
    <nd ref='-102967' />
    <nd ref='-102968' />
    <nd ref='-102969' />
    <nd ref='-102970' />
    <nd ref='-102971' />
    <nd ref='-102972' />
    <nd ref='-102973' />
    <nd ref='-102974' />
    <nd ref='-102975' />
    <nd ref='-102976' />
    <nd ref='-102977' />
    <nd ref='-102978' />
    <nd ref='-102979' />
    <nd ref='-102980' />
    <nd ref='-102981' />
    <nd ref='-102982' />
    <nd ref='-102983' />
    <nd ref='-102984' />
    <nd ref='-102985' />
    <nd ref='-102986' />
    <nd ref='-102987' />
    <nd ref='-102988' />
    <nd ref='-102989' />
    <nd ref='-102990' />
    <nd ref='-102991' />
    <nd ref='-102992' />
    <nd ref='-102993' />
    <nd ref='-102994' />
    <nd ref='-102995' />
    <nd ref='-102996' />
    <nd ref='-102997' />
    <nd ref='-102998' />
    <nd ref='-102999' />
    <nd ref='-103000' />
    <nd ref='-103001' />
    <nd ref='-103002' />
    <nd ref='-103003' />
    <nd ref='-103004' />
    <nd ref='-103005' />
    <nd ref='-103006' />
    <nd ref='-103007' />
    <nd ref='-103008' />
    <nd ref='-103009' />
    <nd ref='-103010' />
    <nd ref='-103011' />
    <nd ref='-103012' />
    <nd ref='-103013' />
    <nd ref='-103014' />
    <nd ref='-103015' />
    <nd ref='-103016' />
    <nd ref='-103017' />
    <nd ref='-103018' />
    <nd ref='-103019' />
    <nd ref='-103020' />
    <nd ref='-103021' />
    <nd ref='-103022' />
    <nd ref='-103023' />
    <nd ref='-103024' />
    <nd ref='-103025' />
    <nd ref='-103026' />
    <nd ref='-103027' />
    <nd ref='-103028' />
    <nd ref='-103029' />
    <nd ref='-103030' />
    <nd ref='-103031' />
    <nd ref='-103032' />
    <nd ref='-103033' />
    <nd ref='-103034' />
    <nd ref='-103035' />
    <nd ref='-103036' />
    <nd ref='-103037' />
    <tag k='name' v='Darri Track' />
    <tag k='role' v='primary' />
    <tag k='style' v='oneway' />
    <tag k='transport' v='carshuffle' />
  </way>
  <way id='-103251' action='modify' visible='true'>
    <nd ref='-103133' />
    <nd ref='-103134' />
    <nd ref='-103135' />
    <nd ref='-103136' />
    <nd ref='-103137' />
    <nd ref='-103138' />
    <nd ref='-103139' />
    <nd ref='-103140' />
    <nd ref='-103141' />
    <nd ref='-103142' />
    <nd ref='-103143' />
    <nd ref='-103144' />
    <nd ref='-103145' />
    <tag k='role' v='sidetrack' />
    <tag k='style' v='return' />
  </way>
  <way id='-103254' action='modify' visible='true'>
    <nd ref='-103183' />
    <nd ref='-103184' />
    <nd ref='-103185' />
    <nd ref='-103186' />
    <nd ref='-103187' />
    <nd ref='-103188' />
    <nd ref='-103189' />
    <nd ref='-103190' />
    <nd ref='-103191' />
    <nd ref='-103192' />
    <nd ref='-103193' />
    <nd ref='-103194' />
    <nd ref='-103195' />
    <nd ref='-103196' />
    <nd ref='-103197' />
    <nd ref='-103198' />
    <nd ref='-103199' />
    <nd ref='-103200' />
    <nd ref='-103201' />
    <nd ref='-103202' />
    <nd ref='-103203' />
    <nd ref='-103204' />
    <nd ref='-103205' />
    <nd ref='-103206' />
    <nd ref='-103207' />
    <nd ref='-103208' />
    <nd ref='-103209' />
    <nd ref='-103210' />
    <nd ref='-103211' />
    <nd ref='-103212' />
    <nd ref='-103213' />
    <nd ref='-103214' />
    <nd ref='-103132' />
    <nd ref='-103163' />
    <nd ref='-103152' />
    <nd ref='-103133' />
    <nd ref='-103153' />
    <nd ref='-103154' />
    <nd ref='-103155' />
    <nd ref='-103156' />
    <nd ref='-103157' />
    <nd ref='-103158' />
    <nd ref='-103159' />
    <nd ref='-103160' />
    <nd ref='-103161' />
    <nd ref='-103162' />
    <tag k='name' v='Warrimoo Track' />
    <tag k='role' v='sidetrack' />
    <tag k='style' v='return' />
  </way>
</osm>
