<?xml version='1.0' encoding='UTF-8'?>
<osm version='0.6' upload='false' generator='JOSM'>
  <node id='-102159' action='modify' visible='true' lat='-33.6431054' lon='151.2645186' />
  <node id='-102160' action='modify' visible='true' lat='-33.6367215' lon='151.2729553' />
  <node id='-102161' action='modify' visible='true' lat='-33.6365279' lon='151.2728669' />
  <node id='-102162' action='modify' visible='true' lat='-33.6364575' lon='151.2727261' />
  <node id='-102163' action='modify' visible='true' lat='-33.6364082' lon='151.2724947' />
  <node id='-102164' action='modify' visible='true' lat='-33.6362973' lon='151.2723651' />
  <node id='-102165' action='modify' visible='true' lat='-33.6361449' lon='151.2722642' />
  <node id='-102166' action='modify' visible='true' lat='-33.6359725' lon='151.2720281' />
  <node id='-102167' action='modify' visible='true' lat='-33.6357851' lon='151.2718671' />
  <node id='-102168' action='modify' visible='true' lat='-33.6357349' lon='151.2719449' />
  <node id='-102169' action='modify' visible='true' lat='-33.6357036' lon='151.2719771' />
  <node id='-102170' action='modify' visible='true' lat='-33.6356902' lon='151.2720307' />
  <node id='-102171' action='modify' visible='true' lat='-33.6356642' lon='151.2721796' />
  <node id='-102172' action='modify' visible='true' lat='-33.6356084' lon='151.2722716' />
  <node id='-102173' action='modify' visible='true' lat='-33.6355883' lon='151.2722855' />
  <node id='-102174' action='modify' visible='true' lat='-33.635547' lon='151.272313' />
  <node id='-102175' action='modify' visible='true' lat='-33.6355462' lon='151.2723963' />
  <node id='-102176' action='modify' visible='true' lat='-33.6356863' lon='151.2719576' />
  <node id='-102177' action='modify' visible='true' lat='-33.6356258' lon='151.271969' />
  <node id='-102178' action='modify' visible='true' lat='-33.6356034' lon='151.2719703' />
  <node id='-102179' action='modify' visible='true' lat='-33.6355598' lon='151.2719824' />
  <node id='-102180' action='modify' visible='true' lat='-33.6354688' lon='151.2721165' />
  <node id='-102181' action='modify' visible='true' lat='-33.6353868' lon='151.2721983' />
  <node id='-102182' action='modify' visible='true' lat='-33.6351701' lon='151.2720951' />
  <node id='-102183' action='modify' visible='true' lat='-33.6352014' lon='151.2719415' />
  <node id='-102184' action='modify' visible='true' lat='-33.6351997' lon='151.2718604' />
  <node id='-102185' action='modify' visible='true' lat='-33.6351729' lon='151.2718382' />
  <node id='-102186' action='modify' visible='true' lat='-33.635126' lon='151.2718295' />
  <node id='-102187' action='modify' visible='true' lat='-33.6350875' lon='151.2718322' />
  <node id='-102188' action='modify' visible='true' lat='-33.6350149' lon='151.2719475' />
  <node id='-102189' action='modify' visible='true' lat='-33.6349384' lon='151.2721038' />
  <node id='-102190' action='modify' visible='true' lat='-33.6348932' lon='151.2721246' />
  <node id='-102191' action='modify' visible='true' lat='-33.6347994' lon='151.2721433' />
  <node id='-102192' action='modify' visible='true' lat='-33.6346576' lon='151.27214' />
  <node id='-102193' action='modify' visible='true' lat='-33.6345091' lon='151.2721333' />
  <node id='-102194' action='modify' visible='true' lat='-33.6344572' lon='151.272142' />
  <node id='-102195' action='modify' visible='true' lat='-33.6343595' lon='151.272197' />
  <node id='-102196' action='modify' visible='true' lat='-33.6429148' lon='151.2651889' />
  <node id='-102197' action='modify' visible='true' lat='-33.6427939' lon='151.2652094' />
  <node id='-102198' action='modify' visible='true' lat='-33.6426989' lon='151.265297' />
  <node id='-102199' action='modify' visible='true' lat='-33.6425351' lon='151.2655069' />
  <node id='-102200' action='modify' visible='true' lat='-33.6423438' lon='151.2657154' />
  <node id='-102201' action='modify' visible='true' lat='-33.6420902' lon='151.2660712' />
  <node id='-102202' action='modify' visible='true' lat='-33.6415189' lon='151.2663921' />
  <node id='-102203' action='modify' visible='true' lat='-33.6413066' lon='151.2665469' />
  <node id='-102204' action='modify' visible='true' lat='-33.641199' lon='151.266707' />
  <node id='-102205' action='modify' visible='true' lat='-33.6410409' lon='151.2667875' />
  <node id='-102206' action='modify' visible='true' lat='-33.6409015' lon='151.2669248' />
  <node id='-102207' action='modify' visible='true' lat='-33.6405948' lon='151.2671077' />
  <node id='-102208' action='modify' visible='true' lat='-33.6403251' lon='151.2672081' />
  <node id='-102209' action='modify' visible='true' lat='-33.6402419' lon='151.2673128' />
  <node id='-102210' action='modify' visible='true' lat='-33.6401104' lon='151.2675163' />
  <node id='-102211' action='modify' visible='true' lat='-33.6399803' lon='151.2676092' />
  <node id='-102212' action='modify' visible='true' lat='-33.6398393' lon='151.2676482' />
  <node id='-102213' action='modify' visible='true' lat='-33.6394423' lon='151.2676776' />
  <node id='-102214' action='modify' visible='true' lat='-33.6392572' lon='151.267757' />
  <node id='-102215' action='modify' visible='true' lat='-33.639188' lon='151.2679393' />
  <node id='-102216' action='modify' visible='true' lat='-33.639065' lon='151.2680922' />
  <node id='-102217' action='modify' visible='true' lat='-33.6389103' lon='151.2683067' />
  <node id='-102218' action='modify' visible='true' lat='-33.6387512' lon='151.2685902' />
  <node id='-102219' action='modify' visible='true' lat='-33.6386219' lon='151.2688115' />
  <node id='-102220' action='modify' visible='true' lat='-33.6384405' lon='151.2689683' />
  <node id='-102221' action='modify' visible='true' lat='-33.6384036' lon='151.269141' />
  <node id='-102222' action='modify' visible='true' lat='-33.6383049' lon='151.2696684' />
  <node id='-102223' action='modify' visible='true' lat='-33.6382698' lon='151.2699195' />
  <node id='-102224' action='modify' visible='true' lat='-33.6381044' lon='151.2702678' />
  <node id='-102225' action='modify' visible='true' lat='-33.6380148' lon='151.270514' />
  <node id='-102226' action='modify' visible='true' lat='-33.6379297' lon='151.2705575' />
  <node id='-102227' action='modify' visible='true' lat='-33.6378567' lon='151.2707099' />
  <node id='-102228' action='modify' visible='true' lat='-33.6376448' lon='151.2708964' />
  <node id='-102229' action='modify' visible='true' lat='-33.6375035' lon='151.2711141' />
  <node id='-102230' action='modify' visible='true' lat='-33.6374033' lon='151.2713128' />
  <node id='-102231' action='modify' visible='true' lat='-33.6371786' lon='151.271553' />
  <node id='-102232' action='modify' visible='true' lat='-33.6371244' lon='151.2717097' />
  <node id='-102233' action='modify' visible='true' lat='-33.6370864' lon='151.2718422' />
  <node id='-102234' action='modify' visible='true' lat='-33.6370485' lon='151.2720077' />
  <node id='-102235' action='modify' visible='true' lat='-33.6370353' lon='151.2722213' />
  <node id='-102236' action='modify' visible='true' lat='-33.6369886' lon='151.2724472' />
  <node id='-102237' action='modify' visible='true' lat='-33.6369305' lon='151.2726625' />
  <node id='-102244' action='modify' visible='true' lat='-33.6432539' lon='151.2623221' />
  <node id='-102245' action='modify' visible='true' lat='-33.6431873' lon='151.2624473' />
  <node id='-102246' action='modify' visible='true' lat='-33.6431606' lon='151.2625305' />
  <node id='-102247' action='modify' visible='true' lat='-33.6430917' lon='151.2628862' />
  <node id='-102248' action='modify' visible='true' lat='-33.6430177' lon='151.2630852' />
  <node id='-102249' action='modify' visible='true' lat='-33.6429927' lon='151.2632202' />
  <node id='-102250' action='modify' visible='true' lat='-33.6430097' lon='151.2634242' />
  <node id='-102251' action='modify' visible='true' lat='-33.643134' lon='151.263826' />
  <node id='-102252' action='modify' visible='true' lat='-33.6431428' lon='151.2642634' />
  <node id='-102253' action='modify' visible='true' lat='-33.643067' lon='151.2647233' />
  <node id='-102254' action='modify' visible='true' lat='-33.643012' lon='151.2649109' />
  <node id='-102321' action='modify' visible='true' lat='-33.64377' lon='151.26384' />
  <node id='-102322' action='modify' visible='true' lat='-33.643614' lon='151.263899' />
  <node id='-102323' action='modify' visible='true' lat='-33.643524' lon='151.263928' />
  <node id='-102324' action='modify' visible='true' lat='-33.643323' lon='151.263904' />
  <way id='-102227' action='modify' visible='true'>
    <nd ref='-102169' />
    <nd ref='-102176' />
    <nd ref='-102177' />
    <nd ref='-102178' />
    <nd ref='-102179' />
    <nd ref='-102180' />
    <nd ref='-102181' />
    <nd ref='-102182' />
    <nd ref='-102183' />
    <nd ref='-102184' />
    <nd ref='-102185' />
    <nd ref='-102186' />
    <nd ref='-102187' />
    <nd ref='-102188' />
    <nd ref='-102189' />
    <nd ref='-102190' />
    <nd ref='-102191' />
    <nd ref='-102192' />
    <nd ref='-102193' />
    <nd ref='-102194' />
    <nd ref='-102195' />
    <tag k='name' v='Lovett Bay Lookout' />
    <tag k='photo' v='136319147@N08/51991695820' />
    <tag k='role' v='sidetrack' />
    <tag k='style' v='return' />
  </way>
  <way id='-102230' action='modify' visible='true'>
    <nd ref='-102251' />
    <nd ref='-102324' />
    <nd ref='-102323' />
    <nd ref='-102322' />
    <nd ref='-102321' />
    <tag k='photo' v='136319147@N08/51991717055' />
    <tag k='role' v='sidetrack' />
    <tag k='style' v='return' />
  </way>
  <way id='-102291' action='modify' visible='true'>
    <nd ref='-102244' />
    <nd ref='-102245' />
    <nd ref='-102246' />
    <nd ref='-102247' />
    <nd ref='-102248' />
    <nd ref='-102249' />
    <nd ref='-102250' />
    <nd ref='-102251' />
    <nd ref='-102252' />
    <nd ref='-102159' />
    <nd ref='-102253' />
    <nd ref='-102254' />
    <nd ref='-102196' />
    <nd ref='-102197' />
    <nd ref='-102198' />
    <nd ref='-102199' />
    <nd ref='-102200' />
    <nd ref='-102201' />
    <nd ref='-102202' />
    <nd ref='-102203' />
    <nd ref='-102204' />
    <nd ref='-102205' />
    <nd ref='-102206' />
    <nd ref='-102207' />
    <nd ref='-102208' />
    <nd ref='-102209' />
    <nd ref='-102210' />
    <nd ref='-102211' />
    <nd ref='-102212' />
    <nd ref='-102213' />
    <nd ref='-102214' />
    <nd ref='-102215' />
    <nd ref='-102216' />
    <nd ref='-102217' />
    <nd ref='-102218' />
    <nd ref='-102219' />
    <nd ref='-102220' />
    <nd ref='-102221' />
    <nd ref='-102222' />
    <nd ref='-102223' />
    <nd ref='-102224' />
    <nd ref='-102225' />
    <nd ref='-102226' />
    <nd ref='-102227' />
    <nd ref='-102228' />
    <nd ref='-102229' />
    <nd ref='-102230' />
    <nd ref='-102231' />
    <nd ref='-102232' />
    <nd ref='-102233' />
    <nd ref='-102234' />
    <nd ref='-102235' />
    <nd ref='-102236' />
    <nd ref='-102237' />
    <nd ref='-102160' />
    <nd ref='-102161' />
    <nd ref='-102162' />
    <nd ref='-102163' />
    <nd ref='-102164' />
    <nd ref='-102165' />
    <nd ref='-102166' />
    <nd ref='-102167' />
    <nd ref='-102168' />
    <nd ref='-102169' />
    <nd ref='-102170' />
    <nd ref='-102171' />
    <nd ref='-102172' />
    <nd ref='-102173' />
    <nd ref='-102174' />
    <nd ref='-102175' />
    <tag k='name' v='Fredricks Track' />
    <tag k='park' v='Ku-ring-gai Chase National Park' />
    <tag k='photo' v='136319147@N08/51991435594' />
    <tag k='role' v='primary' />
    <tag k='style' v='return' />
    <tag k='transport' v='car' />
  </way>
</osm>
