<?xml version='1.0' encoding='UTF-8'?>
<osm version='0.6' upload='false' generator='JOSM'>
  <node id='-102220' action='modify' visible='true' lat='-33.6307393' lon='151.2796567' />
  <node id='-102221' action='modify' visible='true' lat='-33.6306026' lon='151.2797403' />
  <node id='-102222' action='modify' visible='true' lat='-33.6303975' lon='151.2798914' />
  <node id='-102223' action='modify' visible='true' lat='-33.6301118' lon='151.2801329' />
  <node id='-102224' action='modify' visible='true' lat='-33.6298034' lon='151.2805186' />
  <node id='-102225' action='modify' visible='true' lat='-33.6294465' lon='151.2807881' />
  <node id='-102226' action='modify' visible='true' lat='-33.6292407' lon='151.2808766' />
  <node id='-102227' action='modify' visible='true' lat='-33.6289824' lon='151.2810875' />
  <node id='-102228' action='modify' visible='true' lat='-33.6287945' lon='151.2810364' />
  <node id='-102229' action='modify' visible='true' lat='-33.6284395' lon='151.280717'>
  </node>
  <node id='-102230' action='modify' visible='true' lat='-33.6283286' lon='151.2806995' />
  <node id='-102231' action='modify' visible='true' lat='-33.6282297' lon='151.2806995' />
  <node id='-102232' action='modify' visible='true' lat='-33.6278926' lon='151.2807823' />
  <node id='-102233' action='modify' visible='true' lat='-33.6276532' lon='151.2808278' />
  <node id='-102234' action='modify' visible='true' lat='-33.627501' lon='151.2809142' />
  <node id='-102235' action='modify' visible='true' lat='-33.6272371' lon='151.2811716' />
  <node id='-102236' action='modify' visible='true' lat='-33.6270522' lon='151.2813118' />
  <node id='-102237' action='modify' visible='true' lat='-33.6270669' lon='151.2815503' />
  <node id='-102238' action='modify' visible='true' lat='-33.627047' lon='151.2817085' />
  <node id='-102239' action='modify' visible='true' lat='-33.6269945' lon='151.2818186' />
  <node id='-102240' action='modify' visible='true' lat='-33.6268571' lon='151.281924' />
  <node id='-102241' action='modify' visible='true' lat='-33.626781' lon='151.2819441' />
  <node id='-102242' action='modify' visible='true' lat='-33.6264481' lon='151.2819547' />
  <node id='-102243' action='modify' visible='true' lat='-33.6264086' lon='151.2819413' />
  <node id='-102244' action='modify' visible='true' lat='-33.6263628' lon='151.2818568' />
  <node id='-102245' action='modify' visible='true' lat='-33.6263029' lon='151.2817805' />
  <node id='-102246' action='modify' visible='true' lat='-33.6263116' lon='151.2816536' />
  <node id='-102247' action='modify' visible='true' lat='-33.6263549' lon='151.2815006' />
  <node id='-102248' action='modify' visible='true' lat='-33.626414' lon='151.2813232' />
  <node id='-102249' action='modify' visible='true' lat='-33.6263803' lon='151.2811807' />
  <node id='-102250' action='modify' visible='true' lat='-33.6263592' lon='151.2810443' />
  <node id='-102251' action='modify' visible='true' lat='-33.6264202' lon='151.2808827' />
  <node id='-102252' action='modify' visible='true' lat='-33.6264679' lon='151.2807068' />
  <node id='-102253' action='modify' visible='true' lat='-33.6264776' lon='151.2805196' />
  <node id='-102254' action='modify' visible='true' lat='-33.626476' lon='151.2803309' />
  <node id='-102255' action='modify' visible='true' lat='-33.6264493' lon='151.2801586' />
  <node id='-102256' action='modify' visible='true' lat='-33.6263035' lon='151.27994'>
  </node>
  <node id='-102257' action='modify' visible='true' lat='-33.6261912' lon='151.2798113' />
  <node id='-102258' action='modify' visible='true' lat='-33.6260774' lon='151.2795751' />
  <node id='-102259' action='modify' visible='true' lat='-33.6259185' lon='151.27941'>
  </node>
  <node id='-102260' action='modify' visible='true' lat='-33.6258415' lon='151.27933'>
  </node>
  <node id='-102261' action='modify' visible='true' lat='-33.6257065' lon='151.279235'>
  </node>
  <node id='-102262' action='modify' visible='true' lat='-33.6256202' lon='151.2791569' />
  <node id='-102263' action='modify' visible='true' lat='-33.6255838' lon='151.2791385' />
  <node id='-102264' action='modify' visible='true' lat='-33.6255039' lon='151.2790963' />
  <node id='-102265' action='modify' visible='true' lat='-33.6254998' lon='151.279011' />
  <node id='-102266' action='modify' visible='true' lat='-33.6255813' lon='151.2787915' />
  <node id='-102267' action='modify' visible='true' lat='-33.6255969' lon='151.2787433' />
  <node id='-102268' action='modify' visible='true' lat='-33.6256189' lon='151.2786327' />
  <node id='-102269' action='modify' visible='true' lat='-33.6256631' lon='151.27848' />
  <node id='-102270' action='modify' visible='true' lat='-33.6257166' lon='151.2783353' />
  <node id='-102271' action='modify' visible='true' lat='-33.62575' lon='151.2781468' />
  <node id='-102272' action='modify' visible='true' lat='-33.6257723' lon='151.2779965' />
  <node id='-102273' action='modify' visible='true' lat='-33.6258046' lon='151.2778307' />
  <node id='-102274' action='modify' visible='true' lat='-33.6258063' lon='151.2776942' />
  <node id='-102275' action='modify' visible='true' lat='-33.6258049' lon='151.2775831' />
  <node id='-102276' action='modify' visible='true' lat='-33.6258028' lon='151.2774824' />
  <node id='-102277' action='modify' visible='true' lat='-33.625819' lon='151.2773563' />
  <node id='-102278' action='modify' visible='true' lat='-33.625793' lon='151.2772098' />
  <node id='-102279' action='modify' visible='true' lat='-33.6257511' lon='151.2770907' />
  <node id='-102280' action='modify' visible='true' lat='-33.6257359' lon='151.2770236' />
  <node id='-102281' action='modify' visible='true' lat='-33.625729' lon='151.2768537' />
  <node id='-102282' action='modify' visible='true' lat='-33.6256978' lon='151.2766878' />
  <node id='-102283' action='modify' visible='true' lat='-33.6256762' lon='151.276556' />
  <node id='-102284' action='modify' visible='true' lat='-33.6256848' lon='151.2763961' />
  <node id='-102285' action='modify' visible='true' lat='-33.6257561' lon='151.2760814' />
  <node id='-102286' action='modify' visible='true' lat='-33.625733' lon='151.2755912' />
  <node id='-102287' action='modify' visible='true' lat='-33.6257164' lon='151.2752802' />
  <node id='-102288' action='modify' visible='true' lat='-33.6257544' lon='151.2751209' />
  <node id='-102289' action='modify' visible='true' lat='-33.6258353' lon='151.2749364' />
  <node id='-102290' action='modify' visible='true' lat='-33.6260149' lon='151.2745223' />
  <node id='-102291' action='modify' visible='true' lat='-33.6260591' lon='151.2743705' />
  <node id='-102292' action='modify' visible='true' lat='-33.6260595' lon='151.2742589' />
  <node id='-102293' action='modify' visible='true' lat='-33.6260459' lon='151.2741521' />
  <node id='-102294' action='modify' visible='true' lat='-33.6259897' lon='151.2740364' />
  <node id='-102295' action='modify' visible='true' lat='-33.625885' lon='151.273907' />
  <node id='-102296' action='modify' visible='true' lat='-33.6256515' lon='151.273674'>
  </node>
  <node id='-102297' action='modify' visible='true' lat='-33.6254805' lon='151.273511'>
  </node>
  <node id='-102298' action='modify' visible='true' lat='-33.6250195' lon='151.273142'>
  </node>
  <node id='-102299' action='modify' visible='true' lat='-33.6246302' lon='151.2729387' />
  <node id='-102300' action='modify' visible='true' lat='-33.6245497' lon='151.2725155' />
  <node id='-102301' action='modify' visible='true' lat='-33.6244343' lon='151.2722759' />
  <node id='-102302' action='modify' visible='true' lat='-33.6241673' lon='151.2717413' />
  <node id='-102303' action='modify' visible='true' lat='-33.6239395' lon='151.2716195' />
  <node id='-102304' action='modify' visible='true' lat='-33.623625' lon='151.271475' />
  <node id='-102305' action='modify' visible='true' lat='-33.623525' lon='151.2714142' />
  <node id='-102306' action='modify' visible='true' lat='-33.623497' lon='151.2712033' />
  <node id='-102307' action='modify' visible='true' lat='-33.623471' lon='151.2709974' />
  <node id='-102308' action='modify' visible='true' lat='-33.6234077' lon='151.2708531' />
  <node id='-102309' action='modify' visible='true' lat='-33.6232795' lon='151.270691'>
  </node>
  <node id='-102310' action='modify' visible='true' lat='-33.6231835' lon='151.270587'>
  </node>
  <node id='-102311' action='modify' visible='true' lat='-33.6226474' lon='151.2701382' />
  <node id='-102312' action='modify' visible='true' lat='-33.6223789' lon='151.2699719' />
  <node id='-102313' action='modify' visible='true' lat='-33.6221973' lon='151.2699522' />
  <node id='-102314' action='modify' visible='true' lat='-33.6220784' lon='151.2699634' />
  <node id='-102315' action='modify' visible='true' lat='-33.6218338' lon='151.2700143' />
  <node id='-102316' action='modify' visible='true' lat='-33.6216529' lon='151.2699728' />
  <node id='-102317' action='modify' visible='true' lat='-33.6210234' lon='151.2698171' />
  <node id='-102318' action='modify' visible='true' lat='-33.6209264' lon='151.2697764' />
  <node id='-102319' action='modify' visible='true' lat='-33.6208084' lon='151.269703' />
  <node id='-102320' action='modify' visible='true' lat='-33.6206796' lon='151.2696403' />
  <node id='-102321' action='modify' visible='true' lat='-33.6204965' lon='151.269431'>
  </node>
  <node id='-102322' action='modify' visible='true' lat='-33.6204053' lon='151.2691957' />
  <node id='-102323' action='modify' visible='true' lat='-33.6203418' lon='151.2689696' />
  <node id='-102324' action='modify' visible='true' lat='-33.6202558' lon='151.268747' />
  <node id='-102325' action='modify' visible='true' lat='-33.6201542' lon='151.2685606' />
  <node id='-102326' action='modify' visible='true' lat='-33.6201359' lon='151.2683174' />
  <node id='-102327' action='modify' visible='true' lat='-33.6201239' lon='151.2681413' />
  <node id='-102328' action='modify' visible='true' lat='-33.6200751' lon='151.26792' />
  <node id='-102329' action='modify' visible='true' lat='-33.6198625' lon='151.2673514' />
  <node id='-102330' action='modify' visible='true' lat='-33.619823' lon='151.266867' />
  <node id='-102331' action='modify' visible='true' lat='-33.6197466' lon='151.2665979' />
  <node id='-102332' action='modify' visible='true' lat='-33.619382' lon='151.265853' />
  <node id='-102333' action='modify' visible='true' lat='-33.6191476' lon='151.2655071' />
  <node id='-102334' action='modify' visible='true' lat='-33.6190598' lon='151.2653956' />
  <node id='-102335' action='modify' visible='true' lat='-33.6189725' lon='151.2653495' />
  <node id='-102336' action='modify' visible='true' lat='-33.6188386' lon='151.2652908' />
  <node id='-102337' action='modify' visible='true' lat='-33.6187485' lon='151.265185'>
  </node>
  <node id='-102338' action='modify' visible='true' lat='-33.6187101' lon='151.265093' />
  <node id='-102339' action='modify' visible='true' lat='-33.6187166' lon='151.2649112' />
  <node id='-102340' action='modify' visible='true' lat='-33.6187281' lon='151.2646513' />
  <node id='-102341' action='modify' visible='true' lat='-33.6186698' lon='151.2644247' />
  <node id='-102342' action='modify' visible='true' lat='-33.6186237' lon='151.2641919' />
  <node id='-102343' action='modify' visible='true' lat='-33.6260817' lon='151.2743773' />
  <node id='-102344' action='modify' visible='true' lat='-33.6261043' lon='151.2743984' />
  <node id='-102345' action='modify' visible='true' lat='-33.6261249' lon='151.2744014' />
  <node id='-102346' action='modify' visible='true' lat='-33.6261361' lon='151.2743981' />
  <node id='-102347' action='modify' visible='true' lat='-33.6261579' lon='151.2743826' />
  <node id='-102348' action='modify' visible='true' lat='-33.6262093' lon='151.2743317' />
  <node id='-102349' action='modify' visible='true' lat='-33.6262296' lon='151.2743022' />
  <node id='-102350' action='modify' visible='true' lat='-33.6262629' lon='151.2742941' />
  <node id='-102351' action='modify' visible='true' lat='-33.6262844' lon='151.274276' />
  <node id='-102352' action='modify' visible='true' lat='-33.6263301' lon='151.2742629' />
  <node id='-102353' action='modify' visible='true' lat='-33.6263558' lon='151.2742539' />
  <node id='-102354' action='modify' visible='true' lat='-33.6263782' lon='151.2742328' />
  <node id='-102355' action='modify' visible='true' lat='-33.6263913' lon='151.2742328' />
  <node id='-102356' action='modify' visible='true' lat='-33.6264237' lon='151.2742401' />
  <node id='-102357' action='modify' visible='true' lat='-33.6264488' lon='151.2742465' />
  <node id='-102358' action='modify' visible='true' lat='-33.6264633' lon='151.274267' />
  <node id='-102359' action='modify' visible='true' lat='-33.6264761' lon='151.274273' />
  <node id='-102360' action='modify' visible='true' lat='-33.6265532' lon='151.2742549' />
  <node id='-102361' action='modify' visible='true' lat='-33.6265772' lon='151.2742465' />
  <node id='-102362' action='modify' visible='true' lat='-33.6266157' lon='151.2742385' />
  <node id='-102363' action='modify' visible='true' lat='-33.6266484' lon='151.2742569' />
  <node id='-102364' action='modify' visible='true' lat='-33.6267902' lon='151.2741573' />
  <node id='-102365' action='modify' visible='true' lat='-33.626795' lon='151.2741422' />
  <node id='-102366' action='modify' visible='true' lat='-33.6268366' lon='151.2741271' />
  <node id='-102367' action='modify' visible='true' lat='-33.6268525' lon='151.2741278' />
  <node id='-102368' action='modify' visible='true' lat='-33.6268795' lon='151.2741174' />
  <node id='-102369' action='modify' visible='true' lat='-33.6269119' lon='151.2741231' />
  <node id='-102370' action='modify' visible='true' lat='-33.6269276' lon='151.2741251' />
  <node id='-102371' action='modify' visible='true' lat='-33.6269382' lon='151.2741295' />
  <node id='-102372' action='modify' visible='true' lat='-33.6269697' lon='151.2741198' />
  <node id='-102373' action='modify' visible='true' lat='-33.6270169' lon='151.2740772' />
  <node id='-102374' action='modify' visible='true' lat='-33.6270359' lon='151.2740594' />
  <node id='-102375' action='modify' visible='true' lat='-33.6270833' lon='151.2740725' />
  <node id='-102376' action='modify' visible='true' lat='-33.6271911' lon='151.2741325' />
  <node id='-102377' action='modify' visible='true' lat='-33.6272081' lon='151.2741456' />
  <node id='-102378' action='modify' visible='true' lat='-33.6272249' lon='151.2741664' />
  <node id='-102379' action='modify' visible='true' lat='-33.6272545' lon='151.2741774' />
  <node id='-102380' action='modify' visible='true' lat='-33.6273064' lon='151.274164' />
  <node id='-102381' action='modify' visible='true' lat='-33.6273293' lon='151.2741573' />
  <node id='-102382' action='modify' visible='true' lat='-33.6273522' lon='151.2741315' />
  <node id='-102383' action='modify' visible='true' lat='-33.6273899' lon='151.2741134' />
  <node id='-102384' action='modify' visible='true' lat='-33.6274228' lon='151.2741134' />
  <node id='-102385' action='modify' visible='true' lat='-33.6274722' lon='151.2740983' />
  <node id='-102386' action='modify' visible='true' lat='-33.627544' lon='151.2740799' />
  <node id='-102387' action='modify' visible='true' lat='-33.6275579' lon='151.2740822' />
  <node id='-102388' action='modify' visible='true' lat='-33.6275856' lon='151.2741144' />
  <node id='-102389' action='modify' visible='true' lat='-33.6276213' lon='151.2741292' />
  <node id='-102390' action='modify' visible='true' lat='-33.6276824' lon='151.2741399' />
  <node id='-102391' action='modify' visible='true' lat='-33.6277503' lon='151.2741912' />
  <node id='-102392' action='modify' visible='true' lat='-33.6278086' lon='151.274269' />
  <node id='-102393' action='modify' visible='true' lat='-33.6278564' lon='151.2742777' />
  <node id='-102394' action='modify' visible='true' lat='-33.6279167' lon='151.2743293' />
  <node id='-102395' action='modify' visible='true' lat='-33.6279264' lon='151.27433' />
  <node id='-102396' action='modify' visible='true' lat='-33.6279334' lon='151.274336' />
  <node id='-102397' action='modify' visible='true' lat='-33.6279761' lon='151.27433' />
  <node id='-102398' action='modify' visible='true' lat='-33.627987' lon='151.2743421' />
  <node id='-102399' action='modify' visible='true' lat='-33.6280035' lon='151.2743464' />
  <node id='-102400' action='modify' visible='true' lat='-33.6280138' lon='151.2743447' />
  <node id='-102401' action='modify' visible='true' lat='-33.6280269' lon='151.274336' />
  <node id='-102402' action='modify' visible='true' lat='-33.6280468' lon='151.2743354' />
  <node id='-102403' action='modify' visible='true' lat='-33.6280509' lon='151.2743484' />
  <node id='-102404' action='modify' visible='true' lat='-33.628059' lon='151.2743357' />
  <node id='-102405' action='modify' visible='true' lat='-33.6280847' lon='151.2742988' />
  <node id='-102406' action='modify' visible='true' lat='-33.6280942' lon='151.2742938' />
  <node id='-102407' action='modify' visible='true' lat='-33.6281637' lon='151.2741811' />
  <node id='-102408' action='modify' visible='true' lat='-33.6281877' lon='151.2741583' />
  <node id='-102409' action='modify' visible='true' lat='-33.6282318' lon='151.2741278' />
  <node id='-102410' action='modify' visible='true' lat='-33.628243' lon='151.2741261' />
  <node id='-102411' action='modify' visible='true' lat='-33.628274' lon='151.2741325' />
  <node id='-102412' action='modify' visible='true' lat='-33.6283041' lon='151.2741225' />
  <node id='-102413' action='modify' visible='true' lat='-33.6283349' lon='151.2741147' />
  <node id='-102414' action='modify' visible='true' lat='-33.6283728' lon='151.2741302' />
  <node id='-102415' action='modify' visible='true' lat='-33.6283938' lon='151.2741526' />
  <node id='-102416' action='modify' visible='true' lat='-33.6284733' lon='151.2741094' />
  <node id='-102417' action='modify' visible='true' lat='-33.628492' lon='151.2740913' />
  <node id='-102418' action='modify' visible='true' lat='-33.6285361' lon='151.2740715' />
  <node id='-102419' action='modify' visible='true' lat='-33.6285671' lon='151.2740363' />
  <node id='-102429' action='modify' visible='true' lat='-33.6304964' lon='151.2805953' />
  <node id='-102430' action='modify' visible='true' lat='-33.630575' lon='151.2803845' />
  <node id='-102431' action='modify' visible='true' lat='-33.6307842' lon='151.2801199' />
  <node id='-102432' action='modify' visible='true' lat='-33.6308871' lon='151.279929' />
  <node id='-102433' action='modify' visible='true' lat='-33.6309882' lon='151.2798125' />
  <node id='-102434' action='modify' visible='true' lat='-33.6308647' lon='151.2796538' />
  <node id='-102436' action='modify' visible='true' lat='-33.6306284' lon='151.2805832' />
  <node id='-102437' action='modify' visible='true' lat='-33.6309634' lon='151.2815135' />
  <node id='-102446' action='modify' visible='true' lat='-33.6293749' lon='151.2872052' />
  <node id='-102447' action='modify' visible='true' lat='-33.6292889' lon='151.2870066' />
  <node id='-102448' action='modify' visible='true' lat='-33.6291999' lon='151.2867384' />
  <node id='-102449' action='modify' visible='true' lat='-33.6288523' lon='151.2861353' />
  <node id='-102450' action='modify' visible='true' lat='-33.6286489' lon='151.2858348' />
  <node id='-102451' action='modify' visible='true' lat='-33.6286435' lon='151.2854075' />
  <node id='-102452' action='modify' visible='true' lat='-33.6287305' lon='151.285043'>
  </node>
  <node id='-102453' action='modify' visible='true' lat='-33.6286916' lon='151.2836307' />
  <node id='-102454' action='modify' visible='true' lat='-33.6289673' lon='151.2830821' />
  <node id='-102455' action='modify' visible='true' lat='-33.6293185' lon='151.282982'>
  </node>
  <node id='-102456' action='modify' visible='true' lat='-33.6295825' lon='151.282905'>
  </node>
  <node id='-102457' action='modify' visible='true' lat='-33.6302208' lon='151.2829669' />
  <node id='-102458' action='modify' visible='true' lat='-33.6304827' lon='151.2829411' />
  <node id='-102459' action='modify' visible='true' lat='-33.6307168' lon='151.2828626' />
  <node id='-102460' action='modify' visible='true' lat='-33.6308706' lon='151.2826067' />
  <node id='-102461' action='modify' visible='true' lat='-33.6309345' lon='151.282479'>
  </node>
  <node id='-102462' action='modify' visible='true' lat='-33.6309805' lon='151.282388'>
  </node>
  <node id='-102463' action='modify' visible='true' lat='-33.6309955' lon='151.282269'>
  </node>
  <node id='-102464' action='modify' visible='true' lat='-33.6309471' lon='151.2821231' />
  <node id='-102465' action='modify' visible='true' lat='-33.6309148' lon='151.2818617' />
  <node id='-102466' action='modify' visible='true' lat='-33.6309368' lon='151.2816601' />
  <node id='-102467' action='modify' visible='true' lat='-33.6310041' lon='151.2814257' />
  <node id='-102468' action='modify' visible='true' lat='-33.6315207' lon='151.2811511' />
  <node id='-102469' action='modify' visible='true' lat='-33.6319317' lon='151.2809222' />
  <node id='-102470' action='modify' visible='true' lat='-33.6320181' lon='151.2807595' />
  <node id='-102472' action='modify' visible='true' lat='-33.6286415' lon='151.2880024' />
  <node id='-102473' action='modify' visible='true' lat='-33.628738' lon='151.2879221' />
  <node id='-102474' action='modify' visible='true' lat='-33.6289346' lon='151.2877972' />
  <node id='-102475' action='modify' visible='true' lat='-33.629225' lon='151.2875397' />
  <node id='-102476' action='modify' visible='true' lat='-33.629403' lon='151.2872801' />
  <node id='-102477' action='modify' visible='true' lat='-33.6294555' lon='151.2872287' />
  <node id='-102478' action='modify' visible='true' lat='-33.629545' lon='151.2872194' />
  <node id='-102479' action='modify' visible='true' lat='-33.6296422' lon='151.2872568' />
  <node id='-102480' action='modify' visible='true' lat='-33.6297063' lon='151.2872895' />
  <node id='-102481' action='modify' visible='true' lat='-33.6297663' lon='151.2873262' />
  <node id='-102482' action='modify' visible='true' lat='-33.6299249' lon='151.2873387' />
  <node id='-102483' action='modify' visible='true' lat='-33.6300685' lon='151.2873139' />
  <node id='-102484' action='modify' visible='true' lat='-33.6300939' lon='151.2872614' />
  <node id='-102485' action='modify' visible='true' lat='-33.6300461' lon='151.2871034' />
  <node id='-102486' action='modify' visible='true' lat='-33.6300991' lon='151.2870583' />
  <node id='-102487' action='modify' visible='true' lat='-33.6301565' lon='151.2870118' />
  <node id='-102488' action='modify' visible='true' lat='-33.628242' lon='151.2905688' />
  <node id='-102489' action='modify' visible='true' lat='-33.6282688' lon='151.2903945' />
  <node id='-102490' action='modify' visible='true' lat='-33.6282576' lon='151.2902858' />
  <node id='-102491' action='modify' visible='true' lat='-33.628261' lon='151.2900592' />
  <node id='-102492' action='modify' visible='true' lat='-33.6282616' lon='151.2898151' />
  <node id='-102493' action='modify' visible='true' lat='-33.6283057' lon='151.2896414' />
  <node id='-102494' action='modify' visible='true' lat='-33.6283325' lon='151.2894798' />
  <node id='-102495' action='modify' visible='true' lat='-33.6283911' lon='151.2892699' />
  <node id='-102496' action='modify' visible='true' lat='-33.628419' lon='151.2891324' />
  <node id='-102497' action='modify' visible='true' lat='-33.6284481' lon='151.2889668' />
  <node id='-102498' action='modify' visible='true' lat='-33.6284732' lon='151.2888033' />
  <node id='-102499' action='modify' visible='true' lat='-33.6284816' lon='151.2885424' />
  <node id='-102500' action='modify' visible='true' lat='-33.6284888' lon='151.2884411' />
  <node id='-102501' action='modify' visible='true' lat='-33.6285047' lon='151.2883201' />
  <node id='-102502' action='modify' visible='true' lat='-33.6285117' lon='151.2882688' />
  <node id='-102503' action='modify' visible='true' lat='-33.6285252' lon='151.2882236' />
  <node id='-102504' action='modify' visible='true' lat='-33.6285889' lon='151.2880065' />
  <node id='-102505' action='modify' visible='true' lat='-33.62749198187' lon='151.28815243072' />
  <node id='-102506' action='modify' visible='true' lat='-33.6276613' lon='151.2878034' />
  <node id='-102507' action='modify' visible='true' lat='-33.6276859' lon='151.2877786' />
  <node id='-102508' action='modify' visible='true' lat='-33.6277357' lon='151.2877665' />
  <node id='-102509' action='modify' visible='true' lat='-33.6277864' lon='151.2878329' />
  <node id='-102510' action='modify' visible='true' lat='-33.6278389' lon='151.2878564' />
  <node id='-102511' action='modify' visible='true' lat='-33.6279043' lon='151.2878986' />
  <node id='-102512' action='modify' visible='true' lat='-33.6279634' lon='151.2879362' />
  <node id='-102513' action='modify' visible='true' lat='-33.6280131' lon='151.2879731' />
  <node id='-102514' action='modify' visible='true' lat='-33.6280941' lon='151.2880274' />
  <node id='-102515' action='modify' visible='true' lat='-33.6281533' lon='151.288069' />
  <node id='-102516' action='modify' visible='true' lat='-33.6281901' lon='151.288079' />
  <node id='-102517' action='modify' visible='true' lat='-33.6282331' lon='151.2880898' />
  <node id='-102518' action='modify' visible='true' lat='-33.6282755' lon='151.2880911' />
  <node id='-102519' action='modify' visible='true' lat='-33.6283336' lon='151.288083' />
  <node id='-102520' action='modify' visible='true' lat='-33.6284537' lon='151.2880589' />
  <node id='-102521' action='modify' visible='true' lat='-33.6285893' lon='151.2878376' />
  <node id='-102522' action='modify' visible='true' lat='-33.6284822' lon='151.2877069' />
  <node id='-102523' action='modify' visible='true' lat='-33.6283761' lon='151.2875955' />
  <node id='-102524' action='modify' visible='true' lat='-33.6280047' lon='151.287389' />
  <node id='-102525' action='modify' visible='true' lat='-33.6278314' lon='151.2872661' />
  <node id='-102526' action='modify' visible='true' lat='-33.6273825' lon='151.286903'>
  </node>
  <node id='-102527' action='modify' visible='true' lat='-33.6269449' lon='151.2863949' />
  <node id='-102536' action='modify' visible='true' lat='-33.6269023' lon='151.2862549' />
  <node id='-102537' action='modify' visible='true' lat='-33.6269079' lon='151.2862146' />
  <node id='-102538' action='modify' visible='true' lat='-33.6269682' lon='151.2862481' />
  <node id='-102539' action='modify' visible='true' lat='-33.6270597' lon='151.2863675' />
  <node id='-102540' action='modify' visible='true' lat='-33.6272105' lon='151.2864735' />
  <node id='-102541' action='modify' visible='true' lat='-33.6275656' lon='151.2866089' />
  <node id='-102542' action='modify' visible='true' lat='-33.6279397' lon='151.286629' />
  <node id='-102543' action='modify' visible='true' lat='-33.6281247' lon='151.2865276' />
  <node id='-102544' action='modify' visible='true' lat='-33.62813' lon='151.2864453' />
  <node id='-102545' action='modify' visible='true' lat='-33.6272691' lon='151.2850359' />
  <node id='-102546' action='modify' visible='true' lat='-33.6272998' lon='151.2851257' />
  <node id='-102547' action='modify' visible='true' lat='-33.6273936' lon='151.2853725' />
  <node id='-102548' action='modify' visible='true' lat='-33.627483' lon='151.2855763' />
  <node id='-102549' action='modify' visible='true' lat='-33.627617' lon='151.2858499' />
  <node id='-102550' action='modify' visible='true' lat='-33.6277018' lon='151.2859626' />
  <node id='-102551' action='modify' visible='true' lat='-33.6278034' lon='151.2860592' />
  <node id='-102552' action='modify' visible='true' lat='-33.6278794' lon='151.2861651' />
  <node id='-102553' action='modify' visible='true' lat='-33.6279889' lon='151.2862978' />
  <node id='-102554' action='modify' visible='true' lat='-33.6273333' lon='151.2849969' />
  <node id='-102555' action='modify' visible='true' lat='-33.6273825' lon='151.2851149' />
  <node id='-102556' action='modify' visible='true' lat='-33.6274375' lon='151.2852231' />
  <node id='-102557' action='modify' visible='true' lat='-33.6274964' lon='151.2851901' />
  <node id='-102558' action='modify' visible='true' lat='-33.6275768' lon='151.2850775' />
  <node id='-102559' action='modify' visible='true' lat='-33.6276293' lon='151.2847301' />
  <node id='-102560' action='modify' visible='true' lat='-33.6275008' lon='151.2845035' />
  <node id='-102561' action='modify' visible='true' lat='-33.6273713' lon='151.284246' />
  <node id='-102562' action='modify' visible='true' lat='-33.6272208' lon='151.284049' />
  <node id='-102563' action='modify' visible='true' lat='-33.6270743' lon='151.283692' />
  <node id='-102564' action='modify' visible='true' lat='-33.6271192' lon='151.2835769' />
  <node id='-102565' action='modify' visible='true' lat='-33.6270274' lon='151.2831327' />
  <node id='-102566' action='modify' visible='true' lat='-33.6270846' lon='151.2831236' />
  <node id='-102567' action='modify' visible='true' lat='-33.626976' lon='151.2827599' />
  <node id='-102568' action='modify' visible='true' lat='-33.6268867' lon='151.2824434' />
  <node id='-102569' action='modify' visible='true' lat='-33.6268066' lon='151.2822385' />
  <node id='-102570' action='modify' visible='true' lat='-33.6268052' lon='151.282037' />
  <node id='-102602' action='modify' visible='true' lat='-33.6319948' lon='151.2805872' />
  <node id='-102603' action='modify' visible='true' lat='-33.6315909' lon='151.2805642' />
  <node id='-102604' action='modify' visible='true' lat='-33.6314463' lon='151.2804508' />
  <node id='-102605' action='modify' visible='true' lat='-33.6309366' lon='151.2804868' />
  <node id='-102727' action='modify' visible='true' lat='-33.61859747916' lon='151.26419938763' />
  <node id='-102728' action='modify' visible='true' lat='-33.62678171426' lon='151.28197645403' />
  <node id='-102729' action='modify' visible='true' lat='-33.61864378562' lon='151.26443323013' />
  <node id='-102730' action='modify' visible='true' lat='-33.61870093112' lon='151.26465534277' />
  <node id='-102731' action='modify' visible='true' lat='-33.61868967871' lon='151.26490964714' />
  <node id='-102732' action='modify' visible='true' lat='-33.61868287298' lon='151.26509999823' />
  <node id='-102733' action='modify' visible='true' lat='-33.61872642847' lon='151.26520434989'>
  </node>
  <node id='-102734' action='modify' visible='true' lat='-33.61882390605' lon='151.265318813' />
  <node id='-102735' action='modify' visible='true' lat='-33.61896244379' lon='151.26537954612' />
  <node id='-102736' action='modify' visible='true' lat='-33.61904396171' lon='151.2654225928' />
  <node id='-102737' action='modify' visible='true' lat='-33.61912732814' lon='151.26552846245' />
  <node id='-102738' action='modify' visible='true' lat='-33.61935980256' lon='151.26587152082' />
  <node id='-102739' action='modify' visible='true' lat='-33.61972197517' lon='151.26661146131' />
  <node id='-102740' action='modify' visible='true' lat='-33.61979648136' lon='151.26687389075' />
  <node id='-102741' action='modify' visible='true' lat='-33.61983610652' lon='151.26735982549' />
  <node id='-102742' action='modify' visible='true' lat='-33.62004961056' lon='151.26793084318' />
  <node id='-102743' action='modify' visible='true' lat='-33.62009723354' lon='151.26814680552' />
  <node id='-102744' action='modify' visible='true' lat='-33.62010904756' lon='151.26832017625' />
  <node id='-102745' action='modify' visible='true' lat='-33.62012796356' lon='151.26857156261' />
  <node id='-102746' action='modify' visible='true' lat='-33.62023217642' lon='151.26876275623' />
  <node id='-102747' action='modify' visible='true' lat='-33.62031673223' lon='151.26898161805' />
  <node id='-102748' action='modify' visible='true' lat='-33.62038023757' lon='151.26920773701' />
  <node id='-102749' action='modify' visible='true' lat='-33.62047422004' lon='151.26945021585'>
  </node>
  <node id='-102750' action='modify' visible='true' lat='-33.62066472807' lon='151.26966798385' />
  <node id='-102751' action='modify' visible='true' lat='-33.62079711523' lon='151.26973243007' />
  <node id='-102752' action='modify' visible='true' lat='-33.62091570347' lon='151.26980619597' />
  <node id='-102753' action='modify' visible='true' lat='-33.62101620494' lon='151.26984836514' />
  <node id='-102754' action='modify' visible='true' lat='-33.62164765281' lon='151.27000454691' />
  <node id='-102755' action='modify' visible='true' lat='-33.62183356471' lon='151.27004719668' />
  <node id='-102756' action='modify' visible='true' lat='-33.62208176184' lon='151.26999554813' />
  <node id='-102757' action='modify' visible='true' lat='-33.6221971403' lon='151.26998467985' />
  <node id='-102758' action='modify' visible='true' lat='-33.62237122852' lon='151.27000356497' />
  <node id='-102759' action='modify' visible='true' lat='-33.6226334559' lon='151.2701659799' />
  <node id='-102760' action='modify' visible='true' lat='-33.62316670219' lon='151.27061239082'>
  </node>
  <node id='-102761' action='modify' visible='true' lat='-33.62326067527' lon='151.27071419496'>
  </node>
  <node id='-102762' action='modify' visible='true' lat='-33.62338559256' lon='151.27087214417' />
  <node id='-102763' action='modify' visible='true' lat='-33.62344503605' lon='151.27100765275' />
  <node id='-102764' action='modify' visible='true' lat='-33.62347036953' lon='151.27120827435' />
  <node id='-102765' action='modify' visible='true' lat='-33.62350055194' lon='151.27143561252' />
  <node id='-102766' action='modify' visible='true' lat='-33.6236140692' lon='151.271504631' />
  <node id='-102767' action='modify' visible='true' lat='-33.6239291968' lon='151.27164941934' />
  <node id='-102768' action='modify' visible='true' lat='-33.624148565' lon='151.27176671101' />
  <node id='-102769' action='modify' visible='true' lat='-33.62441107828' lon='151.27229232736' />
  <node id='-102770' action='modify' visible='true' lat='-33.62452433317' lon='151.27252747349' />
  <node id='-102771' action='modify' visible='true' lat='-33.62460696046' lon='151.27296185684' />
  <node id='-102772' action='modify' visible='true' lat='-33.62500655126' lon='151.27317053085'>
  </node>
  <node id='-102773' action='modify' visible='true' lat='-33.62546462215' lon='151.27353718623'>
  </node>
  <node id='-102774' action='modify' visible='true' lat='-33.62563450919' lon='151.2736991253'>
  </node>
  <node id='-102775' action='modify' visible='true' lat='-33.62586667283' lon='151.27393079176' />
  <node id='-102776' action='modify' visible='true' lat='-33.62596807944' lon='151.27405612139' />
  <node id='-102777' action='modify' visible='true' lat='-33.62602003582' lon='151.27416308494' />
  <node id='-102778' action='modify' visible='true' lat='-33.6260325415' lon='151.27426129126' />
  <node id='-102779' action='modify' visible='true' lat='-33.62603217001' lon='151.27436493668' />
  <node id='-102780' action='modify' visible='true' lat='-33.62599010155' lon='151.27450941608' />
  <node id='-102781' action='modify' visible='true' lat='-33.62581142621' lon='151.274921384' />
  <node id='-102782' action='modify' visible='true' lat='-33.62572925841' lon='151.27510877529' />
  <node id='-102783' action='modify' visible='true' lat='-33.62568920679' lon='151.27527667583' />
  <node id='-102784' action='modify' visible='true' lat='-33.62570609897' lon='151.27559314962' />
  <node id='-102785' action='modify' visible='true' lat='-33.62572894582' lon='151.27607797757' />
  <node id='-102786' action='modify' visible='true' lat='-33.62565808155' lon='151.27639075427' />
  <node id='-102787' action='modify' visible='true' lat='-33.62564908017' lon='151.27655811726' />
  <node id='-102788' action='modify' visible='true' lat='-33.62567142983' lon='151.27669449155' />
  <node id='-102789' action='modify' visible='true' lat='-33.62570219632' lon='151.27685808641' />
  <node id='-102790' action='modify' visible='true' lat='-33.62570912515' lon='151.27702869613' />
  <node id='-102791' action='modify' visible='true' lat='-33.62572557053' lon='151.27710129382' />
  <node id='-102792' action='modify' visible='true' lat='-33.62576717689' lon='151.27721955912' />
  <node id='-102793' action='modify' visible='true' lat='-33.62579161108' lon='151.27735723634' />
  <node id='-102794' action='modify' visible='true' lat='-33.62577579844' lon='151.27748032115' />
  <node id='-102795' action='modify' visible='true' lat='-33.62577795534' lon='151.27758375005' />
  <node id='-102796' action='modify' visible='true' lat='-33.62577934719' lon='151.27769420286' />
  <node id='-102797' action='modify' visible='true' lat='-33.62577769672' lon='151.27782672572' />
  <node id='-102798' action='modify' visible='true' lat='-33.62574589461' lon='151.27798996995' />
  <node id='-102799' action='modify' visible='true' lat='-33.62572354692' lon='151.27814059129' />
  <node id='-102800' action='modify' visible='true' lat='-33.62569082647' lon='151.27832525608' />
  <node id='-102801' action='modify' visible='true' lat='-33.62563801326' lon='151.2784680985' />
  <node id='-102802' action='modify' visible='true' lat='-33.62559300128' lon='151.27862360363' />
  <node id='-102803' action='modify' visible='true' lat='-33.62557111489' lon='151.27873363244' />
  <node id='-102804' action='modify' visible='true' lat='-33.62555641887' lon='151.27877903935' />
  <node id='-102805' action='modify' visible='true' lat='-33.62547251725' lon='151.27900500747' />
  <node id='-102806' action='modify' visible='true' lat='-33.62547794586' lon='151.27911794911' />
  <node id='-102807' action='modify' visible='true' lat='-33.62557314712' lon='151.27916823062' />
  <node id='-102808' action='modify' visible='true' lat='-33.62560665692' lon='151.27918516963' />
  <node id='-102809' action='modify' visible='true' lat='-33.62569152818' lon='151.27926197664'>
  </node>
  <node id='-102810' action='modify' visible='true' lat='-33.62582573979' lon='151.27935642183'>
  </node>
  <node id='-102811' action='modify' visible='true' lat='-33.62590086735' lon='151.27943447643'>
  </node>
  <node id='-102812' action='modify' visible='true' lat='-33.62605634207' lon='151.27959601746' />
  <node id='-102813' action='modify' visible='true' lat='-33.62616980498' lon='151.27983151774' />
  <node id='-102814' action='modify' visible='true' lat='-33.62628359202' lon='151.27996192191'>
  </node>
  <node id='-102815' action='modify' visible='true' lat='-33.6264240417' lon='151.28017250006' />
  <node id='-102816' action='modify' visible='true' lat='-33.62644907576' lon='151.28033404933' />
  <node id='-102817' action='modify' visible='true' lat='-33.62645064192' lon='151.28051875859' />
  <node id='-102818' action='modify' visible='true' lat='-33.62644121509' lon='151.28070068662' />
  <node id='-102819' action='modify' visible='true' lat='-33.62639503785' lon='151.2808709712' />
  <node id='-102820' action='modify' visible='true' lat='-33.62633115595' lon='151.28104020581' />
  <node id='-102821' action='modify' visible='true' lat='-33.62635403295' lon='151.28118809312' />
  <node id='-102822' action='modify' visible='true' lat='-33.62638556479' lon='151.28132142504' />
  <node id='-102823' action='modify' visible='true' lat='-33.62632961362' lon='151.2814893732' />
  <node id='-102824' action='modify' visible='true' lat='-33.62628501408' lon='151.28164696503' />
  <node id='-102825' action='modify' visible='true' lat='-33.6262750562' lon='151.28179221272' />
  <node id='-102826' action='modify' visible='true' lat='-33.6263415329' lon='151.28187689003' />
  <node id='-102827' action='modify' visible='true' lat='-33.62639153496' lon='151.28196914271' />
  <node id='-102828' action='modify' visible='true' lat='-33.62644471775' lon='151.28198718447' />
  <node id='-102843' action='modify' visible='true' lat='-33.63034973444' lon='151.28683984146' />
  <way id='-101999' action='modify' visible='true'>
    <nd ref='-102291' />
    <nd ref='-102343' />
    <nd ref='-102344' />
    <nd ref='-102345' />
    <nd ref='-102346' />
    <nd ref='-102347' />
    <nd ref='-102348' />
    <nd ref='-102349' />
    <nd ref='-102350' />
    <nd ref='-102351' />
    <nd ref='-102352' />
    <nd ref='-102353' />
    <nd ref='-102354' />
    <nd ref='-102355' />
    <nd ref='-102356' />
    <nd ref='-102357' />
    <nd ref='-102358' />
    <nd ref='-102359' />
    <nd ref='-102360' />
    <nd ref='-102361' />
    <nd ref='-102362' />
    <nd ref='-102363' />
    <nd ref='-102364' />
    <nd ref='-102365' />
    <nd ref='-102366' />
    <nd ref='-102367' />
    <nd ref='-102368' />
    <nd ref='-102369' />
    <nd ref='-102370' />
    <nd ref='-102371' />
    <nd ref='-102372' />
    <nd ref='-102373' />
    <nd ref='-102374' />
    <nd ref='-102375' />
    <nd ref='-102376' />
    <nd ref='-102377' />
    <nd ref='-102378' />
    <nd ref='-102379' />
    <nd ref='-102380' />
    <nd ref='-102381' />
    <nd ref='-102382' />
    <nd ref='-102383' />
    <nd ref='-102384' />
    <nd ref='-102385' />
    <nd ref='-102386' />
    <nd ref='-102387' />
    <nd ref='-102388' />
    <nd ref='-102389' />
    <nd ref='-102390' />
    <nd ref='-102391' />
    <nd ref='-102392' />
    <nd ref='-102393' />
    <nd ref='-102394' />
    <nd ref='-102395' />
    <nd ref='-102396' />
    <nd ref='-102397' />
    <nd ref='-102398' />
    <nd ref='-102399' />
    <nd ref='-102400' />
    <nd ref='-102401' />
    <nd ref='-102402' />
    <nd ref='-102403' />
    <nd ref='-102404' />
    <nd ref='-102405' />
    <nd ref='-102406' />
    <nd ref='-102407' />
    <nd ref='-102408' />
    <nd ref='-102409' />
    <nd ref='-102410' />
    <nd ref='-102411' />
    <nd ref='-102412' />
    <nd ref='-102413' />
    <nd ref='-102414' />
    <nd ref='-102415' />
    <nd ref='-102416' />
    <nd ref='-102417' />
    <nd ref='-102418' />
    <nd ref='-102419' />
    <tag k='name' v='Birnie Lookout' />
    <tag k='role' v='sidetrack' />
    <tag k='style' v='return' />
  </way>
  <way id='-102005' action='modify' visible='true'>
    <nd ref='-102476' />
    <nd ref='-102477' />
    <nd ref='-102478' />
    <nd ref='-102479' />
    <nd ref='-102480' />
    <nd ref='-102481' />
    <nd ref='-102482' />
    <nd ref='-102483' />
    <nd ref='-102484' />
    <nd ref='-102485' />
    <nd ref='-102486' />
    <nd ref='-102487' />
    <nd ref='-102843' />
    <tag k='name' v='Halls Wharf' />
    <tag k='role' v='sidetrack' />
    <tag k='style' v='return' />
  </way>
  <way id='-102006' action='modify' visible='true'>
    <nd ref='-102504' />
    <nd ref='-102503' />
    <nd ref='-102502' />
    <nd ref='-102501' />
    <nd ref='-102500' />
    <nd ref='-102499' />
    <nd ref='-102498' />
    <nd ref='-102497' />
    <nd ref='-102496' />
    <nd ref='-102495' />
    <nd ref='-102494' />
    <nd ref='-102493' />
    <nd ref='-102492' />
    <nd ref='-102491' />
    <nd ref='-102490' />
    <nd ref='-102489' />
    <nd ref='-102488' />
    <tag k='name' v='Woody Point' />
    <tag k='role' v='sidetrack' />
    <tag k='style' v='return' />
  </way>
  <way id='-102007' action='modify' visible='true'>
    <nd ref='-102504' />
    <nd ref='-102520' />
    <nd ref='-102519' />
    <nd ref='-102518' />
    <nd ref='-102517' />
    <nd ref='-102516' />
    <nd ref='-102515' />
    <nd ref='-102514' />
    <nd ref='-102513' />
    <nd ref='-102512' />
    <nd ref='-102511' />
    <nd ref='-102510' />
    <nd ref='-102509' />
    <nd ref='-102508' />
    <nd ref='-102507' />
    <nd ref='-102506' />
    <nd ref='-102505' />
    <tag k='name' v='Morning Bay Wharf' />
    <tag k='role' v='sidetrack' />
    <tag k='style' v='return' />
  </way>
  <way id='-102336' action='modify' visible='true'>
    <nd ref='-102342' />
    <nd ref='-102341' />
    <nd ref='-102340' />
    <nd ref='-102339' />
    <nd ref='-102338' />
    <nd ref='-102337' />
    <nd ref='-102336' />
    <nd ref='-102335' />
    <nd ref='-102334' />
    <nd ref='-102333' />
    <nd ref='-102332' />
    <nd ref='-102331' />
    <nd ref='-102330' />
    <nd ref='-102329' />
    <nd ref='-102328' />
    <nd ref='-102327' />
    <nd ref='-102326' />
    <nd ref='-102325' />
    <nd ref='-102324' />
    <nd ref='-102323' />
    <nd ref='-102322' />
    <nd ref='-102321' />
    <nd ref='-102320' />
    <nd ref='-102319' />
    <nd ref='-102318' />
    <nd ref='-102317' />
    <nd ref='-102316' />
    <nd ref='-102315' />
    <nd ref='-102314' />
    <nd ref='-102313' />
    <nd ref='-102312' />
    <nd ref='-102311' />
    <nd ref='-102310' />
    <nd ref='-102309' />
    <nd ref='-102308' />
    <nd ref='-102307' />
    <nd ref='-102306' />
    <nd ref='-102305' />
    <nd ref='-102304' />
    <nd ref='-102303' />
    <nd ref='-102302' />
    <nd ref='-102301' />
    <nd ref='-102300' />
    <nd ref='-102299' />
    <nd ref='-102298' />
    <nd ref='-102297' />
    <nd ref='-102296' />
    <nd ref='-102295' />
    <nd ref='-102294' />
    <nd ref='-102293' />
    <nd ref='-102292' />
    <nd ref='-102291' />
    <nd ref='-102290' />
    <nd ref='-102289' />
    <nd ref='-102288' />
    <nd ref='-102287' />
    <nd ref='-102286' />
    <nd ref='-102285' />
    <nd ref='-102284' />
    <nd ref='-102283' />
    <nd ref='-102282' />
    <nd ref='-102281' />
    <nd ref='-102280' />
    <nd ref='-102279' />
    <nd ref='-102278' />
    <nd ref='-102277' />
    <nd ref='-102276' />
    <nd ref='-102275' />
    <nd ref='-102274' />
    <nd ref='-102273' />
    <nd ref='-102272' />
    <nd ref='-102271' />
    <nd ref='-102270' />
    <nd ref='-102269' />
    <nd ref='-102268' />
    <nd ref='-102267' />
    <nd ref='-102266' />
    <nd ref='-102265' />
    <nd ref='-102264' />
    <nd ref='-102263' />
    <nd ref='-102262' />
    <nd ref='-102261' />
    <nd ref='-102260' />
    <nd ref='-102259' />
    <nd ref='-102258' />
    <nd ref='-102257' />
    <nd ref='-102256' />
    <nd ref='-102255' />
    <nd ref='-102254' />
    <nd ref='-102253' />
    <nd ref='-102252' />
    <nd ref='-102251' />
    <nd ref='-102250' />
    <nd ref='-102249' />
    <nd ref='-102248' />
    <nd ref='-102247' />
    <nd ref='-102246' />
    <nd ref='-102245' />
    <nd ref='-102244' />
    <nd ref='-102243' />
    <nd ref='-102242' />
    <nd ref='-102241' />
    <nd ref='-102240' />
    <nd ref='-102239' />
    <nd ref='-102238' />
    <nd ref='-102237' />
    <nd ref='-102236' />
    <nd ref='-102235' />
    <nd ref='-102234' />
    <nd ref='-102233' />
    <nd ref='-102232' />
    <nd ref='-102231' />
    <nd ref='-102230' />
    <nd ref='-102229' />
    <nd ref='-102228' />
    <nd ref='-102227' />
    <nd ref='-102226' />
    <nd ref='-102225' />
    <nd ref='-102224' />
    <nd ref='-102223' />
    <nd ref='-102222' />
    <nd ref='-102221' />
    <nd ref='-102220' />
    <nd ref='-102434' />
    <nd ref='-102433' />
    <nd ref='-102432' />
    <nd ref='-102431' />
    <nd ref='-102430' />
    <nd ref='-102429' />
    <nd ref='-102436' />
    <nd ref='-102605' />
    <nd ref='-102604' />
    <nd ref='-102603' />
    <nd ref='-102602' />
    <nd ref='-102470' />
    <nd ref='-102469' />
    <nd ref='-102468' />
    <nd ref='-102467' />
    <nd ref='-102437' />
    <nd ref='-102466' />
    <nd ref='-102465' />
    <nd ref='-102464' />
    <nd ref='-102463' />
    <nd ref='-102462' />
    <nd ref='-102461' />
    <nd ref='-102460' />
    <nd ref='-102459' />
    <nd ref='-102458' />
    <nd ref='-102457' />
    <nd ref='-102456' />
    <nd ref='-102455' />
    <nd ref='-102454' />
    <nd ref='-102453' />
    <nd ref='-102452' />
    <nd ref='-102451' />
    <nd ref='-102450' />
    <nd ref='-102449' />
    <nd ref='-102448' />
    <nd ref='-102447' />
    <nd ref='-102446' />
    <nd ref='-102476' />
    <nd ref='-102475' />
    <nd ref='-102474' />
    <nd ref='-102473' />
    <nd ref='-102472' />
    <nd ref='-102504' />
    <nd ref='-102521' />
    <nd ref='-102522' />
    <nd ref='-102523' />
    <nd ref='-102524' />
    <nd ref='-102525' />
    <nd ref='-102526' />
    <nd ref='-102527' />
    <nd ref='-102536' />
    <nd ref='-102537' />
    <nd ref='-102538' />
    <nd ref='-102539' />
    <nd ref='-102540' />
    <nd ref='-102541' />
    <nd ref='-102542' />
    <nd ref='-102543' />
    <nd ref='-102544' />
    <nd ref='-102553' />
    <nd ref='-102552' />
    <nd ref='-102551' />
    <nd ref='-102550' />
    <nd ref='-102549' />
    <nd ref='-102548' />
    <nd ref='-102547' />
    <nd ref='-102546' />
    <nd ref='-102545' />
    <nd ref='-102554' />
    <nd ref='-102555' />
    <nd ref='-102556' />
    <nd ref='-102557' />
    <nd ref='-102558' />
    <nd ref='-102559' />
    <nd ref='-102560' />
    <nd ref='-102561' />
    <nd ref='-102562' />
    <nd ref='-102563' />
    <nd ref='-102564' />
    <nd ref='-102565' />
    <nd ref='-102566' />
    <nd ref='-102567' />
    <nd ref='-102568' />
    <nd ref='-102569' />
    <nd ref='-102570' />
    <nd ref='-102728' />
    <nd ref='-102828' />
    <nd ref='-102827' />
    <nd ref='-102826' />
    <nd ref='-102825' />
    <nd ref='-102824' />
    <nd ref='-102823' />
    <nd ref='-102822' />
    <nd ref='-102821' />
    <nd ref='-102820' />
    <nd ref='-102819' />
    <nd ref='-102818' />
    <nd ref='-102817' />
    <nd ref='-102816' />
    <nd ref='-102815' />
    <nd ref='-102814' />
    <nd ref='-102813' />
    <nd ref='-102812' />
    <nd ref='-102811' />
    <nd ref='-102810' />
    <nd ref='-102809' />
    <nd ref='-102808' />
    <nd ref='-102807' />
    <nd ref='-102806' />
    <nd ref='-102805' />
    <nd ref='-102804' />
    <nd ref='-102803' />
    <nd ref='-102802' />
    <nd ref='-102801' />
    <nd ref='-102800' />
    <nd ref='-102799' />
    <nd ref='-102798' />
    <nd ref='-102797' />
    <nd ref='-102796' />
    <nd ref='-102795' />
    <nd ref='-102794' />
    <nd ref='-102793' />
    <nd ref='-102792' />
    <nd ref='-102791' />
    <nd ref='-102790' />
    <nd ref='-102789' />
    <nd ref='-102788' />
    <nd ref='-102787' />
    <nd ref='-102786' />
    <nd ref='-102785' />
    <nd ref='-102784' />
    <nd ref='-102783' />
    <nd ref='-102782' />
    <nd ref='-102781' />
    <nd ref='-102780' />
    <nd ref='-102779' />
    <nd ref='-102778' />
    <nd ref='-102777' />
    <nd ref='-102776' />
    <nd ref='-102775' />
    <nd ref='-102774' />
    <nd ref='-102773' />
    <nd ref='-102772' />
    <nd ref='-102771' />
    <nd ref='-102770' />
    <nd ref='-102769' />
    <nd ref='-102768' />
    <nd ref='-102767' />
    <nd ref='-102766' />
    <nd ref='-102765' />
    <nd ref='-102764' />
    <nd ref='-102763' />
    <nd ref='-102762' />
    <nd ref='-102761' />
    <nd ref='-102760' />
    <nd ref='-102759' />
    <nd ref='-102758' />
    <nd ref='-102757' />
    <nd ref='-102756' />
    <nd ref='-102755' />
    <nd ref='-102754' />
    <nd ref='-102753' />
    <nd ref='-102752' />
    <nd ref='-102751' />
    <nd ref='-102750' />
    <nd ref='-102749' />
    <nd ref='-102748' />
    <nd ref='-102747' />
    <nd ref='-102746' />
    <nd ref='-102745' />
    <nd ref='-102744' />
    <nd ref='-102743' />
    <nd ref='-102742' />
    <nd ref='-102741' />
    <nd ref='-102740' />
    <nd ref='-102739' />
    <nd ref='-102738' />
    <nd ref='-102737' />
    <nd ref='-102736' />
    <nd ref='-102735' />
    <nd ref='-102734' />
    <nd ref='-102733' />
    <nd ref='-102732' />
    <nd ref='-102731' />
    <nd ref='-102730' />
    <nd ref='-102729' />
    <nd ref='-102727' />
    <tag k='name' v='Towlers Bay Trail' />
    <tag k='park' v='Ku-ring-gai Chase National Park' />
    <tag k='photo' v='136319147@N08/51995974288' />
    <tag k='role' v='primary' />
    <tag k='style' v='loop' />
    <tag k='transport' v='car' />
  </way>
</osm>
