<?xml version='1.0' encoding='UTF-8'?>
<osm version='0.6' upload='false' generator='JOSM'>
  <node id='-59270' visible='true' lat='-33.79257710354' lon='151.15745891895' />
  <node id='-59272' visible='true' lat='-33.7924750027' lon='151.15770830498' />
  <node id='-59274' visible='true' lat='-33.79220281859' lon='151.1576272955' />
  <node id='-59276' visible='true' lat='-33.7922747' lon='151.1578847' />
  <node id='-59278' visible='true' lat='-33.7921559' lon='151.1586422' />
  <node id='-59280' visible='true' lat='-33.7923604' lon='151.1600072' />
  <node id='-59282' visible='true' lat='-33.7923936' lon='151.1610929' />
  <node id='-59284' visible='true' lat='-33.7920276' lon='151.161928' />
  <node id='-59286' visible='true' lat='-33.7915974' lon='151.1626363' />
  <node id='-59288' visible='true' lat='-33.7916064' lon='151.1630386' />
  <node id='-59290' visible='true' lat='-33.7918936' lon='151.1637989' />
  <node id='-59292' visible='true' lat='-33.792137' lon='151.1645193' />
  <node id='-59294' visible='true' lat='-33.7921833' lon='151.1647541' />
  <node id='-59296' visible='true' lat='-33.7920903' lon='151.1650536' />
  <node id='-59298' visible='true' lat='-33.7919798' lon='151.1657341' />
  <node id='-59300' visible='true' lat='-33.7920095' lon='151.1661555' />
  <node id='-59302' visible='true' lat='-33.7921765' lon='151.166451' />
  <node id='-59304' visible='true' lat='-33.7921739' lon='151.1665035' />
  <node id='-59306' visible='true' lat='-33.7921672' lon='151.1665454' />
  <node id='-59308' visible='true' lat='-33.7921416' lon='151.1666658' />
  <node id='-59310' visible='true' lat='-33.7920346' lon='151.1667917' />
  <node id='-59312' visible='true' lat='-33.7920106' lon='151.1668063' />
  <node id='-59314' visible='true' lat='-33.7918572' lon='151.1668998' />
  <node id='-59316' visible='true' lat='-33.7916385' lon='151.1669948' />
  <node id='-59318' visible='true' lat='-33.7912987' lon='151.1671555' />
  <node id='-59320' visible='true' lat='-33.7911026' lon='151.1674988' />
  <node id='-59322' visible='true' lat='-33.7908188' lon='151.1679669' />
  <node id='-59324' visible='true' lat='-33.7906934' lon='151.1682875' />
  <node id='-59326' visible='true' lat='-33.7906605' lon='151.1686754' />
  <node id='-59328' visible='true' lat='-33.7905421' lon='151.169194' />
  <node id='-59330' visible='true' lat='-33.7906276' lon='151.1694909' />
  <node id='-59332' visible='true' lat='-33.7908151' lon='151.1697046' />
  <node id='-59334' visible='true' lat='-33.7910026' lon='151.1697244' />
  <node id='-59336' visible='true' lat='-33.7910882' lon='151.1696254' />
  <node id='-59338' visible='true' lat='-33.7912987' lon='151.1696373' />
  <node id='-59340' visible='true' lat='-33.7914204' lon='151.1697086' />
  <node id='-59342' visible='true' lat='-33.7914876' lon='151.1696356' />
  <node id='-59344' visible='true' lat='-33.7915578' lon='151.1696455' />
  <node id='-59346' visible='true' lat='-33.7916169' lon='151.1697179' />
  <node id='-59348' visible='true' lat='-33.7917097' lon='151.1697316' />
  <node id='-59350' visible='true' lat='-33.7920041' lon='151.1696659' />
  <node id='-59352' visible='true' lat='-33.7922503' lon='151.1712568' />
  <node id='-59354' visible='true' lat='-33.7924828' lon='151.1719338' />
  <node id='-59356' visible='true' lat='-33.7925301' lon='151.1719303' />
  <node id='-59358' visible='true' lat='-33.7926691' lon='151.172308' />
  <node id='-59360' visible='true' lat='-33.792682' lon='151.1725003' />
  <node id='-59362' visible='true' lat='-33.792468' lon='151.1726183' />
  <node id='-59364' visible='true' lat='-33.7924206' lon='151.172538' />
  <node id='-59366' visible='true' lat='-33.7921916' lon='151.1726934' />
  <node id='-59368' visible='true' lat='-33.7920846' lon='151.1728651' />
  <node id='-59370' visible='true' lat='-33.7916923' lon='151.1731226' />
  <node id='-59372' visible='true' lat='-33.7915407' lon='151.1734123' />
  <node id='-59374' visible='true' lat='-33.7913178' lon='151.1736805' />
  <node id='-59376' visible='true' lat='-33.7912581' lon='151.1738684' />
  <node id='-59378' visible='true' lat='-33.7912019' lon='151.1740453' />
  <node id='-59380' visible='true' lat='-33.7912374' lon='151.1745167' />
  <node id='-59382' visible='true' lat='-33.7912732' lon='151.1746297' />
  <node id='-59384' visible='true' lat='-33.7913147' lon='151.1746535' />
  <node id='-59386' visible='true' lat='-33.7913704' lon='151.17472' />
  <node id='-59388' visible='true' lat='-33.7913662' lon='151.1749985' />
  <node id='-59390' visible='true' lat='-33.7913504' lon='151.1750493' />
  <node id='-59392' visible='true' lat='-33.7914182' lon='151.1752114' />
  <node id='-59394' visible='true' lat='-33.7913891' lon='151.1753649' />
  <node id='-59396' visible='true' lat='-33.7912197' lon='151.1754615' />
  <node id='-59398' visible='true' lat='-33.7913343' lon='151.1755875' />
  <node id='-59400' visible='true' lat='-33.79258184828' lon='151.17541434302' />
  <node id='-59402' visible='true' lat='-33.79323588843' lon='151.17583421278' />
  <node id='-59404' visible='true' lat='-33.79345209728' lon='151.17544549752' />
  <node id='-59406' visible='true' lat='-33.79372680892' lon='151.17536285727' />
  <node id='-59408' visible='true' lat='-33.79375478876' lon='151.17521288052' />
  <node id='-59410' visible='true' lat='-33.79467303113' lon='151.17469561376' />
  <node id='-59412' visible='true' lat='-33.79491721582' lon='151.17472928201' />
  <node id='-59414' visible='true' lat='-33.79504693864' lon='151.17465276326' />
  <node id='-59416' visible='true' lat='-33.79530129656' lon='151.17460379125' />
  <node id='-59418' visible='true' lat='-33.79571057751' lon='151.17480475048' />
  <node id='-59420' visible='true' lat='-33.79567678812' lon='151.17492605555' />
  <node id='-59422' visible='true' lat='-33.79559354251' lon='151.17522232214' />
  <node id='-59424' visible='true' lat='-33.79563839185' lon='151.17665468493' />
  <node id='-59426' visible='true' lat='-33.79565935754' lon='151.17697031351' />
  <node id='-59428' visible='true' lat='-33.7959347413' lon='151.17789750966' />
  <node id='-59430' visible='true' lat='-33.79609816786' lon='151.17782562069' />
  <node id='-59432' visible='true' lat='-33.79617193083' lon='151.17791132169' />
  <node id='-59434' visible='true' lat='-33.79625586792' lon='151.17788989644' />
  <node id='-59436' visible='true' lat='-33.7967162487' lon='151.17790213944' />
  <node id='-59438' visible='true' lat='-33.79718441543' lon='151.17801999535' />
  <node id='-59440' visible='true' lat='-33.8305262' lon='151.1439476' />
  <node id='-59442' visible='true' lat='-33.8301212' lon='151.1437658' />
  <node id='-59444' visible='true' lat='-33.8294704' lon='151.1432516' />
  <node id='-59446' visible='true' lat='-33.8289517' lon='151.14297' />
  <node id='-59448' visible='true' lat='-33.8286974' lon='151.1427252' />
  <node id='-59450' visible='true' lat='-33.8282194' lon='151.1426028' />
  <node id='-59452' visible='true' lat='-33.8279652' lon='151.14226' />
  <node id='-59454' visible='true' lat='-33.8278635' lon='151.1414887' />
  <node id='-59456' visible='true' lat='-33.8277719' lon='151.14095' />
  <node id='-59458' visible='true' lat='-33.8273753' lon='151.1403868' />
  <node id='-59460' visible='true' lat='-33.8273143' lon='151.1401665' />
  <node id='-59462' visible='true' lat='-33.8275482' lon='151.1397135' />
  <node id='-59464' visible='true' lat='-33.8276114' lon='151.1394437' />
  <node id='-59466' visible='true' lat='-33.8277167' lon='151.1391729' />
  <node id='-59468' action='modify' visible='true' lat='-33.82940394963' lon='151.18259410058' />
  <node id='-59470' action='modify' visible='true' lat='-33.8293395974' lon='151.18254245554' />
  <node id='-59472' action='modify' visible='true' lat='-33.82932758497' lon='151.18246292218' />
  <node id='-59474' action='modify' visible='true' lat='-33.82938427593' lon='151.18226674443' />
  <node id='-59476' action='modify' visible='true' lat='-33.8257488' lon='151.1799991' />
  <node id='-59478' visible='true' lat='-33.8257854' lon='151.1800142' />
  <node id='-59480' visible='true' lat='-33.8258108' lon='151.1800154' />
  <node id='-59482' visible='true' lat='-33.8258424' lon='151.1799702' />
  <node id='-59484' visible='true' lat='-33.8258605' lon='151.1799661' />
  <node id='-59486' visible='true' lat='-33.8258892' lon='151.1799846' />
  <node id='-59488' visible='true' lat='-33.8259197' lon='151.179964' />
  <node id='-59490' action='modify' visible='true' lat='-33.79268704159' lon='151.1567909181' />
  <node id='-59492' action='modify' visible='true' lat='-33.79269857419' lon='151.15677411956' />
  <node id='-59494' action='modify' visible='true' lat='-33.79271435564' lon='151.15677192845' />
  <node id='-59496' visible='true' lat='-33.8377918' lon='151.1974495' />
  <node id='-59498' visible='true' lat='-33.8375481' lon='151.1972754' />
  <node id='-59500' visible='true' lat='-33.8377435' lon='151.1967082' />
  <node id='-59502' visible='true' lat='-33.8381184' lon='151.1962945' />
  <node id='-59504' action='modify' visible='true' lat='-33.8384485' lon='151.1959648' />
  <node id='-59506' visible='true' lat='-33.838671' lon='151.1957324' />
  <node id='-59508' visible='true' lat='-33.8387889' lon='151.1956746' />
  <node id='-59510' visible='true' lat='-33.838984' lon='151.1956918' />
  <node id='-59512' visible='true' lat='-33.838924' lon='151.195005' />
  <node id='-59514' action='modify' visible='true' lat='-33.8389029' lon='151.1952018' />
  <node id='-59516' visible='true' lat='-33.8382435' lon='151.194369' />
  <node id='-59518' visible='true' lat='-33.838379' lon='151.1944633' />
  <node id='-59520' visible='true' lat='-33.8384852' lon='151.1944928' />
  <node id='-59522' visible='true' lat='-33.8386296' lon='151.1945429' />
  <node id='-59524' visible='true' lat='-33.8387239' lon='151.1945636' />
  <node id='-59526' visible='true' lat='-33.8388571' lon='151.1946019' />
  <node id='-59528' visible='true' lat='-33.8381165' lon='151.1942353' />
  <node id='-59530' visible='true' lat='-33.8380568' lon='151.194176' />
  <node id='-59532' visible='true' lat='-33.8380895' lon='151.1941106' />
  <node id='-59534' visible='true' lat='-33.8380831' lon='151.1940322' />
  <node id='-59536' visible='true' lat='-33.8380357' lon='151.1938835' />
  <node id='-59538' visible='true' lat='-33.8379603' lon='151.1937805' />
  <node id='-59540' visible='true' lat='-33.8378635' lon='151.1936635' />
  <node id='-59542' visible='true' lat='-33.837785' lon='151.193551' />
  <node id='-59544' visible='true' lat='-33.8376957' lon='151.1934508' />
  <node id='-59546' visible='true' lat='-33.8376516' lon='151.1933991' />
  <node id='-59548' visible='true' lat='-33.8375937' lon='151.1933312' />
  <node id='-59550' visible='true' lat='-33.837803' lon='151.1930906' />
  <node id='-59552' visible='true' lat='-33.8374538' lon='151.1926291' />
  <node id='-59554' visible='true' lat='-33.8374326' lon='151.1926251' />
  <node id='-59556' visible='true' lat='-33.8373242' lon='151.1924307' />
  <node id='-59558' visible='true' lat='-33.8373083' lon='151.1924066' />
  <node id='-59560' visible='true' lat='-33.8373037' lon='151.1923926' />
  <node id='-59562' visible='true' lat='-33.8373079' lon='151.1923759' />
  <node id='-59564' visible='true' lat='-33.8373243' lon='151.1923187' />
  <node id='-59566' visible='true' lat='-33.8373678' lon='151.1922534' />
  <node id='-59568' visible='true' lat='-33.8374032' lon='151.1921853' />
  <node id='-59570' visible='true' lat='-33.8374562' lon='151.1920723' />
  <node id='-59572' visible='true' lat='-33.837485' lon='151.1920245' />
  <node id='-59574' visible='true' lat='-33.837569' lon='151.1919129' />
  <node id='-59576' visible='true' lat='-33.8377042' lon='151.1919043' />
  <node id='-59578' visible='true' lat='-33.8376882' lon='151.1917912' />
  <node id='-59580' visible='true' lat='-33.8376879' lon='151.1916913' />
  <node id='-59582' visible='true' lat='-33.8376479' lon='151.1916152' />
  <node id='-59584' visible='true' lat='-33.8375847' lon='151.1916029' />
  <node id='-59586' visible='true' lat='-33.8375135' lon='151.1915564' />
  <node id='-59588' visible='true' lat='-33.8374444' lon='151.1915156' />
  <node id='-59590' visible='true' lat='-33.8373915' lon='151.1914642' />
  <node id='-59592' visible='true' lat='-33.8373812' lon='151.1914172' />
  <node id='-59594' visible='true' lat='-33.8373812' lon='151.1913579' />
  <node id='-59596' visible='true' lat='-33.8373713' lon='151.1912927' />
  <node id='-59598' visible='true' lat='-33.8372694' lon='151.1910665' />
  <node id='-59600' visible='true' lat='-33.8372694' lon='151.1909002' />
  <node id='-59602' visible='true' lat='-33.8372095' lon='151.1905811' />
  <node id='-59604' visible='true' lat='-33.8371696' lon='151.1903683' />
  <node id='-59606' visible='true' lat='-33.8371364' lon='151.1900891' />
  <node id='-59608' visible='true' lat='-33.8371373' lon='151.1898465' />
  <node id='-59610' action='modify' visible='true' lat='-33.83721822751' lon='151.18976326973' />
  <node id='-59612' visible='true' lat='-33.8371143' lon='151.189461' />
  <node id='-59614' visible='true' lat='-33.8370765' lon='151.1893092' />
  <node id='-59616' visible='true' lat='-33.8370172' lon='151.1892406' />
  <node id='-59618' visible='true' lat='-33.8368988' lon='151.1891034' />
  <node id='-59620' visible='true' lat='-33.8367903' lon='151.1890201' />
  <node id='-59622' visible='true' lat='-33.8366905' lon='151.1889723' />
  <node id='-59624' visible='true' lat='-33.8366076' lon='151.1889214' />
  <node id='-59626' visible='true' lat='-33.8365352' lon='151.1888653' />
  <node id='-59628' visible='true' lat='-33.8365086' lon='151.1888291' />
  <node id='-59630' visible='true' lat='-33.8364079' lon='151.1887923' />
  <node id='-59632' visible='true' lat='-33.8363096' lon='151.1887305' />
  <node id='-59634' visible='true' lat='-33.8361668' lon='151.1887026' />
  <node id='-59636' visible='true' lat='-33.8360723' lon='151.1886534' />
  <node id='-59638' visible='true' lat='-33.8359197' lon='151.188591' />
  <node id='-59640' visible='true' lat='-33.8357092' lon='151.1885902' />
  <node id='-59642' visible='true' lat='-33.8356231' lon='151.1885871' />
  <node id='-59644' visible='true' lat='-33.8354712' lon='151.1885883' />
  <node id='-59646' visible='true' lat='-33.8353473' lon='151.1886279' />
  <node id='-59648' visible='true' lat='-33.8352629' lon='151.188621' />
  <node id='-59650' visible='true' lat='-33.8351283' lon='151.1886996' />
  <node id='-59652' visible='true' lat='-33.8350063' lon='151.1888103' />
  <node id='-59654' visible='true' lat='-33.8348955' lon='151.1889159' />
  <node id='-59656' visible='true' lat='-33.8347524' lon='151.1890166' />
  <node id='-59658' visible='true' lat='-33.8346779' lon='151.1891417' />
  <node id='-59660' visible='true' lat='-33.8344878' lon='151.1893103' />
  <node id='-59662' visible='true' lat='-33.8344094' lon='151.1894506' />
  <node id='-59664' visible='true' lat='-33.83433' lon='151.189556' />
  <node id='-59666' visible='true' lat='-33.8342964' lon='151.189623' />
  <node id='-59668' visible='true' lat='-33.8342398' lon='151.1896386' />
  <node id='-59670' visible='true' lat='-33.8341453' lon='151.1896262' />
  <node id='-59672' visible='true' lat='-33.8340462' lon='151.1896017' />
  <node id='-59674' visible='true' lat='-33.8339456' lon='151.1894755' />
  <node id='-59676' visible='true' lat='-33.8338852' lon='151.1894472' />
  <node id='-59678' visible='true' lat='-33.8337456' lon='151.1894126' />
  <node id='-59680' visible='true' lat='-33.8336484' lon='151.189451' />
  <node id='-59682' visible='true' lat='-33.8335383' lon='151.1894733' />
  <node id='-59684' visible='true' lat='-33.8334183' lon='151.1894849' />
  <node id='-59686' visible='true' lat='-33.8333468' lon='151.1894398' />
  <node id='-59688' visible='true' lat='-33.8332598' lon='151.1894012' />
  <node id='-59690' visible='true' lat='-33.8332533' lon='151.1893538' />
  <node id='-59692' visible='true' lat='-33.8333068' lon='151.189305' />
  <node id='-59694' visible='true' lat='-33.8333935' lon='151.1893129' />
  <node id='-59696' visible='true' lat='-33.8334706' lon='151.1893164' />
  <node id='-59698' visible='true' lat='-33.8335078' lon='151.189288' />
  <node id='-59700' visible='true' lat='-33.8335476' lon='151.1891925' />
  <node id='-59702' visible='true' lat='-33.8335397' lon='151.1891395' />
  <node id='-59704' visible='true' lat='-33.8334864' lon='151.1890475' />
  <node id='-59706' visible='true' lat='-33.8334391' lon='151.1890181' />
  <node id='-59708' visible='true' lat='-33.8334403' lon='151.1890054' />
  <node id='-59710' visible='true' lat='-33.8337448' lon='151.1875825' />
  <node id='-59712' visible='true' lat='-33.8337803' lon='151.187622' />
  <node id='-59714' visible='true' lat='-33.8338643' lon='151.1876001' />
  <node id='-59716' visible='true' lat='-33.8339173' lon='151.1876923' />
  <node id='-59718' visible='true' lat='-33.8338995' lon='151.1878324' />
  <node id='-59720' visible='true' lat='-33.8340878' lon='151.1879109' />
  <node id='-59722' visible='true' lat='-33.8340445' lon='151.1882182' />
  <node id='-59724' visible='true' lat='-33.8340091' lon='151.1884067' />
  <node id='-59726' visible='true' lat='-33.8338656' lon='151.1885244' />
  <node id='-59728' visible='true' lat='-33.8336899' lon='151.1886613' />
  <node id='-59730' visible='true' lat='-33.8335041' lon='151.1888555' />
  <node id='-59732' visible='true' lat='-33.8333943' lon='151.1889215' />
  <node id='-59734' visible='true' lat='-33.8333943' lon='151.1889695' />
  <node id='-59736' visible='true' lat='-33.8334221' lon='151.1889835' />
  <node id='-59738' visible='true' lat='-33.8333623' lon='151.1878164' />
  <node id='-59740' visible='true' lat='-33.8332318' lon='151.186892' />
  <node id='-59742' visible='true' lat='-33.8334094' lon='151.1863271' />
  <node id='-59744' visible='true' lat='-33.8331678' lon='151.1863807' />
  <node id='-59746' visible='true' lat='-33.8334673' lon='151.186314' />
  <node id='-59748' visible='true' lat='-33.8333249' lon='151.1854105' />
  <node id='-59750' visible='true' lat='-33.8329485' lon='151.1847258' />
  <node id='-59752' visible='true' lat='-33.8329738' lon='151.1849174' />
  <node id='-59754' visible='true' lat='-33.8330046' lon='151.1850983' />
  <node id='-59756' visible='true' lat='-33.8330372' lon='151.1854502' />
  <node id='-59758' visible='true' lat='-33.8329272' lon='151.1846685' />
  <node id='-59760' visible='true' lat='-33.8329029' lon='151.1846465' />
  <node id='-59762' visible='true' lat='-33.8328279' lon='151.1846368' />
  <node id='-59764' visible='true' lat='-33.832765' lon='151.1846319' />
  <node id='-59766' visible='true' lat='-33.8326992' lon='151.1846488' />
  <node id='-59768' visible='true' lat='-33.8326278' lon='151.1840901' />
  <node id='-59770' visible='true' lat='-33.8325783' lon='151.183702' />
  <node id='-59772' visible='true' lat='-33.8325522' lon='151.1834982' />
  <node id='-59774' visible='true' lat='-33.8325188' lon='151.1832368' />
  <node id='-59776' visible='true' lat='-33.8325086' lon='151.1831568' />
  <node id='-59778' action='modify' visible='true' lat='-33.8324751' lon='151.1828944' />
  <node id='-59780' visible='true' lat='-33.8322884' lon='151.182266' />
  <node id='-59782' visible='true' lat='-33.8317849' lon='151.1821897' />
  <node id='-59784' visible='true' lat='-33.831677' lon='151.1819042' />
  <node id='-59786' visible='true' lat='-33.8314569' lon='151.1818512' />
  <node id='-59788' visible='true' lat='-33.8312724' lon='151.1817655' />
  <node id='-59790' visible='true' lat='-33.8311278' lon='151.1816999' />
  <node id='-59792' visible='true' lat='-33.8308595' lon='151.1816973' />
  <node id='-59794' visible='true' lat='-33.8306227' lon='151.1817755' />
  <node id='-59796' visible='true' lat='-33.8303984' lon='151.1818891' />
  <node id='-59798' visible='true' lat='-33.8302308' lon='151.1819673' />
  <node id='-59800' visible='true' lat='-33.8299941' lon='151.1821511' />
  <node id='-59802' visible='true' lat='-33.8296413' lon='151.1823796' />
  <node id='-59804' visible='true' lat='-33.8283629' lon='151.1819271' />
  <node id='-59806' visible='true' lat='-33.8281108' lon='151.1817947' />
  <node id='-59808' visible='true' lat='-33.8280037' lon='151.1816291' />
  <node id='-59810' visible='true' lat='-33.8279571' lon='151.1815499' />
  <node id='-59812' visible='true' lat='-33.827894' lon='151.1814645' />
  <node id='-59814' visible='true' lat='-33.8277912' lon='151.1813751' />
  <node id='-59816' visible='true' lat='-33.8276843' lon='151.1812273' />
  <node id='-59818' visible='true' lat='-33.827552' lon='151.1811524' />
  <node id='-59820' visible='true' lat='-33.8274245' lon='151.181013' />
  <node id='-59822' visible='true' lat='-33.8272883' lon='151.1809533' />
  <node id='-59824' visible='true' lat='-33.8271075' lon='151.1809225' />
  <node id='-59826' visible='true' lat='-33.827071' lon='151.1809051' />
  <node id='-59828' visible='true' lat='-33.8269614' lon='151.180864' />
  <node id='-59830' visible='true' lat='-33.8269123' lon='151.1808079' />
  <node id='-59832' visible='true' lat='-33.8268121' lon='151.180656' />
  <node id='-59834' visible='true' lat='-33.8267191' lon='151.1805278' />
  <node id='-59836' visible='true' lat='-33.8265481' lon='151.1804327' />
  <node id='-59838' visible='true' lat='-33.8264548' lon='151.1803688' />
  <node id='-59840' visible='true' lat='-33.8262729' lon='151.1801876' />
  <node id='-59842' visible='true' lat='-33.826182' lon='151.1800519' />
  <node id='-59844' visible='true' lat='-33.8260905' lon='151.1799411' />
  <node id='-59846' visible='true' lat='-33.8260669' lon='151.179931' />
  <node id='-59848' visible='true' lat='-33.8260188' lon='151.1799082' />
  <node id='-59850' visible='true' lat='-33.8259455' lon='151.1799406' />
  <node id='-59852' visible='true' lat='-33.8261895' lon='151.1789859' />
  <node id='-59854' visible='true' lat='-33.8262084' lon='151.1790707' />
  <node id='-59856' visible='true' lat='-33.8262022' lon='151.179118' />
  <node id='-59858' visible='true' lat='-33.8262177' lon='151.1791596' />
  <node id='-59860' visible='true' lat='-33.8262125' lon='151.1791944' />
  <node id='-59862' visible='true' lat='-33.8262229' lon='151.1792185' />
  <node id='-59864' visible='true' lat='-33.8262325' lon='151.1792815' />
  <node id='-59866' visible='true' lat='-33.8262028' lon='151.1793389' />
  <node id='-59868' visible='true' lat='-33.8262242' lon='151.1793952' />
  <node id='-59870' visible='true' lat='-33.8262189' lon='151.179447' />
  <node id='-59872' visible='true' lat='-33.8262422' lon='151.1795023' />
  <node id='-59874' visible='true' lat='-33.8262498' lon='151.1795505' />
  <node id='-59876' visible='true' lat='-33.8262518' lon='151.1796082' />
  <node id='-59878' visible='true' lat='-33.8262296' lon='151.1796636' />
  <node id='-59880' visible='true' lat='-33.826232' lon='151.1797569' />
  <node id='-59882' visible='true' lat='-33.8262351' lon='151.1798724' />
  <node id='-59884' visible='true' lat='-33.8262393' lon='151.1800143' />
  <node id='-59886' visible='true' lat='-33.8262691' lon='151.1800794' />
  <node id='-59888' visible='true' lat='-33.8263173' lon='151.1801337' />
  <node id='-59890' visible='true' lat='-33.8263855' lon='151.1803227' />
  <node id='-59892' visible='true' lat='-33.8256865' lon='151.1748932' />
  <node id='-59894' visible='true' lat='-33.8256736' lon='151.1749674' />
  <node id='-59896' visible='true' lat='-33.8256765' lon='151.1750485' />
  <node id='-59898' visible='true' lat='-33.8256966' lon='151.1752331' />
  <node id='-59900' visible='true' lat='-33.8257339' lon='151.1754747' />
  <node id='-59902' visible='true' lat='-33.825774' lon='151.1758543' />
  <node id='-59904' visible='true' lat='-33.8257855' lon='151.176089' />
  <node id='-59906' visible='true' lat='-33.8258098' lon='151.1763064' />
  <node id='-59908' visible='true' lat='-33.8258342' lon='151.1765049' />
  <node id='-59910' visible='true' lat='-33.8258759' lon='151.1767593' />
  <node id='-59912' visible='true' lat='-33.8259202' lon='151.177095' />
  <node id='-59914' visible='true' lat='-33.8259632' lon='151.1774057' />
  <node id='-59916' visible='true' lat='-33.8259976' lon='151.1776438' />
  <node id='-59918' visible='true' lat='-33.8260478' lon='151.1779906' />
  <node id='-59920' visible='true' lat='-33.8261209' lon='151.1785342' />
  <node id='-59922' visible='true' lat='-33.8261754' lon='151.178919' />
  <node id='-59924' visible='true' lat='-33.8257515' lon='151.1748708' />
  <node id='-59926' visible='true' lat='-33.8258811' lon='151.1748382' />
  <node id='-59928' visible='true' lat='-33.8258284' lon='151.1743026' />
  <node id='-59930' visible='true' lat='-33.8257696' lon='151.1738499' />
  <node id='-59932' visible='true' lat='-33.8257412' lon='151.1736608' />
  <node id='-59934' visible='true' lat='-33.82573' lon='151.1735363' />
  <node id='-59936' visible='true' lat='-33.8257452' lon='151.1734241' />
  <node id='-59938' visible='true' lat='-33.8259145' lon='151.1731898' />
  <node id='-59940' visible='true' lat='-33.8256983' lon='151.1728887' />
  <node id='-59942' visible='true' lat='-33.8253959' lon='151.1725209' />
  <node id='-59944' visible='true' lat='-33.8250721' lon='151.1721301' />
  <node id='-59946' visible='true' lat='-33.8261154' lon='151.1712667' />
  <node id='-59948' visible='true' lat='-33.8258346' lon='151.1707437' />
  <node id='-59950' visible='true' lat='-33.825516' lon='151.1701488' />
  <node id='-59952' visible='true' lat='-33.8256266' lon='151.170062' />
  <node id='-59954' visible='true' lat='-33.825784' lon='151.1699384' />
  <node id='-59956' visible='true' lat='-33.8257654' lon='151.1698279' />
  <node id='-59958' visible='true' lat='-33.8262504' lon='151.1673593' />
  <node id='-59960' visible='true' lat='-33.825771' lon='151.1695649' />
  <node id='-59962' visible='true' lat='-33.825688' lon='151.1693784' />
  <node id='-59964' visible='true' lat='-33.8256686' lon='151.1692885' />
  <node id='-59966' visible='true' lat='-33.8256631' lon='151.1691353' />
  <node id='-59968' visible='true' lat='-33.8256357' lon='151.1689356' />
  <node id='-59970' visible='true' lat='-33.8256208' lon='151.1686704' />
  <node id='-59972' visible='true' lat='-33.825634' lon='151.1685369' />
  <node id='-59974' visible='true' lat='-33.8257052' lon='151.1683622' />
  <node id='-59976' visible='true' lat='-33.8259216' lon='151.1679938' />
  <node id='-59978' visible='true' lat='-33.8262558' lon='151.1673671' />
  <node id='-59980' visible='true' lat='-33.826039' lon='151.1670532' />
  <node id='-59982' visible='true' lat='-33.826075' lon='151.1672014' />
  <node id='-59984' visible='true' lat='-33.8261013' lon='151.1672763' />
  <node id='-59986' visible='true' lat='-33.8261663' lon='151.167283' />
  <node id='-59988' visible='true' lat='-33.8262078' lon='151.1673013' />
  <node id='-59990' visible='true' lat='-33.8261575' lon='151.1668597' />
  <node id='-59992' visible='true' lat='-33.8261105' lon='151.1668669' />
  <node id='-59994' visible='true' lat='-33.8259579' lon='151.1669348' />
  <node id='-59996' visible='true' lat='-33.8264734' lon='151.1598212' />
  <node id='-59998' visible='true' lat='-33.8270819' lon='151.1607835' />
  <node id='-60000' visible='true' lat='-33.8270902' lon='151.1608634' />
  <node id='-60002' visible='true' lat='-33.8271538' lon='151.1608867' />
  <node id='-60004' visible='true' lat='-33.8273973' lon='151.1610832' />
  <node id='-60006' visible='true' lat='-33.827483' lon='151.1614428' />
  <node id='-60008' visible='true' lat='-33.8276268' lon='151.1616493' />
  <node id='-60010' visible='true' lat='-33.8277901' lon='151.1618291' />
  <node id='-60012' visible='true' lat='-33.827956' lon='151.1623285' />
  <node id='-60014' visible='true' lat='-33.828039' lon='151.1625183' />
  <node id='-60016' visible='true' lat='-33.8280537' lon='151.1626838' />
  <node id='-60018' visible='true' lat='-33.8280429' lon='151.1627627' />
  <node id='-60020' visible='true' lat='-33.8280224' lon='151.162818' />
  <node id='-60022' visible='true' lat='-33.8280273' lon='151.1629228' />
  <node id='-60024' visible='true' lat='-33.8281143' lon='151.1631736' />
  <node id='-60026' visible='true' lat='-33.8281534' lon='151.1636044' />
  <node id='-60028' visible='true' lat='-33.8282062' lon='151.1636998' />
  <node id='-60030' visible='true' lat='-33.8282717' lon='151.1638034' />
  <node id='-60032' visible='true' lat='-33.8283109' lon='151.1639965' />
  <node id='-60034' visible='true' lat='-33.8282004' lon='151.1642284' />
  <node id='-60036' visible='true' lat='-33.8281681' lon='151.1644356' />
  <node id='-60038' visible='true' lat='-33.8280967' lon='151.1646722' />
  <node id='-60040' visible='true' lat='-33.8279848' lon='151.1649027' />
  <node id='-60042' visible='true' lat='-33.8278755' lon='151.165045' />
  <node id='-60044' visible='true' lat='-33.8277614' lon='151.1651412' />
  <node id='-60046' visible='true' lat='-33.8276879' lon='151.1651306' />
  <node id='-60048' visible='true' lat='-33.8276166' lon='151.1652279' />
  <node id='-60050' visible='true' lat='-33.8275531' lon='151.1653755' />
  <node id='-60052' visible='true' lat='-33.8274236' lon='151.165571' />
  <node id='-60054' visible='true' lat='-33.8273767' lon='151.1656077' />
  <node id='-60056' visible='true' lat='-33.8272697' lon='151.1656933' />
  <node id='-60058' visible='true' lat='-33.8271256' lon='151.16589' />
  <node id='-60060' visible='true' lat='-33.8269815' lon='151.165979' />
  <node id='-60062' visible='true' lat='-33.8268387' lon='151.1660887' />
  <node id='-60064' visible='true' lat='-33.8266926' lon='151.1661115' />
  <node id='-60066' visible='true' lat='-33.8264821' lon='151.1662367' />
  <node id='-60068' visible='true' lat='-33.8264195' lon='151.1663731' />
  <node id='-60070' visible='true' lat='-33.8262947' lon='151.1665178' />
  <node id='-60072' visible='true' lat='-33.8226966' lon='151.153409' />
  <node id='-60074' visible='true' lat='-33.8229523' lon='151.1532725' />
  <node id='-60076' visible='true' lat='-33.82309' lon='151.1532801' />
  <node id='-60078' visible='true' lat='-33.823321' lon='151.1532929' />
  <node id='-60080' visible='true' lat='-33.8235815' lon='151.1534599' />
  <node id='-60082' visible='true' lat='-33.8237067' lon='151.1536797' />
  <node id='-60084' visible='true' lat='-33.823701' lon='151.1539537' />
  <node id='-60086' visible='true' lat='-33.823453' lon='151.1542743' />
  <node id='-60088' visible='true' lat='-33.8233786' lon='151.1544046' />
  <node id='-60090' visible='true' lat='-33.8233684' lon='151.1546' />
  <node id='-60092' visible='true' lat='-33.8236909' lon='151.1567509' />
  <node id='-60094' visible='true' lat='-33.8237259' lon='151.1569845' />
  <node id='-60096' visible='true' lat='-33.8238647' lon='151.15791' />
  <node id='-60098' visible='true' lat='-33.8240935' lon='151.1594364' />
  <node id='-60100' visible='true' lat='-33.8242354' lon='151.1602322' />
  <node id='-60102' visible='true' lat='-33.8222422' lon='151.1535367' />
  <node id='-60104' visible='true' lat='-33.8223393' lon='151.1540871' />
  <node id='-60106' visible='true' lat='-33.822139' lon='151.1537266' />
  <node id='-60108' visible='true' lat='-33.8251655' lon='151.1504273' />
  <node id='-60110' visible='true' lat='-33.8247056' lon='151.150403' />
  <node id='-60112' visible='true' lat='-33.8242354' lon='151.1504681' />
  <node id='-60114' visible='true' lat='-33.823823' lon='151.1505692' />
  <node id='-60116' visible='true' lat='-33.8235077' lon='151.1505849' />
  <node id='-60118' visible='true' lat='-33.8231401' lon='151.1507601' />
  <node id='-60120' visible='true' lat='-33.8228453' lon='151.1508657' />
  <node id='-60122' visible='true' lat='-33.8226998' lon='151.150969' />
  <node id='-60124' visible='true' lat='-33.822571' lon='151.1512183' />
  <node id='-60126' visible='true' lat='-33.8220691' lon='151.1513172' />
  <node id='-60128' visible='true' lat='-33.8218937' lon='151.151398' />
  <node id='-60130' visible='true' lat='-33.8217332' lon='151.1519865' />
  <node id='-60132' visible='true' lat='-33.8216082' lon='151.1524896' />
  <node id='-60134' visible='true' lat='-33.8217164' lon='151.1526086' />
  <node id='-60136' visible='true' lat='-33.8223648' lon='151.1531317' />
  <node id='-60138' visible='true' lat='-33.8252289' lon='151.1502305' />
  <node id='-60140' visible='true' lat='-33.8252704' lon='151.1502159' />
  <node id='-60142' visible='true' lat='-33.8253214' lon='151.150184' />
  <node id='-60144' visible='true' lat='-33.8256358' lon='151.1500871' />
  <node id='-60146' visible='true' lat='-33.8260772' lon='151.1498272' />
  <node id='-60148' visible='true' lat='-33.8263758' lon='151.1494625' />
  <node id='-60150' visible='true' lat='-33.8265541' lon='151.149087' />
  <node id='-60152' visible='true' lat='-33.8267766' lon='151.1485255' />
  <node id='-60154' visible='true' lat='-33.8269127' lon='151.1480996' />
  <node id='-60156' visible='true' lat='-33.8270687' lon='151.1477268' />
  <node id='-60158' visible='true' lat='-33.8274007' lon='151.1471528' />
  <node id='-60160' visible='true' lat='-33.8277661' lon='151.146729' />
  <node id='-60162' visible='true' lat='-33.8281761' lon='151.1464823' />
  <node id='-60164' visible='true' lat='-33.8282691' lon='151.146462' />
  <node id='-60166' visible='true' lat='-33.8284034' lon='151.1463911' />
  <node id='-60168' visible='true' lat='-33.8287688' lon='151.1462945' />
  <node id='-60170' visible='true' lat='-33.8288314' lon='151.1462911' />
  <node id='-60172' visible='true' lat='-33.8290673' lon='151.1462784' />
  <node id='-60174' visible='true' lat='-33.8298115' lon='151.1462462' />
  <node id='-60176' visible='true' lat='-33.8307638' lon='151.1461853' />
  <node id='-60178' visible='true' lat='-33.83093' lon='151.1462033' />
  <node id='-60180' visible='true' lat='-33.8312197' lon='151.1463589' />
  <node id='-60182' visible='true' lat='-33.8312598' lon='151.1464447' />
  <node id='-60184' visible='true' lat='-33.8308163' lon='151.145843' />
  <node id='-60186' visible='true' lat='-33.8306794' lon='151.1459627' />
  <node id='-60188' visible='true' lat='-33.8307079' lon='151.1462595' />
  <node id='-60190' visible='true' lat='-33.8307995' lon='151.1463599' />
  <node id='-60192' visible='true' lat='-33.8309189' lon='151.1464142' />
  <node id='-60194' visible='true' lat='-33.8311195' lon='151.1465002' />
  <node id='-60196' visible='true' lat='-33.8311816' lon='151.1464793' />
  <node id='-60198' action='modify' visible='true' lat='-33.83071371606' lon='151.14523064152' />
  <node id='-60200' visible='true' lat='-33.8274345' lon='151.1381406' />
  <node id='-60202' visible='true' lat='-33.8278078' lon='151.1384295' />
  <node id='-60204' visible='true' lat='-33.8270124' lon='151.139792' />
  <node id='-60206' visible='true' lat='-33.8271984' lon='151.1382146' />
  <node id='-60208' visible='true' lat='-33.8272608' lon='151.1380376' />
  <node id='-60210' visible='true' lat='-33.8265478' lon='151.1429392' />
  <node id='-60212' visible='true' lat='-33.8268103' lon='151.1424361' />
  <node id='-60214' visible='true' lat='-33.8269325' lon='151.142085' />
  <node id='-60216' visible='true' lat='-33.8268596' lon='151.1418164' />
  <node id='-60218' visible='true' lat='-33.8269009' lon='151.1415921' />
  <node id='-60220' visible='true' lat='-33.8268798' lon='151.1413363' />
  <node id='-60222' visible='true' lat='-33.8267876' lon='151.1410658' />
  <node id='-60224' visible='true' lat='-33.8268198' lon='151.1410071' />
  <node id='-60226' visible='true' lat='-33.8268771' lon='151.1409188' />
  <node id='-60228' visible='true' lat='-33.8269209' lon='151.1407998' />
  <node id='-60230' visible='true' lat='-33.8262507' lon='151.1431438' />
  <node id='-60232' visible='true' lat='-33.826447' lon='151.1432207' />
  <node id='-60234' visible='true' lat='-33.8249791' lon='151.1442012' />
  <node id='-60236' visible='true' lat='-33.8250038' lon='151.1440623' />
  <node id='-60238' visible='true' lat='-33.8249296' lon='151.1439301' />
  <node id='-60240' visible='true' lat='-33.8248708' lon='151.1435618' />
  <node id='-60242' visible='true' lat='-33.8250343' lon='151.1432421' />
  <node id='-60244' visible='true' lat='-33.8251824' lon='151.1432308' />
  <node id='-60246' visible='true' lat='-33.8254655' lon='151.1433676' />
  <node id='-60248' visible='true' lat='-33.8259897' lon='151.1432546' />
  <node id='-60250' visible='true' lat='-33.8261335' lon='151.14309' />
  <node id='-60252' visible='true' lat='-33.8250082' lon='151.1444814' />
  <node id='-60254' visible='true' lat='-33.8251645' lon='151.1445762' />
  <node id='-60256' visible='true' lat='-33.8253501' lon='151.1445178' />
  <node id='-60258' visible='true' lat='-33.8255444' lon='151.1447245' />
  <node id='-60260' visible='true' lat='-33.8255912' lon='151.1447433' />
  <node id='-60262' visible='true' lat='-33.8256831' lon='151.1447579' />
  <node id='-60264' visible='true' lat='-33.8258253' lon='151.1451128' />
  <node id='-60266' visible='true' lat='-33.8258253' lon='151.1453549' />
  <node id='-60268' visible='true' lat='-33.8257143' lon='151.1455491' />
  <node id='-60270' visible='true' lat='-33.8256588' lon='151.1458247' />
  <node id='-60272' visible='true' lat='-33.8255426' lon='151.145952' />
  <node id='-60274' visible='true' lat='-33.8254405' lon='151.1461184' />
  <node id='-60276' visible='true' lat='-33.818057' lon='151.1389398' />
  <node id='-60278' visible='true' lat='-33.8181671' lon='151.1389905' />
  <node id='-60280' visible='true' lat='-33.8183139' lon='151.1390248' />
  <node id='-60282' visible='true' lat='-33.8184738' lon='151.1390456' />
  <node id='-60284' visible='true' lat='-33.818536' lon='151.1392318' />
  <node id='-60286' visible='true' lat='-33.8187058' lon='151.1394962' />
  <node id='-60288' visible='true' lat='-33.8186731' lon='151.1396576' />
  <node id='-60290' visible='true' lat='-33.818694' lon='151.1400034' />
  <node id='-60292' visible='true' lat='-33.8187292' lon='151.1401121' />
  <node id='-60294' visible='true' lat='-33.8186558' lon='151.1402728' />
  <node id='-60296' visible='true' lat='-33.8186341' lon='151.1404765' />
  <node id='-60298' visible='true' lat='-33.8184778' lon='151.1408046' />
  <node id='-60300' visible='true' lat='-33.8184519' lon='151.1410723' />
  <node id='-60302' visible='true' lat='-33.8183915' lon='151.1413333' />
  <node id='-60304' visible='true' lat='-33.8182794' lon='151.1415379' />
  <node id='-60306' visible='true' lat='-33.8182411' lon='151.1419468' />
  <node id='-60308' visible='true' lat='-33.8182898' lon='151.1422268' />
  <node id='-60310' visible='true' lat='-33.818345' lon='151.1423532' />
  <node id='-60312' visible='true' lat='-33.8183818' lon='151.1426589' />
  <node id='-60314' visible='true' lat='-33.8182872' lon='151.1429785' />
  <node id='-60316' visible='true' lat='-33.8182924' lon='151.1431654' />
  <node id='-60318' visible='true' lat='-33.8182858' lon='151.143308' />
  <node id='-60320' visible='true' lat='-33.8181997' lon='151.1434543' />
  <node id='-60322' visible='true' lat='-33.8181985' lon='151.1436669' />
  <node id='-60324' action='modify' visible='true' lat='-33.8182343' lon='151.1437607' />
  <node id='-60326' visible='true' lat='-33.8184425' lon='151.1438802' />
  <node id='-60328' visible='true' lat='-33.8187772' lon='151.1442017' />
  <node id='-60330' visible='true' lat='-33.8189923' lon='151.1444501' />
  <node id='-60332' visible='true' lat='-33.8191987' lon='151.1446693' />
  <node id='-60334' visible='true' lat='-33.8193046' lon='151.1446864' />
  <node id='-60336' visible='true' lat='-33.8193895' lon='151.1448781' />
  <node id='-60338' visible='true' lat='-33.8195681' lon='151.1450681' />
  <node id='-60340' visible='true' lat='-33.8195959' lon='151.1452309' />
  <node id='-60342' visible='true' lat='-33.8197576' lon='151.1454111' />
  <node id='-60344' visible='true' lat='-33.8199274' lon='151.145836' />
  <node id='-60346' visible='true' lat='-33.8200381' lon='151.1461098' />
  <node id='-60348' visible='true' lat='-33.8200921' lon='151.1463053' />
  <node id='-60350' visible='true' lat='-33.8201571' lon='151.1464455' />
  <node id='-60352' visible='true' lat='-33.8202758' lon='151.1465354' />
  <node id='-60354' visible='true' lat='-33.8204214' lon='151.1464626' />
  <node id='-60356' visible='true' lat='-33.8208048' lon='151.1463756' />
  <node id='-60358' visible='true' lat='-33.8212187' lon='151.1463026' />
  <node id='-60360' visible='true' lat='-33.821384' lon='151.1463854' />
  <node id='-60362' visible='true' lat='-33.8213612' lon='151.1464931' />
  <node id='-60364' visible='true' lat='-33.8218034' lon='151.1464428' />
  <node id='-60366' visible='true' lat='-33.8223473' lon='151.1466156' />
  <node id='-60368' visible='true' lat='-33.8224645' lon='151.146615' />
  <node id='-60370' visible='true' lat='-33.8226588' lon='151.1467027' />
  <node id='-60372' visible='true' lat='-33.8227647' lon='151.1468016' />
  <node id='-60374' visible='true' lat='-33.8229449' lon='151.1468509' />
  <node id='-60376' visible='true' lat='-33.8230421' lon='151.1469303' />
  <node id='-60378' visible='true' lat='-33.8232256' lon='151.1469639' />
  <node id='-60380' visible='true' lat='-33.8233057' lon='151.1470033' />
  <node id='-60382' visible='true' lat='-33.8235529' lon='151.1469484' />
  <node id='-60384' visible='true' lat='-33.8237702' lon='151.1470214' />
  <node id='-60386' action='modify' visible='true' lat='-33.8240511' lon='151.147006' />
  <node id='-60388' visible='true' lat='-33.8241588' lon='151.1469388' />
  <node id='-60390' visible='true' lat='-33.8245981' lon='151.1470863' />
  <node id='-60392' visible='true' lat='-33.8248504' lon='151.1470795' />
  <node id='-60394' visible='true' lat='-33.825015' lon='151.1469876' />
  <node id='-60396' visible='true' lat='-33.8251256' lon='151.1469906' />
  <node id='-60398' visible='true' lat='-33.825236' lon='151.1469699' />
  <node id='-60400' visible='true' lat='-33.8254143' lon='151.1470167' />
  <node id='-60402' visible='true' lat='-33.8254978' lon='151.146947' />
  <node id='-60404' visible='true' lat='-33.8255248' lon='151.1468116' />
  <node id='-60406' visible='true' lat='-33.8254952' lon='151.1465863' />
  <node id='-60408' visible='true' lat='-33.810302' lon='151.140484' />
  <node id='-60410' visible='true' lat='-33.810702' lon='151.1403199' />
  <node id='-60412' action='modify' visible='true' lat='-33.8109859' lon='151.1403575' />
  <node id='-60414' visible='true' lat='-33.8111777' lon='151.1404475' />
  <node id='-60416' visible='true' lat='-33.8112939' lon='151.1405586' />
  <node id='-60418' visible='true' lat='-33.8116138' lon='151.1406758' />
  <node id='-60420' visible='true' lat='-33.811874' lon='151.1407375' />
  <node id='-60422' visible='true' lat='-33.8121698' lon='151.1407862' />
  <node id='-60424' visible='true' lat='-33.8124437' lon='151.1408356' />
  <node id='-60426' visible='true' lat='-33.8126444' lon='151.1408442' />
  <node id='-60428' visible='true' lat='-33.8130534' lon='151.1407086' />
  <node id='-60430' visible='true' lat='-33.8133294' lon='151.1406305' />
  <node id='-60432' visible='true' lat='-33.8134378' lon='151.1406212' />
  <node id='-60434' visible='true' lat='-33.8135906' lon='151.1405694' />
  <node id='-60436' visible='true' lat='-33.8139105' lon='151.1405157' />
  <node id='-60438' visible='true' lat='-33.8140741' lon='151.1404889' />
  <node id='-60440' visible='true' lat='-33.8142658' lon='151.1403844' />
  <node id='-60442' visible='true' lat='-33.8143992' lon='151.1403214' />
  <node id='-60444' visible='true' lat='-33.8145166' lon='151.1402935' />
  <node id='-60446' visible='true' lat='-33.8146406' lon='151.140296' />
  <node id='-60448' visible='true' lat='-33.8146794' lon='151.1402931' />
  <node id='-60450' visible='true' lat='-33.814724' lon='151.1403179' />
  <node id='-60452' action='modify' visible='true' lat='-33.8147968' lon='151.1403945' />
  <node id='-60454' visible='true' lat='-33.81496' lon='151.1406092' />
  <node id='-60456' visible='true' lat='-33.814975' lon='151.140736' />
  <node id='-60458' visible='true' lat='-33.8147494' lon='151.1411964' />
  <node id='-60460' visible='true' lat='-33.8147448' lon='151.1413754' />
  <node id='-60462' visible='true' lat='-33.8147751' lon='151.1415005' />
  <node id='-60464' visible='true' lat='-33.8149096' lon='151.1418905' />
  <node id='-60466' visible='true' lat='-33.8150689' lon='151.1421807' />
  <node id='-60468' visible='true' lat='-33.8153894' lon='151.1420554' />
  <node id='-60470' visible='true' lat='-33.815585' lon='151.1418926' />
  <node id='-60472' visible='true' lat='-33.8157713' lon='151.1418039' />
  <node id='-60474' visible='true' lat='-33.815999' lon='151.1418921' />
  <node id='-60476' visible='true' lat='-33.816283' lon='151.1418578' />
  <node id='-60478' visible='true' lat='-33.8163951' lon='151.1417464' />
  <node id='-60480' visible='true' lat='-33.8164705' lon='151.1412827' />
  <node id='-60482' visible='true' lat='-33.8165565' lon='151.1409186' />
  <node id='-60484' visible='true' lat='-33.8166559' lon='151.1408412' />
  <node id='-60486' visible='true' lat='-33.8167408' lon='151.1406947' />
  <node id='-60488' visible='true' lat='-33.8164907' lon='151.1405954' />
  <node id='-60490' visible='true' lat='-33.8163926' lon='151.140382' />
  <node id='-60492' visible='true' lat='-33.8163265' lon='151.1403169' />
  <node id='-60494' visible='true' lat='-33.8162514' lon='151.1401184' />
  <node id='-60496' visible='true' lat='-33.816404' lon='151.1399889' />
  <node id='-60498' visible='true' lat='-33.8163825' lon='151.1397754' />
  <node id='-60500' visible='true' lat='-33.8163658' lon='151.1395816' />
  <node id='-60502' visible='true' lat='-33.8164174' lon='151.139436' />
  <node id='-60504' visible='true' lat='-33.8164636' lon='151.1392112' />
  <node id='-60506' visible='true' lat='-33.8164987' lon='151.1389424' />
  <node id='-60508' visible='true' lat='-33.8164986' lon='151.1386129' />
  <node id='-60510' visible='true' lat='-33.8165681' lon='151.1383811' />
  <node id='-60512' visible='true' lat='-33.816655' lon='151.1381562' />
  <node id='-60514' visible='true' lat='-33.8167618' lon='151.138032' />
  <node id='-60516' visible='true' lat='-33.8168872' lon='151.1380674' />
  <node id='-60518' visible='true' lat='-33.8171552' lon='151.138247' />
  <node id='-60520' visible='true' lat='-33.8173316' lon='151.1384986' />
  <node id='-60522' visible='true' lat='-33.8175486' lon='151.1386365' />
  <node id='-60524' visible='true' lat='-33.8176117' lon='151.1387216' />
  <node id='-60526' visible='true' lat='-33.8177626' lon='151.1388448' />
  <node id='-60528' visible='true' lat='-33.8179638' lon='151.1389072' />
  <node id='-60530' visible='true' lat='-33.8098279' lon='151.1407804' />
  <node id='-60532' visible='true' lat='-33.8066117' lon='151.1409802' />
  <node id='-60534' action='modify' visible='true' lat='-33.807007' lon='151.1406151' />
  <node id='-60536' visible='true' lat='-33.8073109' lon='151.1406123' />
  <node id='-60538' visible='true' lat='-33.8079513' lon='151.140747' />
  <node id='-60540' visible='true' lat='-33.8083104' lon='151.1409219' />
  <node id='-60542' visible='true' lat='-33.8085633' lon='151.1411154' />
  <node id='-60544' visible='true' lat='-33.8087978' lon='151.141283' />
  <node id='-60546' visible='true' lat='-33.8089512' lon='151.1413602' />
  <node id='-60548' visible='true' lat='-33.8090482' lon='151.1414213' />
  <node id='-60550' visible='true' lat='-33.8092748' lon='151.1414722' />
  <node id='-60552' visible='true' lat='-33.8093883' lon='151.1414973' />
  <node id='-60554' visible='true' lat='-33.8095735' lon='151.1413809' />
  <node id='-60556' visible='true' lat='-33.8097097' lon='151.1412224' />
  <node id='-60558' visible='true' lat='-33.8097929' lon='151.1410461' />
  <node id='-60560' visible='true' lat='-33.8098069' lon='151.1409394' />
  <node id='-60562' visible='true' lat='-33.8042198' lon='151.1428002' />
  <node id='-60564' action='modify' visible='true' lat='-33.8041644' lon='151.1423343' />
  <node id='-60566' visible='true' lat='-33.8059062' lon='151.1413314' />
  <node id='-60568' visible='true' lat='-33.8034091' lon='151.1432065' />
  <node id='-60570' visible='true' lat='-33.8035546' lon='151.1431732' />
  <node id='-60572' visible='true' lat='-33.8037148' lon='151.1431031' />
  <node id='-60574' visible='true' lat='-33.8037069' lon='151.1429889' />
  <node id='-60576' visible='true' lat='-33.8033292' lon='151.1432937' />
  <node id='-60578' visible='true' lat='-33.8022036' lon='151.1452395' />
  <node id='-60580' visible='true' lat='-33.8023172' lon='151.1452093' />
  <node id='-60582' visible='true' lat='-33.8023125' lon='151.1451441' />
  <node id='-60584' visible='true' lat='-33.8022745' lon='151.1447644' />
  <node id='-60586' visible='true' lat='-33.8023724' lon='151.1446452' />
  <node id='-60588' visible='true' lat='-33.8018721' lon='151.1450096' />
  <node id='-60590' visible='true' lat='-33.801953' lon='151.1450931' />
  <node id='-60592' visible='true' lat='-33.8020559' lon='151.1451993' />
  <node id='-60594' visible='true' lat='-33.8020653' lon='151.1452091' />
  <node id='-60596' visible='true' lat='-33.8021592' lon='151.1452928' />
  <node id='-60598' visible='true' lat='-33.8012242' lon='151.1441821' />
  <node id='-60600' visible='true' lat='-33.8012604' lon='151.1442291' />
  <node id='-60602' visible='true' lat='-33.8007162' lon='151.1434039' />
  <node id='-60604' visible='true' lat='-33.800738' lon='151.1433878' />
  <node id='-60606' visible='true' lat='-33.8007933' lon='151.1434785' />
  <node id='-60608' visible='true' lat='-33.7988783' lon='151.1539335' />
  <node id='-60610' visible='true' lat='-33.7987903' lon='151.1538302' />
  <node id='-60612' visible='true' lat='-33.7987001' lon='151.153696' />
  <node id='-60614' visible='true' lat='-33.7985791' lon='151.1534055' />
  <node id='-60616' visible='true' lat='-33.7984769' lon='151.153261' />
  <node id='-60618' visible='true' lat='-33.7984388' lon='151.1528543' />
  <node id='-60620' visible='true' lat='-33.7984085' lon='151.1527519' />
  <node id='-60622' visible='true' lat='-33.7983985' lon='151.1526508' />
  <node id='-60624' visible='true' lat='-33.7983746' lon='151.1522792' />
  <node id='-60626' visible='true' lat='-33.7983416' lon='151.1521636' />
  <node id='-60628' visible='true' lat='-33.798356' lon='151.1519568' />
  <node id='-60630' visible='true' lat='-33.7983144' lon='151.1517523' />
  <node id='-60632' visible='true' lat='-33.7983272' lon='151.1515057' />
  <node id='-60634' visible='true' lat='-33.7983607' lon='151.1512864' />
  <node id='-60636' visible='true' lat='-33.7984449' lon='151.1511302' />
  <node id='-60638' visible='true' lat='-33.7985444' lon='151.1510383' />
  <node id='-60640' visible='true' lat='-33.7986315' lon='151.1510149' />
  <node id='-60642' visible='true' lat='-33.798838' lon='151.1510858' />
  <node id='-60644' visible='true' lat='-33.7988781' lon='151.1510666' />
  <node id='-60646' visible='true' lat='-33.7989078' lon='151.1509862' />
  <node id='-60648' visible='true' lat='-33.7989633' lon='151.1508475' />
  <node id='-60650' visible='true' lat='-33.7989911' lon='151.1507247' />
  <node id='-60652' visible='true' lat='-33.7989497' lon='151.1504405' />
  <node id='-60654' visible='true' lat='-33.7989096' lon='151.1503727' />
  <node id='-60656' visible='true' lat='-33.7988331' lon='151.1501669' />
  <node id='-60658' visible='true' lat='-33.7988149' lon='151.149968' />
  <node id='-60660' visible='true' lat='-33.7987867' lon='151.1498448' />
  <node id='-60662' visible='true' lat='-33.7987829' lon='151.1497127' />
  <node id='-60664' visible='true' lat='-33.7987543' lon='151.1496811' />
  <node id='-60666' visible='true' lat='-33.7986537' lon='151.1496755' />
  <node id='-60668' visible='true' lat='-33.7985669' lon='151.1496211' />
  <node id='-60670' visible='true' lat='-33.7984912' lon='151.1495539' />
  <node id='-60672' visible='true' lat='-33.7984633' lon='151.1494263' />
  <node id='-60674' visible='true' lat='-33.798349' lon='151.1492685' />
  <node id='-60676' visible='true' lat='-33.7982598' lon='151.1491982' />
  <node id='-60678' visible='true' lat='-33.7981338' lon='151.1491705' />
  <node id='-60680' visible='true' lat='-33.7981219' lon='151.1490251' />
  <node id='-60682' visible='true' lat='-33.7982334' lon='151.1488944' />
  <node id='-60684' visible='true' lat='-33.7983627' lon='151.1486769' />
  <node id='-60686' visible='true' lat='-33.7984072' lon='151.1485683' />
  <node id='-60688' visible='true' lat='-33.7983768' lon='151.1484482' />
  <node id='-60690' visible='true' lat='-33.7982709' lon='151.1483893' />
  <node id='-60692' visible='true' lat='-33.7981028' lon='151.1483751' />
  <node id='-60694' visible='true' lat='-33.7979719' lon='151.1483874' />
  <node id='-60696' visible='true' lat='-33.7979656' lon='151.1483269' />
  <node id='-60698' visible='true' lat='-33.7980889' lon='151.1482689' />
  <node id='-60700' visible='true' lat='-33.7982162' lon='151.1481452' />
  <node id='-60702' visible='true' lat='-33.7983296' lon='151.1480092' />
  <node id='-60704' visible='true' lat='-33.798392' lon='151.1477467' />
  <node id='-60706' visible='true' lat='-33.7984855' lon='151.1474405' />
  <node id='-60708' visible='true' lat='-33.7984255' lon='151.1470686' />
  <node id='-60710' visible='true' lat='-33.7984889' lon='151.1468195' />
  <node id='-60712' visible='true' lat='-33.798508' lon='151.1467345' />
  <node id='-60714' visible='true' lat='-33.7985916' lon='151.1465926' />
  <node id='-60716' visible='true' lat='-33.7987553' lon='151.1465248' />
  <node id='-60718' visible='true' lat='-33.7988581' lon='151.1463641' />
  <node id='-60720' visible='true' lat='-33.7991267' lon='151.1461334' />
  <node id='-60722' visible='true' lat='-33.7991178' lon='151.145868' />
  <node id='-60724' visible='true' lat='-33.7992318' lon='151.1457313' />
  <node id='-60726' visible='true' lat='-33.7992162' lon='151.1453657' />
  <node id='-60728' visible='true' lat='-33.7992317' lon='151.1452541' />
  <node id='-60730' visible='true' lat='-33.7993138' lon='151.1450851' />
  <node id='-60732' visible='true' lat='-33.7993521' lon='151.1447837' />
  <node id='-60734' visible='true' lat='-33.7993154' lon='151.1445958' />
  <node id='-60736' visible='true' lat='-33.7994176' lon='151.1443367' />
  <node id='-60738' visible='true' lat='-33.799622' lon='151.1443574' />
  <node id='-60740' visible='true' lat='-33.7997527' lon='151.1443165' />
  <node id='-60742' visible='true' lat='-33.7998996' lon='151.1441341' />
  <node id='-60744' visible='true' lat='-33.8000644' lon='151.144034' />
  <node id='-60746' visible='true' lat='-33.8001831' lon='151.1439057' />
  <node id='-60748' visible='true' lat='-33.8003159' lon='151.1438867' />
  <node id='-60750' visible='true' lat='-33.8004397' lon='151.1438232' />
  <node id='-60752' visible='true' lat='-33.7989369' lon='151.1540779' />
  <node id='-60754' visible='true' lat='-33.7988981' lon='151.154096' />
  <node id='-60756' visible='true' lat='-33.7976442' lon='151.1546641' />
  <node id='-60758' visible='true' lat='-33.797521' lon='151.1547537' />
  <node id='-60760' visible='true' lat='-33.79744' lon='151.1548721' />
  <node id='-60762' visible='true' lat='-33.7928727' lon='151.1559361' />
  <node id='-60764' visible='true' lat='-33.792828' lon='151.1557075' />
  <node id='-60766' visible='true' lat='-33.7926043' lon='151.1555291' />
  <node id='-60768' visible='true' lat='-33.7925226' lon='151.1553267' />
  <node id='-60770' visible='true' lat='-33.7926943' lon='151.1552513' />
  <node id='-60772' visible='true' lat='-33.7928666' lon='151.1552634' />
  <node id='-60774' visible='true' lat='-33.7930108' lon='151.1550968' />
  <node id='-60776' visible='true' lat='-33.7934873' lon='151.1547876' />
  <node id='-60778' visible='true' lat='-33.7943807' lon='151.1547512' />
  <node id='-60780' visible='true' lat='-33.794598' lon='151.1547373' />
  <node id='-60782' visible='true' lat='-33.794767' lon='151.1547589' />
  <node id='-60784' visible='true' lat='-33.7955672' lon='151.1550288' />
  <node id='-60786' visible='true' lat='-33.79668' lon='151.155144' />
  <node id='-60788' visible='true' lat='-33.7968968' lon='151.1550882' />
  <node id='-60790' visible='true' lat='-33.79723' lon='151.1550508' />
  <node id='-60792' visible='true' lat='-33.7973061' lon='151.1550576' />
  <node id='-60794' visible='true' lat='-33.7973812' lon='151.1550557' />
  <node id='-60796' visible='true' lat='-33.7928939' lon='151.156832' />
  <node id='-60798' visible='true' lat='-33.7929866' lon='151.1562507' />
  <node id='-60800' visible='true' lat='-33.7929912' lon='151.156169' />
  <node id='-60802' visible='true' lat='-33.7929956' lon='151.1560893' />
  <node id='-60804' action='modify' visible='true' lat='-33.79269262094' lon='151.15682251553' />
  <node id='-60806' visible='true' lat='-33.7928001' lon='151.1568558' />
  <node id='-60808' action='modify' visible='true' lat='-33.79272070683' lon='151.15679883116' />
  <node id='-60810' action='modify' visible='true' lat='-33.79258030914' lon='151.15747698887' />
  <node id='-60812' visible='true' lat='-33.7925305' lon='151.1574486' />
  <node id='-60814' visible='true' lat='-33.7925595' lon='151.1573601' />
  <node id='-60816' visible='true' lat='-33.7943823' lon='151.1578583' />
  <node id='-60818' visible='true' lat='-33.7943209' lon='151.1575618' />
  <node id='-60820' visible='true' lat='-33.7939909' lon='151.1575602' />
  <node id='-60822' visible='true' lat='-33.7934235' lon='151.157495' />
  <node id='-60824' visible='true' lat='-33.7929527' lon='151.1574779' />
  <node id='-60826' visible='true' lat='-33.7927173' lon='151.1575809' />
  <node id='-60828' visible='true' lat='-33.792723' lon='151.157408' />
  <node id='-60830' visible='true' lat='-33.7971363' lon='151.1598646' />
  <node id='-60832' visible='true' lat='-33.7970541' lon='151.159668' />
  <node id='-60834' visible='true' lat='-33.7969229' lon='151.159445' />
  <node id='-60836' visible='true' lat='-33.7968382' lon='151.1593009' />
  <node id='-60838' visible='true' lat='-33.7966544' lon='151.1590451' />
  <node id='-60840' visible='true' lat='-33.7963234' lon='151.1588311' />
  <node id='-60842' visible='true' lat='-33.7960747' lon='151.1587833' />
  <node id='-60844' visible='true' lat='-33.7957848' lon='151.1587597' />
  <node id='-60846' visible='true' lat='-33.7955106' lon='151.1587627' />
  <node id='-60848' visible='true' lat='-33.795429' lon='151.1587597' />
  <node id='-60850' visible='true' lat='-33.7952981' lon='151.1586824' />
  <node id='-60852' visible='true' lat='-33.7951672' lon='151.1585457' />
  <node id='-60854' visible='true' lat='-33.7949003' lon='151.1583286' />
  <node id='-60856' visible='true' lat='-33.7944965' lon='151.1580588' />
  <node id='-60858' action='modify' visible='true' lat='-33.7971584' lon='151.1600411' />
  <node id='-60860' visible='true' lat='-33.7972202' lon='151.1602534' />
  <node id='-60862' visible='true' lat='-33.7973317' lon='151.160456' />
  <node id='-60864' visible='true' lat='-33.7974821' lon='151.1607895' />
  <node id='-60866' visible='true' lat='-33.7976257' lon='151.1611541' />
  <node id='-60868' visible='true' lat='-33.7975576' lon='151.1612708' />
  <node id='-60870' visible='true' lat='-33.7977259' lon='151.1611815' />
  <node id='-60872' visible='true' lat='-33.7979161' lon='151.1611832' />
  <node id='-60874' visible='true' lat='-33.7980246' lon='151.1611898' />
  <node id='-60876' visible='true' lat='-33.7981678' lon='151.1611391' />
  <node id='-60878' visible='true' lat='-33.798292' lon='151.1612017' />
  <node id='-60880' visible='true' lat='-33.7983971' lon='151.1612941' />
  <node id='-60882' visible='true' lat='-33.7984633' lon='151.1613804' />
  <node id='-60884' visible='true' lat='-33.7985376' lon='151.1615663' />
  <node id='-60886' visible='true' lat='-33.7986294' lon='151.1616569' />
  <node id='-60888' visible='true' lat='-33.7987237' lon='151.1618308' />
  <node id='-60890' visible='true' lat='-33.7988879' lon='151.1621183' />
  <node id='-60892' visible='true' lat='-33.7989984' lon='151.1624278' />
  <node id='-60894' visible='true' lat='-33.7990513' lon='151.1628902' />
  <node id='-60896' visible='true' lat='-33.7990019' lon='151.16306' />
  <node id='-60898' visible='true' lat='-33.7989924' lon='151.1632252' />
  <node id='-60900' visible='true' lat='-33.7989732' lon='151.1636992' />
  <node id='-60902' visible='true' lat='-33.798946' lon='151.1637939' />
  <node id='-60904' visible='true' lat='-33.798943' lon='151.163835' />
  <node id='-60906' visible='true' lat='-33.7989167' lon='151.163882' />
  <node id='-60908' visible='true' lat='-33.7988435' lon='151.1639112' />
  <node id='-60910' visible='true' lat='-33.7988316' lon='151.1639279' />
  <node id='-60912' visible='true' lat='-33.7988014' lon='151.1640036' />
  <node id='-60914' visible='true' lat='-33.7987116' lon='151.1640818' />
  <node id='-60916' visible='true' lat='-33.7986014' lon='151.1642026' />
  <node id='-60918' visible='true' lat='-33.7985742' lon='151.164249' />
  <node id='-60920' visible='true' lat='-33.7984793' lon='151.1643369' />
  <node id='-60922' visible='true' lat='-33.7983603' lon='151.1643878' />
  <node id='-60924' visible='true' lat='-33.7982633' lon='151.164479' />
  <node id='-60926' visible='true' lat='-33.7981395' lon='151.1645993' />
  <node id='-60928' visible='true' lat='-33.7980579' lon='151.1646427' />
  <node id='-60930' visible='true' lat='-33.7980272' lon='151.1646773' />
  <node id='-60932' visible='true' lat='-33.7979559' lon='151.1647744' />
  <node id='-60934' visible='true' lat='-33.797841' lon='151.1649287' />
  <node id='-60936' visible='true' lat='-33.7978232' lon='151.1649514' />
  <node id='-60938' visible='true' lat='-33.7977697' lon='151.1649734' />
  <node id='-60940' visible='true' lat='-33.7977549' lon='151.1649829' />
  <node id='-60942' visible='true' lat='-33.7977296' lon='151.1650586' />
  <node id='-60944' visible='true' lat='-33.7977051' lon='151.165138' />
  <node id='-60946' visible='true' lat='-33.7976777' lon='151.1652677' />
  <node id='-60948' visible='true' lat='-33.7976564' lon='151.1653255' />
  <node id='-60950' visible='true' lat='-33.7976163' lon='151.1653994' />
  <node id='-60952' visible='true' lat='-33.7976076' lon='151.1654228' />
  <node id='-60954' visible='true' lat='-33.7976423' lon='151.16556' />
  <node id='-60956' visible='true' lat='-33.7977212' lon='151.165665' />
  <node id='-60958' visible='true' lat='-33.797845' lon='151.1656805' />
  <node id='-60960' visible='true' lat='-33.7979524' lon='151.1657246' />
  <node id='-60962' visible='true' lat='-33.798094' lon='151.1657275' />
  <node id='-60964' visible='true' lat='-33.7981267' lon='151.1657461' />
  <node id='-60966' visible='true' lat='-33.7981752' lon='151.165805' />
  <node id='-60968' visible='true' lat='-33.7983138' lon='151.1658324' />
  <node id='-60970' visible='true' lat='-33.7984709' lon='151.1658777' />
  <node id='-60972' visible='true' lat='-33.7985861' lon='151.1658956' />
  <node id='-60974' visible='true' lat='-33.7987083' lon='151.1659254' />
  <node id='-60976' visible='true' lat='-33.7987425' lon='151.1659254' />
  <node id='-60978' visible='true' lat='-33.7987796' lon='151.1659498' />
  <node id='-60980' visible='true' lat='-33.7988388' lon='151.1659705' />
  <node id='-60982' visible='true' lat='-33.7988987' lon='151.1659693' />
  <node id='-60984' visible='true' lat='-33.798933' lon='151.1659771' />
  <node id='-60986' visible='true' lat='-33.7989816' lon='151.1659871' />
  <node id='-60988' visible='true' lat='-33.7990202' lon='151.1660019' />
  <node id='-60990' visible='true' lat='-33.7990685' lon='151.1660176' />
  <node id='-60992' visible='true' lat='-33.7990761' lon='151.1660201' />
  <node id='-60994' visible='true' lat='-33.799083' lon='151.1660137' />
  <node id='-60996' visible='true' lat='-33.7991041' lon='151.1659579' />
  <node id='-60998' visible='true' lat='-33.7991146' lon='151.1659406' />
  <node id='-61000' visible='true' lat='-33.7991247' lon='151.1659562' />
  <node id='-61002' visible='true' lat='-33.7991286' lon='151.1659874' />
  <node id='-61004' visible='true' lat='-33.7991384' lon='151.1660476' />
  <node id='-61006' visible='true' lat='-33.7991667' lon='151.166072' />
  <node id='-61008' visible='true' lat='-33.7991999' lon='151.1660978' />
  <node id='-61010' visible='true' lat='-33.7992698' lon='151.1661403' />
  <node id='-61012' visible='true' lat='-33.7993406' lon='151.1661888' />
  <node id='-61014' visible='true' lat='-33.7994028' lon='151.1662869' />
  <node id='-61016' visible='true' lat='-33.7994364' lon='151.166357' />
  <node id='-61018' visible='true' lat='-33.7994923' lon='151.1664632' />
  <node id='-61020' visible='true' lat='-33.7995296' lon='151.1665203' />
  <node id='-61022' visible='true' lat='-33.7995689' lon='151.1665754' />
  <node id='-61024' visible='true' lat='-33.7995991' lon='151.1666179' />
  <node id='-61026' visible='true' lat='-33.7996192' lon='151.1666445' />
  <node id='-61028' visible='true' lat='-33.7996401' lon='151.166716' />
  <node id='-61030' visible='true' lat='-33.7996557' lon='151.1667554' />
  <node id='-61032' visible='true' lat='-33.7996814' lon='151.1668266' />
  <node id='-61034' visible='true' lat='-33.7996783' lon='151.1668973' />
  <node id='-61036' visible='true' lat='-33.7996725' lon='151.1669498' />
  <node id='-61038' visible='true' lat='-33.7996806' lon='151.1669958' />
  <node id='-61040' visible='true' lat='-33.7997066' lon='151.1671022' />
  <node id='-61042' visible='true' lat='-33.7997396' lon='151.1671549' />
  <node id='-61044' visible='true' lat='-33.7997817' lon='151.1672243' />
  <node id='-61046' visible='true' lat='-33.7997912' lon='151.1672887' />
  <node id='-61048' visible='true' lat='-33.7998083' lon='151.1673641' />
  <node id='-61050' visible='true' lat='-33.7998237' lon='151.1674194' />
  <node id='-61052' visible='true' lat='-33.7998242' lon='151.1674539' />
  <node id='-61054' visible='true' lat='-33.7998642' lon='151.1675285' />
  <node id='-61056' visible='true' lat='-33.7998818' lon='151.1675648' />
  <node id='-61058' visible='true' lat='-33.7999118' lon='151.1676548' />
  <node id='-61060' visible='true' lat='-33.7999377' lon='151.1677346' />
  <node id='-61062' visible='true' lat='-33.7999508' lon='151.1677811' />
  <node id='-61064' visible='true' lat='-33.7999493' lon='151.1678099' />
  <node id='-61066' visible='true' lat='-33.7999324' lon='151.1679163' />
  <node id='-61068' visible='true' lat='-33.7999253' lon='151.1679633' />
  <node id='-61070' visible='true' lat='-33.799924' lon='151.167991' />
  <node id='-61072' visible='true' lat='-33.7999342' lon='151.1680656' />
  <node id='-61074' visible='true' lat='-33.7999525' lon='151.1681796' />
  <node id='-61076' visible='true' lat='-33.8000014' lon='151.1683349' />
  <node id='-61078' visible='true' lat='-33.8000502' lon='151.1684516' />
  <node id='-61080' visible='true' lat='-33.8000734' lon='151.1685198' />
  <node id='-61082' visible='true' lat='-33.8000606' lon='151.1685754' />
  <node id='-61084' visible='true' lat='-33.8000296' lon='151.1686792' />
  <node id='-61086' visible='true' lat='-33.7999907' lon='151.1687638' />
  <node id='-61088' visible='true' lat='-33.7999268' lon='151.1689075' />
  <node id='-61090' visible='true' lat='-33.7998858' lon='151.1690051' />
  <node id='-61092' visible='true' lat='-33.799849' lon='151.1691162' />
  <node id='-61094' visible='true' lat='-33.7998327' lon='151.1691792' />
  <node id='-61096' visible='true' lat='-33.7998401' lon='151.1692294' />
  <node id='-61098' visible='true' lat='-33.7998522' lon='151.1693108' />
  <node id='-61100' visible='true' lat='-33.7998699' lon='151.1693901' />
  <node id='-61102' visible='true' lat='-33.799893' lon='151.1694459' />
  <node id='-61104' visible='true' lat='-33.7998322' lon='151.1694081' />
  <node id='-61106' visible='true' lat='-33.7997765' lon='151.169437' />
  <node id='-61108' visible='true' lat='-33.7997141' lon='151.1695256' />
  <node id='-61110' action='modify' visible='true' lat='-33.79937659358' lon='151.16935698354' />
  <node id='-61112' action='modify' visible='true' lat='-33.79887746477' lon='151.16949078981' />
  <node id='-61114' action='modify' visible='true' lat='-33.79811888224' lon='151.1703590438' />
  <node id='-61116' action='modify' visible='true' lat='-33.79787554081' lon='151.17131585921' />
  <node id='-61118' action='modify' visible='true' lat='-33.79773925596' lon='151.17128221821' />
  <node id='-61120' action='modify' visible='true' lat='-33.79747367461' lon='151.17131165408' />
  <node id='-61122' action='modify' visible='true' lat='-33.79747367461' lon='151.17137893609' />
  <node id='-61124' action='modify' visible='true' lat='-33.79741855911' lon='151.17445135652' />
  <node id='-61126' action='modify' visible='true' lat='-33.79728402079' lon='151.17497279204' />
  <node id='-61128' action='modify' visible='true' lat='-33.79752688852' lon='151.17505689455' />
  <node id='-61130' action='modify' visible='true' lat='-33.79724907574' lon='151.17610397073' />
  <node id='-61132' action='modify' visible='true' lat='-33.79762822881' lon='151.17623853473' />
  <node id='-61134' action='modify' visible='true' lat='-33.79742030636' lon='151.17709848284' />
  <node id='-61136' action='modify' visible='true' lat='-33.79739409762' lon='151.17719099559' />
  <node id='-61138' action='modify' visible='true' lat='-33.79719316362' lon='151.17801940526' />
  <node id='-61140' action='modify' visible='true' lat='-33.79767540441' lon='151.17818971283' />
  <node id='-61142' action='modify' visible='true' lat='-33.7976317233' lon='151.17838735372' />
  <node id='-61144' action='modify' visible='true' lat='-33.79702892157' lon='151.18033222413' />
  <node id='-61146' action='modify' visible='true' lat='-33.79704639415' lon='151.18037848051' />
  <node id='-61148' action='modify' visible='true' lat='-33.79700445996' lon='151.18055930089' />
  <node id='-61150' action='modify' visible='true' lat='-33.79681575589' lon='151.18113960817' />
  <node id='-61152' action='modify' visible='true' lat='-33.79746398759' lon='151.18114801842' />
  <node id='-61154' action='modify' visible='true' lat='-33.79746573484' lon='151.18091673653' />
  <way id='-61156' visible='true'>
    <nd ref='-59438' />
    <nd ref='-59436' />
    <nd ref='-59434' />
    <nd ref='-59432' />
    <nd ref='-59430' />
    <nd ref='-59428' />
    <nd ref='-59426' />
    <nd ref='-59424' />
    <nd ref='-59422' />
    <nd ref='-59420' />
    <nd ref='-59418' />
    <nd ref='-59416' />
    <nd ref='-59414' />
    <nd ref='-59412' />
    <nd ref='-59410' />
    <nd ref='-59408' />
    <nd ref='-59406' />
    <nd ref='-59404' />
    <nd ref='-59402' />
    <nd ref='-59400' />
    <nd ref='-59398' />
    <nd ref='-59396' />
    <nd ref='-59394' />
    <nd ref='-59392' />
    <nd ref='-59390' />
    <nd ref='-59388' />
    <nd ref='-59386' />
    <nd ref='-59384' />
    <nd ref='-59382' />
    <nd ref='-59380' />
    <nd ref='-59378' />
    <nd ref='-59376' />
    <nd ref='-59374' />
    <nd ref='-59372' />
    <nd ref='-59370' />
    <nd ref='-59368' />
    <nd ref='-59366' />
    <nd ref='-59364' />
    <nd ref='-59362' />
    <nd ref='-59360' />
    <nd ref='-59358' />
    <nd ref='-59356' />
    <nd ref='-59354' />
    <nd ref='-59352' />
    <nd ref='-59350' />
    <nd ref='-59348' />
    <nd ref='-59346' />
    <nd ref='-59344' />
    <nd ref='-59342' />
    <nd ref='-59340' />
    <nd ref='-59338' />
    <nd ref='-59336' />
    <nd ref='-59334' />
    <nd ref='-59332' />
    <nd ref='-59330' />
    <nd ref='-59328' />
    <nd ref='-59326' />
    <nd ref='-59324' />
    <nd ref='-59322' />
    <nd ref='-59320' />
    <nd ref='-59318' />
    <nd ref='-59316' />
    <nd ref='-59314' />
    <nd ref='-59312' />
    <nd ref='-59310' />
    <nd ref='-59308' />
    <nd ref='-59306' />
    <nd ref='-59304' />
    <nd ref='-59302' />
    <nd ref='-59300' />
    <nd ref='-59298' />
    <nd ref='-59296' />
    <nd ref='-59294' />
    <nd ref='-59292' />
    <nd ref='-59290' />
    <nd ref='-59288' />
    <nd ref='-59286' />
    <nd ref='-59284' />
    <nd ref='-59282' />
    <nd ref='-59280' />
    <nd ref='-59278' />
    <nd ref='-59276' />
    <nd ref='-59274' />
    <nd ref='-59272' />
    <nd ref='-59270' />
    <tag k='name' v='Bluegum Reserve' />
    <tag k='role' v='altroute' />
    <tag k='style' v='oneway' />
  </way>
  <way id='-61158' action='modify' visible='true'>
    <nd ref='-61154' />
    <nd ref='-61152' />
    <nd ref='-61150' />
    <nd ref='-61148' />
    <nd ref='-61146' />
    <nd ref='-61144' />
    <nd ref='-61142' />
    <nd ref='-61140' />
    <nd ref='-61138' />
    <nd ref='-61136' />
    <nd ref='-61134' />
    <nd ref='-61132' />
    <nd ref='-61130' />
    <nd ref='-61128' />
    <nd ref='-61126' />
    <nd ref='-61124' />
    <nd ref='-61122' />
    <nd ref='-61120' />
    <nd ref='-61118' />
    <nd ref='-61116' />
    <nd ref='-61114' />
    <nd ref='-61112' />
    <nd ref='-61110' />
    <nd ref='-61108' />
    <nd ref='-61106' />
    <nd ref='-61104' />
    <nd ref='-61102' />
    <nd ref='-61100' />
    <nd ref='-61098' />
    <nd ref='-61096' />
    <nd ref='-61094' />
    <nd ref='-61092' />
    <nd ref='-61090' />
    <nd ref='-61088' />
    <nd ref='-61086' />
    <nd ref='-61084' />
    <nd ref='-61082' />
    <nd ref='-61080' />
    <nd ref='-61078' />
    <nd ref='-61076' />
    <nd ref='-61074' />
    <nd ref='-61072' />
    <nd ref='-61070' />
    <nd ref='-61068' />
    <nd ref='-61066' />
    <nd ref='-61064' />
    <nd ref='-61062' />
    <nd ref='-61060' />
    <nd ref='-61058' />
    <nd ref='-61056' />
    <nd ref='-61054' />
    <nd ref='-61052' />
    <nd ref='-61050' />
    <nd ref='-61048' />
    <nd ref='-61046' />
    <nd ref='-61044' />
    <nd ref='-61042' />
    <nd ref='-61040' />
    <nd ref='-61038' />
    <nd ref='-61036' />
    <nd ref='-61034' />
    <nd ref='-61032' />
    <nd ref='-61030' />
    <nd ref='-61028' />
    <nd ref='-61026' />
    <nd ref='-61024' />
    <nd ref='-61022' />
    <nd ref='-61020' />
    <nd ref='-61018' />
    <nd ref='-61016' />
    <nd ref='-61014' />
    <nd ref='-61012' />
    <nd ref='-61010' />
    <nd ref='-61008' />
    <nd ref='-61006' />
    <nd ref='-61004' />
    <nd ref='-61002' />
    <nd ref='-61000' />
    <nd ref='-60998' />
    <nd ref='-60996' />
    <nd ref='-60994' />
    <nd ref='-60992' />
    <nd ref='-60990' />
    <nd ref='-60988' />
    <nd ref='-60986' />
    <nd ref='-60984' />
    <nd ref='-60982' />
    <nd ref='-60980' />
    <nd ref='-60978' />
    <nd ref='-60976' />
    <nd ref='-60974' />
    <nd ref='-60972' />
    <nd ref='-60970' />
    <nd ref='-60968' />
    <nd ref='-60966' />
    <nd ref='-60964' />
    <nd ref='-60962' />
    <nd ref='-60960' />
    <nd ref='-60958' />
    <nd ref='-60956' />
    <nd ref='-60954' />
    <nd ref='-60952' />
    <nd ref='-60950' />
    <nd ref='-60948' />
    <nd ref='-60946' />
    <nd ref='-60944' />
    <nd ref='-60942' />
    <nd ref='-60940' />
    <nd ref='-60938' />
    <nd ref='-60936' />
    <nd ref='-60934' />
    <nd ref='-60932' />
    <nd ref='-60930' />
    <nd ref='-60928' />
    <nd ref='-60926' />
    <nd ref='-60924' />
    <nd ref='-60922' />
    <nd ref='-60920' />
    <nd ref='-60918' />
    <nd ref='-60916' />
    <nd ref='-60914' />
    <nd ref='-60912' />
    <nd ref='-60910' />
    <nd ref='-60908' />
    <nd ref='-60906' />
    <nd ref='-60904' />
    <nd ref='-60902' />
    <nd ref='-60900' />
    <nd ref='-60898' />
    <nd ref='-60896' />
    <nd ref='-60894' />
    <nd ref='-60892' />
    <nd ref='-60890' />
    <nd ref='-60888' />
    <nd ref='-60886' />
    <nd ref='-60884' />
    <nd ref='-60882' />
    <nd ref='-60880' />
    <nd ref='-60878' />
    <nd ref='-60876' />
    <nd ref='-60874' />
    <nd ref='-60872' />
    <nd ref='-60870' />
    <nd ref='-60868' />
    <nd ref='-60866' />
    <nd ref='-60864' />
    <nd ref='-60862' />
    <nd ref='-60860' />
    <nd ref='-60858' />
    <nd ref='-60830' />
    <nd ref='-60832' />
    <nd ref='-60834' />
    <nd ref='-60836' />
    <nd ref='-60838' />
    <nd ref='-60840' />
    <nd ref='-60842' />
    <nd ref='-60844' />
    <nd ref='-60846' />
    <nd ref='-60848' />
    <nd ref='-60850' />
    <nd ref='-60852' />
    <nd ref='-60854' />
    <nd ref='-60856' />
    <nd ref='-60816' />
    <nd ref='-60818' />
    <nd ref='-60820' />
    <nd ref='-60822' />
    <nd ref='-60824' />
    <nd ref='-60826' />
    <nd ref='-60828' />
    <nd ref='-60814' />
    <nd ref='-60812' />
    <nd ref='-60810' />
    <nd ref='-60808' />
    <nd ref='-59494' />
    <nd ref='-59492' />
    <nd ref='-59490' />
    <nd ref='-60804' />
    <nd ref='-60806' />
    <nd ref='-60796' />
    <nd ref='-60798' />
    <nd ref='-60800' />
    <nd ref='-60802' />
    <nd ref='-60762' />
    <nd ref='-60764' />
    <nd ref='-60766' />
    <nd ref='-60768' />
    <nd ref='-60770' />
    <nd ref='-60772' />
    <nd ref='-60774' />
    <nd ref='-60776' />
    <nd ref='-60778' />
    <nd ref='-60780' />
    <nd ref='-60782' />
    <nd ref='-60784' />
    <nd ref='-60786' />
    <nd ref='-60788' />
    <nd ref='-60790' />
    <nd ref='-60792' />
    <nd ref='-60794' />
    <nd ref='-60760' />
    <nd ref='-60758' />
    <nd ref='-60756' />
    <nd ref='-60754' />
    <nd ref='-60752' />
    <nd ref='-60608' />
    <nd ref='-60610' />
    <nd ref='-60612' />
    <nd ref='-60614' />
    <nd ref='-60616' />
    <nd ref='-60618' />
    <nd ref='-60620' />
    <nd ref='-60622' />
    <nd ref='-60624' />
    <nd ref='-60626' />
    <nd ref='-60628' />
    <nd ref='-60630' />
    <nd ref='-60632' />
    <nd ref='-60634' />
    <nd ref='-60636' />
    <nd ref='-60638' />
    <nd ref='-60640' />
    <nd ref='-60642' />
    <nd ref='-60644' />
    <nd ref='-60646' />
    <nd ref='-60648' />
    <nd ref='-60650' />
    <nd ref='-60652' />
    <nd ref='-60654' />
    <nd ref='-60656' />
    <nd ref='-60658' />
    <nd ref='-60660' />
    <nd ref='-60662' />
    <nd ref='-60664' />
    <nd ref='-60666' />
    <nd ref='-60668' />
    <nd ref='-60670' />
    <nd ref='-60672' />
    <nd ref='-60674' />
    <nd ref='-60676' />
    <nd ref='-60678' />
    <nd ref='-60680' />
    <nd ref='-60682' />
    <nd ref='-60684' />
    <nd ref='-60686' />
    <nd ref='-60688' />
    <nd ref='-60690' />
    <nd ref='-60692' />
    <nd ref='-60694' />
    <nd ref='-60696' />
    <nd ref='-60698' />
    <nd ref='-60700' />
    <nd ref='-60702' />
    <nd ref='-60704' />
    <nd ref='-60706' />
    <nd ref='-60708' />
    <nd ref='-60710' />
    <nd ref='-60712' />
    <nd ref='-60714' />
    <nd ref='-60716' />
    <nd ref='-60718' />
    <nd ref='-60720' />
    <nd ref='-60722' />
    <nd ref='-60724' />
    <nd ref='-60726' />
    <nd ref='-60728' />
    <nd ref='-60730' />
    <nd ref='-60732' />
    <nd ref='-60734' />
    <nd ref='-60736' />
    <nd ref='-60738' />
    <nd ref='-60740' />
    <nd ref='-60742' />
    <nd ref='-60744' />
    <nd ref='-60746' />
    <nd ref='-60748' />
    <nd ref='-60750' />
    <nd ref='-60606' />
    <nd ref='-60604' />
    <nd ref='-60602' />
    <nd ref='-60598' />
    <nd ref='-60600' />
    <nd ref='-60588' />
    <nd ref='-60590' />
    <nd ref='-60592' />
    <nd ref='-60594' />
    <nd ref='-60596' />
    <nd ref='-60578' />
    <nd ref='-60580' />
    <nd ref='-60582' />
    <nd ref='-60584' />
    <nd ref='-60586' />
    <nd ref='-60576' />
    <nd ref='-60568' />
    <nd ref='-60570' />
    <nd ref='-60572' />
    <nd ref='-60574' />
    <nd ref='-60562' />
    <nd ref='-60564' />
    <nd ref='-60566' />
    <nd ref='-60532' />
    <nd ref='-60534' />
    <nd ref='-60536' />
    <nd ref='-60538' />
    <nd ref='-60540' />
    <nd ref='-60542' />
    <nd ref='-60544' />
    <nd ref='-60546' />
    <nd ref='-60548' />
    <nd ref='-60550' />
    <nd ref='-60552' />
    <nd ref='-60554' />
    <nd ref='-60556' />
    <nd ref='-60558' />
    <nd ref='-60560' />
    <nd ref='-60530' />
    <nd ref='-60408' />
    <nd ref='-60410' />
    <nd ref='-60412' />
    <nd ref='-60414' />
    <nd ref='-60416' />
    <nd ref='-60418' />
    <nd ref='-60420' />
    <nd ref='-60422' />
    <nd ref='-60424' />
    <nd ref='-60426' />
    <nd ref='-60428' />
    <nd ref='-60430' />
    <nd ref='-60432' />
    <nd ref='-60434' />
    <nd ref='-60436' />
    <nd ref='-60438' />
    <nd ref='-60440' />
    <nd ref='-60442' />
    <nd ref='-60444' />
    <nd ref='-60446' />
    <nd ref='-60448' />
    <nd ref='-60450' />
    <nd ref='-60452' />
    <nd ref='-60454' />
    <nd ref='-60456' />
    <nd ref='-60458' />
    <nd ref='-60460' />
    <nd ref='-60462' />
    <nd ref='-60464' />
    <nd ref='-60466' />
    <nd ref='-60468' />
    <nd ref='-60470' />
    <nd ref='-60472' />
    <nd ref='-60474' />
    <nd ref='-60476' />
    <nd ref='-60478' />
    <nd ref='-60480' />
    <nd ref='-60482' />
    <nd ref='-60484' />
    <nd ref='-60486' />
    <nd ref='-60488' />
    <nd ref='-60490' />
    <nd ref='-60492' />
    <nd ref='-60494' />
    <nd ref='-60496' />
    <nd ref='-60498' />
    <nd ref='-60500' />
    <nd ref='-60502' />
    <nd ref='-60504' />
    <nd ref='-60506' />
    <nd ref='-60508' />
    <nd ref='-60510' />
    <nd ref='-60512' />
    <nd ref='-60514' />
    <nd ref='-60516' />
    <nd ref='-60518' />
    <nd ref='-60520' />
    <nd ref='-60522' />
    <nd ref='-60524' />
    <nd ref='-60526' />
    <nd ref='-60528' />
    <nd ref='-60276' />
    <nd ref='-60278' />
    <nd ref='-60280' />
    <nd ref='-60282' />
    <nd ref='-60284' />
    <nd ref='-60286' />
    <nd ref='-60288' />
    <nd ref='-60290' />
    <nd ref='-60292' />
    <nd ref='-60294' />
    <nd ref='-60296' />
    <nd ref='-60298' />
    <nd ref='-60300' />
    <nd ref='-60302' />
    <nd ref='-60304' />
    <nd ref='-60306' />
    <nd ref='-60308' />
    <nd ref='-60310' />
    <nd ref='-60312' />
    <nd ref='-60314' />
    <nd ref='-60316' />
    <nd ref='-60318' />
    <nd ref='-60320' />
    <nd ref='-60322' />
    <nd ref='-60324' />
    <nd ref='-60326' />
    <nd ref='-60328' />
    <nd ref='-60330' />
    <nd ref='-60332' />
    <nd ref='-60334' />
    <nd ref='-60336' />
    <nd ref='-60338' />
    <nd ref='-60340' />
    <nd ref='-60342' />
    <nd ref='-60344' />
    <nd ref='-60346' />
    <nd ref='-60348' />
    <nd ref='-60350' />
    <nd ref='-60352' />
    <nd ref='-60354' />
    <nd ref='-60356' />
    <nd ref='-60358' />
    <nd ref='-60360' />
    <nd ref='-60362' />
    <nd ref='-60364' />
    <nd ref='-60366' />
    <nd ref='-60368' />
    <nd ref='-60370' />
    <nd ref='-60372' />
    <nd ref='-60374' />
    <nd ref='-60376' />
    <nd ref='-60378' />
    <nd ref='-60380' />
    <nd ref='-60382' />
    <nd ref='-60384' />
    <nd ref='-60386' />
    <nd ref='-60388' />
    <nd ref='-60390' />
    <nd ref='-60392' />
    <nd ref='-60394' />
    <nd ref='-60396' />
    <nd ref='-60398' />
    <nd ref='-60400' />
    <nd ref='-60402' />
    <nd ref='-60404' />
    <nd ref='-60406' />
    <nd ref='-60274' />
    <nd ref='-60272' />
    <nd ref='-60270' />
    <nd ref='-60268' />
    <nd ref='-60266' />
    <nd ref='-60264' />
    <nd ref='-60262' />
    <nd ref='-60260' />
    <nd ref='-60258' />
    <nd ref='-60256' />
    <nd ref='-60254' />
    <nd ref='-60252' />
    <nd ref='-60234' />
    <nd ref='-60236' />
    <nd ref='-60238' />
    <nd ref='-60240' />
    <nd ref='-60242' />
    <nd ref='-60244' />
    <nd ref='-60246' />
    <nd ref='-60248' />
    <nd ref='-60250' />
    <nd ref='-60230' />
    <nd ref='-60232' />
    <nd ref='-60210' />
    <nd ref='-60212' />
    <nd ref='-60214' />
    <nd ref='-60216' />
    <nd ref='-60218' />
    <nd ref='-60220' />
    <nd ref='-60222' />
    <nd ref='-60224' />
    <nd ref='-60226' />
    <nd ref='-60228' />
    <nd ref='-60204' />
    <nd ref='-60206' />
    <nd ref='-60208' />
    <nd ref='-60200' />
    <nd ref='-60202' />
    <nd ref='-59466' />
    <nd ref='-59464' />
    <nd ref='-59462' />
    <nd ref='-59460' />
    <nd ref='-59458' />
    <nd ref='-59456' />
    <nd ref='-59454' />
    <nd ref='-59452' />
    <nd ref='-59450' />
    <nd ref='-59448' />
    <nd ref='-59446' />
    <nd ref='-59444' />
    <nd ref='-59442' />
    <nd ref='-59440' />
    <nd ref='-60198' />
    <nd ref='-60184' />
    <nd ref='-60186' />
    <nd ref='-60188' />
    <nd ref='-60190' />
    <nd ref='-60192' />
    <nd ref='-60194' />
    <nd ref='-60196' />
    <nd ref='-60182' />
    <nd ref='-60180' />
    <nd ref='-60178' />
    <nd ref='-60176' />
    <nd ref='-60174' />
    <nd ref='-60172' />
    <nd ref='-60170' />
    <nd ref='-60168' />
    <nd ref='-60166' />
    <nd ref='-60164' />
    <nd ref='-60162' />
    <nd ref='-60160' />
    <nd ref='-60158' />
    <nd ref='-60156' />
    <nd ref='-60154' />
    <nd ref='-60152' />
    <nd ref='-60150' />
    <nd ref='-60148' />
    <nd ref='-60146' />
    <nd ref='-60144' />
    <nd ref='-60142' />
    <nd ref='-60140' />
    <nd ref='-60138' />
    <nd ref='-60108' />
    <nd ref='-60110' />
    <nd ref='-60112' />
    <nd ref='-60114' />
    <nd ref='-60116' />
    <nd ref='-60118' />
    <nd ref='-60120' />
    <nd ref='-60122' />
    <nd ref='-60124' />
    <nd ref='-60126' />
    <nd ref='-60128' />
    <nd ref='-60130' />
    <nd ref='-60132' />
    <nd ref='-60134' />
    <nd ref='-60136' />
    <nd ref='-60102' />
    <nd ref='-60106' />
    <nd ref='-60104' />
    <nd ref='-60072' />
    <nd ref='-60074' />
    <nd ref='-60076' />
    <nd ref='-60078' />
    <nd ref='-60080' />
    <nd ref='-60082' />
    <nd ref='-60084' />
    <nd ref='-60086' />
    <nd ref='-60088' />
    <nd ref='-60090' />
    <nd ref='-60092' />
    <nd ref='-60094' />
    <nd ref='-60096' />
    <nd ref='-60098' />
    <nd ref='-60100' />
    <nd ref='-59996' />
    <nd ref='-59998' />
    <nd ref='-60000' />
    <nd ref='-60002' />
    <nd ref='-60004' />
    <nd ref='-60006' />
    <nd ref='-60008' />
    <nd ref='-60010' />
    <nd ref='-60012' />
    <nd ref='-60014' />
    <nd ref='-60016' />
    <nd ref='-60018' />
    <nd ref='-60020' />
    <nd ref='-60022' />
    <nd ref='-60024' />
    <nd ref='-60026' />
    <nd ref='-60028' />
    <nd ref='-60030' />
    <nd ref='-60032' />
    <nd ref='-60034' />
    <nd ref='-60036' />
    <nd ref='-60038' />
    <nd ref='-60040' />
    <nd ref='-60042' />
    <nd ref='-60044' />
    <nd ref='-60046' />
    <nd ref='-60048' />
    <nd ref='-60050' />
    <nd ref='-60052' />
    <nd ref='-60054' />
    <nd ref='-60056' />
    <nd ref='-60058' />
    <nd ref='-60060' />
    <nd ref='-60062' />
    <nd ref='-60064' />
    <nd ref='-60066' />
    <nd ref='-60068' />
    <nd ref='-60070' />
    <nd ref='-59990' />
    <nd ref='-59992' />
    <nd ref='-59994' />
    <nd ref='-59980' />
    <nd ref='-59982' />
    <nd ref='-59984' />
    <nd ref='-59986' />
    <nd ref='-59988' />
    <nd ref='-59958' />
    <nd ref='-59978' />
    <nd ref='-59976' />
    <nd ref='-59974' />
    <nd ref='-59972' />
    <nd ref='-59970' />
    <nd ref='-59968' />
    <nd ref='-59966' />
    <nd ref='-59964' />
    <nd ref='-59962' />
    <nd ref='-59960' />
    <nd ref='-59956' />
    <nd ref='-59954' />
    <nd ref='-59952' />
    <nd ref='-59950' />
    <nd ref='-59948' />
    <nd ref='-59946' />
    <nd ref='-59944' />
    <nd ref='-59942' />
    <nd ref='-59940' />
    <nd ref='-59938' />
    <nd ref='-59936' />
    <nd ref='-59934' />
    <nd ref='-59932' />
    <nd ref='-59930' />
    <nd ref='-59928' />
    <nd ref='-59926' />
    <nd ref='-59924' />
    <nd ref='-59892' />
    <nd ref='-59894' />
    <nd ref='-59896' />
    <nd ref='-59898' />
    <nd ref='-59900' />
    <nd ref='-59902' />
    <nd ref='-59904' />
    <nd ref='-59906' />
    <nd ref='-59908' />
    <nd ref='-59910' />
    <nd ref='-59912' />
    <nd ref='-59914' />
    <nd ref='-59916' />
    <nd ref='-59918' />
    <nd ref='-59920' />
    <nd ref='-59922' />
    <nd ref='-59852' />
    <nd ref='-59854' />
    <nd ref='-59856' />
    <nd ref='-59858' />
    <nd ref='-59860' />
    <nd ref='-59862' />
    <nd ref='-59864' />
    <nd ref='-59866' />
    <nd ref='-59868' />
    <nd ref='-59870' />
    <nd ref='-59872' />
    <nd ref='-59874' />
    <nd ref='-59876' />
    <nd ref='-59878' />
    <nd ref='-59880' />
    <nd ref='-59882' />
    <nd ref='-59884' />
    <nd ref='-59886' />
    <nd ref='-59888' />
    <nd ref='-59890' />
    <nd ref='-59838' />
    <nd ref='-59836' />
    <nd ref='-59834' />
    <nd ref='-59832' />
    <nd ref='-59830' />
    <nd ref='-59828' />
    <nd ref='-59826' />
    <nd ref='-59824' />
    <nd ref='-59822' />
    <nd ref='-59820' />
    <nd ref='-59818' />
    <nd ref='-59816' />
    <nd ref='-59814' />
    <nd ref='-59812' />
    <nd ref='-59810' />
    <nd ref='-59808' />
    <nd ref='-59806' />
    <nd ref='-59804' />
    <nd ref='-59474' />
    <nd ref='-59472' />
    <nd ref='-59470' />
    <nd ref='-59468' />
    <nd ref='-59802' />
    <nd ref='-59800' />
    <nd ref='-59798' />
    <nd ref='-59796' />
    <nd ref='-59794' />
    <nd ref='-59792' />
    <nd ref='-59790' />
    <nd ref='-59788' />
    <nd ref='-59786' />
    <nd ref='-59784' />
    <nd ref='-59782' />
    <nd ref='-59780' />
    <nd ref='-59778' />
    <nd ref='-59776' />
    <nd ref='-59774' />
    <nd ref='-59772' />
    <nd ref='-59770' />
    <nd ref='-59768' />
    <nd ref='-59766' />
    <nd ref='-59764' />
    <nd ref='-59762' />
    <nd ref='-59760' />
    <nd ref='-59758' />
    <nd ref='-59750' />
    <nd ref='-59752' />
    <nd ref='-59754' />
    <nd ref='-59756' />
    <nd ref='-59748' />
    <nd ref='-59746' />
    <nd ref='-59742' />
    <nd ref='-59744' />
    <nd ref='-59740' />
    <nd ref='-59738' />
    <nd ref='-59710' />
    <nd ref='-59712' />
    <nd ref='-59714' />
    <nd ref='-59716' />
    <nd ref='-59718' />
    <nd ref='-59720' />
    <nd ref='-59722' />
    <nd ref='-59724' />
    <nd ref='-59726' />
    <nd ref='-59728' />
    <nd ref='-59730' />
    <nd ref='-59732' />
    <nd ref='-59734' />
    <nd ref='-59736' />
    <nd ref='-59708' />
    <nd ref='-59706' />
    <nd ref='-59704' />
    <nd ref='-59702' />
    <nd ref='-59700' />
    <nd ref='-59698' />
    <nd ref='-59696' />
    <nd ref='-59694' />
    <nd ref='-59692' />
    <nd ref='-59690' />
    <nd ref='-59688' />
    <nd ref='-59686' />
    <nd ref='-59684' />
    <nd ref='-59682' />
    <nd ref='-59680' />
    <nd ref='-59678' />
    <nd ref='-59676' />
    <nd ref='-59674' />
    <nd ref='-59672' />
    <nd ref='-59670' />
    <nd ref='-59668' />
    <nd ref='-59666' />
    <nd ref='-59664' />
    <nd ref='-59662' />
    <nd ref='-59660' />
    <nd ref='-59658' />
    <nd ref='-59656' />
    <nd ref='-59654' />
    <nd ref='-59652' />
    <nd ref='-59650' />
    <nd ref='-59648' />
    <nd ref='-59646' />
    <nd ref='-59644' />
    <nd ref='-59642' />
    <nd ref='-59640' />
    <nd ref='-59638' />
    <nd ref='-59636' />
    <nd ref='-59634' />
    <nd ref='-59632' />
    <nd ref='-59630' />
    <nd ref='-59628' />
    <nd ref='-59626' />
    <nd ref='-59624' />
    <nd ref='-59622' />
    <nd ref='-59620' />
    <nd ref='-59618' />
    <nd ref='-59616' />
    <nd ref='-59614' />
    <nd ref='-59612' />
    <nd ref='-59610' />
    <nd ref='-59608' />
    <nd ref='-59606' />
    <nd ref='-59604' />
    <nd ref='-59602' />
    <nd ref='-59600' />
    <nd ref='-59598' />
    <nd ref='-59596' />
    <nd ref='-59594' />
    <nd ref='-59592' />
    <nd ref='-59590' />
    <nd ref='-59588' />
    <nd ref='-59586' />
    <nd ref='-59584' />
    <nd ref='-59582' />
    <nd ref='-59580' />
    <nd ref='-59578' />
    <nd ref='-59576' />
    <nd ref='-59574' />
    <nd ref='-59572' />
    <nd ref='-59570' />
    <nd ref='-59568' />
    <nd ref='-59566' />
    <nd ref='-59564' />
    <nd ref='-59562' />
    <nd ref='-59560' />
    <nd ref='-59558' />
    <nd ref='-59556' />
    <nd ref='-59554' />
    <nd ref='-59552' />
    <nd ref='-59550' />
    <nd ref='-59548' />
    <nd ref='-59546' />
    <nd ref='-59544' />
    <nd ref='-59542' />
    <nd ref='-59540' />
    <nd ref='-59538' />
    <nd ref='-59536' />
    <nd ref='-59534' />
    <nd ref='-59532' />
    <nd ref='-59530' />
    <nd ref='-59528' />
    <nd ref='-59516' />
    <nd ref='-59518' />
    <nd ref='-59520' />
    <nd ref='-59522' />
    <nd ref='-59524' />
    <nd ref='-59526' />
    <nd ref='-59512' />
    <nd ref='-59514' />
    <nd ref='-59510' />
    <nd ref='-59508' />
    <nd ref='-59506' />
    <nd ref='-59504' />
    <nd ref='-59502' />
    <nd ref='-59500' />
    <nd ref='-59498' />
    <nd ref='-59496' />
    <tag k='name' v='Chatswood to Waverton Via Great North Walk' />
    <tag k='photo' v='136319147@N08/50093798867' />
    <tag k='role' v='primary' />
    <tag k='style' v='oneway' />
    <tag k='transport' v='train;carshuffle' />
  </way>
  <way id='-61160' action='modify' visible='true'>
    <nd ref='-59890' />
    <nd ref='-59840' />
    <nd ref='-59842' />
    <nd ref='-59844' />
    <nd ref='-59846' />
    <nd ref='-59848' />
    <nd ref='-59850' />
    <nd ref='-59488' />
    <nd ref='-59486' />
    <nd ref='-59484' />
    <nd ref='-59482' />
    <nd ref='-59480' />
    <nd ref='-59478' />
    <nd ref='-59476' />
    <tag k='name' v='Lillypilly Falls' />
    <tag k='role' v='sidetrack' />
    <tag k='style' v='return' />
  </way>
</osm>
