<?xml version='1.0' encoding='UTF-8'?>
<osm version='0.6' upload='false' generator='JOSM'>
  <node id='-75700' visible='true' lat='-34.570888' lon='150.6778922' />
  <node id='-75702' visible='true' lat='-34.5714219' lon='150.6782547' />
  <node id='-75704' visible='true' lat='-34.5675689' lon='150.6742739' />
  <node id='-75706' visible='true' lat='-34.5677224' lon='150.6747318' />
  <node id='-75708' visible='true' lat='-34.5677719' lon='150.6748313' />
  <node id='-75710' visible='true' lat='-34.5679408' lon='150.6752643' />
  <node id='-75712' visible='true' lat='-34.5680346' lon='150.6754176' />
  <node id='-75714' visible='true' lat='-34.5681711' lon='150.6754135' />
  <node id='-75716' visible='true' lat='-34.5682837' lon='150.6754259' />
  <node id='-75718' visible='true' lat='-34.5685345' lon='150.6757595' />
  <node id='-75720' visible='true' lat='-34.5688297' lon='150.67618' />
  <node id='-75722' visible='true' lat='-34.5690241' lon='150.6763064' />
  <node id='-75724' visible='true' lat='-34.5692084' lon='150.6763458' />
  <node id='-75726' visible='true' lat='-34.5694472' lon='150.6764017' />
  <node id='-75728' visible='true' lat='-34.5695957' lon='150.6764991' />
  <node id='-75730' visible='true' lat='-34.5699198' lon='150.6766711' />
  <node id='-75732' visible='true' lat='-34.5699232' lon='150.6769798' />
  <node id='-75734' visible='true' lat='-34.569971' lon='150.6772015' />
  <node id='-75736' visible='true' lat='-34.5700785' lon='150.6773921' />
  <node id='-75738' visible='true' lat='-34.5701877' lon='150.6775931' />
  <node id='-75740' visible='true' lat='-34.5704828' lon='150.6776739' />
  <node id='-75742' visible='true' lat='-34.5672464' lon='150.6728423' />
  <node id='-75744' visible='true' lat='-34.5673368' lon='150.6728444' />
  <node id='-75746' visible='true' lat='-34.567359' lon='150.6730515' />
  <node id='-75748' visible='true' lat='-34.5674187' lon='150.6731966' />
  <node id='-75750' visible='true' lat='-34.567475' lon='150.6733561' />
  <node id='-75752' visible='true' lat='-34.5675228' lon='150.6736648' />
  <node id='-75754' visible='true' lat='-34.5675023' lon='150.6738492' />
  <node id='-75756' visible='true' lat='-34.5675194' lon='150.6740295' />
  <way id='-75758' action='modify' visible='true'>
    <nd ref='-75702' />
    <nd ref='-75700' />
    <nd ref='-75740' />
    <nd ref='-75738' />
    <nd ref='-75736' />
    <nd ref='-75734' />
    <nd ref='-75732' />
    <nd ref='-75730' />
    <nd ref='-75728' />
    <nd ref='-75726' />
    <nd ref='-75724' />
    <nd ref='-75722' />
    <nd ref='-75720' />
    <nd ref='-75718' />
    <nd ref='-75716' />
    <nd ref='-75714' />
    <nd ref='-75712' />
    <nd ref='-75710' />
    <nd ref='-75708' />
    <nd ref='-75706' />
    <nd ref='-75704' />
    <nd ref='-75756' />
    <nd ref='-75754' />
    <nd ref='-75752' />
    <nd ref='-75750' />
    <nd ref='-75748' />
    <nd ref='-75746' />
    <nd ref='-75744' />
    <nd ref='-75742' />
    <tag k='name' v='Cascades Rainforest Walk' />
    <tag k='park' v='Macquarie Pass National Park' />
    <tag k='photo' v='136319147@N08/22660587983' />
    <tag k='role' v='primary' />
    <tag k='style' v='return' />
    <tag k='transport' v='car' />
  </way>
</osm>
