<?xml version='1.0' encoding='UTF-8'?>
<osm version='0.6' upload='false' generator='JOSM'>
  <node id='-1422' visible='true' lat='-33.7096169' lon='150.3763989' />
  <node id='-1424' visible='true' lat='-33.7094938' lon='150.3763659' />
  <node id='-1426' visible='true' lat='-33.7095114' lon='150.3761792' />
  <node id='-1428' visible='true' lat='-33.7095364' lon='150.3759223' />
  <node id='-1430' visible='true' lat='-33.7100804' lon='150.375959' />
  <node id='-1432' visible='true' lat='-33.7103449' lon='150.3759401' />
  <node id='-1434' visible='true' lat='-33.7104686' lon='150.375658' />
  <node id='-1436' visible='true' lat='-33.7105651' lon='150.3755735' />
  <node id='-1438' visible='true' lat='-33.7099402' lon='150.374514' />
  <node id='-1440' visible='true' lat='-33.7099297' lon='150.3744962' />
  <node id='-1442' visible='true' lat='-33.7100139' lon='150.3743709' />
  <node id='-1444' visible='true' lat='-33.7101027' lon='150.3742005' />
  <node id='-1446' visible='true' lat='-33.7104056' lon='150.3737577' />
  <node id='-1448' visible='true' lat='-33.7106829' lon='150.3734831' />
  <node id='-1450' visible='true' lat='-33.7107219' lon='150.3734636' />
  <node id='-1452' visible='true' lat='-33.7109105' lon='150.373585' />
  <node id='-1454' visible='true' lat='-33.7110979' lon='150.3736655' />
  <node id='-1456' visible='true' lat='-33.7112809' lon='150.3737084' />
  <node id='-1458' visible='true' lat='-33.711385' lon='150.3737001' />
  <node id='-1460' visible='true' lat='-33.7114941' lon='150.3737936' />
  <node id='-1462' visible='true' lat='-33.7115544' lon='150.3738243' />
  <node id='-1464' visible='true' lat='-33.7116038' lon='150.3738617' />
  <node id='-1466' visible='true' lat='-33.7117468' lon='150.3739251' />
  <node id='-1468' visible='true' lat='-33.7118038' lon='150.3739901' />
  <node id='-1470' visible='true' lat='-33.711854' lon='150.3740297' />
  <node id='-1472' visible='true' lat='-33.7119965' lon='150.3740637' />
  <node id='-1474' visible='true' lat='-33.7120187' lon='150.3740992' />
  <node id='-1476' visible='true' lat='-33.7120111' lon='150.3741746' />
  <node id='-1478' visible='true' lat='-33.712019' lon='150.374221' />
  <node id='-1480' visible='true' lat='-33.7120531' lon='150.3742701' />
  <node id='-1482' visible='true' lat='-33.7121079' lon='150.3743174' />
  <node id='-1484' visible='true' lat='-33.7122015' lon='150.3743178' />
  <node id='-1486' visible='true' lat='-33.7122888' lon='150.3743459' />
  <node id='-1488' visible='true' lat='-33.712413' lon='150.3744085' />
  <node id='-1490' visible='true' lat='-33.7124905' lon='150.3744382' />
  <node id='-1492' visible='true' lat='-33.7125546' lon='150.3744008' />
  <node id='-1494' visible='true' lat='-33.7126003' lon='150.3743755' />
  <node id='-1496' visible='true' lat='-33.7126441' lon='150.3743854' />
  <node id='-1498' visible='true' lat='-33.712708' lon='150.3743591' />
  <node id='-1500' visible='true' lat='-33.712809' lon='150.3743695' />
  <node id='-1502' visible='true' lat='-33.7128496' lon='150.3743777' />
  <node id='-1504' visible='true' lat='-33.7128752' lon='150.3743788' />
  <node id='-1506' visible='true' lat='-33.7129309' lon='150.3744162' />
  <node id='-1508' visible='true' lat='-33.7129519' lon='150.3744469' />
  <node id='-1510' visible='true' lat='-33.7129984' lon='150.3744441' />
  <node id='-1512' visible='true' lat='-33.7129922' lon='150.3743946' />
  <node id='-1514' visible='true' lat='-33.7130776' lon='150.3744053' />
  <node id='-1516' visible='true' lat='-33.7131484' lon='150.3744548' />
  <node id='-1518' visible='true' lat='-33.7131959' lon='150.3745482' />
  <node id='-1520' visible='true' lat='-33.7132439' lon='150.3746126' />
  <node id='-1522' visible='true' lat='-33.7133562' lon='150.374675' />
  <node id='-1524' visible='true' lat='-33.7134237' lon='150.3747347' />
  <node id='-1526' visible='true' lat='-33.7134785' lon='150.374765' />
  <node id='-1528' visible='true' lat='-33.7135125' lon='150.3747783' />
  <node id='-1530' visible='true' lat='-33.71355' lon='150.3748076' />
  <node id='-1532' visible='true' lat='-33.7136509' lon='150.3747733' />
  <node id='-1534' visible='true' lat='-33.7137341' lon='150.3746876' />
  <node id='-1536' visible='true' lat='-33.713859' lon='150.3746183' />
  <node id='-1538' visible='true' lat='-33.7139341' lon='150.3747155' />
  <node id='-1540' visible='true' lat='-33.7140483' lon='150.3750025' />
  <node id='-1542' visible='true' lat='-33.714094' lon='150.3750641' />
  <node id='-1544' visible='true' lat='-33.7141912' lon='150.3751263' />
  <node id='-1546' visible='true' lat='-33.7142297' lon='150.3751237' />
  <node id='-1548' visible='true' lat='-33.7142691' lon='150.375101' />
  <node id='-1550' visible='true' lat='-33.7143223' lon='150.3750852' />
  <node id='-1552' visible='true' lat='-33.7143476' lon='150.3750978' />
  <node id='-1554' visible='true' lat='-33.714406' lon='150.3750856' />
  <node id='-1556' visible='true' lat='-33.7144409' lon='150.3750595' />
  <node id='-1558' visible='true' lat='-33.714445' lon='150.3749768' />
  <node id='-1560' visible='true' lat='-33.7145003' lon='150.3749509' />
  <node id='-1562' visible='true' lat='-33.7145914' lon='150.3749498' />
  <node id='-1564' visible='true' lat='-33.7146804' lon='150.3749901' />
  <node id='-1566' visible='true' lat='-33.7147381' lon='150.3749935' />
  <node id='-1568' visible='true' lat='-33.7148188' lon='150.3750474' />
  <node id='-1570' visible='true' lat='-33.7148633' lon='150.3750378' />
  <node id='-1572' visible='true' lat='-33.7149965' lon='150.375077' />
  <node id='-1574' visible='true' lat='-33.715157' lon='150.3750752' />
  <node id='-1576' visible='true' lat='-33.7152492' lon='150.3750241' />
  <node id='-1578' visible='true' lat='-33.7153092' lon='150.3749179' />
  <node id='-1580' visible='true' lat='-33.7153534' lon='150.3748583' />
  <node id='-1582' visible='true' lat='-33.7154166' lon='150.374844' />
  <node id='-1584' visible='true' lat='-33.7155144' lon='150.3748468' />
  <node id='-1586' visible='true' lat='-33.7155587' lon='150.3748716' />
  <node id='-1588' visible='true' lat='-33.7156241' lon='150.3748959' />
  <node id='-1590' visible='true' lat='-33.7157461' lon='150.3750057' />
  <node id='-1592' visible='true' lat='-33.7157853' lon='150.3750577' />
  <node id='-1594' visible='true' lat='-33.7158246' lon='150.3750909' />
  <node id='-1596' visible='true' lat='-33.7159182' lon='150.375128' />
  <node id='-1598' visible='true' lat='-33.7159781' lon='150.3751338' />
  <node id='-1600' visible='true' lat='-33.7159958' lon='150.3751629' />
  <node id='-1602' visible='true' lat='-33.7161001' lon='150.3751587' />
  <node id='-1604' visible='true' lat='-33.716162' lon='150.3751758' />
  <node id='-1606' visible='true' lat='-33.7161818' lon='150.3751734' />
  <node id='-1608' visible='true' lat='-33.7162202' lon='150.3751904' />
  <node id='-1610' visible='true' lat='-33.7162649' lon='150.375223' />
  <node id='-1612' visible='true' lat='-33.716286' lon='150.375233' />
  <node id='-1614' visible='true' lat='-33.7162986' lon='150.37523' />
  <node id='-1616' visible='true' lat='-33.7163475' lon='150.3752414' />
  <node id='-1618' visible='true' lat='-33.7164558' lon='150.3753265' />
  <node id='-1620' visible='true' lat='-33.7164821' lon='150.3753561' />
  <node id='-1622' visible='true' lat='-33.716527' lon='150.3754327' />
  <node id='-1624' visible='true' lat='-33.7165423' lon='150.3755199' />
  <node id='-1626' visible='true' lat='-33.7165755' lon='150.3756049' />
  <node id='-1628' visible='true' lat='-33.7166002' lon='150.3756244' />
  <node id='-1630' visible='true' lat='-33.7167132' lon='150.3756524' />
  <node id='-1632' visible='true' lat='-33.7167359' lon='150.3756826' />
  <node id='-1634' visible='true' lat='-33.7167618' lon='150.3756992' />
  <node id='-1636' visible='true' lat='-33.7167925' lon='150.3756972' />
  <node id='-1638' visible='true' lat='-33.7168176' lon='150.3756841' />
  <node id='-1640' visible='true' lat='-33.7168302' lon='150.3756478' />
  <node id='-1642' visible='true' lat='-33.7168648' lon='150.3756135' />
  <node id='-1644' visible='true' lat='-33.7170129' lon='150.3756399' />
  <node id='-1646' visible='true' lat='-33.7170594' lon='150.3756367' />
  <node id='-1648' visible='true' lat='-33.7171279' lon='150.37564' />
  <node id='-1650' visible='true' lat='-33.7171309' lon='150.3756369' />
  <node id='-1652' visible='true' lat='-33.7171378' lon='150.3756265' />
  <node id='-1654' visible='true' lat='-33.717139' lon='150.3756049' />
  <node id='-1656' visible='true' lat='-33.7171538' lon='150.3755991' />
  <node id='-1658' visible='true' lat='-33.7171611' lon='150.3755967' />
  <node id='-1660' visible='true' lat='-33.7172145' lon='150.3755394' />
  <node id='-1662' visible='true' lat='-33.7172239' lon='150.3755264' />
  <node id='-1664' visible='true' lat='-33.7172575' lon='150.3755191' />
  <node id='-1666' visible='true' lat='-33.7173532' lon='150.3755274' />
  <node id='-1668' visible='true' lat='-33.7174463' lon='150.3755427' />
  <node id='-1670' visible='true' lat='-33.7174939' lon='150.3755483' />
  <node id='-1672' visible='true' lat='-33.7175667' lon='150.3755483' />
  <node id='-1674' visible='true' lat='-33.717603' lon='150.3755624' />
  <node id='-1676' visible='true' lat='-33.717635' lon='150.3755833' />
  <node id='-1678' visible='true' lat='-33.7176721' lon='150.3756343' />
  <node id='-1680' visible='true' lat='-33.717696' lon='150.3756581' />
  <node id='-1682' visible='true' lat='-33.717734' lon='150.3756683' />
  <node id='-1684' visible='true' lat='-33.717751' lon='150.3756814' />
  <node id='-1686' visible='true' lat='-33.7177551' lon='150.3756944' />
  <node id='-1688' visible='true' lat='-33.7177691' lon='150.3757528' />
  <node id='-1690' visible='true' lat='-33.7178168' lon='150.3757655' />
  <node id='-1692' visible='true' lat='-33.7178953' lon='150.375809' />
  <node id='-1694' visible='true' lat='-33.7179603' lon='150.3758833' />
  <node id='-1696' visible='true' lat='-33.7179839' lon='150.3759444' />
  <node id='-1698' visible='true' lat='-33.718021' lon='150.3761023' />
  <node id='-1700' visible='true' lat='-33.7180428' lon='150.3761756' />
  <node id='-1702' visible='true' lat='-33.7181382' lon='150.376327' />
  <node id='-1704' visible='true' lat='-33.7182389' lon='150.3763502' />
  <node id='-1706' visible='true' lat='-33.7182497' lon='150.3763515' />
  <node id='-1708' visible='true' lat='-33.718255' lon='150.3763943' />
  <node id='-1710' visible='true' lat='-33.7182756' lon='150.3764263' />
  <node id='-1712' visible='true' lat='-33.718275' lon='150.3764664' />
  <node id='-1714' visible='true' lat='-33.7182829' lon='150.3765019' />
  <node id='-1716' visible='true' lat='-33.7182962' lon='150.3765354' />
  <node id='-1718' visible='true' lat='-33.718318' lon='150.3765641' />
  <node id='-1720' visible='true' lat='-33.7183221' lon='150.3765986' />
  <node id='-1722' visible='true' lat='-33.7183383' lon='150.3766324' />
  <node id='-1724' visible='true' lat='-33.7184345' lon='150.376712' />
  <node id='-1726' visible='true' lat='-33.7184955' lon='150.3767363' />
  <node id='-1728' visible='true' lat='-33.7185351' lon='150.3767397' />
  <node id='-1730' visible='true' lat='-33.7185492' lon='150.3767626' />
  <node id='-1732' visible='true' lat='-33.7185837' lon='150.3768242' />
  <node id='-1734' visible='true' lat='-33.7185938' lon='150.3768335' />
  <node id='-1736' visible='true' lat='-33.7186172' lon='150.3768287' />
  <node id='-1738' visible='true' lat='-33.7186669' lon='150.3768634' />
  <node id='-1740' visible='true' lat='-33.7187251' lon='150.3768785' />
  <node id='-1742' visible='true' lat='-33.7187611' lon='150.3769066' />
  <node id='-1744' visible='true' lat='-33.7188086' lon='150.3769568' />
  <node id='-1746' visible='true' lat='-33.7188338' lon='150.3769732' />
  <node id='-1748' visible='true' lat='-33.7188714' lon='150.3770182' />
  <node id='-1750' visible='true' lat='-33.7188937' lon='150.3770267' />
  <node id='-1752' visible='true' lat='-33.7189029' lon='150.3770529' />
  <node id='-1754' visible='true' lat='-33.7188953' lon='150.377074' />
  <node id='-1756' visible='true' lat='-33.718905' lon='150.3771102' />
  <node id='-1758' visible='true' lat='-33.7189205' lon='150.3771208' />
  <node id='-1760' visible='true' lat='-33.7189341' lon='150.3771159' />
  <node id='-1762' visible='true' lat='-33.7189875' lon='150.3771031' />
  <node id='-1764' visible='true' lat='-33.7190096' lon='150.3771029' />
  <node id='-1766' visible='true' lat='-33.7190317' lon='150.3771158' />
  <node id='-1768' visible='true' lat='-33.719054' lon='150.3772309' />
  <node id='-1770' visible='true' lat='-33.7190208' lon='150.3773129' />
  <node id='-1772' visible='true' lat='-33.719037' lon='150.3773247' />
  <node id='-1774' visible='true' lat='-33.7190699' lon='150.3774331' />
  <node id='-1776' visible='true' lat='-33.7190688' lon='150.3774762' />
  <node id='-1778' visible='true' lat='-33.7190626' lon='150.3774914' />
  <node id='-1780' visible='true' lat='-33.7191297' lon='150.3775215' />
  <node id='-1782' visible='true' lat='-33.7191653' lon='150.3775565' />
  <node id='-1784' visible='true' lat='-33.7192197' lon='150.3775691' />
  <node id='-1786' visible='true' lat='-33.7193196' lon='150.377539' />
  <node id='-1788' visible='true' lat='-33.7193763' lon='150.3775191' />
  <node id='-1790' visible='true' lat='-33.7193859' lon='150.3774546' />
  <node id='-1792' visible='true' lat='-33.7194619' lon='150.3774335' />
  <node id='-1794' visible='true' lat='-33.7194902' lon='150.3774083' />
  <node id='-1796' visible='true' lat='-33.7195478' lon='150.3773845' />
  <node id='-1798' visible='true' lat='-33.7195847' lon='150.3773751' />
  <node id='-1800' visible='true' lat='-33.7196587' lon='150.3773589' />
  <node id='-1802' visible='true' lat='-33.719722' lon='150.3773304' />
  <node id='-1804' visible='true' lat='-33.7197537' lon='150.377301' />
  <node id='-1806' visible='true' lat='-33.7197825' lon='150.3772914' />
  <node id='-1808' visible='true' lat='-33.7198241' lon='150.3772727' />
  <node id='-1810' visible='true' lat='-33.7198324' lon='150.3772596' />
  <node id='-1812' visible='true' lat='-33.7198411' lon='150.3772431' />
  <node id='-1814' visible='true' lat='-33.7198609' lon='150.3772241' />
  <node id='-1816' visible='true' lat='-33.7198948' lon='150.3772086' />
  <node id='-1818' visible='true' lat='-33.7199301' lon='150.3772049' />
  <node id='-1820' visible='true' lat='-33.7199862' lon='150.3771998' />
  <node id='-1822' visible='true' lat='-33.7200059' lon='150.3771838' />
  <node id='-1824' visible='true' lat='-33.720028' lon='150.3771634' />
  <node id='-1826' visible='true' lat='-33.7200525' lon='150.3771417' />
  <node id='-1828' visible='true' lat='-33.7201194' lon='150.3771469' />
  <node id='-1830' visible='true' lat='-33.7202468' lon='150.3771675' />
  <node id='-1832' visible='true' lat='-33.7203802' lon='150.3772248' />
  <node id='-1834' visible='true' lat='-33.7204752' lon='150.3772654' />
  <node id='-1836' visible='true' lat='-33.7205238' lon='150.3773113' />
  <node id='-1838' visible='true' lat='-33.7205364' lon='150.3773169' />
  <node id='-1840' visible='true' lat='-33.7205654' lon='150.3773366' />
  <node id='-1842' visible='true' lat='-33.7206813' lon='150.3774369' />
  <node id='-1844' visible='true' lat='-33.7207091' lon='150.3774818' />
  <node id='-1846' visible='true' lat='-33.7207581' lon='150.377573' />
  <node id='-1848' visible='true' lat='-33.7208592' lon='150.3776712' />
  <node id='-1850' visible='true' lat='-33.7208923' lon='150.3777343' />
  <node id='-1852' visible='true' lat='-33.7209514' lon='150.3777917' />
  <node id='-1854' visible='true' lat='-33.721042' lon='150.377819' />
  <node id='-1856' visible='true' lat='-33.7210967' lon='150.3777935' />
  <node id='-1858' visible='true' lat='-33.7211305' lon='150.377808' />
  <node id='-1860' visible='true' lat='-33.7211702' lon='150.3778765' />
  <node id='-1862' visible='true' lat='-33.7213104' lon='150.3779578' />
  <node id='-1864' visible='true' lat='-33.7213021' lon='150.3779972' />
  <node id='-1866' visible='true' lat='-33.7214193' lon='150.3782028' />
  <node id='-1868' visible='true' lat='-33.7214234' lon='150.3782725' />
  <node id='-1870' visible='true' lat='-33.7213927' lon='150.378331' />
  <node id='-1872' visible='true' lat='-33.7213895' lon='150.3783632' />
  <node id='-1874' visible='true' lat='-33.7214226' lon='150.3784506' />
  <node id='-1876' visible='true' lat='-33.7215677' lon='150.3786466' />
  <node id='-1878' visible='true' lat='-33.7216182' lon='150.3786892' />
  <node id='-1880' visible='true' lat='-33.7216603' lon='150.3787055' />
  <node id='-1882' visible='true' lat='-33.7217443' lon='150.3787042' />
  <node id='-1884' visible='true' lat='-33.7217912' lon='150.3786926' />
  <node id='-1886' visible='true' lat='-33.7219569' lon='150.3787045' />
  <node id='-1888' visible='true' lat='-33.7220537' lon='150.3786514' />
  <node id='-1890' visible='true' lat='-33.7221961' lon='150.3785021' />
  <node id='-1892' visible='true' lat='-33.7222762' lon='150.3784418' />
  <node id='-1894' visible='true' lat='-33.7223724' lon='150.3783289' />
  <node id='-1896' visible='true' lat='-33.7224586' lon='150.3780711' />
  <node id='-1898' visible='true' lat='-33.7224729' lon='150.3779912' />
  <node id='-1900' visible='true' lat='-33.7225178' lon='150.3779093' />
  <node id='-1902' visible='true' lat='-33.7226513' lon='150.3777434' />
  <node id='-1904' visible='true' lat='-33.7227166' lon='150.377722' />
  <node id='-1906' visible='true' lat='-33.7228415' lon='150.3777405' />
  <node id='-1908' visible='true' lat='-33.7229134' lon='150.377769' />
  <node id='-1910' visible='true' lat='-33.7229495' lon='150.3777324' />
  <node id='-1912' visible='true' lat='-33.7229932' lon='150.3777206' />
  <node id='-1914' visible='true' lat='-33.7230199' lon='150.3776978' />
  <node id='-1916' visible='true' lat='-33.7231238' lon='150.3776844' />
  <node id='-1918' visible='true' lat='-33.7232361' lon='150.3777098' />
  <node id='-1920' visible='true' lat='-33.7233803' lon='150.3776366' />
  <node id='-1922' visible='true' lat='-33.7234254' lon='150.3776153' />
  <node id='-1924' visible='true' lat='-33.7234725' lon='150.3775681' />
  <node id='-1926' visible='true' lat='-33.7235193' lon='150.3775487' />
  <node id='-1928' visible='true' lat='-33.7235902' lon='150.3775301' />
  <node id='-1930' visible='true' lat='-33.7236058' lon='150.3775341' />
  <node id='-1932' visible='true' lat='-33.7236459' lon='150.3775125' />
  <node id='-1934' visible='true' lat='-33.7236679' lon='150.3774869' />
  <node id='-1936' visible='true' lat='-33.7236885' lon='150.3774556' />
  <node id='-1938' visible='true' lat='-33.7237872' lon='150.3774242' />
  <node id='-1940' visible='true' lat='-33.7238243' lon='150.3774205' />
  <node id='-1942' visible='true' lat='-33.723933' lon='150.3774637' />
  <node id='-1944' visible='true' lat='-33.7239741' lon='150.3774508' />
  <node id='-1946' visible='true' lat='-33.7240606' lon='150.3773917' />
  <node id='-1948' visible='true' lat='-33.7241124' lon='150.3773772' />
  <node id='-1950' visible='true' lat='-33.724143' lon='150.3774007' />
  <node id='-1952' visible='true' lat='-33.7241741' lon='150.3773979' />
  <node id='-1954' visible='true' lat='-33.7242761' lon='150.377344' />
  <node id='-1956' visible='true' lat='-33.7243879' lon='150.3771374' />
  <node id='-1958' visible='true' lat='-33.7244885' lon='150.3769866' />
  <node id='-1960' visible='true' lat='-33.7245342' lon='150.3769106' />
  <node id='-1962' visible='true' lat='-33.724569' lon='150.3768766' />
  <node id='-1964' visible='true' lat='-33.7245907' lon='150.376849' />
  <node id='-1966' visible='true' lat='-33.7246828' lon='150.3767313' />
  <node id='-1968' visible='true' lat='-33.7247436' lon='150.3765994' />
  <node id='-1970' visible='true' lat='-33.7247937' lon='150.3765738' />
  <node id='-1972' visible='true' lat='-33.7248543' lon='150.3765698' />
  <node id='-1974' visible='true' lat='-33.7249343' lon='150.3765107' />
  <node id='-1976' visible='true' lat='-33.7250094' lon='150.3765233' />
  <node id='-1978' visible='true' lat='-33.7250672' lon='150.3764907' />
  <node id='-1980' visible='true' lat='-33.7251061' lon='150.3764648' />
  <node id='-1982' visible='true' lat='-33.7251591' lon='150.3764183' />
  <node id='-1984' visible='true' lat='-33.7252011' lon='150.376373' />
  <node id='-1986' visible='true' lat='-33.7253926' lon='150.3763574' />
  <node id='-1988' visible='true' lat='-33.725475' lon='150.3763458' />
  <node id='-1990' visible='true' lat='-33.7255991' lon='150.3762627' />
  <node id='-1992' visible='true' lat='-33.7258418' lon='150.3762169' />
  <node id='-1994' visible='true' lat='-33.7260282' lon='150.3760709' />
  <node id='-1996' visible='true' lat='-33.7260591' lon='150.376075' />
  <node id='-1998' visible='true' lat='-33.7262397' lon='150.375873' />
  <node id='-2000' visible='true' lat='-33.7262479' lon='150.3758288' />
  <node id='-2002' visible='true' lat='-33.7262896' lon='150.375798' />
  <node id='-2004' visible='true' lat='-33.7263997' lon='150.3758372' />
  <node id='-2006' visible='true' lat='-33.72652' lon='150.3758257' />
  <node id='-2008' visible='true' lat='-33.726658' lon='150.3757542' />
  <node id='-2010' visible='true' lat='-33.7267668' lon='150.375718' />
  <node id='-2012' visible='true' lat='-33.7269843' lon='150.3756202' />
  <node id='-2014' visible='true' lat='-33.7271178' lon='150.3754659' />
  <node id='-2016' visible='true' lat='-33.7271608' lon='150.3753996' />
  <node id='-2018' visible='true' lat='-33.7271739' lon='150.3753432' />
  <node id='-2020' visible='true' lat='-33.7271835' lon='150.3752957' />
  <node id='-2022' visible='true' lat='-33.7272265' lon='150.3750841' />
  <node id='-2024' visible='true' lat='-33.7272843' lon='150.3749641' />
  <node id='-2026' visible='true' lat='-33.7274697' lon='150.3749544' />
  <node id='-2028' visible='true' lat='-33.7276561' lon='150.3748416' />
  <node id='-2030' visible='true' lat='-33.7277803' lon='150.3748668' />
  <node id='-2032' visible='true' lat='-33.7278223' lon='150.3746989' />
  <node id='-2034' visible='true' lat='-33.7279538' lon='150.3747371' />
  <node id='-2036' visible='true' lat='-33.7281016' lon='150.3745888' />
  <node id='-2038' visible='true' lat='-33.7280984' lon='150.3744713' />
  <node id='-2040' visible='true' lat='-33.7281512' lon='150.374392' />
  <node id='-2042' visible='true' lat='-33.7281979' lon='150.3743193' />
  <node id='-2044' visible='true' lat='-33.7282756' lon='150.3742167' />
  <node id='-2046' visible='true' lat='-33.7283674' lon='150.3740544' />
  <node id='-2048' visible='true' lat='-33.7272473' lon='150.3702784' />
  <node id='-2050' visible='true' lat='-33.7272407' lon='150.3700935' />
  <node id='-2052' visible='true' lat='-33.7273782' lon='150.3699558' />
  <node id='-2056' action='modify' visible='true' lat='-33.72741827733' lon='150.36987095767' />
  <node id='-2058' action='modify' visible='true' lat='-33.72739770035' lon='150.36977265767' />
  <node id='-2060' visible='true' lat='-33.7273324' lon='150.3697354' />
  <node id='-2062' visible='true' lat='-33.7272767' lon='150.3696567' />
  <node id='-2064' visible='true' lat='-33.7273239' lon='150.3695245' />
  <node id='-2066' visible='true' lat='-33.7270886' lon='150.3693145' />
  <node id='-2068' visible='true' lat='-33.7269648' lon='150.3689261' />
  <node id='-2070' visible='true' lat='-33.7269117' lon='150.3686206' />
  <node id='-2072' visible='true' lat='-33.7267257' lon='150.3679811' />
  <node id='-2074' visible='true' lat='-33.726918' lon='150.3673189' />
  <node id='-2076' visible='true' lat='-33.7268182' lon='150.3669577' />
  <node id='-2078' visible='true' lat='-33.7266499' lon='150.3667517' />
  <node id='-2080' visible='true' lat='-33.7266795' lon='150.3665698' />
  <node id='-2082' visible='true' lat='-33.726693' lon='150.3664958' />
  <node id='-2084' visible='true' lat='-33.7268843' lon='150.3663453' />
  <node id='-2086' visible='true' lat='-33.7269877' lon='150.3661325' />
  <node id='-2088' visible='true' lat='-33.7269915' lon='150.3658554' />
  <node id='-2090' visible='true' lat='-33.7269824' lon='150.3655842' />
  <node id='-2092' visible='true' lat='-33.726953' lon='150.3653622' />
  <node id='-2094' visible='true' lat='-33.7268641' lon='150.3650311' />
  <node id='-2096' visible='true' lat='-33.7266864' lon='150.3648709' />
  <node id='-2098' visible='true' lat='-33.7265621' lon='150.3648555' />
  <node id='-2100' visible='true' lat='-33.7263917' lon='150.3646793' />
  <node id='-2102' visible='true' lat='-33.7262527' lon='150.3642249' />
  <node id='-2104' visible='true' lat='-33.7259767' lon='150.3635573' />
  <node id='-2106' visible='true' lat='-33.7259312' lon='150.3631189' />
  <node id='-2108' visible='true' lat='-33.7254959' lon='150.3630014' />
  <node id='-2110' visible='true' lat='-33.7249904' lon='150.3629137' />
  <node id='-2112' visible='true' lat='-33.7245719' lon='150.3626382' />
  <node id='-2114' visible='true' lat='-33.7243675' lon='150.3623178' />
  <node id='-2116' visible='true' lat='-33.7240655' lon='150.3621575' />
  <node id='-2118' visible='true' lat='-33.7236301' lon='150.3623071' />
  <node id='-2120' visible='true' lat='-33.7234791' lon='150.3620293' />
  <node id='-2122' visible='true' lat='-33.7233684' lon='150.361797' />
  <node id='-2124' visible='true' lat='-33.7231979' lon='150.3615843' />
  <node id='-2126' visible='true' lat='-33.722745' lon='150.3613273' />
  <node id='-2128' visible='true' lat='-33.7223698' lon='150.3612033' />
  <node id='-2130' visible='true' lat='-33.7221912' lon='150.3608455' />
  <node id='-2132' visible='true' lat='-33.7219997' lon='150.3604205' />
  <node id='-2134' visible='true' lat='-33.7219146' lon='150.3602611' />
  <node id='-2136' visible='true' lat='-33.7218973' lon='150.3601071' />
  <node id='-2138' visible='true' lat='-33.722008' lon='150.3602208' />
  <node id='-2140' visible='true' lat='-33.7221365' lon='150.360238' />
  <node id='-2142' visible='true' lat='-33.7221874' lon='150.3599787' />
  <node id='-2144' visible='true' lat='-33.7223364' lon='150.3597659' />
  <node id='-2146' visible='true' lat='-33.7227158' lon='150.3601069' />
  <node id='-2148' visible='true' lat='-33.7228422' lon='150.3601598' />
  <node id='-2150' visible='true' lat='-33.723073' lon='150.3601268' />
  <node id='-2152' visible='true' lat='-33.7233588' lon='150.3601532' />
  <node id='-2154' visible='true' lat='-33.7234852' lon='150.3602457' />
  <node id='-2156' visible='true' lat='-33.7236611' lon='150.3602854' />
  <node id='-2158' visible='true' lat='-33.7240513' lon='150.3603382' />
  <node id='-2160' visible='true' lat='-33.7246558' lon='150.3601928' />
  <node id='-2162' visible='true' lat='-33.7248922' lon='150.3601532' />
  <node id='-2164' visible='true' lat='-33.7250845' lon='150.3602655' />
  <node id='-2166' visible='true' lat='-33.7251735' lon='150.3602964' />
  <node id='-2168' visible='true' lat='-33.7250687' lon='150.3600379' />
  <node id='-2170' visible='true' lat='-33.725133' lon='150.3600294' />
  <node id='-2172' visible='true' lat='-33.7251401' lon='150.3597804' />
  <node id='-2174' visible='true' lat='-33.7254042' lon='150.3596689' />
  <node id='-2176' visible='true' lat='-33.7254756' lon='150.3594114' />
  <node id='-2178' visible='true' lat='-33.7256969' lon='150.3592483' />
  <node id='-2180' visible='true' lat='-33.7256541' lon='150.3589994' />
  <node id='-2182' visible='true' lat='-33.726011' lon='150.3588277' />
  <node id='-2184' visible='true' lat='-33.7261752' lon='150.3584587' />
  <node id='-2186' visible='true' lat='-33.726425' lon='150.3585702' />
  <node id='-2188' visible='true' lat='-33.7266178' lon='150.3583728' />
  <node id='-2190' visible='true' lat='-33.7270389' lon='150.3580724' />
  <node id='-2192' visible='true' lat='-33.7271889' lon='150.357772' />
  <node id='-2194' visible='true' lat='-33.7271317' lon='150.3572484' />
  <node id='-2196' visible='true' lat='-33.7272531' lon='150.3570081' />
  <node id='-2198' visible='true' lat='-33.7271532' lon='150.3567506' />
  <node id='-2200' visible='true' lat='-33.7275815' lon='150.3566476' />
  <node id='-2202' visible='true' lat='-33.7277742' lon='150.3563215' />
  <node id='-2204' visible='true' lat='-33.727917' lon='150.3565103' />
  <node id='-2206' visible='true' lat='-33.7279098' lon='150.3566734' />
  <node id='-2208' visible='true' lat='-33.7282311' lon='150.3568965' />
  <node id='-2210' visible='true' lat='-33.7286165' lon='150.3566648' />
  <node id='-2212' visible='true' lat='-33.7289734' lon='150.3567249' />
  <node id='-2214' visible='true' lat='-33.7292304' lon='150.3565103' />
  <node id='-2216' visible='true' lat='-33.7297016' lon='150.3563901' />
  <node id='-2218' visible='true' lat='-33.7299942' lon='150.3561069' />
  <node id='-2220' visible='true' lat='-33.7303868' lon='150.3560382' />
  <node id='-2222' visible='true' lat='-33.7310078' lon='150.3556606' />
  <node id='-2224' visible='true' lat='-33.7314932' lon='150.3555147' />
  <node id='-2226' visible='true' lat='-33.7326139' lon='150.3554288' />
  <node id='-2228' visible='true' lat='-33.7328852' lon='150.3552143' />
  <node id='-2230' visible='true' lat='-33.7327281' lon='150.3549568' />
  <node id='-2232' visible='true' lat='-33.7326068' lon='150.3545791' />
  <node id='-2234' visible='true' lat='-33.7323284' lon='150.354356' />
  <node id='-2236' visible='true' lat='-33.7309108' lon='150.3540003' />
  <node id='-2238' visible='true' lat='-33.7293803' lon='150.3535262' />
  <node id='-2240' action='modify' visible='true' lat='-33.7281411' lon='150.352644' />
  <node id='-2242' visible='true' lat='-33.7285227' lon='150.3519411' />
  <node id='-2244' visible='true' lat='-33.728487' lon='150.3513617' />
  <node id='-2246' visible='true' lat='-33.7282596' lon='150.3509313' />
  <node id='-2248' visible='true' lat='-33.7277314' lon='150.3505022' />
  <node id='-2250' action='modify' visible='true' lat='-33.7274754' lon='150.3502783' />
  <node id='-2252' visible='true' lat='-33.7271032' lon='150.3499528' />
  <node id='-2254' visible='true' lat='-33.72756' lon='150.34932' />
  <node id='-2256' visible='true' lat='-33.72773' lon='150.3482' />
  <node id='-2258' visible='true' lat='-33.7276' lon='150.34799' />
  <node id='-2260' visible='true' lat='-33.72803' lon='150.34773' />
  <node id='-2262' visible='true' lat='-33.72865' lon='150.34732' />
  <node id='-2264' visible='true' lat='-33.72916' lon='150.34713' />
  <node id='-2266' visible='true' lat='-33.72949' lon='150.347' />
  <node id='-2268' visible='true' lat='-33.72974' lon='150.34657' />
  <node id='-2270' visible='true' lat='-33.73009' lon='150.34606' />
  <node id='-2272' visible='true' lat='-33.73034' lon='150.34563' />
  <node id='-2274' visible='true' lat='-33.73065' lon='150.34539' />
  <node id='-2276' visible='true' lat='-33.73107' lon='150.34558' />
  <node id='-2278' visible='true' lat='-33.73163' lon='150.34526' />
  <node id='-2280' visible='true' lat='-33.73172' lon='150.34402' />
  <node id='-2282' visible='true' lat='-33.73277' lon='150.34316' />
  <node id='-2284' visible='true' lat='-33.73305' lon='150.34232' />
  <node id='-2286' visible='true' lat='-33.73378' lon='150.34236' />
  <node id='-2288' visible='true' lat='-33.73526' lon='150.34123' />
  <node id='-2290' visible='true' lat='-33.73547' lon='150.34112' />
  <node id='-2292' visible='true' lat='-33.73586' lon='150.34078' />
  <node id='-2294' visible='true' lat='-33.73629' lon='150.34093' />
  <node id='-2296' visible='true' lat='-33.73629' lon='150.34041' />
  <node id='-2298' visible='true' lat='-33.7374' lon='150.3399' />
  <node id='-2300' visible='true' lat='-33.73753' lon='150.34007' />
  <node id='-2302' visible='true' lat='-33.73764' lon='150.33979' />
  <node id='-2304' visible='true' lat='-33.73816' lon='150.3397' />
  <node id='-2306' visible='true' lat='-33.73837' lon='150.33951' />
  <node id='-2308' visible='true' lat='-33.73861' lon='150.3396' />
  <node id='-2310' visible='true' lat='-33.73876' lon='150.33962' />
  <node id='-2312' visible='true' lat='-33.73974' lon='150.33988' />
  <node id='-2314' visible='true' lat='-33.74135' lon='150.33857' />
  <node id='-2316' visible='true' lat='-33.74146' lon='150.33827' />
  <node id='-2318' visible='true' lat='-33.74122' lon='150.33747' />
  <node id='-2320' visible='true' lat='-33.74107' lon='150.33764' />
  <node id='-2322' visible='true' lat='-33.73927' lon='150.33709' />
  <node id='-2324' visible='true' lat='-33.73852' lon='150.33724' />
  <node id='-2326' visible='true' lat='-33.7382' lon='150.33702' />
  <node id='-2328' visible='true' lat='-33.73753' lon='150.33696' />
  <node id='-2330' visible='true' lat='-33.73715' lon='150.33713' />
  <node id='-2332' visible='true' lat='-33.73708' lon='150.33689' />
  <node id='-2334' visible='true' lat='-33.7370503' lon='150.3369104' />
  <node id='-2336' visible='true' lat='-33.737028' lon='150.336956' />
  <node id='-2338' visible='true' lat='-33.7370102' lon='150.3369963' />
  <node id='-2340' visible='true' lat='-33.7369857' lon='150.3370955' />
  <node id='-2342' visible='true' lat='-33.7369656' lon='150.3371545' />
  <node id='-2344' visible='true' lat='-33.7369522' lon='150.3372242' />
  <node id='-2346' visible='true' lat='-33.7369723' lon='150.3372859' />
  <node id='-2348' visible='true' lat='-33.736999' lon='150.3373128' />
  <node id='-2350' visible='true' lat='-33.7370481' lon='150.337302' />
  <node id='-2352' visible='true' lat='-33.7370749' lon='150.3372618' />
  <node id='-2354' visible='true' lat='-33.7371039' lon='150.3372511' />
  <node id='-2356' visible='true' lat='-33.7371596' lon='150.3372296' />
  <node id='-2358' visible='true' lat='-33.7372065' lon='150.3372162' />
  <node id='-2360' visible='true' lat='-33.7372466' lon='150.3371947' />
  <node id='-2362' visible='true' lat='-33.7373225' lon='150.3372001' />
  <node id='-2364' visible='true' lat='-33.7374005' lon='150.3372055' />
  <node id='-2366' visible='true' lat='-33.7374652' lon='150.3372162' />
  <node id='-2368' visible='true' lat='-33.7375143' lon='150.3372672' />
  <node id='-2370' visible='true' lat='-33.7375678' lon='150.3372913' />
  <node id='-2372' visible='true' lat='-33.7376236' lon='150.3372725' />
  <node id='-2374' visible='true' lat='-33.737666' lon='150.3372725' />
  <node id='-2376' visible='true' lat='-33.737715' lon='150.3372806' />
  <node id='-2378' visible='true' lat='-33.7377485' lon='150.3372993' />
  <node id='-2380' visible='true' lat='-33.7377842' lon='150.3373503' />
  <node id='-2382' visible='true' lat='-33.7378087' lon='150.337404' />
  <node id='-2384' visible='true' lat='-33.7377775' lon='150.3374683' />
  <node id='-2386' visible='true' lat='-33.7377953' lon='150.3375381' />
  <node id='-2388' visible='true' lat='-33.7377931' lon='150.3376078' />
  <node id='-2390' visible='true' lat='-33.7377931' lon='150.3376802' />
  <node id='-2392' visible='true' lat='-33.7378489' lon='150.3377312' />
  <node id='-2394' visible='true' lat='-33.7378846' lon='150.3377821' />
  <node id='-2396' visible='true' lat='-33.7379113' lon='150.3378358' />
  <node id='-2398' visible='true' lat='-33.7379292' lon='150.3378948' />
  <node id='-2400' visible='true' lat='-33.7379805' lon='150.3379484' />
  <node id='-2402' visible='true' lat='-33.7380005' lon='150.3380048' />
  <node id='-2404' visible='true' lat='-33.7380474' lon='150.3380048' />
  <node id='-2406' visible='true' lat='-33.7380853' lon='150.3380209' />
  <node id='-2408' visible='true' lat='-33.7381254' lon='150.3380745' />
  <node id='-2410' visible='true' lat='-33.7381589' lon='150.3381362' />
  <node id='-2412' visible='true' lat='-33.7381834' lon='150.338214' />
  <node id='-2414' visible='true' lat='-33.738179' lon='150.338273' />
  <node id='-2416' visible='true' lat='-33.7381388' lon='150.3383025' />
  <node id='-2418' visible='true' lat='-33.7381031' lon='150.338281' />
  <node id='-2420' visible='true' lat='-33.7380697' lon='150.338273' />
  <node id='-2422' visible='true' lat='-33.7380407' lon='150.3383079' />
  <node id='-2424' visible='true' lat='-33.7380541' lon='150.3383535' />
  <node id='-2426' visible='true' lat='-33.7380518' lon='150.3383964' />
  <node id='-2428' visible='true' lat='-33.7380139' lon='150.3384017' />
  <node id='-2430' visible='true' lat='-33.7379782' lon='150.3383991' />
  <node id='-2432' visible='true' lat='-33.7379515' lon='150.3383776' />
  <node id='-2434' visible='true' lat='-33.7379515' lon='150.3383347' />
  <node id='-2436' visible='true' lat='-33.7379359' lon='150.3383079' />
  <node id='-2438' visible='true' lat='-33.7378979' lon='150.3383052' />
  <node id='-2440' visible='true' lat='-33.7378623' lon='150.3383266' />
  <node id='-2442' action='modify' visible='true' lat='-33.7377998' lon='150.3383749' />
  <node id='-2444' visible='true' lat='-33.7377284' lon='150.3383856' />
  <node id='-2446' action='modify' visible='true' lat='-33.7376816' lon='150.3384286' />
  <node id='-2448' visible='true' lat='-33.7376749' lon='150.3384956' />
  <node id='-2450' visible='true' lat='-33.7376816' lon='150.3385493' />
  <node id='-2452' visible='true' lat='-33.737666' lon='150.3385895' />
  <node id='-2454' visible='true' lat='-33.7376147' lon='150.3386404' />
  <node id='-2456' visible='true' lat='-33.7375455' lon='150.338678' />
  <node id='-2458' visible='true' lat='-33.7374964' lon='150.338737' />
  <node id='-2460' visible='true' lat='-33.7374429' lon='150.3388094' />
  <node id='-2462' visible='true' lat='-33.737376' lon='150.338796' />
  <node id='-2464' visible='true' lat='-33.7373269' lon='150.3387585' />
  <node id='-2466' visible='true' lat='-33.7373239' lon='150.3387255' />
  <node id='-2468' visible='true' lat='-33.7372445' lon='150.3387311' />
  <node id='-2470' visible='true' lat='-33.737227' lon='150.3387919' />
  <node id='-2472' visible='true' lat='-33.7372016' lon='150.3387901' />
  <node id='-2474' visible='true' lat='-33.7372118' lon='150.3388415' />
  <node id='-2476' visible='true' lat='-33.7371505' lon='150.3389536' />
  <node id='-2478' visible='true' lat='-33.737075' lon='150.3389872' />
  <node id='-2480' visible='true' lat='-33.7370166' lon='150.3389846' />
  <node id='-2482' visible='true' lat='-33.7369623' lon='150.3389704' />
  <node id='-2484' visible='true' lat='-33.7369321' lon='150.3389298' />
  <node id='-2486' visible='true' lat='-33.736526' lon='150.3389262' />
  <node id='-2488' visible='true' lat='-33.7364316' lon='150.3387854' />
  <node id='-2490' visible='true' lat='-33.736329' lon='150.338705' />
  <node id='-2492' visible='true' lat='-33.7362219' lon='150.3385762' />
  <node id='-2494' visible='true' lat='-33.7361506' lon='150.3384475' />
  <node id='-2496' visible='true' lat='-33.7360257' lon='150.3383724' />
  <node id='-2498' visible='true' lat='-33.7358651' lon='150.3382919' />
  <node id='-2500' visible='true' lat='-33.7357758' lon='150.3381578' />
  <node id='-2502' visible='true' lat='-33.7356554' lon='150.3380183' />
  <node id='-2504' visible='true' lat='-33.7355216' lon='150.3379969' />
  <node id='-2506' visible='true' lat='-33.7354011' lon='150.3379861' />
  <node id='-2508' visible='true' lat='-33.7352851' lon='150.3379486' />
  <node id='-2510' visible='true' lat='-33.7352093' lon='150.3378681' />
  <node id='-2512' visible='true' lat='-33.7351245' lon='150.3377715' />
  <node id='-2514' visible='true' lat='-33.7350219' lon='150.3377555' />
  <node id='-2516' visible='true' lat='-33.7349193' lon='150.3377394' />
  <node id='-2518' visible='true' lat='-33.7348167' lon='150.3377018' />
  <node id='-2520' visible='true' lat='-33.7346918' lon='150.3376053' />
  <node id='-2522' visible='true' lat='-33.7346026' lon='150.3375731' />
  <node id='-2524' visible='true' lat='-33.7345008' lon='150.3376261' />
  <node id='-2526' visible='true' lat='-33.7343826' lon='150.3376221' />
  <node id='-2528' visible='true' lat='-33.7342142' lon='150.33761' />
  <node id='-2530' visible='true' lat='-33.734164' lon='150.3375497' />
  <node id='-2532' visible='true' lat='-33.7339633' lon='150.3375229' />
  <node id='-2534' visible='true' lat='-33.7338138' lon='150.3375161' />
  <node id='-2536' visible='true' lat='-33.7336688' lon='150.3375322' />
  <node id='-2538' visible='true' lat='-33.7335361' lon='150.3375684' />
  <node id='-2540' visible='true' lat='-33.7334346' lon='150.3376154' />
  <node id='-2542' visible='true' lat='-33.7333543' lon='150.3376959' />
  <node id='-2544' visible='true' lat='-33.7332472' lon='150.3377656' />
  <node id='-2546' visible='true' lat='-33.7331257' lon='150.3378005' />
  <node id='-2548' visible='true' lat='-33.7330108' lon='150.3378098' />
  <node id='-2550' visible='true' lat='-33.7328848' lon='150.3378729' />
  <node id='-2552' visible='true' lat='-33.7328134' lon='150.3379292' />
  <node id='-2554' visible='true' lat='-33.7326996' lon='150.3379922' />
  <node id='-2556' visible='true' lat='-33.7325345' lon='150.3380459' />
  <node id='-2558' visible='true' lat='-33.7322468' lon='150.3381438' />
  <node id='-2560' visible='true' lat='-33.7321431' lon='150.3381518' />
  <node id='-2562' visible='true' lat='-33.7319412' lon='150.3381491' />
  <node id='-2564' visible='true' lat='-33.7318408' lon='150.3381116' />
  <node id='-2566' visible='true' lat='-33.7317449' lon='150.3381263' />
  <node id='-2568' visible='true' lat='-33.7315966' lon='150.338117' />
  <node id='-2570' visible='true' lat='-33.7316055' lon='150.338294' />
  <node id='-2572' visible='true' lat='-33.7315653' lon='150.3384227' />
  <node id='-2574' visible='true' lat='-33.7315876' lon='150.3385139' />
  <node id='-2576' visible='true' lat='-33.7315966' lon='150.3387821' />
  <node id='-2578' visible='true' lat='-33.7315118' lon='150.3388251' />
  <node id='-2580' visible='true' lat='-33.7313993' lon='150.33891' />
  <node id='-2582' visible='true' lat='-33.7312709' lon='150.3387768' />
  <node id='-2584' visible='true' lat='-33.7311549' lon='150.3386802' />
  <node id='-2586' visible='true' lat='-33.7309809' lon='150.3386319' />
  <node id='-2588' visible='true' lat='-33.7308827' lon='150.3386534' />
  <node id='-2590' visible='true' lat='-33.7307801' lon='150.3386266' />
  <node id='-2592' visible='true' lat='-33.7306731' lon='150.3386212' />
  <node id='-2594' visible='true' lat='-33.7306017' lon='150.3386641' />
  <node id='-2596' visible='true' lat='-33.7305928' lon='150.3387553' />
  <node id='-2598' visible='true' lat='-33.7305972' lon='150.3389538' />
  <node id='-2600' visible='true' lat='-33.7305481' lon='150.3391362' />
  <node id='-2602' visible='true' lat='-33.7303385' lon='150.3392381' />
  <node id='-2604' visible='true' lat='-33.7300396' lon='150.3393079' />
  <node id='-2606' visible='true' lat='-33.7299949' lon='150.3393669' />
  <node id='-2608' visible='true' lat='-33.7298209' lon='150.3393186' />
  <node id='-2610' visible='true' lat='-33.7296291' lon='150.3393508' />
  <node id='-2612' visible='true' lat='-33.7294685' lon='150.3394688' />
  <node id='-2614' visible='true' lat='-33.729299' lon='150.3394903' />
  <node id='-2616' visible='true' lat='-33.7291914' lon='150.3395754' />
  <node id='-2618' visible='true' lat='-33.7287339' lon='150.3396699' />
  <node id='-2620' visible='true' lat='-33.7286551' lon='150.3395223' />
  <node id='-2622' visible='true' lat='-33.7286194' lon='150.3394966' />
  <node id='-2624' visible='true' lat='-33.7285909' lon='150.3394193' />
  <node id='-2626' visible='true' lat='-33.728598' lon='150.3392906' />
  <node id='-2628' visible='true' lat='-33.7287265' lon='150.3391103' />
  <node id='-2630' visible='true' lat='-33.7287051' lon='150.3390417' />
  <node id='-2632' visible='true' lat='-33.7287551' lon='150.3389043' />
  <node id='-2634' visible='true' lat='-33.7287265' lon='150.3387842' />
  <node id='-2636' visible='true' lat='-33.7286623' lon='150.3386983' />
  <node id='-2638' visible='true' lat='-33.7286194' lon='150.3385095' />
  <node id='-2640' visible='true' lat='-33.7286408' lon='150.3384408' />
  <node id='-2642' visible='true' lat='-33.7287622' lon='150.3382434' />
  <node id='-2644' visible='true' lat='-33.7287194' lon='150.3380975' />
  <node id='-2646' visible='true' lat='-33.7284909' lon='150.3378143' />
  <node id='-2648' visible='true' lat='-33.7283981' lon='150.3375568' />
  <node id='-2650' visible='true' lat='-33.7282268' lon='150.3373765' />
  <node id='-2652' visible='true' lat='-33.7281768' lon='150.3372306' />
  <node id='-2654' visible='true' lat='-33.7281412' lon='150.3372135' />
  <node id='-2656' visible='true' lat='-33.7280269' lon='150.3373422' />
  <node id='-2658' visible='true' lat='-33.7278842' lon='150.3373851' />
  <node id='-2660' visible='true' lat='-33.7277343' lon='150.3375139' />
  <node id='-2662' visible='true' lat='-33.727513' lon='150.3374109' />
  <node id='-2664' visible='true' lat='-33.7275601' lon='150.3368738' />
  <node id='-2666' visible='true' lat='-33.7276404' lon='150.3366833' />
  <node id='-2668' visible='true' lat='-33.7276661' lon='150.3365063' />
  <node id='-2670' visible='true' lat='-33.727646' lon='150.3363641' />
  <node id='-2672' visible='true' lat='-33.7275835' lon='150.3363118' />
  <node id='-2674' visible='true' lat='-33.7275623' lon='150.3363722' />
  <node id='-2676' visible='true' lat='-33.7275746' lon='150.3364687' />
  <node id='-2678' visible='true' lat='-33.7275222' lon='150.3364352' />
  <node id='-2680' visible='true' lat='-33.7274898' lon='150.3364795' />
  <node id='-2682' visible='true' lat='-33.7274608' lon='150.3366712' />
  <node id='-2684' visible='true' lat='-33.7274553' lon='150.3367785' />
  <node id='-2686' visible='true' lat='-33.7274162' lon='150.336804' />
  <node id='-2688' visible='true' lat='-33.7273772' lon='150.3365573' />
  <node id='-2690' visible='true' lat='-33.7274318' lon='150.3363735' />
  <node id='-2692' visible='true' lat='-33.7273493' lon='150.3362153' />
  <node id='-2694' visible='true' lat='-33.7273404' lon='150.3361187' />
  <node id='-2696' visible='true' lat='-33.7273683' lon='150.3360047' />
  <node id='-2698' visible='true' lat='-33.7272779' lon='150.3359068' />
  <node id='-2700' visible='true' lat='-33.7272604' lon='150.3357204' />
  <node id='-2702' visible='true' lat='-33.7272723' lon='150.3356601' />
  <node id='-2704' visible='true' lat='-33.7271391' lon='150.3356174' />
  <node id='-2706' visible='true' lat='-33.7269249' lon='150.3356775' />
  <node id='-2708' visible='true' lat='-33.7265466' lon='150.3358406' />
  <node id='-2710' visible='true' lat='-33.7259898' lon='150.3359092' />
  <node id='-2712' visible='true' lat='-33.7258684' lon='150.3359522' />
  <node id='-2714' visible='true' lat='-33.7257685' lon='150.3358063' />
  <node id='-2716' visible='true' lat='-33.7258184' lon='150.3357118' />
  <node id='-2718' visible='true' lat='-33.7257328' lon='150.3356775' />
  <node id='-2720' visible='true' lat='-33.7256542' lon='150.3356003' />
  <node id='-2722' visible='true' lat='-33.7254115' lon='150.3355316' />
  <node id='-2724' visible='true' lat='-33.7252473' lon='150.3355745' />
  <node id='-2726' visible='true' lat='-33.7250974' lon='150.3355316' />
  <node id='-2728' visible='true' lat='-33.7250546' lon='150.3354543' />
  <node id='-2730' visible='true' lat='-33.7251046' lon='150.3353428' />
  <node id='-2732' visible='true' lat='-33.7247691' lon='150.3354973' />
  <node id='-2734' visible='true' lat='-33.7245977' lon='150.3354715' />
  <node id='-2736' visible='true' lat='-33.7244492' lon='150.3355474' />
  <node id='-2738' visible='true' lat='-33.7242765' lon='150.3354372' />
  <node id='-2740' visible='true' lat='-33.7241194' lon='150.3354114' />
  <node id='-2742' visible='true' lat='-33.7239695' lon='150.3354715' />
  <node id='-2744' visible='true' lat='-33.723867' lon='150.3355005' />
  <node id='-2746' visible='true' lat='-33.7237845' lon='150.335479' />
  <node id='-2748' visible='true' lat='-33.723693' lon='150.3354334' />
  <node id='-2750' visible='true' lat='-33.7236138' lon='150.3353704' />
  <node id='-2752' visible='true' lat='-33.7235234' lon='150.3352631' />
  <node id='-2754' visible='true' lat='-33.7234632' lon='150.3351612' />
  <node id='-2756' visible='true' lat='-33.7234052' lon='150.3350512' />
  <node id='-2758' visible='true' lat='-33.7233472' lon='150.3348715' />
  <node id='-2760' visible='true' lat='-33.723239' lon='150.3346636' />
  <node id='-2762' visible='true' lat='-33.7231643' lon='150.3345979' />
  <node id='-2764' visible='true' lat='-33.7230282' lon='150.3344785' />
  <node id='-2766' visible='true' lat='-33.7229111' lon='150.3344477' />
  <node id='-2768' visible='true' lat='-33.7227672' lon='150.3343847' />
  <node id='-2770' visible='true' lat='-33.7226858' lon='150.3343659' />
  <node id='-2772' visible='true' lat='-33.7225251' lon='150.3344061' />
  <node id='-2774' visible='true' lat='-33.7224805' lon='150.3345429' />
  <node id='-2776' visible='true' lat='-33.7223132' lon='150.3345268' />
  <node id='-2778' visible='true' lat='-33.7221693' lon='150.3344946' />
  <node id='-2780' visible='true' lat='-33.7220845' lon='150.3344262' />
  <node id='-2782' visible='true' lat='-33.7219953' lon='150.3343833' />
  <node id='-2784' visible='true' lat='-33.7219161' lon='150.3343069' />
  <node id='-2786' visible='true' lat='-33.7218982' lon='150.334217' />
  <node id='-2788' visible='true' lat='-33.7218893' lon='150.3341527' />
  <node id='-2790' visible='true' lat='-33.7218224' lon='150.3340802' />
  <node id='-2792' visible='true' lat='-33.721741' lon='150.3340615' />
  <node id='-2794' visible='true' lat='-33.7215614' lon='150.3340494' />
  <node id='-2796' visible='true' lat='-33.7214164' lon='150.3340494' />
  <node id='-2798' visible='true' lat='-33.7212926' lon='150.3340279' />
  <node id='-2800' visible='true' lat='-33.7212424' lon='150.3339609' />
  <node id='-2802' visible='true' lat='-33.7212245' lon='150.333863' />
  <node id='-2804' visible='true' lat='-33.721239' lon='150.3337892' />
  <node id='-2806' visible='true' lat='-33.721239' lon='150.3337597' />
  <node id='-2808' visible='true' lat='-33.7212803' lon='150.3337262' />
  <node id='-2810' visible='true' lat='-33.721384' lon='150.3336846' />
  <node id='-2812' visible='true' lat='-33.7214677' lon='150.3336095' />
  <node id='-2814' visible='true' lat='-33.7215536' lon='150.3335237' />
  <node id='-2816' visible='true' lat='-33.7216138' lon='150.333458' />
  <node id='-2818' visible='true' lat='-33.7214933' lon='150.3333453' />
  <node id='-2820' visible='true' lat='-33.7214543' lon='150.33323' />
  <node id='-2822' visible='true' lat='-33.7214502' lon='150.3331643' />
  <node id='-2824' visible='true' lat='-33.7208858' lon='150.3330628' />
  <node id='-2826' visible='true' lat='-33.7207364' lon='150.3329018' />
  <node id='-2828' visible='true' lat='-33.720403' lon='150.3326029' />
  <node id='-2830' visible='true' lat='-33.720012' lon='150.3324419' />
  <node id='-2832' visible='true' lat='-33.7198741' lon='150.3323384' />
  <node id='-2834' visible='true' lat='-33.7197706' lon='150.3323039' />
  <node id='-2836' visible='true' lat='-33.7196441' lon='150.332143' />
  <node id='-2838' visible='true' lat='-33.7195406' lon='150.3318785' />
  <node id='-2840' action='modify' visible='true' lat='-33.7193912' lon='150.3313496' />
  <node id='-2842' visible='true' lat='-33.7193927' lon='150.3311599' />
  <node id='-2844' visible='true' lat='-33.7192935' lon='150.330675' />
  <node id='-2846' visible='true' lat='-33.7158952' lon='150.3313038' />
  <node id='-2848' visible='true' lat='-33.7156614' lon='150.3296907' />
  <node id='-2850' visible='true' lat='-33.7142408' lon='150.3307989' />
  <node id='-2852' visible='true' lat='-33.7141216' lon='150.3307924' />
  <node id='-2854' visible='true' lat='-33.71243' lon='150.3311134' />
  <node id='-2856' visible='true' lat='-33.7122958' lon='150.3311835' />
  <node id='-2858' visible='true' lat='-33.7121369' lon='150.3312047' />
  <node id='-2860' visible='true' lat='-33.7120922' lon='150.331031' />
  <node id='-2862' visible='true' lat='-33.7273814' lon='150.3703886' />
  <node id='-2864' visible='true' lat='-33.7276625' lon='150.3705347' />
  <node id='-2866' visible='true' lat='-33.7277852' lon='150.3708565' />
  <node id='-2868' visible='true' lat='-33.7278143' lon='150.3709611' />
  <node id='-2870' visible='true' lat='-33.72777' lon='150.3710832' />
  <node id='-2872' visible='true' lat='-33.727788' lon='150.3712439' />
  <node id='-2874' visible='true' lat='-33.727686' lon='150.3716005' />
  <node id='-2876' visible='true' lat='-33.727671' lon='150.3717721' />
  <node id='-2878' visible='true' lat='-33.7275976' lon='150.3718761' />
  <node id='-2880' visible='true' lat='-33.727587' lon='150.3720279' />
  <node id='-2882' visible='true' lat='-33.7275237' lon='150.3723753' />
  <node id='-2884' visible='true' lat='-33.7275327' lon='150.372609' />
  <node id='-2886' visible='true' lat='-33.7274121' lon='150.372879' />
  <node id='-2888' visible='true' lat='-33.72748' lon='150.3732522' />
  <node id='-2890' visible='true' lat='-33.7276808' lon='150.3734125' />
  <node id='-2892' visible='true' lat='-33.72779682305' lon='150.37344940041' />
  <node id='-2894' visible='true' lat='-33.72788382236' lon='150.37341319059' />
  <node id='-2896' visible='true' lat='-33.72792593075' lon='150.37342766503' />
  <node id='-2898' visible='true' lat='-33.7280462' lon='150.3734608' />
  <node id='-2900' visible='true' lat='-33.7283232' lon='150.3733878' />
  <node id='-2902' visible='true' lat='-33.7287604' lon='150.3732399' />
  <node id='-2904' visible='true' lat='-33.72883049181' lon='150.37312820588' />
  <node id='-2906' visible='true' lat='-33.72889808493' lon='150.37306459325' />
  <node id='-2908' visible='true' lat='-33.72890912485' lon='150.37307858501' />
  <node id='-2910' visible='true' lat='-33.72888514457' lon='150.37313021754' />
  <node id='-2912' visible='true' lat='-33.72882714572' lon='150.37325762247' />
  <node id='-2914' visible='true' lat='-33.72880205005' lon='150.37331059609' />
  <node id='-2916' visible='true' lat='-33.72876689569' lon='150.37334329631' />
  <node id='-2918' visible='true' lat='-33.72877695437' lon='150.37335552309' />
  <node id='-2920' visible='true' lat='-33.72881654977' lon='150.37334077094' />
  <node id='-2922' visible='true' lat='-33.7288760887' lon='150.3732700227' />
  <node id='-2924' visible='true' lat='-33.72888625993' lon='150.37327371572' />
  <node id='-2926' visible='true' lat='-33.72889462515' lon='150.3732965145' />
  <node id='-2928' visible='true' lat='-33.7288677' lon='150.3733901' />
  <node id='-2930' visible='true' lat='-33.7288408' lon='150.3734319' />
  <node id='-2932' visible='true' lat='-33.7287962' lon='150.3734195' />
  <node id='-2934' visible='true' lat='-33.7287051' lon='150.3733877' />
  <node id='-2936' visible='true' lat='-33.7285922' lon='150.3734048' />
  <node id='-2938' visible='true' lat='-33.7284903' lon='150.3735322' />
  <node id='-2940' action='modify' visible='true' lat='-33.72844775386' lon='150.37383029042' />
  <way id='-2942' action='modify' visible='true'>
    <nd ref='-1422' />
    <nd ref='-1424' />
    <nd ref='-1426' />
    <nd ref='-1428' />
    <nd ref='-1430' />
    <nd ref='-1432' />
    <nd ref='-1434' />
    <nd ref='-1436' />
    <nd ref='-1438' />
    <nd ref='-1440' />
    <nd ref='-1442' />
    <nd ref='-1444' />
    <nd ref='-1446' />
    <nd ref='-1448' />
    <nd ref='-1450' />
    <nd ref='-1452' />
    <nd ref='-1454' />
    <nd ref='-1456' />
    <nd ref='-1458' />
    <nd ref='-1460' />
    <nd ref='-1462' />
    <nd ref='-1464' />
    <nd ref='-1466' />
    <nd ref='-1468' />
    <nd ref='-1470' />
    <nd ref='-1472' />
    <nd ref='-1474' />
    <nd ref='-1476' />
    <nd ref='-1478' />
    <nd ref='-1480' />
    <nd ref='-1482' />
    <nd ref='-1484' />
    <nd ref='-1486' />
    <nd ref='-1488' />
    <nd ref='-1490' />
    <nd ref='-1492' />
    <nd ref='-1494' />
    <nd ref='-1496' />
    <nd ref='-1498' />
    <nd ref='-1500' />
    <nd ref='-1502' />
    <nd ref='-1504' />
    <nd ref='-1506' />
    <nd ref='-1508' />
    <nd ref='-1510' />
    <nd ref='-1512' />
    <nd ref='-1514' />
    <nd ref='-1516' />
    <nd ref='-1518' />
    <nd ref='-1520' />
    <nd ref='-1522' />
    <nd ref='-1524' />
    <nd ref='-1526' />
    <nd ref='-1528' />
    <nd ref='-1530' />
    <nd ref='-1532' />
    <nd ref='-1534' />
    <nd ref='-1536' />
    <nd ref='-1538' />
    <nd ref='-1540' />
    <nd ref='-1542' />
    <nd ref='-1544' />
    <nd ref='-1546' />
    <nd ref='-1548' />
    <nd ref='-1550' />
    <nd ref='-1552' />
    <nd ref='-1554' />
    <nd ref='-1556' />
    <nd ref='-1558' />
    <nd ref='-1560' />
    <nd ref='-1562' />
    <nd ref='-1564' />
    <nd ref='-1566' />
    <nd ref='-1568' />
    <nd ref='-1570' />
    <nd ref='-1572' />
    <nd ref='-1574' />
    <nd ref='-1576' />
    <nd ref='-1578' />
    <nd ref='-1580' />
    <nd ref='-1582' />
    <nd ref='-1584' />
    <nd ref='-1586' />
    <nd ref='-1588' />
    <nd ref='-1590' />
    <nd ref='-1592' />
    <nd ref='-1594' />
    <nd ref='-1596' />
    <nd ref='-1598' />
    <nd ref='-1600' />
    <nd ref='-1602' />
    <nd ref='-1604' />
    <nd ref='-1606' />
    <nd ref='-1608' />
    <nd ref='-1610' />
    <nd ref='-1612' />
    <nd ref='-1614' />
    <nd ref='-1616' />
    <nd ref='-1618' />
    <nd ref='-1620' />
    <nd ref='-1622' />
    <nd ref='-1624' />
    <nd ref='-1626' />
    <nd ref='-1628' />
    <nd ref='-1630' />
    <nd ref='-1632' />
    <nd ref='-1634' />
    <nd ref='-1636' />
    <nd ref='-1638' />
    <nd ref='-1640' />
    <nd ref='-1642' />
    <nd ref='-1644' />
    <nd ref='-1646' />
    <nd ref='-1648' />
    <nd ref='-1650' />
    <nd ref='-1652' />
    <nd ref='-1654' />
    <nd ref='-1656' />
    <nd ref='-1658' />
    <nd ref='-1660' />
    <nd ref='-1662' />
    <nd ref='-1664' />
    <nd ref='-1666' />
    <nd ref='-1668' />
    <nd ref='-1670' />
    <nd ref='-1672' />
    <nd ref='-1674' />
    <nd ref='-1676' />
    <nd ref='-1678' />
    <nd ref='-1680' />
    <nd ref='-1682' />
    <nd ref='-1684' />
    <nd ref='-1686' />
    <nd ref='-1688' />
    <nd ref='-1690' />
    <nd ref='-1692' />
    <nd ref='-1694' />
    <nd ref='-1696' />
    <nd ref='-1698' />
    <nd ref='-1700' />
    <nd ref='-1702' />
    <nd ref='-1704' />
    <nd ref='-1706' />
    <nd ref='-1708' />
    <nd ref='-1710' />
    <nd ref='-1712' />
    <nd ref='-1714' />
    <nd ref='-1716' />
    <nd ref='-1718' />
    <nd ref='-1720' />
    <nd ref='-1722' />
    <nd ref='-1724' />
    <nd ref='-1726' />
    <nd ref='-1728' />
    <nd ref='-1730' />
    <nd ref='-1732' />
    <nd ref='-1734' />
    <nd ref='-1736' />
    <nd ref='-1738' />
    <nd ref='-1740' />
    <nd ref='-1742' />
    <nd ref='-1744' />
    <nd ref='-1746' />
    <nd ref='-1748' />
    <nd ref='-1750' />
    <nd ref='-1752' />
    <nd ref='-1754' />
    <nd ref='-1756' />
    <nd ref='-1758' />
    <nd ref='-1760' />
    <nd ref='-1762' />
    <nd ref='-1764' />
    <nd ref='-1766' />
    <nd ref='-1768' />
    <nd ref='-1770' />
    <nd ref='-1772' />
    <nd ref='-1774' />
    <nd ref='-1776' />
    <nd ref='-1778' />
    <nd ref='-1780' />
    <nd ref='-1782' />
    <nd ref='-1784' />
    <nd ref='-1786' />
    <nd ref='-1788' />
    <nd ref='-1790' />
    <nd ref='-1792' />
    <nd ref='-1794' />
    <nd ref='-1796' />
    <nd ref='-1798' />
    <nd ref='-1800' />
    <nd ref='-1802' />
    <nd ref='-1804' />
    <nd ref='-1806' />
    <nd ref='-1808' />
    <nd ref='-1810' />
    <nd ref='-1812' />
    <nd ref='-1814' />
    <nd ref='-1816' />
    <nd ref='-1818' />
    <nd ref='-1820' />
    <nd ref='-1822' />
    <nd ref='-1824' />
    <nd ref='-1826' />
    <nd ref='-1828' />
    <nd ref='-1830' />
    <nd ref='-1832' />
    <nd ref='-1834' />
    <nd ref='-1836' />
    <nd ref='-1838' />
    <nd ref='-1840' />
    <nd ref='-1842' />
    <nd ref='-1844' />
    <nd ref='-1846' />
    <nd ref='-1848' />
    <nd ref='-1850' />
    <nd ref='-1852' />
    <nd ref='-1854' />
    <nd ref='-1856' />
    <nd ref='-1858' />
    <nd ref='-1860' />
    <nd ref='-1862' />
    <nd ref='-1864' />
    <nd ref='-1866' />
    <nd ref='-1868' />
    <nd ref='-1870' />
    <nd ref='-1872' />
    <nd ref='-1874' />
    <nd ref='-1876' />
    <nd ref='-1878' />
    <nd ref='-1880' />
    <nd ref='-1882' />
    <nd ref='-1884' />
    <nd ref='-1886' />
    <nd ref='-1888' />
    <nd ref='-1890' />
    <nd ref='-1892' />
    <nd ref='-1894' />
    <nd ref='-1896' />
    <nd ref='-1898' />
    <nd ref='-1900' />
    <nd ref='-1902' />
    <nd ref='-1904' />
    <nd ref='-1906' />
    <nd ref='-1908' />
    <nd ref='-1910' />
    <nd ref='-1912' />
    <nd ref='-1914' />
    <nd ref='-1916' />
    <nd ref='-1918' />
    <nd ref='-1920' />
    <nd ref='-1922' />
    <nd ref='-1924' />
    <nd ref='-1926' />
    <nd ref='-1928' />
    <nd ref='-1930' />
    <nd ref='-1932' />
    <nd ref='-1934' />
    <nd ref='-1936' />
    <nd ref='-1938' />
    <nd ref='-1940' />
    <nd ref='-1942' />
    <nd ref='-1944' />
    <nd ref='-1946' />
    <nd ref='-1948' />
    <nd ref='-1950' />
    <nd ref='-1952' />
    <nd ref='-1954' />
    <nd ref='-1956' />
    <nd ref='-1958' />
    <nd ref='-1960' />
    <nd ref='-1962' />
    <nd ref='-1964' />
    <nd ref='-1966' />
    <nd ref='-1968' />
    <nd ref='-1970' />
    <nd ref='-1972' />
    <nd ref='-1974' />
    <nd ref='-1976' />
    <nd ref='-1978' />
    <nd ref='-1980' />
    <nd ref='-1982' />
    <nd ref='-1984' />
    <nd ref='-1986' />
    <nd ref='-1988' />
    <nd ref='-1990' />
    <nd ref='-1992' />
    <nd ref='-1994' />
    <nd ref='-1996' />
    <nd ref='-1998' />
    <nd ref='-2000' />
    <nd ref='-2002' />
    <nd ref='-2004' />
    <nd ref='-2006' />
    <nd ref='-2008' />
    <nd ref='-2010' />
    <nd ref='-2012' />
    <nd ref='-2014' />
    <nd ref='-2016' />
    <nd ref='-2018' />
    <nd ref='-2020' />
    <nd ref='-2022' />
    <nd ref='-2024' />
    <nd ref='-2026' />
    <nd ref='-2028' />
    <nd ref='-2030' />
    <nd ref='-2032' />
    <nd ref='-2034' />
    <nd ref='-2036' />
    <nd ref='-2038' />
    <nd ref='-2040' />
    <nd ref='-2042' />
    <nd ref='-2044' />
    <nd ref='-2046' />
    <nd ref='-2940' />
    <nd ref='-2938' />
    <nd ref='-2936' />
    <nd ref='-2934' />
    <nd ref='-2932' />
    <nd ref='-2930' />
    <nd ref='-2928' />
    <nd ref='-2926' />
    <nd ref='-2924' />
    <nd ref='-2922' />
    <nd ref='-2920' />
    <nd ref='-2918' />
    <nd ref='-2916' />
    <nd ref='-2914' />
    <nd ref='-2912' />
    <nd ref='-2910' />
    <nd ref='-2908' />
    <nd ref='-2906' />
    <nd ref='-2904' />
    <nd ref='-2902' />
    <nd ref='-2900' />
    <nd ref='-2898' />
    <nd ref='-2896' />
    <nd ref='-2894' />
    <nd ref='-2892' />
    <nd ref='-2890' />
    <nd ref='-2888' />
    <nd ref='-2886' />
    <nd ref='-2884' />
    <nd ref='-2882' />
    <nd ref='-2880' />
    <nd ref='-2878' />
    <nd ref='-2876' />
    <nd ref='-2874' />
    <nd ref='-2872' />
    <nd ref='-2870' />
    <nd ref='-2868' />
    <nd ref='-2866' />
    <nd ref='-2864' />
    <nd ref='-2862' />
    <nd ref='-2048' />
    <nd ref='-2050' />
    <nd ref='-2052' />
    <nd ref='-2056' />
    <nd ref='-2058' />
    <nd ref='-2060' />
    <nd ref='-2062' />
    <nd ref='-2064' />
    <nd ref='-2066' />
    <nd ref='-2068' />
    <nd ref='-2070' />
    <nd ref='-2072' />
    <nd ref='-2074' />
    <nd ref='-2076' />
    <nd ref='-2078' />
    <nd ref='-2080' />
    <nd ref='-2082' />
    <nd ref='-2084' />
    <nd ref='-2086' />
    <nd ref='-2088' />
    <nd ref='-2090' />
    <nd ref='-2092' />
    <nd ref='-2094' />
    <nd ref='-2096' />
    <nd ref='-2098' />
    <nd ref='-2100' />
    <nd ref='-2102' />
    <nd ref='-2104' />
    <nd ref='-2106' />
    <nd ref='-2108' />
    <nd ref='-2110' />
    <nd ref='-2112' />
    <nd ref='-2114' />
    <nd ref='-2116' />
    <nd ref='-2118' />
    <nd ref='-2120' />
    <nd ref='-2122' />
    <nd ref='-2124' />
    <nd ref='-2126' />
    <nd ref='-2128' />
    <nd ref='-2130' />
    <nd ref='-2132' />
    <nd ref='-2134' />
    <nd ref='-2136' />
    <nd ref='-2138' />
    <nd ref='-2140' />
    <nd ref='-2142' />
    <nd ref='-2144' />
    <nd ref='-2146' />
    <nd ref='-2148' />
    <nd ref='-2150' />
    <nd ref='-2152' />
    <nd ref='-2154' />
    <nd ref='-2156' />
    <nd ref='-2158' />
    <nd ref='-2160' />
    <nd ref='-2162' />
    <nd ref='-2164' />
    <nd ref='-2166' />
    <nd ref='-2168' />
    <nd ref='-2170' />
    <nd ref='-2172' />
    <nd ref='-2174' />
    <nd ref='-2176' />
    <nd ref='-2178' />
    <nd ref='-2180' />
    <nd ref='-2182' />
    <nd ref='-2184' />
    <nd ref='-2186' />
    <nd ref='-2188' />
    <nd ref='-2190' />
    <nd ref='-2192' />
    <nd ref='-2194' />
    <nd ref='-2196' />
    <nd ref='-2198' />
    <nd ref='-2200' />
    <nd ref='-2202' />
    <nd ref='-2204' />
    <nd ref='-2206' />
    <nd ref='-2208' />
    <nd ref='-2210' />
    <nd ref='-2212' />
    <nd ref='-2214' />
    <nd ref='-2216' />
    <nd ref='-2218' />
    <nd ref='-2220' />
    <nd ref='-2222' />
    <nd ref='-2224' />
    <nd ref='-2226' />
    <nd ref='-2228' />
    <nd ref='-2230' />
    <nd ref='-2232' />
    <nd ref='-2234' />
    <nd ref='-2236' />
    <nd ref='-2238' />
    <nd ref='-2240' />
    <nd ref='-2242' />
    <nd ref='-2244' />
    <nd ref='-2246' />
    <nd ref='-2248' />
    <nd ref='-2250' />
    <nd ref='-2252' />
    <nd ref='-2254' />
    <nd ref='-2256' />
    <nd ref='-2258' />
    <nd ref='-2260' />
    <nd ref='-2262' />
    <nd ref='-2264' />
    <nd ref='-2266' />
    <nd ref='-2268' />
    <nd ref='-2270' />
    <nd ref='-2272' />
    <nd ref='-2274' />
    <nd ref='-2276' />
    <nd ref='-2278' />
    <nd ref='-2280' />
    <nd ref='-2282' />
    <nd ref='-2284' />
    <nd ref='-2286' />
    <nd ref='-2288' />
    <nd ref='-2290' />
    <nd ref='-2292' />
    <nd ref='-2294' />
    <nd ref='-2296' />
    <nd ref='-2298' />
    <nd ref='-2300' />
    <nd ref='-2302' />
    <nd ref='-2304' />
    <nd ref='-2306' />
    <nd ref='-2308' />
    <nd ref='-2310' />
    <nd ref='-2312' />
    <nd ref='-2314' />
    <nd ref='-2316' />
    <nd ref='-2318' />
    <nd ref='-2320' />
    <nd ref='-2322' />
    <nd ref='-2324' />
    <nd ref='-2326' />
    <nd ref='-2328' />
    <nd ref='-2330' />
    <nd ref='-2332' />
    <nd ref='-2334' />
    <nd ref='-2336' />
    <nd ref='-2338' />
    <nd ref='-2340' />
    <nd ref='-2342' />
    <nd ref='-2344' />
    <nd ref='-2346' />
    <nd ref='-2348' />
    <nd ref='-2350' />
    <nd ref='-2352' />
    <nd ref='-2354' />
    <nd ref='-2356' />
    <nd ref='-2358' />
    <nd ref='-2360' />
    <nd ref='-2362' />
    <nd ref='-2364' />
    <nd ref='-2366' />
    <nd ref='-2368' />
    <nd ref='-2370' />
    <nd ref='-2372' />
    <nd ref='-2374' />
    <nd ref='-2376' />
    <nd ref='-2378' />
    <nd ref='-2380' />
    <nd ref='-2382' />
    <nd ref='-2384' />
    <nd ref='-2386' />
    <nd ref='-2388' />
    <nd ref='-2390' />
    <nd ref='-2392' />
    <nd ref='-2394' />
    <nd ref='-2396' />
    <nd ref='-2398' />
    <nd ref='-2400' />
    <nd ref='-2402' />
    <nd ref='-2404' />
    <nd ref='-2406' />
    <nd ref='-2408' />
    <nd ref='-2410' />
    <nd ref='-2412' />
    <nd ref='-2414' />
    <nd ref='-2416' />
    <nd ref='-2418' />
    <nd ref='-2420' />
    <nd ref='-2422' />
    <nd ref='-2424' />
    <nd ref='-2426' />
    <nd ref='-2428' />
    <nd ref='-2430' />
    <nd ref='-2432' />
    <nd ref='-2434' />
    <nd ref='-2436' />
    <nd ref='-2438' />
    <nd ref='-2440' />
    <nd ref='-2442' />
    <nd ref='-2444' />
    <nd ref='-2446' />
    <nd ref='-2448' />
    <nd ref='-2450' />
    <nd ref='-2452' />
    <nd ref='-2454' />
    <nd ref='-2456' />
    <nd ref='-2458' />
    <nd ref='-2460' />
    <nd ref='-2462' />
    <nd ref='-2464' />
    <nd ref='-2466' />
    <nd ref='-2468' />
    <nd ref='-2470' />
    <nd ref='-2472' />
    <nd ref='-2474' />
    <nd ref='-2476' />
    <nd ref='-2478' />
    <nd ref='-2480' />
    <nd ref='-2482' />
    <nd ref='-2484' />
    <nd ref='-2486' />
    <nd ref='-2488' />
    <nd ref='-2490' />
    <nd ref='-2492' />
    <nd ref='-2494' />
    <nd ref='-2496' />
    <nd ref='-2498' />
    <nd ref='-2500' />
    <nd ref='-2502' />
    <nd ref='-2504' />
    <nd ref='-2506' />
    <nd ref='-2508' />
    <nd ref='-2510' />
    <nd ref='-2512' />
    <nd ref='-2514' />
    <nd ref='-2516' />
    <nd ref='-2518' />
    <nd ref='-2520' />
    <nd ref='-2522' />
    <nd ref='-2524' />
    <nd ref='-2526' />
    <nd ref='-2528' />
    <nd ref='-2530' />
    <nd ref='-2532' />
    <nd ref='-2534' />
    <nd ref='-2536' />
    <nd ref='-2538' />
    <nd ref='-2540' />
    <nd ref='-2542' />
    <nd ref='-2544' />
    <nd ref='-2546' />
    <nd ref='-2548' />
    <nd ref='-2550' />
    <nd ref='-2552' />
    <nd ref='-2554' />
    <nd ref='-2556' />
    <nd ref='-2558' />
    <nd ref='-2560' />
    <nd ref='-2562' />
    <nd ref='-2564' />
    <nd ref='-2566' />
    <nd ref='-2568' />
    <nd ref='-2570' />
    <nd ref='-2572' />
    <nd ref='-2574' />
    <nd ref='-2576' />
    <nd ref='-2578' />
    <nd ref='-2580' />
    <nd ref='-2582' />
    <nd ref='-2584' />
    <nd ref='-2586' />
    <nd ref='-2588' />
    <nd ref='-2590' />
    <nd ref='-2592' />
    <nd ref='-2594' />
    <nd ref='-2596' />
    <nd ref='-2598' />
    <nd ref='-2600' />
    <nd ref='-2602' />
    <nd ref='-2604' />
    <nd ref='-2606' />
    <nd ref='-2608' />
    <nd ref='-2610' />
    <nd ref='-2612' />
    <nd ref='-2614' />
    <nd ref='-2616' />
    <nd ref='-2618' />
    <nd ref='-2620' />
    <nd ref='-2622' />
    <nd ref='-2624' />
    <nd ref='-2626' />
    <nd ref='-2628' />
    <nd ref='-2630' />
    <nd ref='-2632' />
    <nd ref='-2634' />
    <nd ref='-2636' />
    <nd ref='-2638' />
    <nd ref='-2640' />
    <nd ref='-2642' />
    <nd ref='-2644' />
    <nd ref='-2646' />
    <nd ref='-2648' />
    <nd ref='-2650' />
    <nd ref='-2652' />
    <nd ref='-2654' />
    <nd ref='-2656' />
    <nd ref='-2658' />
    <nd ref='-2660' />
    <nd ref='-2662' />
    <nd ref='-2664' />
    <nd ref='-2666' />
    <nd ref='-2668' />
    <nd ref='-2670' />
    <nd ref='-2672' />
    <nd ref='-2674' />
    <nd ref='-2676' />
    <nd ref='-2678' />
    <nd ref='-2680' />
    <nd ref='-2682' />
    <nd ref='-2684' />
    <nd ref='-2686' />
    <nd ref='-2688' />
    <nd ref='-2690' />
    <nd ref='-2692' />
    <nd ref='-2694' />
    <nd ref='-2696' />
    <nd ref='-2698' />
    <nd ref='-2700' />
    <nd ref='-2702' />
    <nd ref='-2704' />
    <nd ref='-2706' />
    <nd ref='-2708' />
    <nd ref='-2710' />
    <nd ref='-2712' />
    <nd ref='-2714' />
    <nd ref='-2716' />
    <nd ref='-2718' />
    <nd ref='-2720' />
    <nd ref='-2722' />
    <nd ref='-2724' />
    <nd ref='-2726' />
    <nd ref='-2728' />
    <nd ref='-2730' />
    <nd ref='-2732' />
    <nd ref='-2734' />
    <nd ref='-2736' />
    <nd ref='-2738' />
    <nd ref='-2740' />
    <nd ref='-2742' />
    <nd ref='-2744' />
    <nd ref='-2746' />
    <nd ref='-2748' />
    <nd ref='-2750' />
    <nd ref='-2752' />
    <nd ref='-2754' />
    <nd ref='-2756' />
    <nd ref='-2758' />
    <nd ref='-2760' />
    <nd ref='-2762' />
    <nd ref='-2764' />
    <nd ref='-2766' />
    <nd ref='-2768' />
    <nd ref='-2770' />
    <nd ref='-2772' />
    <nd ref='-2774' />
    <nd ref='-2776' />
    <nd ref='-2778' />
    <nd ref='-2780' />
    <nd ref='-2782' />
    <nd ref='-2784' />
    <nd ref='-2786' />
    <nd ref='-2788' />
    <nd ref='-2790' />
    <nd ref='-2792' />
    <nd ref='-2794' />
    <nd ref='-2796' />
    <nd ref='-2798' />
    <nd ref='-2800' />
    <nd ref='-2802' />
    <nd ref='-2804' />
    <nd ref='-2806' />
    <nd ref='-2808' />
    <nd ref='-2810' />
    <nd ref='-2812' />
    <nd ref='-2814' />
    <nd ref='-2816' />
    <nd ref='-2818' />
    <nd ref='-2820' />
    <nd ref='-2822' />
    <nd ref='-2824' />
    <nd ref='-2826' />
    <nd ref='-2828' />
    <nd ref='-2830' />
    <nd ref='-2832' />
    <nd ref='-2834' />
    <nd ref='-2836' />
    <nd ref='-2838' />
    <nd ref='-2840' />
    <nd ref='-2842' />
    <nd ref='-2844' />
    <nd ref='-2846' />
    <nd ref='-2848' />
    <nd ref='-2850' />
    <nd ref='-2852' />
    <nd ref='-2854' />
    <nd ref='-2856' />
    <nd ref='-2858' />
    <nd ref='-2860' />
    <tag k='name' v='Wentworth Falls to Leura via National Pass, Linderman Pass and Copeland Pass' />
    <tag k='park' v='Blue Mountains National Park' />
    <tag k='role' v='primary' />
    <tag k='photo' v='136319147@N08/31679871026' />
    <tag k='style' v='oneway' />
    <tag k='transport' v='carshuffle;train' />
  </way>
</osm>
