<?xml version='1.0' encoding='UTF-8'?>
<osm version='0.6' upload='false' generator='JOSM'>
  <node id='-159122' visible='true' lat='-33.79739409762' lon='151.17719099559' />
  <node id='-159121' visible='true' lat='-33.79742030636' lon='151.17709848284' />
  <node id='-159120' visible='true' lat='-33.79762822881' lon='151.17623853473' />
  <node id='-159119' visible='true' lat='-33.79724907574' lon='151.17610397073' />
  <node id='-159118' visible='true' lat='-33.79752688852' lon='151.17505689455' />
  <node id='-159117' visible='true' lat='-33.79728402079' lon='151.17497279204' />
  <node id='-159116' visible='true' lat='-33.79741855911' lon='151.17445135652' />
  <node id='-159115' visible='true' lat='-33.79747367461' lon='151.17137893609' />
  <node id='-159114' visible='true' lat='-33.79747367461' lon='151.17131165408' />
  <node id='-159113' visible='true' lat='-33.79773925596' lon='151.17128221821' />
  <node id='-159112' visible='true' lat='-33.79787554081' lon='151.17131585921' />
  <node id='-159111' visible='true' lat='-33.79811888224' lon='151.1703590438' />
  <node id='-159110' visible='true' lat='-33.79887746477' lon='151.16949078981' />
  <node id='-159109' visible='true' lat='-33.79937659358' lon='151.16935698354' />
  <node id='-159108' visible='true' lat='-33.7997141' lon='151.1695256' />
  <node id='-159107' visible='true' lat='-33.7997765' lon='151.169437' />
  <node id='-159106' visible='true' lat='-33.7998322' lon='151.1694081' />
  <node id='-159105' visible='true' lat='-33.799893' lon='151.1694459' />
  <node id='-159104' visible='true' lat='-33.7998699' lon='151.1693901' />
  <node id='-159103' visible='true' lat='-33.7998522' lon='151.1693108' />
  <node id='-159102' visible='true' lat='-33.7998401' lon='151.1692294' />
  <node id='-159101' visible='true' lat='-33.7998327' lon='151.1691792' />
  <node id='-159100' visible='true' lat='-33.799849' lon='151.1691162' />
  <node id='-159099' visible='true' lat='-33.7998858' lon='151.1690051' />
  <node id='-159098' visible='true' lat='-33.7999268' lon='151.1689075' />
  <node id='-159097' visible='true' lat='-33.7999907' lon='151.1687638' />
  <node id='-159096' visible='true' lat='-33.8000296' lon='151.1686792' />
  <node id='-159095' visible='true' lat='-33.8000606' lon='151.1685754' />
  <node id='-159094' visible='true' lat='-33.8000734' lon='151.1685198' />
  <node id='-159093' visible='true' lat='-33.8000502' lon='151.1684516' />
  <node id='-159092' visible='true' lat='-33.8000014' lon='151.1683349' />
  <node id='-159091' visible='true' lat='-33.7999525' lon='151.1681796' />
  <node id='-159090' visible='true' lat='-33.7999342' lon='151.1680656' />
  <node id='-159089' visible='true' lat='-33.799924' lon='151.167991' />
  <node id='-159088' visible='true' lat='-33.7999253' lon='151.1679633' />
  <node id='-159087' visible='true' lat='-33.7999324' lon='151.1679163' />
  <node id='-159086' visible='true' lat='-33.7999493' lon='151.1678099' />
  <node id='-159085' visible='true' lat='-33.7999508' lon='151.1677811' />
  <node id='-159084' visible='true' lat='-33.7999377' lon='151.1677346' />
  <node id='-159083' visible='true' lat='-33.7999118' lon='151.1676548' />
  <node id='-159082' visible='true' lat='-33.7998818' lon='151.1675648' />
  <node id='-159081' visible='true' lat='-33.7998642' lon='151.1675285' />
  <node id='-159080' visible='true' lat='-33.7998242' lon='151.1674539' />
  <node id='-159079' visible='true' lat='-33.7998237' lon='151.1674194' />
  <node id='-159078' visible='true' lat='-33.7998083' lon='151.1673641' />
  <node id='-159077' visible='true' lat='-33.7997912' lon='151.1672887' />
  <node id='-159076' visible='true' lat='-33.7997817' lon='151.1672243' />
  <node id='-159075' visible='true' lat='-33.7997396' lon='151.1671549' />
  <node id='-159074' visible='true' lat='-33.7997066' lon='151.1671022' />
  <node id='-159073' visible='true' lat='-33.7996806' lon='151.1669958' />
  <node id='-159072' visible='true' lat='-33.7996725' lon='151.1669498' />
  <node id='-159071' visible='true' lat='-33.7996783' lon='151.1668973' />
  <node id='-159070' visible='true' lat='-33.7996814' lon='151.1668266' />
  <node id='-159069' visible='true' lat='-33.7996557' lon='151.1667554' />
  <node id='-159068' visible='true' lat='-33.7996401' lon='151.166716' />
  <node id='-159067' visible='true' lat='-33.7996192' lon='151.1666445' />
  <node id='-159066' visible='true' lat='-33.7995991' lon='151.1666179' />
  <node id='-159065' visible='true' lat='-33.7995689' lon='151.1665754' />
  <node id='-159064' visible='true' lat='-33.7995296' lon='151.1665203' />
  <node id='-159063' visible='true' lat='-33.7994923' lon='151.1664632' />
  <node id='-159062' visible='true' lat='-33.7994364' lon='151.166357' />
  <node id='-159061' visible='true' lat='-33.7994028' lon='151.1662869' />
  <node id='-159060' visible='true' lat='-33.7993406' lon='151.1661888' />
  <node id='-159059' visible='true' lat='-33.7992698' lon='151.1661403' />
  <node id='-159058' visible='true' lat='-33.7991999' lon='151.1660978' />
  <node id='-159057' visible='true' lat='-33.7991667' lon='151.166072' />
  <node id='-159056' visible='true' lat='-33.7991384' lon='151.1660476' />
  <node id='-159055' visible='true' lat='-33.7991286' lon='151.1659874' />
  <node id='-159054' visible='true' lat='-33.7991247' lon='151.1659562' />
  <node id='-159053' visible='true' lat='-33.7991146' lon='151.1659406' />
  <node id='-159052' visible='true' lat='-33.7991041' lon='151.1659579' />
  <node id='-159051' visible='true' lat='-33.799083' lon='151.1660137' />
  <node id='-159050' visible='true' lat='-33.7990761' lon='151.1660201' />
  <node id='-159049' visible='true' lat='-33.7990685' lon='151.1660176' />
  <node id='-159048' visible='true' lat='-33.7990202' lon='151.1660019' />
  <node id='-159047' visible='true' lat='-33.7989816' lon='151.1659871' />
  <node id='-159046' visible='true' lat='-33.798933' lon='151.1659771' />
  <node id='-159045' visible='true' lat='-33.7988987' lon='151.1659693' />
  <node id='-159044' visible='true' lat='-33.7988388' lon='151.1659705' />
  <node id='-159043' visible='true' lat='-33.7987796' lon='151.1659498' />
  <node id='-159042' visible='true' lat='-33.7987425' lon='151.1659254' />
  <node id='-159041' visible='true' lat='-33.7987083' lon='151.1659254' />
  <node id='-159040' visible='true' lat='-33.7985861' lon='151.1658956' />
  <node id='-159039' visible='true' lat='-33.7984709' lon='151.1658777' />
  <node id='-159038' visible='true' lat='-33.7983138' lon='151.1658324' />
  <node id='-159037' visible='true' lat='-33.7981752' lon='151.165805' />
  <node id='-159036' visible='true' lat='-33.7981267' lon='151.1657461' />
  <node id='-159035' visible='true' lat='-33.798094' lon='151.1657275' />
  <node id='-159034' visible='true' lat='-33.7979524' lon='151.1657246' />
  <node id='-159033' visible='true' lat='-33.797845' lon='151.1656805' />
  <node id='-159032' visible='true' lat='-33.7977212' lon='151.165665' />
  <node id='-159031' visible='true' lat='-33.7976423' lon='151.16556' />
  <node id='-159030' visible='true' lat='-33.7976076' lon='151.1654228' />
  <node id='-159029' visible='true' lat='-33.7976163' lon='151.1653994' />
  <node id='-159028' visible='true' lat='-33.7976564' lon='151.1653255' />
  <node id='-159027' visible='true' lat='-33.7976777' lon='151.1652677' />
  <node id='-159026' visible='true' lat='-33.7977051' lon='151.165138' />
  <node id='-159025' visible='true' lat='-33.7977296' lon='151.1650586' />
  <node id='-159024' visible='true' lat='-33.7977549' lon='151.1649829' />
  <node id='-159023' visible='true' lat='-33.7977697' lon='151.1649734' />
  <node id='-159022' visible='true' lat='-33.7978232' lon='151.1649514' />
  <node id='-159021' visible='true' lat='-33.797841' lon='151.1649287' />
  <node id='-159020' visible='true' lat='-33.7979559' lon='151.1647744' />
  <node id='-159019' visible='true' lat='-33.7980272' lon='151.1646773' />
  <node id='-159018' visible='true' lat='-33.7980579' lon='151.1646427' />
  <node id='-159017' visible='true' lat='-33.7981395' lon='151.1645993' />
  <node id='-159016' visible='true' lat='-33.7982633' lon='151.164479' />
  <node id='-159015' visible='true' lat='-33.7983603' lon='151.1643878' />
  <node id='-159014' visible='true' lat='-33.7984793' lon='151.1643369' />
  <node id='-159013' visible='true' lat='-33.7985742' lon='151.164249' />
  <node id='-159012' visible='true' lat='-33.7986014' lon='151.1642026' />
  <node id='-159011' visible='true' lat='-33.7987116' lon='151.1640818' />
  <node id='-159010' visible='true' lat='-33.7988014' lon='151.1640036' />
  <node id='-159009' visible='true' lat='-33.7988316' lon='151.1639279' />
  <node id='-159008' visible='true' lat='-33.7988435' lon='151.1639112' />
  <node id='-159007' visible='true' lat='-33.7989167' lon='151.163882' />
  <node id='-159006' visible='true' lat='-33.798943' lon='151.163835' />
  <node id='-159005' visible='true' lat='-33.798946' lon='151.1637939' />
  <node id='-159004' visible='true' lat='-33.7989732' lon='151.1636992' />
  <node id='-159003' visible='true' lat='-33.7989924' lon='151.1632252' />
  <node id='-159002' visible='true' lat='-33.7990019' lon='151.16306' />
  <node id='-159001' visible='true' lat='-33.7990513' lon='151.1628902' />
  <node id='-159000' visible='true' lat='-33.7989984' lon='151.1624278' />
  <node id='-158999' visible='true' lat='-33.7988879' lon='151.1621183' />
  <node id='-158998' visible='true' lat='-33.7987237' lon='151.1618308' />
  <node id='-158997' visible='true' lat='-33.7986294' lon='151.1616569' />
  <node id='-158996' visible='true' lat='-33.7985376' lon='151.1615663' />
  <node id='-158995' visible='true' lat='-33.7984633' lon='151.1613804' />
  <node id='-158994' visible='true' lat='-33.7983971' lon='151.1612941' />
  <node id='-158993' visible='true' lat='-33.798292' lon='151.1612017' />
  <node id='-158992' visible='true' lat='-33.7981678' lon='151.1611391' />
  <node id='-158991' visible='true' lat='-33.7980246' lon='151.1611898' />
  <node id='-158990' visible='true' lat='-33.7979161' lon='151.1611832' />
  <node id='-158989' visible='true' lat='-33.7977259' lon='151.1611815' />
  <node id='-158988' visible='true' lat='-33.7975576' lon='151.1612708' />
  <node id='-158987' visible='true' lat='-33.7976257' lon='151.1611541' />
  <node id='-158986' visible='true' lat='-33.7974821' lon='151.1607895' />
  <node id='-158985' visible='true' lat='-33.7973317' lon='151.160456' />
  <node id='-158984' visible='true' lat='-33.7972202' lon='151.1602534' />
  <node id='-158983' visible='true' lat='-33.7971584' lon='151.1600411' />
  <node id='-158982' visible='true' lat='-33.7971363' lon='151.1598646' />
  <node id='-158981' visible='true' lat='-33.7970541' lon='151.159668' />
  <node id='-158980' visible='true' lat='-33.7969229' lon='151.159445' />
  <node id='-158979' visible='true' lat='-33.7968382' lon='151.1593009' />
  <node id='-158978' visible='true' lat='-33.7966544' lon='151.1590451' />
  <node id='-158977' visible='true' lat='-33.7963234' lon='151.1588311' />
  <node id='-158976' visible='true' lat='-33.7960747' lon='151.1587833' />
  <node id='-158975' visible='true' lat='-33.7957848' lon='151.1587597' />
  <node id='-158974' visible='true' lat='-33.7955106' lon='151.1587627' />
  <node id='-158973' visible='true' lat='-33.795429' lon='151.1587597' />
  <node id='-158972' visible='true' lat='-33.7952981' lon='151.1586824' />
  <node id='-158971' visible='true' lat='-33.7951672' lon='151.1585457' />
  <node id='-158970' visible='true' lat='-33.7949003' lon='151.1583286' />
  <node id='-158969' visible='true' lat='-33.7944965' lon='151.1580588'>
    
  </node>
  <node id='-158968' visible='true' lat='-33.7943823' lon='151.1578583' />
  <node id='-158967' visible='true' lat='-33.7943209' lon='151.1575618' />
  <node id='-158966' visible='true' lat='-33.7939909' lon='151.1575602' />
  <node id='-158965' visible='true' lat='-33.7934235' lon='151.157495' />
  <node id='-158964' visible='true' lat='-33.7929527' lon='151.1574779' />
  <node id='-158963' visible='true' lat='-33.7927173' lon='151.1575809' />
  <node id='-158962' visible='true' lat='-33.792723' lon='151.157408' />
  <node id='-158961' visible='true' lat='-33.7925595' lon='151.1573601' />
  <node id='-158960' visible='true' lat='-33.7925305' lon='151.1574486' />
  <node id='-158959' visible='true' lat='-33.79257710354' lon='151.15745891895' />
  <node id='-158955' action='modify' visible='true' lat='-33.7876658' lon='151.1486468'>
    
  </node>
  <node id='-158953' visible='true' lat='-33.7873898' lon='151.1486468'>
    
  </node>
  <node id='-158951' visible='true' lat='-33.7870094' lon='151.1481442'>
    
  </node>
  <node id='-158949' visible='true' lat='-33.7864237066' lon='151.14732614736' />
  <node id='-158947' visible='true' lat='-33.7860024' lon='151.1466633'>
    
  </node>
  <node id='-158945' visible='true' lat='-33.7858085' lon='151.1461876'>
    
  </node>
  <node id='-158943' action='modify' visible='true' lat='-33.7857935' lon='151.1453081'>
    
  </node>
  <node id='-158941' visible='true' lat='-33.7857339' lon='151.1446978'>
    
  </node>
  <node id='-158939' visible='true' lat='-33.7856393' lon='151.1444863' />
  <node id='-158937' action='modify' visible='true' lat='-33.785423' lon='151.1444202' />
  <node id='-158935' visible='true' lat='-33.7849805' lon='151.1444914'>
    
  </node>
  <node id='-158933' visible='true' lat='-33.7847045' lon='151.1445362'>
    
  </node>
  <node id='-158931' visible='true' lat='-33.7843464' lon='151.1443837'>
    
  </node>
  <node id='-158929' visible='true' lat='-33.7838839' lon='151.1440875'>
    
  </node>
  <node id='-158927' visible='true' lat='-33.7835897' lon='151.1439488' />
  <node id='-158925' visible='true' lat='-33.7834413' lon='151.1438359' />
  <node id='-158923' visible='true' lat='-33.783381' lon='151.1435214' />
  <node id='-158921' visible='true' lat='-33.7833121' lon='151.1433294' />
  <node id='-158919' visible='true' lat='-33.7831007' lon='151.1429297'>
    
  </node>
  <node id='-158917' visible='true' lat='-33.7826457' lon='151.1426425'>
    
  </node>
  <node id='-158915' visible='true' lat='-33.7822354' lon='151.1426156'>
    
  </node>
  <node id='-158913' visible='true' lat='-33.7818922' lon='151.1426515'>
    
  </node>
  <node id='-158911' visible='true' lat='-33.7816983' lon='151.1425797'>
    
  </node>
  <node id='-158909' visible='true' lat='-33.7816237' lon='151.1424092'>
    
  </node>
  <node id='-158907' visible='true' lat='-33.7818326' lon='151.1420771'>
    
  </node>
  <node id='-158905' visible='true' lat='-33.7822876' lon='151.1412514'>
    
  </node>
  <node id='-158903' action='modify' visible='true' lat='-33.7826457' lon='151.1405065'>
    
  </node>
  <node id='-158901' visible='true' lat='-33.782765' lon='151.1401206'>
    
  </node>
  <node id='-158899' visible='true' lat='-33.7827277' lon='151.1398513'>
    
  </node>
  <node id='-158897' visible='true' lat='-33.7824666' lon='151.1396'>
    
  </node>
  <node id='-158895' visible='true' lat='-33.7824219' lon='151.1393756'>
    
  </node>
  <node id='-158893' visible='true' lat='-33.7826531' lon='151.1393038'>
    
  </node>
  <node id='-158891' visible='true' lat='-33.7827799' lon='151.1390077'>
    
  </node>
  <node id='-158889' visible='true' lat='-33.7828918' lon='151.1386397'>
    
  </node>
  <node id='-158887' visible='true' lat='-33.783235' lon='151.1379107' />
  <node id='-158885' visible='true' lat='-33.7830773' lon='151.1376814' />
  <node id='-158883' visible='true' lat='-33.7830035' lon='151.1376179' />
  <node id='-158881' visible='true' lat='-33.7827279' lon='151.1380898' />
  <node id='-158879' visible='true' lat='-33.7826324' lon='151.138372' />
  <node id='-158877' visible='true' lat='-33.7825021' lon='151.1386856' />
  <node id='-158875' visible='true' lat='-33.7823631' lon='151.1388528' />
  <node id='-158873' visible='true' lat='-33.782198' lon='151.1390096' />
  <node id='-158871' visible='true' lat='-33.7819895' lon='151.1392187' />
  <node id='-158869' visible='true' lat='-33.7818592' lon='151.1393336' />
  <node id='-158867' visible='true' lat='-33.7815377' lon='151.1392396' />
  <node id='-158865' visible='true' lat='-33.7812511' lon='151.1392187' />
  <node id='-158863' visible='true' lat='-33.7807211' lon='151.1391873' />
  <node id='-158861' visible='true' lat='-33.7801999' lon='151.1390828' />
  <node id='-158859' visible='true' lat='-33.7798002' lon='151.1389155' />
  <node id='-158857' visible='true' lat='-33.7794788' lon='151.138717' />
  <node id='-158855' visible='true' lat='-33.7792442' lon='151.138581' />
  <node id='-158853' visible='true' lat='-33.7789141' lon='151.1385602' />
  <node id='-158851' visible='true' lat='-33.7786013' lon='151.138623' />
  <node id='-158849' visible='true' lat='-33.7784102' lon='151.138811' />
  <node id='-158847' visible='true' lat='-33.7780974' lon='151.1390096' />
  <node id='-158845' visible='true' lat='-33.7779063' lon='151.139062' />
  <node id='-158843' visible='true' lat='-33.7777586' lon='151.1389678' />
  <node id='-158841' visible='true' lat='-33.7775327' lon='151.13902' />
  <node id='-158839' visible='true' lat='-33.7774545' lon='151.1391664' />
  <node id='-158837' visible='true' lat='-33.7774632' lon='151.1394173' />
  <node id='-158835' visible='true' lat='-33.7773676' lon='151.1396472' />
  <node id='-158833' visible='true' lat='-33.7771765' lon='151.139783' />
  <node id='-158831' visible='true' lat='-33.7769593' lon='151.1398772' />
  <node id='-158829' visible='true' lat='-33.7767768' lon='151.1398772' />
  <node id='-158827' visible='true' lat='-33.7765249' lon='151.1397413' />
  <node id='-158825' visible='true' lat='-33.7763077' lon='151.1395427' />
  <node id='-158823' visible='true' lat='-33.7760818' lon='151.1393963' />
  <node id='-158821' visible='true' lat='-33.7757169' lon='151.139156' />
  <node id='-158819' visible='true' lat='-33.7754563' lon='151.1390305' />
  <node id='-158817' visible='true' lat='-33.7751869' lon='151.1388737' />
  <node id='-158815' visible='true' lat='-33.774935' lon='151.1386647' />
  <node id='-158813' visible='true' lat='-33.7748481' lon='151.1383825' />
  <node id='-158811' visible='true' lat='-33.7749089' lon='151.138163' />
  <node id='-158809' visible='true' lat='-33.7748133' lon='151.1380062' />
  <node id='-158807' visible='true' lat='-33.774822' lon='151.1378912' />
  <node id='-158805' visible='true' lat='-33.7750392' lon='151.1376822' />
  <node id='-158803' visible='true' lat='-33.775491' lon='151.1376613' />
  <node id='-158801' visible='true' lat='-33.7759428' lon='151.137703' />
  <node id='-158799' visible='true' lat='-33.7763251' lon='151.137724' />
  <node id='-158797' visible='true' lat='-33.7767073' lon='151.137724' />
  <node id='-158795' visible='true' lat='-33.7769767' lon='151.1378076' />
  <node id='-158793' visible='true' lat='-33.7767686' lon='151.1366564' />
  <node id='-158791' visible='true' lat='-33.776574' lon='151.1361126' />
  <node id='-158789' visible='true' lat='-33.7763607' lon='151.1356746' />
  <node id='-158787' visible='true' lat='-33.7762937' lon='151.1350965' />
  <node id='-158785' visible='true' lat='-33.7761975' lon='151.134489' />
  <node id='-158783' visible='true' lat='-33.7762674' lon='151.134357' />
  <node id='-158781' visible='true' lat='-33.7764098' lon='151.1342527' />
  <node id='-158779' visible='true' lat='-33.7765114' lon='151.1341736' />
  <node id='-158777' visible='true' lat='-33.7767265' lon='151.1341736' />
  <node id='-158775' visible='true' lat='-33.7769774' lon='151.1344036' />
  <node id='-158773' visible='true' lat='-33.7773358' lon='151.134842' />
  <node id='-158771' visible='true' lat='-33.7774847' lon='151.1352317' />
  <node id='-158769' visible='true' lat='-33.7771681' lon='151.1352947' />
  <node id='-158767' visible='true' lat='-33.7766988' lon='151.1353175' />
  <node id='-158765' visible='true' lat='-33.7766431' lon='151.1353158' />
  <node id='-158763' visible='true' lat='-33.7763142' lon='151.1353054' />
  <node id='-158761' visible='true' lat='-33.775943' lon='151.135288' />
  <node id='-158759' visible='true' lat='-33.7755161' lon='151.1352746' />
  <node id='-158757' visible='true' lat='-33.7749687' lon='151.1352491' />
  <node id='-158755' visible='true' lat='-33.7747059' lon='151.1352376' />
  <node id='-158753' visible='true' lat='-33.7745596' lon='151.1352236' />
  <node id='-158751' visible='true' lat='-33.7740357' lon='151.1351861' />
  <node id='-158749' visible='true' lat='-33.7736856' lon='151.1351673' />
  <node id='-158747' visible='true' lat='-33.7733965' lon='151.1351308' />
  <node id='-158745' visible='true' lat='-33.773442' lon='151.1350157' />
  <node id='-158743' visible='true' lat='-33.7736789' lon='151.1350126' />
  <node id='-158741' visible='true' lat='-33.7739548' lon='151.1350314' />
  <node id='-158739' visible='true' lat='-33.7741631' lon='151.1348873' />
  <node id='-158737' visible='true' lat='-33.7741449' lon='151.1345554' />
  <node id='-158735' visible='true' lat='-33.7740433' lon='151.1342829' />
  <node id='-158733' visible='true' lat='-33.7738169' lon='151.1341921' />
  <node id='-158731' visible='true' lat='-33.773619' lon='151.1342391' />
  <node id='-158729' visible='true' lat='-33.7732988' lon='151.1343956' />
  <node id='-158727' visible='true' lat='-33.7730906' lon='151.1344176' />
  <node id='-158725' visible='true' lat='-33.7728771' lon='151.1338382' />
  <node id='-158723' visible='true' lat='-33.772387' lon='151.1338531' />
  <node id='-158721' visible='true' lat='-33.7723297' lon='151.133352' />
  <node id='-158719' visible='true' lat='-33.7722707' lon='151.1331223' />
  <node id='-158717' visible='true' lat='-33.7723938' lon='151.1326875' />
  <node id='-158715' visible='true' lat='-33.7725579' lon='151.1322555' />
  <node id='-158713' visible='true' lat='-33.7725209' lon='151.1321671' />
  <node id='-158711' visible='true' lat='-33.772459' lon='151.1321065' />
  <node id='-158709' visible='true' lat='-33.772377' lon='151.1320357' />
  <node id='-158707' visible='true' lat='-33.7724304' lon='151.1318493' />
  <node id='-158705' visible='true' lat='-33.7724519' lon='151.131756' />
  <node id='-158703' visible='true' lat='-33.7723812' lon='151.1316492' />
  <node id='-158701' visible='true' lat='-33.7723535' lon='151.1314106' />
  <node id='-158699' visible='true' lat='-33.7723146' lon='151.1310433' />
  <node id='-158697' visible='true' lat='-33.7721724' lon='151.1308365' />
  <node id='-158695' visible='true' lat='-33.7721148' lon='151.1306173' />
  <node id='-158693' visible='true' lat='-33.7720146' lon='151.1302923' />
  <node id='-158691' visible='true' lat='-33.7719883' lon='151.1298495' />
  <node id='-158689' visible='true' lat='-33.7718932' lon='151.1294569' />
  <node id='-158687' visible='true' lat='-33.7719609' lon='151.1290107' />
  <node id='-158685' visible='true' lat='-33.7717678' lon='151.1278776' />
  <node id='-158683' visible='true' lat='-33.7719194' lon='151.1271131' />
  <node id='-158681' visible='true' lat='-33.7719898' lon='151.12682' />
  <node id='-158679' visible='true' lat='-33.7719284' lon='151.1265577' />
  <node id='-158677' visible='true' lat='-33.7717922' lon='151.1264591' />
  <node id='-158675' action='modify' visible='true' lat='-33.7715091' lon='151.126422' />
  <node id='-158673' visible='true' lat='-33.7715199' lon='151.1261682' />
  <node id='-158671' visible='true' lat='-33.7717506' lon='151.1258881' />
  <node id='-158669' visible='true' lat='-33.7718914' lon='151.1258981' />
  <node id='-158667' visible='true' lat='-33.7720431' lon='151.1258035' />
  <node id='-158665' visible='true' lat='-33.772019' lon='151.125583' />
  <node id='-158663' visible='true' lat='-33.7717931' lon='151.1254983' />
  <node id='-158661' visible='true' lat='-33.7715779' lon='151.1249289' />
  <node id='-158659' visible='true' lat='-33.7711714' lon='151.1246073' />
  <node id='-158657' visible='true' lat='-33.7707445' lon='151.1243193' />
  <node id='-158655' visible='true' lat='-33.7701858' lon='151.1238989' />
  <node id='-158653' visible='true' lat='-33.7701077' lon='151.1237749' />
  <node id='-158651' visible='true' lat='-33.7699477' lon='151.1236573' />
  <node id='-158649' visible='true' lat='-33.7697874' lon='151.1232667' />
  <node id='-158647' visible='true' lat='-33.7694135' lon='151.1231343' />
  <node id='-158645' action='modify' visible='true' lat='-33.7694118' lon='151.123066' />
  <node id='-158643' visible='true' lat='-33.76944' lon='151.1229367' />
  <node id='-158641' visible='true' lat='-33.7695877' lon='151.1228829' />
  <node id='-158639' visible='true' lat='-33.7695356' lon='151.1225296' />
  <node id='-158637' visible='true' lat='-33.7694285' lon='151.1224698' />
  <node id='-158635' visible='true' lat='-33.7692316' lon='151.1224946' />
  <node id='-158633' visible='true' lat='-33.769156' lon='151.1224708' />
  <node id='-158631' visible='true' lat='-33.7687917' lon='151.122215' />
  <node id='-158629' visible='true' lat='-33.7682776' lon='151.1219882' />
  <node id='-158627' visible='true' lat='-33.7682784' lon='151.1216495' />
  <node id='-158625' visible='true' lat='-33.7681928' lon='151.1213961' />
  <node id='-158623' visible='true' lat='-33.7681399' lon='151.1212091' />
  <node id='-158621' visible='true' lat='-33.7680001' lon='151.1211354' />
  <node id='-158619' visible='true' lat='-33.7679507' lon='151.120804' />
  <node id='-158617' visible='true' lat='-33.767839' lon='151.1207103' />
  <node id='-158615' visible='true' lat='-33.7676162' lon='151.1207381' />
  <node id='-158613' visible='true' lat='-33.7672042' lon='151.1205514' />
  <node id='-158611' visible='true' lat='-33.7668137' lon='151.1206811' />
  <node id='-158609' visible='true' lat='-33.7665058' lon='151.120641' />
  <node id='-158607' visible='true' lat='-33.7662883' lon='151.1203927' />
  <node id='-158605' visible='true' lat='-33.7660183' lon='151.1203354' />
  <node id='-158603' visible='true' lat='-33.7657302' lon='151.120338' />
  <node id='-158601' visible='true' lat='-33.7654672' lon='151.1202109' />
  <node id='-158599' visible='true' lat='-33.7652294' lon='151.120164' />
  <node id='-158597' visible='true' lat='-33.7647807' lon='151.1200847' />
  <node id='-158595' visible='true' lat='-33.764622' lon='151.1199334' />
  <node id='-158593' visible='true' lat='-33.7642541' lon='151.1198043' />
  <node id='-158591' visible='true' lat='-33.7637631' lon='151.1198963' />
  <node id='-158589' visible='true' lat='-33.7635672' lon='151.1199225' />
  <node id='-158587' visible='true' lat='-33.7627555' lon='151.119458' />
  <node id='-158585' visible='true' lat='-33.7624277' lon='151.1191755' />
  <node id='-158583' visible='true' lat='-33.7622864' lon='151.1188841' />
  <node id='-158581' visible='true' lat='-33.7623435' lon='151.1187525' />
  <node id='-158579' visible='true' lat='-33.7623355' lon='151.1186383' />
  <node id='-158577' visible='true' lat='-33.7622782' lon='151.1185545' />
  <node id='-158575' visible='true' lat='-33.7618891' lon='151.1184825' />
  <node id='-158573' visible='true' lat='-33.7618002' lon='151.1182014' />
  <node id='-158571' visible='true' lat='-33.7618254' lon='151.1179482' />
  <node id='-158569' visible='true' lat='-33.761739' lon='151.1178606' />
  <node id='-158567' visible='true' lat='-33.7615193' lon='151.1175661' />
  <node id='-158565' visible='true' lat='-33.7614594' lon='151.117416' />
  <node id='-158563' visible='true' lat='-33.7613626' lon='151.1173627' />
  <node id='-158561' visible='true' lat='-33.7610334' lon='151.1171042' />
  <node id='-158559' visible='true' lat='-33.7608678' lon='151.1164982' />
  <node id='-158557' visible='true' lat='-33.7604825' lon='151.1158969' />
  <node id='-158555' visible='true' lat='-33.7604098' lon='151.1157144' />
  <node id='-158553' visible='true' lat='-33.7603471' lon='151.115695' />
  <node id='-158551' visible='true' lat='-33.7603106' lon='151.1156212' />
  <node id='-158549' visible='true' lat='-33.7604148' lon='151.1153026' />
  <node id='-158547' visible='true' lat='-33.7602441' lon='151.1152439' />
  <node id='-158545' visible='true' lat='-33.7601414' lon='151.1150746' />
  <node id='-158543' visible='true' lat='-33.7602139' lon='151.1149509' />
  <node id='-158541' visible='true' lat='-33.7602337' lon='151.1147431' />
  <node id='-158539' visible='true' lat='-33.7602781' lon='151.1145679' />
  <node id='-158537' visible='true' lat='-33.7603793' lon='151.1144729' />
  <node id='-158535' visible='true' lat='-33.7604579' lon='151.1143253' />
  <node id='-158533' visible='true' lat='-33.7605049' lon='151.1142189' />
  <node id='-158531' visible='true' lat='-33.7604806' lon='151.1139495' />
  <node id='-158529' visible='true' lat='-33.7605644' lon='151.1133804' />
  <node id='-158527' visible='true' lat='-33.7606878' lon='151.1129856' />
  <node id='-158525' visible='true' lat='-33.7606734' lon='151.1128174' />
  <node id='-158523' visible='true' lat='-33.7604755' lon='151.1125017' />
  <node id='-158521' visible='true' lat='-33.7604217' lon='151.1122417' />
  <node id='-158519' visible='true' lat='-33.7605085' lon='151.1121595' />
  <node id='-158517' visible='true' lat='-33.760668' lon='151.1119109' />
  <node id='-158515' visible='true' lat='-33.7606755' lon='151.1118189' />
  <node id='-158513' visible='true' lat='-33.7606807' lon='151.1116162' />
  <node id='-158511' visible='true' lat='-33.7606286' lon='151.1111836' />
  <node id='-158509' visible='true' lat='-33.7605323' lon='151.1108184' />
  <node id='-158507' visible='true' lat='-33.7605669' lon='151.1106521' />
  <node id='-158505' visible='true' lat='-33.7606088' lon='151.1105928' />
  <node id='-158503' visible='true' lat='-33.7607964' lon='151.1104503' />
  <node id='-158501' visible='true' lat='-33.7610284' lon='151.1102929' />
  <node id='-158499' visible='true' lat='-33.76117' lon='151.1101344' />
  <node id='-158497' visible='true' lat='-33.7612752' lon='151.1100198' />
  <node id='-158495' visible='true' lat='-33.7614182' lon='151.1100107' />
  <node id='-158493' visible='true' lat='-33.7615277' lon='151.1099922' />
  <node id='-158491' visible='true' lat='-33.761609' lon='151.1098415' />
  <node id='-158489' visible='true' lat='-33.761591' lon='151.109664' />
  <node id='-158487' visible='true' lat='-33.7615576' lon='151.1095694' />
  <node id='-158485' visible='true' lat='-33.7615323' lon='151.1093823' />
  <node id='-158483' visible='true' lat='-33.7615361' lon='151.1093477' />
  <node id='-158481' visible='true' lat='-33.7616999' lon='151.1091039' />
  <node id='-158479' visible='true' lat='-33.7617308' lon='151.1089847' />
  <node id='-158477' visible='true' lat='-33.7617403' lon='151.1088588' />
  <node id='-158475' visible='true' lat='-33.7617331' lon='151.1087358' />
  <node id='-158473' visible='true' lat='-33.7616693' lon='151.1083921' />
  <node id='-158471' visible='true' lat='-33.7615045' lon='151.1081766' />
  <node id='-158469' visible='true' lat='-33.7611787' lon='151.1080123' />
  <node id='-158467' visible='true' lat='-33.7608537' lon='151.107933' />
  <node id='-158465' visible='true' lat='-33.7607697' lon='151.1078125' />
  <node id='-158463' visible='true' lat='-33.7606112' lon='151.1077118' />
  <node id='-158461' visible='true' lat='-33.7605712' lon='151.1076937' />
  <node id='-158459' visible='true' lat='-33.7606922' lon='151.1075069' />
  <node id='-158457' visible='true' lat='-33.7607863' lon='151.1073178' />
  <node id='-158455' visible='true' lat='-33.7608948' lon='151.1071063' />
  <node id='-158453' visible='true' lat='-33.7609351' lon='151.1069538' />
  <node id='-158451' visible='true' lat='-33.7609326' lon='151.1067381' />
  <node id='-158449' visible='true' lat='-33.760654' lon='151.1061992' />
  <node id='-158447' visible='true' lat='-33.7606303' lon='151.1061134' />
  <node id='-158445' visible='true' lat='-33.7606815' lon='151.1060496' />
  <node id='-158443' visible='true' lat='-33.7607821' lon='151.1059946' />
  <node id='-158441' visible='true' lat='-33.7608662' lon='151.105955' />
  <node id='-158439' visible='true' lat='-33.7609248' lon='151.105856' />
  <node id='-158437' visible='true' lat='-33.7609138' lon='151.1057438' />
  <node id='-158435' visible='true' lat='-33.7607126' lon='151.1055765' />
  <node id='-158433' visible='true' lat='-33.7606877' lon='151.1054833' />
  <node id='-158431' visible='true' lat='-33.7606935' lon='151.1054512' />
  <node id='-158429' visible='true' lat='-33.7607242' lon='151.1053963' />
  <node id='-158427' visible='true' lat='-33.7607936' lon='151.1052836' />
  <node id='-158425' visible='true' lat='-33.7608821' lon='151.1052627' />
  <node id='-158423' visible='true' lat='-33.7610261' lon='151.1052741' />
  <node id='-158421' visible='true' lat='-33.761318' lon='151.1052531' />
  <node id='-158419' visible='true' lat='-33.7614355' lon='151.105234' />
  <node id='-158417' visible='true' lat='-33.7619161' lon='151.1051909' />
  <node id='-158415' visible='true' lat='-33.7630002' lon='151.1041596' />
  <node id='-158413' visible='true' lat='-33.7631993' lon='151.1037492' />
  <node id='-158411' visible='true' lat='-33.7631821' lon='151.1033756' />
  <node id='-158409' visible='true' lat='-33.763222' lon='151.1029268' />
  <node id='-158407' visible='true' lat='-33.7632381' lon='151.1026098' />
  <node id='-158405' visible='true' lat='-33.7630815' lon='151.1023442' />
  <node id='-158403' visible='true' lat='-33.7630685' lon='151.1011291' />
  <node id='-158401' visible='true' lat='-33.7634038' lon='151.1006999' />
  <node id='-158399' visible='true' lat='-33.7637463' lon='151.0999875' />
  <node id='-158397' visible='true' lat='-33.7640674' lon='151.0996699' />
  <node id='-158395' visible='true' lat='-33.7643528' lon='151.0990863' />
  <node id='-158393' visible='true' lat='-33.7645455' lon='151.0988288' />
  <node id='-158391' visible='true' lat='-33.7648737' lon='151.0986571' />
  <node id='-158389' visible='true' lat='-33.7656372' lon='151.0986571' />
  <node id='-158387' visible='true' lat='-33.7661581' lon='151.0987258' />
  <node id='-158385' visible='true' lat='-33.766315' lon='151.0990348' />
  <node id='-158383' visible='true' lat='-33.7664078' lon='151.0988975' />
  <node id='-158381' visible='true' lat='-33.7664934' lon='151.0988288' />
  <node id='-158379' visible='true' lat='-33.7664934' lon='151.0985885' />
  <node id='-158377' visible='true' lat='-33.7663008' lon='151.0983567' />
  <node id='-158375' visible='true' lat='-33.7661581' lon='151.0980563' />
  <node id='-158373' visible='true' lat='-33.7661224' lon='151.0978847' />
  <node id='-158371' visible='true' lat='-33.765944' lon='151.0976529' />
  <node id='-158369' visible='true' lat='-33.7658727' lon='151.0971637' />
  <node id='-158367' visible='true' lat='-33.765837' lon='151.0969234' />
  <node id='-158365' visible='true' lat='-33.7659227' lon='151.0968866' />
  <node id='-158363' visible='true' lat='-33.7660368' lon='151.0968375' />
  <node id='-158361' visible='true' lat='-33.7662794' lon='151.0969491' />
  <node id='-158359' visible='true' lat='-33.7665148' lon='151.0969834' />
  <node id='-158357' visible='true' lat='-33.7667503' lon='151.0971208' />
  <node id='-158355' visible='true' lat='-33.7670856' lon='151.0970693' />
  <node id='-158353' visible='true' lat='-33.7674067' lon='151.0969491' />
  <node id='-158351' visible='true' lat='-33.7677992' lon='151.0967088' />
  <node id='-158349' visible='true' lat='-33.7681345' lon='151.0965371' />
  <node id='-158347' visible='true' lat='-33.7684056' lon='151.0964513' />
  <node id='-158345' visible='true' lat='-33.768634' lon='151.0964084' />
  <node id='-158343' visible='true' lat='-33.7688908' lon='151.096211' />
  <node id='-158341' visible='true' lat='-33.7691762' lon='151.0960393' />
  <node id='-158339' visible='true' lat='-33.7695472' lon='151.0958676' />
  <node id='-158337' visible='true' lat='-33.7699611' lon='151.0956616' />
  <node id='-158335' visible='true' lat='-33.7700824' lon='151.0955758' />
  <node id='-158333' visible='true' lat='-33.7702465' lon='151.0951209' />
  <node id='-158331' visible='true' lat='-33.7703178' lon='151.0947175' />
  <node id='-158329' visible='true' lat='-33.7704177' lon='151.0943913' />
  <node id='-158327' visible='true' lat='-33.7706076' lon='151.0939773' />
  <node id='-158325' visible='true' lat='-33.7708872' lon='151.0939316' />
  <node id='-158323' visible='true' lat='-33.7713478' lon='151.0939236' />
  <node id='-158321' visible='true' lat='-33.7717491' lon='151.093988' />
  <node id='-158319' visible='true' lat='-33.7720078' lon='151.0941275' />
  <node id='-158317' visible='true' lat='-33.7721594' lon='151.0943099' />
  <node id='-158315' visible='true' lat='-33.7724626' lon='151.0944923' />
  <node id='-158313' visible='true' lat='-33.7729264' lon='151.0946532' />
  <node id='-158311' visible='true' lat='-33.7732742' lon='151.0947176' />
  <node id='-158309' visible='true' lat='-33.773506' lon='151.0945245' />
  <node id='-158307' visible='true' lat='-33.7737112' lon='151.0943421' />
  <node id='-158305' visible='true' lat='-33.7738984' lon='151.094106' />
  <node id='-158303' visible='true' lat='-33.774166' lon='151.0938271' />
  <node id='-158301' visible='true' lat='-33.7743444' lon='151.0936876' />
  <node id='-158299' visible='true' lat='-33.7745316' lon='151.0936018' />
  <node id='-158297' visible='true' lat='-33.7747635' lon='151.0935481' />
  <node id='-158295' visible='true' lat='-33.7750221' lon='151.0934194' />
  <node id='-158293' visible='true' lat='-33.7752272' lon='151.0936447' />
  <node id='-158291' visible='true' lat='-33.7754113' lon='151.0936528' />
  <node id='-158289' visible='true' lat='-33.7756375' lon='151.0938807' />
  <node id='-158287' visible='true' lat='-33.7759335' lon='151.0939629' />
  <node id='-158285' visible='true' lat='-33.7763331' lon='151.0939451' />
  <node id='-158283' visible='true' lat='-33.776663' lon='151.09387' />
  <node id='-158281' visible='true' lat='-33.7769484' lon='151.0937842' />
  <node id='-158279' visible='true' lat='-33.7769395' lon='151.0934194' />
  <node id='-158277' visible='true' lat='-33.7771981' lon='151.0933443' />
  <node id='-158275' visible='true' lat='-33.7775459' lon='151.0933657' />
  <node id='-158273' visible='true' lat='-33.777867' lon='151.0935481' />
  <node id='-158271' visible='true' lat='-33.7782147' lon='151.0936554' />
  <node id='-158269' visible='true' lat='-33.778509' lon='151.0936125' />
  <node id='-158267' visible='true' lat='-33.7786696' lon='151.093355' />
  <node id='-158265' visible='true' lat='-33.7788925' lon='151.0931082' />
  <node id='-158263' visible='true' lat='-33.7792225' lon='151.0929044' />
  <node id='-158261' visible='true' lat='-33.7795346' lon='151.0925718' />
  <node id='-158259' visible='true' lat='-33.779811' lon='151.0923465' />
  <node id='-158257' visible='true' lat='-33.7800696' lon='151.092089' />
  <node id='-158255' visible='true' lat='-33.7802658' lon='151.0917564' />
  <node id='-158253' visible='true' lat='-33.7805512' lon='151.0914882' />
  <node id='-158251' visible='true' lat='-33.7806582' lon='151.0910912' />
  <node id='-158249' visible='true' lat='-33.7808187' lon='151.090587' />
  <node id='-158247' visible='true' lat='-33.7809346' lon='151.0902222' />
  <node id='-158245' visible='true' lat='-33.7809881' lon='151.0898574' />
  <node id='-158243' visible='true' lat='-33.7811308' lon='151.0893102' />
  <node id='-158241' visible='true' lat='-33.7813894' lon='151.0888167' />
  <node id='-158239' visible='true' lat='-33.7816391' lon='151.0884197' />
  <node id='-158237' visible='true' lat='-33.7817907' lon='151.0882588' />
  <node id='-158235' visible='true' lat='-33.7819958' lon='151.0879799' />
  <node id='-158233' visible='true' lat='-33.7821741' lon='151.0878511' />
  <node id='-158231' visible='true' lat='-33.7822165' lon='151.0877785' />
  <node id='-158229' visible='true' lat='-33.7825159' lon='151.0879326' />
  <node id='-158227' visible='true' lat='-33.7826652' lon='151.0879058' />
  <node id='-158225' visible='true' lat='-33.7827386' lon='151.0880163' />
  <node id='-158223' visible='true' lat='-33.7829485' lon='151.0881781' />
  <node id='-158221' visible='true' lat='-33.7829974' lon='151.0881445' />
  <node id='-158219' visible='true' lat='-33.7836881' lon='151.0877391' />
  <node id='-158217' visible='true' lat='-33.7844509' lon='151.0872862' />
  <node id='-158215' visible='true' lat='-33.7845847' lon='151.0871736' />
  <node id='-158213' visible='true' lat='-33.7850034' lon='151.0867677' />
  <node id='-158211' visible='true' lat='-33.7853761' lon='151.0864065' />
  <node id='-158209' visible='true' lat='-33.7859624' lon='151.0858352' />
  <node id='-158207' visible='true' lat='-33.7861273' lon='151.0856635' />
  <node id='-158205' visible='true' lat='-33.7862343' lon='151.0855911' />
  <node id='-158203' visible='true' lat='-33.7863302' lon='151.0855777' />
  <node id='-158201' visible='true' lat='-33.7865174' lon='151.0855884' />
  <node id='-158199' action='modify' visible='true' lat='-33.7865689' lon='151.085334' />
  <node id='-158197' visible='true' lat='-33.7866742' lon='151.0852929' />
  <node id='-158195' visible='true' lat='-33.7868374' lon='151.0852539' />
  <node id='-158193' action='modify' visible='true' lat='-33.7885067' lon='151.0857088' />
  <node id='-158191' visible='true' lat='-33.7888487' lon='151.0840455' />
  <node id='-158189' visible='true' lat='-33.7888637' lon='151.0839529' />
  <node id='-158187' visible='true' lat='-33.7890139' lon='151.0833082' />
  <node id='-158185' visible='true' lat='-33.7890877' lon='151.0831428' />
  <node id='-158183' visible='true' lat='-33.7891802' lon='151.0830243' />
  <node id='-158181' visible='true' lat='-33.7892494' lon='151.0829579' />
  <node id='-158179' visible='true' lat='-33.7893301' lon='151.0828997' />
  <node id='-158177' visible='true' lat='-33.7894183' lon='151.0828621' />
  <node id='-158175' visible='true' lat='-33.7895453' lon='151.0828236' />
  <node id='-158173' visible='true' lat='-33.7896326' lon='151.0828097' />
  <node id='-158171' visible='true' lat='-33.7898048' lon='151.0827845' />
  <node id='-158169' visible='true' lat='-33.7899075' lon='151.0827806' />
  <node id='-158167' visible='true' lat='-33.789924' lon='151.0825529' />
  <node id='-158165' visible='true' lat='-33.7900073' lon='151.0824938' />
  <node id='-158163' visible='true' lat='-33.7900941' lon='151.0824895' />
  <node id='-158161' visible='true' lat='-33.7900958' lon='151.0823621' />
  <node id='-158159' visible='true' lat='-33.7974572' lon='151.1811427' />
  <node id='-158157' visible='true' lat='-33.79683188592' lon='151.18114214713' />
  <node id='-158155' visible='true' lat='-33.7970029' lon='151.1805675' />
  <node id='-158153' visible='true' lat='-33.7970365' lon='151.1803628' />
  <node id='-158151' visible='true' lat='-33.7970225749' lon='151.18031768648' />
  <node id='-158149' visible='true' lat='-33.79765327668' lon='151.17841698401' />
  <node id='-158147' visible='true' lat='-33.79771186719' lon='151.17819046518' />
  <node id='-158145' visible='true' lat='-33.79718441543' lon='151.17801999535' />
  <node id='-158143' visible='true' lat='-33.7967162487' lon='151.17790213944' />
  <node id='-158141' visible='true' lat='-33.79625586792' lon='151.17788989644' />
  <node id='-158139' visible='true' lat='-33.79617193083' lon='151.17791132169' />
  <node id='-158137' visible='true' lat='-33.79609816786' lon='151.17782562069' />
  <node id='-158135' action='modify' visible='true' lat='-33.7959347413' lon='151.17789750966' />
  <node id='-158133' action='modify' visible='true' lat='-33.79565935754' lon='151.17697031351' />
  <node id='-158131' action='modify' visible='true' lat='-33.79563839185' lon='151.17665468493' />
  <node id='-158129' action='modify' visible='true' lat='-33.79559354251' lon='151.17522232214' />
  <node id='-158127' action='modify' visible='true' lat='-33.79567678812' lon='151.17492605555' />
  <node id='-158125' action='modify' visible='true' lat='-33.79571057751' lon='151.17480475048' />
  <node id='-158123' visible='true' lat='-33.79530129656' lon='151.17460379125' />
  <node id='-158121' visible='true' lat='-33.79504693864' lon='151.17465276326' />
  <node id='-158119' visible='true' lat='-33.79491721582' lon='151.17472928201' />
  <node id='-158117' visible='true' lat='-33.79467303113' lon='151.17469561376' />
  <node id='-158115' visible='true' lat='-33.79375478876' lon='151.17521288052' />
  <node id='-158113' visible='true' lat='-33.79372680892' lon='151.17536285727' />
  <node id='-158111' visible='true' lat='-33.79345209728' lon='151.17544549752' />
  <node id='-158109' visible='true' lat='-33.79323588843' lon='151.17583421278' />
  <node id='-158107' visible='true' lat='-33.79258184828' lon='151.17541434302' />
  <node id='-158105' visible='true' lat='-33.7913343' lon='151.1755875' />
  <node id='-158103' visible='true' lat='-33.7912197' lon='151.1754615' />
  <node id='-158101' visible='true' lat='-33.7913891' lon='151.1753649' />
  <node id='-158099' visible='true' lat='-33.7914182' lon='151.1752114' />
  <node id='-158097' visible='true' lat='-33.7913504' lon='151.1750493' />
  <node id='-158095' action='modify' visible='true' lat='-33.7913662' lon='151.1749985' />
  <node id='-158093' visible='true' lat='-33.7913704' lon='151.17472' />
  <node id='-158091' visible='true' lat='-33.7913147' lon='151.1746535' />
  <node id='-158089' visible='true' lat='-33.7912732' lon='151.1746297' />
  <node id='-158087' visible='true' lat='-33.7912374' lon='151.1745167' />
  <node id='-158085' visible='true' lat='-33.7912019' lon='151.1740453' />
  <node id='-158083' action='modify' visible='true' lat='-33.7912581' lon='151.1738684' />
  <node id='-158081' visible='true' lat='-33.7913178' lon='151.1736805' />
  <node id='-158079' visible='true' lat='-33.7915407' lon='151.1734123' />
  <node id='-158077' visible='true' lat='-33.7916923' lon='151.1731226' />
  <node id='-158075' action='modify' visible='true' lat='-33.7920846' lon='151.1728651' />
  <node id='-158073' visible='true' lat='-33.7921916' lon='151.1726934' />
  <node id='-158071' visible='true' lat='-33.7924206' lon='151.172538' />
  <node id='-158069' visible='true' lat='-33.792468' lon='151.1726183' />
  <node id='-158067' visible='true' lat='-33.792682' lon='151.1725003' />
  <node id='-158065' visible='true' lat='-33.7926691' lon='151.172308' />
  <node id='-158063' visible='true' lat='-33.7925301' lon='151.1719303' />
  <node id='-158061' visible='true' lat='-33.7924828' lon='151.1719338' />
  <node id='-158059' visible='true' lat='-33.7922503' lon='151.1712568'>
    
  </node>
  <node id='-158057' visible='true' lat='-33.7920041' lon='151.1696659'>
    
  </node>
  <node id='-158055' visible='true' lat='-33.7917097' lon='151.1697316'>
    
  </node>
  <node id='-158053' visible='true' lat='-33.7916169' lon='151.1697179' />
  <node id='-158051' visible='true' lat='-33.7915578' lon='151.1696455' />
  <node id='-158049' visible='true' lat='-33.7914876' lon='151.1696356' />
  <node id='-158047' visible='true' lat='-33.7914204' lon='151.1697086' />
  <node id='-158045' visible='true' lat='-33.7912987' lon='151.1696373' />
  <node id='-158043' visible='true' lat='-33.7910882' lon='151.1696254' />
  <node id='-158041' visible='true' lat='-33.7910026' lon='151.1697244' />
  <node id='-158039' visible='true' lat='-33.7908151' lon='151.1697046' />
  <node id='-158037' visible='true' lat='-33.7906276' lon='151.1694909' />
  <node id='-158035' visible='true' lat='-33.7905421' lon='151.169194' />
  <node id='-158033' visible='true' lat='-33.7906605' lon='151.1686754' />
  <node id='-158031' visible='true' lat='-33.7906934' lon='151.1682875' />
  <node id='-158029' visible='true' lat='-33.7908188' lon='151.1679669' />
  <node id='-158027' visible='true' lat='-33.7911026' lon='151.1674988' />
  <node id='-158025' visible='true' lat='-33.7912987' lon='151.1671555' />
  <node id='-158023' visible='true' lat='-33.7916385' lon='151.1669948' />
  <node id='-158021' visible='true' lat='-33.7918572' lon='151.1668998' />
  <node id='-158019' visible='true' lat='-33.7920106' lon='151.1668063' />
  <node id='-158017' visible='true' lat='-33.7920346' lon='151.1667917' />
  <node id='-158015' visible='true' lat='-33.7921416' lon='151.1666658' />
  <node id='-158013' visible='true' lat='-33.7921672' lon='151.1665454' />
  <node id='-158011' action='modify' visible='true' lat='-33.7921739' lon='151.1665035' />
  <node id='-158009' visible='true' lat='-33.7921765' lon='151.166451' />
  <node id='-158007' visible='true' lat='-33.7920095' lon='151.1661555' />
  <node id='-158005' visible='true' lat='-33.7919798' lon='151.1657341' />
  <node id='-158003' visible='true' lat='-33.7920903' lon='151.1650536' />
  <node id='-158001' visible='true' lat='-33.7921833' lon='151.1647541' />
  <node id='-157999' visible='true' lat='-33.792137' lon='151.1645193' />
  <node id='-157997' visible='true' lat='-33.7918936' lon='151.1637989' />
  <node id='-157995' visible='true' lat='-33.7916064' lon='151.1630386' />
  <node id='-157993' visible='true' lat='-33.7915974' lon='151.1626363' />
  <node id='-157991' visible='true' lat='-33.7920276' lon='151.161928' />
  <node id='-157989' visible='true' lat='-33.7923936' lon='151.1610929' />
  <node id='-157987' visible='true' lat='-33.7923604' lon='151.1600072' />
  <node id='-157985' visible='true' lat='-33.7921559' lon='151.1586422' />
  <node id='-157983' visible='true' lat='-33.7922747' lon='151.1578847' />
  <node id='-157981' action='modify' visible='true' lat='-33.79220281859' lon='151.1576272955' />
  <node id='-157977' visible='true' lat='-33.79272550537' lon='151.1567994784' />
  <node id='-157975' visible='true' lat='-33.7925283' lon='151.1567429' />
  <node id='-157973' visible='true' lat='-33.7918499' lon='151.1564212' />
  <node id='-157971' visible='true' lat='-33.7917442' lon='151.156374' />
  <node id='-157969' visible='true' lat='-33.7915244' lon='151.1561734' />
  <node id='-157967' visible='true' lat='-33.7914745' lon='151.1560057'>
    
  </node>
  <node id='-157965' visible='true' lat='-33.7914883' lon='151.1557579' />
  <node id='-157963' visible='true' lat='-33.7915945' lon='151.1556431'>
    
  </node>
  <node id='-157961' visible='true' lat='-33.7915945' lon='151.1554017'>
    
  </node>
  <node id='-157959' action='modify' visible='true' lat='-33.7916813' lon='151.1552278' />
  <node id='-157957' visible='true' lat='-33.7917742' lon='151.1548816' />
  <node id='-157955' visible='true' lat='-33.7917283' lon='151.154466'>
    
  </node>
  <node id='-157953' visible='true' lat='-33.7915161' lon='151.1541203'>
    
  </node>
  <node id='-157951' visible='true' lat='-33.7913379' lon='151.1538171'>
    
  </node>
  <node id='-157949' visible='true' lat='-33.7911412' lon='151.1535065'>
    
  </node>
  <node id='-157947' visible='true' lat='-33.7909322' lon='151.1531441'>
    
  </node>
  <node id='-157945' visible='true' lat='-33.7908154' lon='151.152863'>
    
  </node>
  <node id='-157943' visible='true' lat='-33.7907908' lon='151.1526115'>
    
  </node>
  <node id='-157941' visible='true' lat='-33.7908406' lon='151.1523976'>
    
  </node>
  <node id='-157939' visible='true' lat='-33.7910432' lon='151.1522351'>
    
  </node>
  <node id='-157937' visible='true' lat='-33.7912458' lon='151.1521903'>
    
  </node>
  <node id='-157935' visible='true' lat='-33.7914915' lon='151.1521086'>
    
  </node>
  <node id='-157933' visible='true' lat='-33.7916636' lon='151.1520642'>
    
  </node>
  <node id='-157931' visible='true' lat='-33.7917804' lon='151.1519829'>
    
  </node>
  <node id='-157929' visible='true' lat='-33.7919402' lon='151.1518719' />
  <node id='-157927' visible='true' lat='-33.7921185' lon='151.1516944'>
    
  </node>
  <node id='-157925' visible='true' lat='-33.7922783' lon='151.1515983' />
  <node id='-157923' visible='true' lat='-33.7924566' lon='151.1515909' />
  <node id='-157921' visible='true' lat='-33.7927332' lon='151.1513394' />
  <node id='-157919' visible='true' lat='-33.7927992' lon='151.1510875'>
    
  </node>
  <node id='-157917' visible='true' lat='-33.7930614' lon='151.1506839'>
    
  </node>
  <node id='-157915' visible='true' lat='-33.7935127' lon='151.1500969'>
    
  </node>
  <node id='-157913' visible='true' lat='-33.7938786' lon='151.1497153'>
    
  </node>
  <node id='-157911' visible='true' lat='-33.7943265' lon='151.1495622'>
    
  </node>
  <node id='-157909' visible='true' lat='-33.7946547' lon='151.1492481'>
    
  </node>
  <node id='-157907' visible='true' lat='-33.7947741' lon='151.1488263'>
    
  </node>
  <node id='-157905' visible='true' lat='-33.7947591' lon='151.1486109'>
    
  </node>
  <node id='-157903' visible='true' lat='-33.7945205' lon='151.1481711'>
    
  </node>
  <node id='-157901' visible='true' lat='-33.7941569' lon='151.1477747'>
    
  </node>
  <node id='-157899' visible='true' lat='-33.7936702' lon='151.1475026' />
  <node id='-157897' action='modify' visible='true' lat='-33.7932833' lon='151.147302' />
  <node id='-157895' visible='true' lat='-33.7930437' lon='151.1473992'>
    
  </node>
  <node id='-157893' visible='true' lat='-33.7928274' lon='151.1475339' />
  <node id='-157891' visible='true' lat='-33.79235' lon='151.1471569'>
    
  </node>
  <node id='-157889' visible='true' lat='-33.7919398' lon='151.1468607'>
    
  </node>
  <node id='-157887' visible='true' lat='-33.7918035' lon='151.1468628' />
  <node id='-157885' visible='true' lat='-33.7913655' lon='151.1468697'>
    
  </node>
  <node id='-157883' visible='true' lat='-33.7909105' lon='151.1468338'>
    
  </node>
  <node id='-157881' visible='true' lat='-33.7904555' lon='151.146771' />
  <node id='-157879' visible='true' lat='-33.7900154' lon='151.1468966' />
  <node id='-157877' visible='true' lat='-33.7896126' lon='151.147112'>
    
  </node>
  <node id='-157875' visible='true' lat='-33.7892844' lon='151.1472197'>
    
  </node>
  <node id='-157873' visible='true' lat='-33.7888667' lon='151.1470133'>
    
  </node>
  <node id='-157871' visible='true' lat='-33.788449' lon='151.146771'>
    
  </node>
  <node id='-157869' visible='true' lat='-33.788091' lon='151.1467531'>
    
  </node>
  <node id='-157867' visible='true' lat='-33.7878672' lon='151.1470941'>
    
  </node>
  <node id='-157865' visible='true' lat='-33.7877479' lon='151.1474531'>
    
  </node>
  <node id='-157863' action='modify' visible='true' lat='-33.7877463' lon='151.1478914'>
    
  </node>
  <node id='-157861' visible='true' lat='-33.7877031' lon='151.1483775'>
    
  </node>
  <node id='-157859' action='modify' visible='true' lat='-33.7924750027' lon='151.15770830498' />
  <way id='-159137' action='modify' visible='true'>
    <nd ref='-158145' />
    <nd ref='-158143' />
    <nd ref='-158141' />
    <nd ref='-158139' />
    <nd ref='-158137' />
    <nd ref='-158135' />
    <nd ref='-158133' />
    <nd ref='-158131' />
    <nd ref='-158129' />
    <nd ref='-158127' />
    <nd ref='-158125' />
    <nd ref='-158123' />
    <nd ref='-158121' />
    <nd ref='-158119' />
    <nd ref='-158117' />
    <nd ref='-158115' />
    <nd ref='-158113' />
    <nd ref='-158111' />
    <nd ref='-158109' />
    <nd ref='-158107' />
    <nd ref='-158105' />
    <nd ref='-158103' />
    <nd ref='-158101' />
    <nd ref='-158099' />
    <nd ref='-158097' />
    <nd ref='-158095' />
    <nd ref='-158093' />
    <nd ref='-158091' />
    <nd ref='-158089' />
    <nd ref='-158087' />
    <nd ref='-158085' />
    <nd ref='-158083' />
    <nd ref='-158081' />
    <nd ref='-158079' />
    <nd ref='-158077' />
    <nd ref='-158075' />
    <nd ref='-158073' />
    <nd ref='-158071' />
    <nd ref='-158069' />
    <nd ref='-158067' />
    <nd ref='-158065' />
    <nd ref='-158063' />
    <nd ref='-158061' />
    <nd ref='-158059' />
    <nd ref='-158057' />
    <nd ref='-158055' />
    <nd ref='-158053' />
    <nd ref='-158051' />
    <nd ref='-158049' />
    <nd ref='-158047' />
    <nd ref='-158045' />
    <nd ref='-158043' />
    <nd ref='-158041' />
    <nd ref='-158039' />
    <nd ref='-158037' />
    <nd ref='-158035' />
    <nd ref='-158033' />
    <nd ref='-158031' />
    <nd ref='-158029' />
    <nd ref='-158027' />
    <nd ref='-158025' />
    <nd ref='-158023' />
    <nd ref='-158021' />
    <nd ref='-158019' />
    <nd ref='-158017' />
    <nd ref='-158015' />
    <nd ref='-158013' />
    <nd ref='-158011' />
    <nd ref='-158009' />
    <nd ref='-158007' />
    <nd ref='-158005' />
    <nd ref='-158003' />
    <nd ref='-158001' />
    <nd ref='-157999' />
    <nd ref='-157997' />
    <nd ref='-157995' />
    <nd ref='-157993' />
    <nd ref='-157991' />
    <nd ref='-157989' />
    <nd ref='-157987' />
    <nd ref='-157985' />
    <nd ref='-157983' />
    <nd ref='-157981' />
    <nd ref='-157859' />
    <nd ref='-158959' />
    <tag k='name' v='Bluegum Reserve' />
    <tag k='role' v='altroute' />
    <tag k='style' v='oneway' />
  </way>
  <way id='-158957' action='modify' visible='true'>
    <nd ref='-158159' />
    <nd ref='-158157' />
    <nd ref='-158155' />
    <nd ref='-158153' />
    <nd ref='-158151' />
    <nd ref='-158149' />
    <nd ref='-158147' />
    <nd ref='-158145' />
    <nd ref='-159122' />
    <nd ref='-159121' />
    <nd ref='-159120' />
    <nd ref='-159119' />
    <nd ref='-159118' />
    <nd ref='-159117' />
    <nd ref='-159116' />
    <nd ref='-159115' />
    <nd ref='-159114' />
    <nd ref='-159113' />
    <nd ref='-159112' />
    <nd ref='-159111' />
    <nd ref='-159110' />
    <nd ref='-159109' />
    <nd ref='-159108' />
    <nd ref='-159107' />
    <nd ref='-159106' />
    <nd ref='-159105' />
    <nd ref='-159104' />
    <nd ref='-159103' />
    <nd ref='-159102' />
    <nd ref='-159101' />
    <nd ref='-159100' />
    <nd ref='-159099' />
    <nd ref='-159098' />
    <nd ref='-159097' />
    <nd ref='-159096' />
    <nd ref='-159095' />
    <nd ref='-159094' />
    <nd ref='-159093' />
    <nd ref='-159092' />
    <nd ref='-159091' />
    <nd ref='-159090' />
    <nd ref='-159089' />
    <nd ref='-159088' />
    <nd ref='-159087' />
    <nd ref='-159086' />
    <nd ref='-159085' />
    <nd ref='-159084' />
    <nd ref='-159083' />
    <nd ref='-159082' />
    <nd ref='-159081' />
    <nd ref='-159080' />
    <nd ref='-159079' />
    <nd ref='-159078' />
    <nd ref='-159077' />
    <nd ref='-159076' />
    <nd ref='-159075' />
    <nd ref='-159074' />
    <nd ref='-159073' />
    <nd ref='-159072' />
    <nd ref='-159071' />
    <nd ref='-159070' />
    <nd ref='-159069' />
    <nd ref='-159068' />
    <nd ref='-159067' />
    <nd ref='-159066' />
    <nd ref='-159065' />
    <nd ref='-159064' />
    <nd ref='-159063' />
    <nd ref='-159062' />
    <nd ref='-159061' />
    <nd ref='-159060' />
    <nd ref='-159059' />
    <nd ref='-159058' />
    <nd ref='-159057' />
    <nd ref='-159056' />
    <nd ref='-159055' />
    <nd ref='-159054' />
    <nd ref='-159053' />
    <nd ref='-159052' />
    <nd ref='-159051' />
    <nd ref='-159050' />
    <nd ref='-159049' />
    <nd ref='-159048' />
    <nd ref='-159047' />
    <nd ref='-159046' />
    <nd ref='-159045' />
    <nd ref='-159044' />
    <nd ref='-159043' />
    <nd ref='-159042' />
    <nd ref='-159041' />
    <nd ref='-159040' />
    <nd ref='-159039' />
    <nd ref='-159038' />
    <nd ref='-159037' />
    <nd ref='-159036' />
    <nd ref='-159035' />
    <nd ref='-159034' />
    <nd ref='-159033' />
    <nd ref='-159032' />
    <nd ref='-159031' />
    <nd ref='-159030' />
    <nd ref='-159029' />
    <nd ref='-159028' />
    <nd ref='-159027' />
    <nd ref='-159026' />
    <nd ref='-159025' />
    <nd ref='-159024' />
    <nd ref='-159023' />
    <nd ref='-159022' />
    <nd ref='-159021' />
    <nd ref='-159020' />
    <nd ref='-159019' />
    <nd ref='-159018' />
    <nd ref='-159017' />
    <nd ref='-159016' />
    <nd ref='-159015' />
    <nd ref='-159014' />
    <nd ref='-159013' />
    <nd ref='-159012' />
    <nd ref='-159011' />
    <nd ref='-159010' />
    <nd ref='-159009' />
    <nd ref='-159008' />
    <nd ref='-159007' />
    <nd ref='-159006' />
    <nd ref='-159005' />
    <nd ref='-159004' />
    <nd ref='-159003' />
    <nd ref='-159002' />
    <nd ref='-159001' />
    <nd ref='-159000' />
    <nd ref='-158999' />
    <nd ref='-158998' />
    <nd ref='-158997' />
    <nd ref='-158996' />
    <nd ref='-158995' />
    <nd ref='-158994' />
    <nd ref='-158993' />
    <nd ref='-158992' />
    <nd ref='-158991' />
    <nd ref='-158990' />
    <nd ref='-158989' />
    <nd ref='-158988' />
    <nd ref='-158987' />
    <nd ref='-158986' />
    <nd ref='-158985' />
    <nd ref='-158984' />
    <nd ref='-158983' />
    <nd ref='-158982' />
    <nd ref='-158981' />
    <nd ref='-158980' />
    <nd ref='-158979' />
    <nd ref='-158978' />
    <nd ref='-158977' />
    <nd ref='-158976' />
    <nd ref='-158975' />
    <nd ref='-158974' />
    <nd ref='-158973' />
    <nd ref='-158972' />
    <nd ref='-158971' />
    <nd ref='-158970' />
    <nd ref='-158969' />
    <nd ref='-158968' />
    <nd ref='-158967' />
    <nd ref='-158966' />
    <nd ref='-158965' />
    <nd ref='-158964' />
    <nd ref='-158963' />
    <nd ref='-158962' />
    <nd ref='-158961' />
    <nd ref='-158960' />
    <nd ref='-158959' />
    <nd ref='-157977' />
    <nd ref='-157975' />
    <nd ref='-157973' />
    <nd ref='-157971' />
    <nd ref='-157969' />
    <nd ref='-157967' />
    <nd ref='-157965' />
    <nd ref='-157963' />
    <nd ref='-157961' />
    <nd ref='-157959' />
    <nd ref='-157957' />
    <nd ref='-157955' />
    <nd ref='-157953' />
    <nd ref='-157951' />
    <nd ref='-157949' />
    <nd ref='-157947' />
    <nd ref='-157945' />
    <nd ref='-157943' />
    <nd ref='-157941' />
    <nd ref='-157939' />
    <nd ref='-157937' />
    <nd ref='-157935' />
    <nd ref='-157933' />
    <nd ref='-157931' />
    <nd ref='-157929' />
    <nd ref='-157927' />
    <nd ref='-157925' />
    <nd ref='-157923' />
    <nd ref='-157921' />
    <nd ref='-157919' />
    <nd ref='-157917' />
    <nd ref='-157915' />
    <nd ref='-157913' />
    <nd ref='-157911' />
    <nd ref='-157909' />
    <nd ref='-157907' />
    <nd ref='-157905' />
    <nd ref='-157903' />
    <nd ref='-157901' />
    <nd ref='-157899' />
    <nd ref='-157897' />
    <nd ref='-157895' />
    <nd ref='-157893' />
    <nd ref='-157891' />
    <nd ref='-157889' />
    <nd ref='-157887' />
    <nd ref='-157885' />
    <nd ref='-157883' />
    <nd ref='-157881' />
    <nd ref='-157879' />
    <nd ref='-157877' />
    <nd ref='-157875' />
    <nd ref='-157873' />
    <nd ref='-157871' />
    <nd ref='-157869' />
    <nd ref='-157867' />
    <nd ref='-157865' />
    <nd ref='-157863' />
    <nd ref='-157861' />
    <nd ref='-158955' />
    <nd ref='-158953' />
    <nd ref='-158951' />
    <nd ref='-158949' />
    <nd ref='-158947' />
    <nd ref='-158945' />
    <nd ref='-158943' />
    <nd ref='-158941' />
    <nd ref='-158939' />
    <nd ref='-158937' />
    <nd ref='-158935' />
    <nd ref='-158933' />
    <nd ref='-158931' />
    <nd ref='-158929' />
    <nd ref='-158927' />
    <nd ref='-158925' />
    <nd ref='-158923' />
    <nd ref='-158921' />
    <nd ref='-158919' />
    <nd ref='-158917' />
    <nd ref='-158915' />
    <nd ref='-158913' />
    <nd ref='-158911' />
    <nd ref='-158909' />
    <nd ref='-158907' />
    <nd ref='-158905' />
    <nd ref='-158903' />
    <nd ref='-158901' />
    <nd ref='-158899' />
    <nd ref='-158897' />
    <nd ref='-158895' />
    <nd ref='-158893' />
    <nd ref='-158891' />
    <nd ref='-158889' />
    <nd ref='-158887' />
    <nd ref='-158885' />
    <nd ref='-158883' />
    <nd ref='-158881' />
    <nd ref='-158879' />
    <nd ref='-158877' />
    <nd ref='-158875' />
    <nd ref='-158873' />
    <nd ref='-158871' />
    <nd ref='-158869' />
    <nd ref='-158867' />
    <nd ref='-158865' />
    <nd ref='-158863' />
    <nd ref='-158861' />
    <nd ref='-158859' />
    <nd ref='-158857' />
    <nd ref='-158855' />
    <nd ref='-158853' />
    <nd ref='-158851' />
    <nd ref='-158849' />
    <nd ref='-158847' />
    <nd ref='-158845' />
    <nd ref='-158843' />
    <nd ref='-158841' />
    <nd ref='-158839' />
    <nd ref='-158837' />
    <nd ref='-158835' />
    <nd ref='-158833' />
    <nd ref='-158831' />
    <nd ref='-158829' />
    <nd ref='-158827' />
    <nd ref='-158825' />
    <nd ref='-158823' />
    <nd ref='-158821' />
    <nd ref='-158819' />
    <nd ref='-158817' />
    <nd ref='-158815' />
    <nd ref='-158813' />
    <nd ref='-158811' />
    <nd ref='-158809' />
    <nd ref='-158807' />
    <nd ref='-158805' />
    <nd ref='-158803' />
    <nd ref='-158801' />
    <nd ref='-158799' />
    <nd ref='-158797' />
    <nd ref='-158795' />
    <nd ref='-158793' />
    <nd ref='-158791' />
    <nd ref='-158789' />
    <nd ref='-158787' />
    <nd ref='-158785' />
    <nd ref='-158783' />
    <nd ref='-158781' />
    <nd ref='-158779' />
    <nd ref='-158777' />
    <nd ref='-158775' />
    <nd ref='-158773' />
    <nd ref='-158771' />
    <nd ref='-158769' />
    <nd ref='-158767' />
    <nd ref='-158765' />
    <nd ref='-158763' />
    <nd ref='-158761' />
    <nd ref='-158759' />
    <nd ref='-158757' />
    <nd ref='-158755' />
    <nd ref='-158753' />
    <nd ref='-158751' />
    <nd ref='-158749' />
    <nd ref='-158747' />
    <nd ref='-158745' />
    <nd ref='-158743' />
    <nd ref='-158741' />
    <nd ref='-158739' />
    <nd ref='-158737' />
    <nd ref='-158735' />
    <nd ref='-158733' />
    <nd ref='-158731' />
    <nd ref='-158729' />
    <nd ref='-158727' />
    <nd ref='-158725' />
    <nd ref='-158723' />
    <nd ref='-158721' />
    <nd ref='-158719' />
    <nd ref='-158717' />
    <nd ref='-158715' />
    <nd ref='-158713' />
    <nd ref='-158711' />
    <nd ref='-158709' />
    <nd ref='-158707' />
    <nd ref='-158705' />
    <nd ref='-158703' />
    <nd ref='-158701' />
    <nd ref='-158699' />
    <nd ref='-158697' />
    <nd ref='-158695' />
    <nd ref='-158693' />
    <nd ref='-158691' />
    <nd ref='-158689' />
    <nd ref='-158687' />
    <nd ref='-158685' />
    <nd ref='-158683' />
    <nd ref='-158681' />
    <nd ref='-158679' />
    <nd ref='-158677' />
    <nd ref='-158675' />
    <nd ref='-158673' />
    <nd ref='-158671' />
    <nd ref='-158669' />
    <nd ref='-158667' />
    <nd ref='-158665' />
    <nd ref='-158663' />
    <nd ref='-158661' />
    <nd ref='-158659' />
    <nd ref='-158657' />
    <nd ref='-158655' />
    <nd ref='-158653' />
    <nd ref='-158651' />
    <nd ref='-158649' />
    <nd ref='-158647' />
    <nd ref='-158645' />
    <nd ref='-158643' />
    <nd ref='-158641' />
    <nd ref='-158639' />
    <nd ref='-158637' />
    <nd ref='-158635' />
    <nd ref='-158633' />
    <nd ref='-158631' />
    <nd ref='-158629' />
    <nd ref='-158627' />
    <nd ref='-158625' />
    <nd ref='-158623' />
    <nd ref='-158621' />
    <nd ref='-158619' />
    <nd ref='-158617' />
    <nd ref='-158615' />
    <nd ref='-158613' />
    <nd ref='-158611' />
    <nd ref='-158609' />
    <nd ref='-158607' />
    <nd ref='-158605' />
    <nd ref='-158603' />
    <nd ref='-158601' />
    <nd ref='-158599' />
    <nd ref='-158597' />
    <nd ref='-158595' />
    <nd ref='-158593' />
    <nd ref='-158591' />
    <nd ref='-158589' />
    <nd ref='-158587' />
    <nd ref='-158585' />
    <nd ref='-158583' />
    <nd ref='-158581' />
    <nd ref='-158579' />
    <nd ref='-158577' />
    <nd ref='-158575' />
    <nd ref='-158573' />
    <nd ref='-158571' />
    <nd ref='-158569' />
    <nd ref='-158567' />
    <nd ref='-158565' />
    <nd ref='-158563' />
    <nd ref='-158561' />
    <nd ref='-158559' />
    <nd ref='-158557' />
    <nd ref='-158555' />
    <nd ref='-158553' />
    <nd ref='-158551' />
    <nd ref='-158549' />
    <nd ref='-158547' />
    <nd ref='-158545' />
    <nd ref='-158543' />
    <nd ref='-158541' />
    <nd ref='-158539' />
    <nd ref='-158537' />
    <nd ref='-158535' />
    <nd ref='-158533' />
    <nd ref='-158531' />
    <nd ref='-158529' />
    <nd ref='-158527' />
    <nd ref='-158525' />
    <nd ref='-158523' />
    <nd ref='-158521' />
    <nd ref='-158519' />
    <nd ref='-158517' />
    <nd ref='-158515' />
    <nd ref='-158513' />
    <nd ref='-158511' />
    <nd ref='-158509' />
    <nd ref='-158507' />
    <nd ref='-158505' />
    <nd ref='-158503' />
    <nd ref='-158501' />
    <nd ref='-158499' />
    <nd ref='-158497' />
    <nd ref='-158495' />
    <nd ref='-158493' />
    <nd ref='-158491' />
    <nd ref='-158489' />
    <nd ref='-158487' />
    <nd ref='-158485' />
    <nd ref='-158483' />
    <nd ref='-158481' />
    <nd ref='-158479' />
    <nd ref='-158477' />
    <nd ref='-158475' />
    <nd ref='-158473' />
    <nd ref='-158471' />
    <nd ref='-158469' />
    <nd ref='-158467' />
    <nd ref='-158465' />
    <nd ref='-158463' />
    <nd ref='-158461' />
    <nd ref='-158459' />
    <nd ref='-158457' />
    <nd ref='-158455' />
    <nd ref='-158453' />
    <nd ref='-158451' />
    <nd ref='-158449' />
    <nd ref='-158447' />
    <nd ref='-158445' />
    <nd ref='-158443' />
    <nd ref='-158441' />
    <nd ref='-158439' />
    <nd ref='-158437' />
    <nd ref='-158435' />
    <nd ref='-158433' />
    <nd ref='-158431' />
    <nd ref='-158429' />
    <nd ref='-158427' />
    <nd ref='-158425' />
    <nd ref='-158423' />
    <nd ref='-158421' />
    <nd ref='-158419' />
    <nd ref='-158417' />
    <nd ref='-158415' />
    <nd ref='-158413' />
    <nd ref='-158411' />
    <nd ref='-158409' />
    <nd ref='-158407' />
    <nd ref='-158405' />
    <nd ref='-158403' />
    <nd ref='-158401' />
    <nd ref='-158399' />
    <nd ref='-158397' />
    <nd ref='-158395' />
    <nd ref='-158393' />
    <nd ref='-158391' />
    <nd ref='-158389' />
    <nd ref='-158387' />
    <nd ref='-158385' />
    <nd ref='-158383' />
    <nd ref='-158381' />
    <nd ref='-158379' />
    <nd ref='-158377' />
    <nd ref='-158375' />
    <nd ref='-158373' />
    <nd ref='-158371' />
    <nd ref='-158369' />
    <nd ref='-158367' />
    <nd ref='-158365' />
    <nd ref='-158363' />
    <nd ref='-158361' />
    <nd ref='-158359' />
    <nd ref='-158357' />
    <nd ref='-158355' />
    <nd ref='-158353' />
    <nd ref='-158351' />
    <nd ref='-158349' />
    <nd ref='-158347' />
    <nd ref='-158345' />
    <nd ref='-158343' />
    <nd ref='-158341' />
    <nd ref='-158339' />
    <nd ref='-158337' />
    <nd ref='-158335' />
    <nd ref='-158333' />
    <nd ref='-158331' />
    <nd ref='-158329' />
    <nd ref='-158327' />
    <nd ref='-158325' />
    <nd ref='-158323' />
    <nd ref='-158321' />
    <nd ref='-158319' />
    <nd ref='-158317' />
    <nd ref='-158315' />
    <nd ref='-158313' />
    <nd ref='-158311' />
    <nd ref='-158309' />
    <nd ref='-158307' />
    <nd ref='-158305' />
    <nd ref='-158303' />
    <nd ref='-158301' />
    <nd ref='-158299' />
    <nd ref='-158297' />
    <nd ref='-158295' />
    <nd ref='-158293' />
    <nd ref='-158291' />
    <nd ref='-158289' />
    <nd ref='-158287' />
    <nd ref='-158285' />
    <nd ref='-158283' />
    <nd ref='-158281' />
    <nd ref='-158279' />
    <nd ref='-158277' />
    <nd ref='-158275' />
    <nd ref='-158273' />
    <nd ref='-158271' />
    <nd ref='-158269' />
    <nd ref='-158267' />
    <nd ref='-158265' />
    <nd ref='-158263' />
    <nd ref='-158261' />
    <nd ref='-158259' />
    <nd ref='-158257' />
    <nd ref='-158255' />
    <nd ref='-158253' />
    <nd ref='-158251' />
    <nd ref='-158249' />
    <nd ref='-158247' />
    <nd ref='-158245' />
    <nd ref='-158243' />
    <nd ref='-158241' />
    <nd ref='-158239' />
    <nd ref='-158237' />
    <nd ref='-158235' />
    <nd ref='-158233' />
    <nd ref='-158231' />
    <nd ref='-158229' />
    <nd ref='-158227' />
    <nd ref='-158225' />
    <nd ref='-158223' />
    <nd ref='-158221' />
    <nd ref='-158219' />
    <nd ref='-158217' />
    <nd ref='-158215' />
    <nd ref='-158213' />
    <nd ref='-158211' />
    <nd ref='-158209' />
    <nd ref='-158207' />
    <nd ref='-158205' />
    <nd ref='-158203' />
    <nd ref='-158201' />
    <nd ref='-158199' />
    <nd ref='-158197' />
    <nd ref='-158195' />
    <nd ref='-158193' />
    <nd ref='-158191' />
    <nd ref='-158189' />
    <nd ref='-158187' />
    <nd ref='-158185' />
    <nd ref='-158183' />
    <nd ref='-158181' />
    <nd ref='-158179' />
    <nd ref='-158177' />
    <nd ref='-158175' />
    <nd ref='-158173' />
    <nd ref='-158171' />
    <nd ref='-158169' />
    <nd ref='-158167' />
    <nd ref='-158165' />
    <nd ref='-158163' />
    <nd ref='-158161' />
    <tag k='name' v='Chatswood to Eastwood' />
    <tag k='park' v='Lane Cove National Park' />
    <tag k='role' v='primary' />
    <tag k='photo' v='136319147@N08/30671489072' />
    <tag k='style' v='oneway' />
    <tag k='transport' v='carshuffle;train' />
  </way>
</osm>
