<?xml version='1.0' encoding='UTF-8'?>
<osm version='0.6' upload='false' generator='JOSM'>
  <node id='-107991' action='modify' visible='true' lat='-33.83714049787' lon='151.18984979507' />
  <node id='-107989' action='modify' visible='true' lat='-33.83713568588' lon='151.19009021385' />
  <node id='-107987' action='modify' visible='true' lat='-33.8371681668' lon='151.19036684028' />
  <node id='-107985' action='modify' visible='true' lat='-33.83726560949' lon='151.1908853338' />
  <node id='-107983' action='modify' visible='true' lat='-33.83726681248' lon='151.19105768221' />
  <node id='-107981' action='modify' visible='true' lat='-33.83737027003' lon='151.19128361793' />
  <node id='-107979' action='modify' visible='true' lat='-33.83737869099' lon='151.19135024' />
  <node id='-107977' action='modify' visible='true' lat='-33.83737748799' lon='151.19142700022' />
  <node id='-107975' action='modify' visible='true' lat='-33.83738831494' lon='151.19146755278' />
  <node id='-107973' action='modify' visible='true' lat='-33.83743523168' lon='151.19150955366' />
  <node id='-107971' action='modify' visible='true' lat='-33.8375831997' lon='151.19160514185' />
  <node id='-107969' action='modify' visible='true' lat='-33.8376457552' lon='151.19161093507' />
  <node id='-107967' action='modify' visible='true' lat='-33.8376926718' lon='151.19168624698' />
  <node id='-107965' action='modify' visible='true' lat='-33.83768785985' lon='151.19178473178' />
  <node id='-107963' action='modify' visible='true' lat='-33.83771370641' lon='151.19191043596' />
  <node id='-107961' action='modify' visible='true' lat='-33.83758440876' lon='151.19191043596' />
  <node id='-107847' visible='true' lat='-33.8314551' lon='151.1915898' />
  <node id='-107846' visible='true' lat='-33.831323' lon='151.191438' />
  <node id='-107845' visible='true' lat='-33.8312206' lon='151.1915848' />
  <node id='-107844' visible='true' lat='-33.8311248' lon='151.1915795' />
  <node id='-107843' visible='true' lat='-33.8310356' lon='151.1914561' />
  <node id='-107840' visible='true' lat='-33.8302019' lon='151.191338' />
  <node id='-107839' visible='true' lat='-33.8302477' lon='151.1913713'>
    
  </node>
  <node id='-107838' visible='true' lat='-33.8302942' lon='151.1913923' />
  <node id='-107837' visible='true' lat='-33.8304012' lon='151.1914157'>
    
  </node>
  <node id='-107836' visible='true' lat='-33.8301435' lon='151.1912764'>
    
  </node>
  <node id='-107835' visible='true' lat='-33.8306984' lon='151.1900083' />
  <node id='-107834' visible='true' lat='-33.8306979' lon='151.1901576'>
    
  </node>
  <node id='-107833' visible='true' lat='-33.8306597' lon='151.1902174' />
  <node id='-107832' visible='true' lat='-33.8306497' lon='151.1902515' />
  <node id='-107831' visible='true' lat='-33.8306414' lon='151.1902795' />
  <node id='-107830' visible='true' lat='-33.8306326' lon='151.1903267'>
    
  </node>
  <node id='-107829' visible='true' lat='-33.830652' lon='151.1904054' />
  <node id='-107828' visible='true' lat='-33.8306736' lon='151.1904933'>
    
  </node>
  <node id='-107827' visible='true' lat='-33.8306335' lon='151.1905629' />
  <node id='-107826' visible='true' lat='-33.8305864' lon='151.1906121' />
  <node id='-107825' visible='true' lat='-33.8305091' lon='151.1906929'>
    
  </node>
  <node id='-107824' visible='true' lat='-33.8304896' lon='151.1907222'>
    
  </node>
  <node id='-107823' visible='true' lat='-33.8304135' lon='151.1908302' />
  <node id='-107822' visible='true' lat='-33.8302925' lon='151.1909067'>
    
  </node>
  <node id='-107821' visible='true' lat='-33.8302217' lon='151.1909477'>
    
  </node>
  <node id='-107820' visible='true' lat='-33.8301493' lon='151.1910521' />
  <node id='-107819' visible='true' lat='-33.8300802' lon='151.191118' />
  <node id='-107818' visible='true' lat='-33.8300929' lon='151.1911505' />
  <node id='-107817' visible='true' lat='-33.8306697' lon='151.1899781' />
  <node id='-107816' visible='true' lat='-33.8316418' lon='151.1891148' />
  <node id='-107815' visible='true' lat='-33.8314681' lon='151.1890565' />
  <node id='-107814' visible='true' lat='-33.8313228' lon='151.1890465' />
  <node id='-107813' visible='true' lat='-33.8311625' lon='151.1890585' />
  <node id='-107812' visible='true' lat='-33.8309571' lon='151.1891008' />
  <node id='-107811' visible='true' lat='-33.8308617' lon='151.1892032' />
  <node id='-107810' visible='true' lat='-33.8306803' lon='151.1896034' />
  <node id='-107809' visible='true' lat='-33.83059' lon='151.1898901' />
  <node id='-107808' visible='true' lat='-33.8306326' lon='151.1899394' />
  <node id='-107807' visible='true' lat='-33.8334391' lon='151.1890181' />
  <node id='-107806' visible='true' lat='-33.8332247' lon='151.1891128' />
  <node id='-107805' visible='true' lat='-33.8331546' lon='151.189145' />
  <node id='-107804' visible='true' lat='-33.8329108' lon='151.1892375' />
  <node id='-107803' visible='true' lat='-33.8327555' lon='151.1892576' />
  <node id='-107802' visible='true' lat='-33.8325852' lon='151.1892415' />
  <node id='-107801' visible='true' lat='-33.8323882' lon='151.1891972' />
  <node id='-107800' visible='true' lat='-33.8322579' lon='151.1891611' />
  <node id='-107799' visible='true' lat='-33.8320809' lon='151.1891309' />
  <node id='-107798' visible='true' lat='-33.831944' lon='151.1891088' />
  <node id='-107797' visible='true' lat='-33.8317286' lon='151.1891329' />
  <node id='-107796' visible='true' lat='-33.8334864' lon='151.1890475' />
  <node id='-107795' visible='true' lat='-33.8373432' lon='151.1896654' />
  <node id='-107794' visible='true' lat='-33.8371143' lon='151.189461'>
    
  </node>
  <node id='-107793' visible='true' lat='-33.8370765' lon='151.1893092' />
  <node id='-107792' visible='true' lat='-33.8370172' lon='151.1892406' />
  <node id='-107791' visible='true' lat='-33.8368988' lon='151.1891034'>
    
  </node>
  <node id='-107790' visible='true' lat='-33.8367903' lon='151.1890201' />
  <node id='-107789' visible='true' lat='-33.8366905' lon='151.1889723'>
    
  </node>
  <node id='-107788' visible='true' lat='-33.8366076' lon='151.1889214' />
  <node id='-107787' visible='true' lat='-33.8365352' lon='151.1888653' />
  <node id='-107786' visible='true' lat='-33.8365086' lon='151.1888291'>
    
  </node>
  <node id='-107785' visible='true' lat='-33.8364079' lon='151.1887923'>
    
  </node>
  <node id='-107784' visible='true' lat='-33.8363096' lon='151.1887305' />
  <node id='-107783' visible='true' lat='-33.8361668' lon='151.1887026' />
  <node id='-107782' visible='true' lat='-33.8360723' lon='151.1886534' />
  <node id='-107781' visible='true' lat='-33.8359197' lon='151.188591' />
  <node id='-107780' visible='true' lat='-33.8357092' lon='151.1885902'>
    
  </node>
  <node id='-107779' visible='true' lat='-33.8356231' lon='151.1885871' />
  <node id='-107778' visible='true' lat='-33.8354712' lon='151.1885883' />
  <node id='-107777' visible='true' lat='-33.8353473' lon='151.1886279'>
    
  </node>
  <node id='-107776' visible='true' lat='-33.8352629' lon='151.188621' />
  <node id='-107775' visible='true' lat='-33.8351283' lon='151.1886996' />
  <node id='-107774' visible='true' lat='-33.8350063' lon='151.1888103' />
  <node id='-107773' visible='true' lat='-33.8348955' lon='151.1889159' />
  <node id='-107772' visible='true' lat='-33.8347524' lon='151.1890166' />
  <node id='-107771' visible='true' lat='-33.8346779' lon='151.1891417' />
  <node id='-107770' visible='true' lat='-33.8344878' lon='151.1893103' />
  <node id='-107769' visible='true' lat='-33.8344094' lon='151.1894506' />
  <node id='-107768' visible='true' lat='-33.83433' lon='151.189556' />
  <node id='-107767' visible='true' lat='-33.8342964' lon='151.189623' />
  <node id='-107766' visible='true' lat='-33.8342398' lon='151.1896386' />
  <node id='-107765' visible='true' lat='-33.8341453' lon='151.1896262' />
  <node id='-107764' visible='true' lat='-33.8340462' lon='151.1896017' />
  <node id='-107763' visible='true' lat='-33.8339456' lon='151.1894755'>
    
  </node>
  <node id='-107762' visible='true' lat='-33.8338852' lon='151.1894472' />
  <node id='-107761' visible='true' lat='-33.8337456' lon='151.1894126' />
  <node id='-107760' visible='true' lat='-33.8336484' lon='151.189451' />
  <node id='-107759' visible='true' lat='-33.8335383' lon='151.1894733' />
  <node id='-107758' visible='true' lat='-33.8334183' lon='151.1894849' />
  <node id='-107757' visible='true' lat='-33.8333468' lon='151.1894398' />
  <node id='-107756' visible='true' lat='-33.8332598' lon='151.1894012' />
  <node id='-107755' visible='true' lat='-33.8332533' lon='151.1893538' />
  <node id='-107754' visible='true' lat='-33.8333068' lon='151.189305' />
  <node id='-107753' visible='true' lat='-33.8333935' lon='151.1893129' />
  <node id='-107752' visible='true' lat='-33.8334706' lon='151.1893164' />
  <node id='-107751' visible='true' lat='-33.8335078' lon='151.189288' />
  <node id='-107750' visible='true' lat='-33.8335476' lon='151.1891925' />
  <node id='-107749' visible='true' lat='-33.8335397' lon='151.1891395' />
  <node id='-93211' action='modify' visible='true' lat='-33.83748257917' lon='151.19201508387' />
  <node id='-93209' action='modify' visible='true' lat='-33.83728929078' lon='151.19237832819' />
  <node id='-93207' action='modify' visible='true' lat='-33.83739772091' lon='151.19257130173' />
  <node id='-93205' action='modify' visible='true' lat='-33.83778901109' lon='151.19309914113' />
  <node id='-93203' action='modify' visible='true' lat='-33.83760043773' lon='151.19329779037' />
  <node id='-93201' action='modify' visible='true' lat='-33.83807658467' lon='151.193950495' />
  <node id='-93199' action='modify' visible='true' lat='-33.83809072761' lon='151.19409238731' />
  <node id='-93197' action='modify' visible='true' lat='-33.83806244173' lon='151.19416617131' />
  <node id='-93195' action='modify' visible='true' lat='-33.83835472868' lon='151.19444995593' />
  <node id='-93193' action='modify' visible='true' lat='-33.83885185366' lon='151.19458980278' />
  <node id='-93191' action='modify' visible='true' lat='-33.83891852348' lon='151.19502324141' />
  <node id='-93189' action='modify' visible='true' lat='-33.83889852254' lon='151.19519982752' />
  <node id='-93187' action='modify' visible='true' lat='-33.83895185838' lon='151.19564931942' />
  <node id='-93185' action='modify' visible='true' lat='-33.84137860357' lon='151.19617907775' />
  <node id='-93183' action='modify' visible='true' lat='-33.84193303151' lon='151.19597508697' />
  <node id='-93181' action='modify' visible='true' lat='-33.84265303688' lon='151.1951041964' />
  <node id='-93179' action='modify' visible='true' lat='-33.84291637066' lon='151.19474299754' />
  <node id='-93177' action='modify' visible='true' lat='-33.84281303725' lon='151.19461055796' />
  <node id='-93175' action='modify' visible='true' lat='-33.8430363706' lon='151.19443397186' />
  <node id='-93173' action='modify' visible='true' lat='-33.84307970387' lon='151.19442594521' />
  <node id='-93171' action='modify' visible='true' lat='-33.84336970287' lon='151.19423330582' />
  <node id='-93169' action='modify' visible='true' lat='-33.84331970311' lon='151.19410086624' />
  <node id='-93167' action='modify' visible='true' lat='-33.84319970357' lon='151.19406073304' />
  <node id='-93165' action='modify' visible='true' lat='-33.84310637048' lon='151.19386809365' />
  <node id='-93163' action='modify' visible='true' lat='-33.84334475206' lon='151.19370853462' />
  <node id='-93161' action='modify' visible='true' lat='-33.84339141848' lon='151.19388913405' />
  <node id='-93159' action='modify' visible='true' lat='-33.84506805966' lon='151.1934717487' />
  <node id='-93157' action='modify' visible='true' lat='-33.84572137415' lon='151.19364432149' />
  <node id='-93155' action='modify' visible='true' lat='-33.84638522639' lon='151.19373318498' />
  <node id='-93153' action='modify' visible='true' lat='-33.84663354932' lon='151.19364890525' />
  <node id='-93151' action='modify' visible='true' lat='-33.84696186779' lon='151.19367499183' />
  <node id='-93149' action='modify' visible='true' lat='-33.84719019005' lon='151.19363285196' />
  <node id='-93147' action='modify' visible='true' lat='-33.84732351663' lon='151.19355459221' />
  <node id='-93145' action='modify' visible='true' lat='-33.84750184061' lon='151.19351445901' />
  <node id='-93143' action='modify' visible='true' lat='-33.84755183792' lon='151.19341613265' />
  <node id='-93141' action='modify' visible='true' lat='-33.84750517376' lon='151.19359472542' />
  <node id='-93139' action='modify' visible='true' lat='-33.84740851222' lon='151.19376127822' />
  <node id='-93137' action='modify' visible='true' lat='-33.84732518321' lon='151.19379539145' />
  <node id='-93135' action='modify' visible='true' lat='-33.84726351969' lon='151.19426093664' />
  <node id='-93133' action='modify' visible='true' lat='-33.84722018854' lon='151.19442548278' />
  <node id='-93131' action='modify' visible='true' lat='-33.84725185362' lon='151.19470842189' />
  <node id='-93129' action='modify' visible='true' lat='-33.84725185362' lon='151.19483484149' />
  <node id='-93127' action='modify' visible='true' lat='-33.84728185209' lon='151.19486694805' />
  <node id='-93125' action='modify' visible='true' lat='-33.84717685738' lon='151.19500741427' />
  <node id='-93123' action='modify' visible='true' lat='-33.84716185812' lon='151.19507363406' />
  <node id='-93121' action='modify' visible='true' lat='-33.84710686083' lon='151.19532045328' />
  <node id='-93119' action='modify' visible='true' lat='-33.84712519326' lon='151.19550506603' />
  <node id='-93117' action='modify' visible='true' lat='-33.84721290969' lon='151.19549169785' />
  <node id='-93101' action='modify' visible='true' lat='-33.84745020543' lon='151.19559337342' />
  <node id='-93099' action='modify' visible='true' lat='-33.84735121566' lon='151.19587999588' />
  <node id='-93097' action='modify' visible='true' lat='-33.84730474763' lon='151.19619720096' />
  <node id='-93095' action='modify' visible='true' lat='-33.84733774425' lon='151.19636179604' />
  <node id='-93093' action='modify' visible='true' lat='-33.84730710453' lon='151.1964639585' />
  <node id='-93091' action='modify' visible='true' lat='-33.84730239073' lon='151.19675625666' />
  <node id='-93089' action='modify' visible='true' lat='-33.84734717185' lon='151.19678463513' />
  <node id='-93087' action='modify' visible='true' lat='-33.84733303045' lon='151.19705990621' />
  <node id='-93085' action='modify' visible='true' lat='-33.84729296312' lon='151.1972926096' />
  <node id='-93083' action='modify' visible='true' lat='-33.84729532002' lon='151.19766152961' />
  <node id='-93081' action='modify' visible='true' lat='-33.84719397317' lon='151.19790842223' />
  <node id='-93079' action='modify' visible='true' lat='-33.84693942705' lon='151.19792828715' />
  <node id='-93077' action='modify' visible='true' lat='-33.84687107657' lon='151.19791977361' />
  <node id='-93075' action='modify' visible='true' lat='-33.84680272604' lon='151.19784882746' />
  <node id='-93073' action='modify' visible='true' lat='-33.84665895406' lon='151.19767571884' />
  <node id='-93071' action='modify' visible='true' lat='-33.84655996337' lon='151.19754801576' />
  <node id='-93069' action='modify' visible='true' lat='-33.8464633295' lon='151.19746855606' />
  <node id='-93067' action='modify' visible='true' lat='-33.84625120597' lon='151.19723869052' />
  <node id='-93065' action='modify' visible='true' lat='-33.84615221481' lon='151.19702301421' />
  <node id='-93063' action='modify' visible='true' lat='-33.84610036225' lon='151.19660585081' />
  <node id='-93061' action='modify' visible='true' lat='-33.84614278707' lon='151.19618301173' />
  <node id='-93059' action='modify' visible='true' lat='-33.84622999359' lon='151.19592760557' />
  <node id='-93057' action='modify' visible='true' lat='-33.84614514401' lon='151.19557855048' />
  <node id='-93055' action='modify' visible='true' lat='-33.84621113813' lon='151.1955303071' />
  <node id='-93053' action='modify' visible='true' lat='-33.84623706438' lon='151.19543665817' />
  <node id='-93051' action='modify' visible='true' lat='-33.84627948914' lon='151.19536287417' />
  <node id='-93049' action='modify' visible='true' lat='-33.84635491087' lon='151.19527206309' />
  <node id='-93047' action='modify' visible='true' lat='-33.84636905244' lon='151.19519260339' />
  <node id='-93045' action='modify' visible='true' lat='-33.84642326176' lon='151.19515854924' />
  <node id='-93043' action='modify' visible='true' lat='-33.84654817876' lon='151.19494854862' />
  <node id='-93041' action='modify' visible='true' lat='-33.84644447409' lon='151.19465625046' />
  <node id='-93039' action='modify' visible='true' lat='-33.84629127379' lon='151.19428733045' />
  <node id='-93037' action='modify' visible='true' lat='-33.84618285494' lon='151.1943213846' />
  <node id='-93035' action='modify' visible='true' lat='-33.84609564838' lon='151.19429300614' />
  <node id='-93033' action='modify' visible='true' lat='-33.84601786948' lon='151.19423624922' />
  <node id='-93031' action='modify' visible='true' lat='-33.84594244745' lon='151.19423341137' />
  <node id='-93029' action='modify' visible='true' lat='-33.8458033879' lon='151.1942532763' />
  <node id='-93027' action='modify' visible='true' lat='-33.84566197119' lon='151.19430435753' />
  <node id='-93025' action='modify' visible='true' lat='-33.84553469594' lon='151.19431287107' />
  <node id='-93023' action='modify' visible='true' lat='-33.84538856487' lon='151.19430435753' />
  <node id='-93021' action='modify' visible='true' lat='-33.8453013575' lon='151.19426178983' />
  <node id='-93019' action='modify' visible='true' lat='-33.84523064875' lon='151.19431003322' />
  <node id='-93017' action='modify' visible='true' lat='-33.84515286906' lon='151.19431854676' />
  <node id='-93015' action='modify' visible='true' lat='-33.84509158805' lon='151.19429300614' />
  <node id='-93013' action='modify' visible='true' lat='-33.84499966644' lon='151.19424476276' />
  <node id='-93011' action='modify' visible='true' lat='-33.84492895745' lon='151.19423057353' />
  <node id='-93009' action='modify' visible='true' lat='-33.84481110899' lon='151.19425611414' />
  <node id='-93007' action='modify' visible='true' lat='-33.84476396956' lon='151.19431854676' />
  <node id='-93005' action='modify' visible='true' lat='-33.84434914148' lon='151.19408584337' />
  <node id='-93003' action='modify' visible='true' lat='-33.84435385545' lon='151.19419084368' />
  <node id='-93001' action='modify' visible='true' lat='-33.84430671577' lon='151.19426178983' />
  <node id='-92999' action='modify' visible='true' lat='-33.84425721908' lon='151.19431854676' />
  <node id='-92997' action='modify' visible='true' lat='-33.84418179549' lon='151.19435827661' />
  <node id='-92995' action='modify' visible='true' lat='-33.8441157998' lon='151.19447179045' />
  <node id='-92993' action='modify' visible='true' lat='-33.84414408367' lon='151.194554088' />
  <node id='-92991' action='modify' visible='true' lat='-33.8438706725' lon='151.19480381846' />
  <node id='-92989' action='modify' visible='true' lat='-33.84379053457' lon='151.19491449447' />
  <node id='-92987' action='modify' visible='true' lat='-33.84386360151' lon='151.19515571139' />
  <node id='-92985' action='modify' visible='true' lat='-33.84387774349' lon='151.19580557818' />
  <node id='-92983' action='modify' visible='true' lat='-33.84377167858' lon='151.19648098558' />
  <node id='-92981' action='modify' visible='true' lat='-33.84379996257' lon='151.19681301359' />
  <node id='-92979' action='modify' visible='true' lat='-33.84379053457' lon='151.19699747359' />
  <node id='-92977' action='modify' visible='true' lat='-33.84376217031' lon='151.19708722734' />
  <node id='-92975' action='modify' visible='true' lat='-33.84381873829' lon='151.19715675457' />
  <node id='-92973' action='modify' visible='true' lat='-33.84368203229' lon='151.19748594473' />
  <node id='-92971' action='modify' visible='true' lat='-33.84359482317' lon='151.1976377695' />
  <node id='-92969' action='modify' visible='true' lat='-33.84346754485' lon='151.19765763443' />
  <node id='-92967' action='modify' visible='true' lat='-33.84336030093' lon='151.1975639855' />
  <node id='-92965' action='modify' visible='true' lat='-33.84329666161' lon='151.19766331012' />
  <node id='-92963' action='modify' visible='true' lat='-33.84323773628' lon='151.19773141843' />
  <node id='-92961' action='modify' visible='true' lat='-33.84305153196' lon='151.19777540505' />
  <node id='-92959' action='modify' visible='true' lat='-33.84297021476' lon='151.1977725672' />
  <node id='-92957' action='modify' visible='true' lat='-33.84289243301' lon='151.19779243212' />
  <node id='-92955' action='modify' visible='true' lat='-33.84286414872' lon='151.19778675643' />
  <node id='-92953' action='modify' visible='true' lat='-33.84281582971' lon='151.19775837797' />
  <node id='-92951' action='modify' visible='true' lat='-33.84270976348' lon='151.19773851305' />
  <node id='-92949' action='modify' visible='true' lat='-33.84257894829' lon='151.19771013458' />
  <node id='-92947' action='modify' visible='true' lat='-33.84242338402' lon='151.1977172292' />
  <node id='-92945' action='modify' visible='true' lat='-33.84225956982' lon='151.19775837797' />
  <node id='-92943' action='modify' visible='true' lat='-33.8420002949' lon='151.19793716228' />
  <node id='-92941' action='modify' visible='true' lat='-33.84159488164' lon='151.19793148659' />
  <node id='-92939' action='modify' visible='true' lat='-33.84147058433' lon='151.19788837293' />
  <node id='-92937' action='modify' visible='true' lat='-33.84136058238' lon='151.19792248615' />
  <node id='-92935' action='modify' visible='true' lat='-33.8412322466' lon='151.19789037959' />
  <node id='-92933' action='modify' visible='true' lat='-33.8412239131' lon='151.19797666598' />
  <node id='-92931' action='modify' visible='true' lat='-33.84142058346' lon='151.19805693239' />
  <node id='-92929' action='modify' visible='true' lat='-33.84125558039' lon='151.19820743192' />
  <node id='-92927' action='modify' visible='true' lat='-33.84119224579' lon='151.19828368501' />
  <node id='-92925' action='modify' visible='true' lat='-33.84112724444' lon='151.19864889718' />
  <node id='-92923' action='modify' visible='true' lat='-33.84112391104' lon='151.19892782297' />
  <node id='-92921' action='modify' visible='true' lat='-33.84114557816' lon='151.19909236911' />
  <node id='-92919' action='modify' visible='true' lat='-33.84147725111' lon='151.19945557463' />
  <node id='-92917' action='modify' visible='true' lat='-33.84178649114' lon='151.19986329543' />
  <node id='-92915' action='modify' visible='true' lat='-33.84195482656' lon='151.20020242102' />
  <node id='-92913' action='modify' visible='true' lat='-33.84232316331' lon='151.20126394432' />
  <node id='-92911' action='modify' visible='true' lat='-33.84262816493' lon='151.2011435447' />
  <node id='-92909' action='modify' visible='true' lat='-33.84272816523' lon='151.20114153804' />
  <node id='-92907' action='modify' visible='true' lat='-33.84334649779' lon='151.20118769123' />
  <node id='-92905' action='modify' visible='true' lat='-33.84396982581' lon='151.20122581777' />
  <node id='-92903' action='modify' visible='true' lat='-33.84412982371' lon='151.20140240388' />
  <node id='-92901' action='modify' visible='true' lat='-33.84422315569' lon='151.20142849047' />
  <node id='-92899' action='modify' visible='true' lat='-33.84434315379' lon='151.20143451045' />
  <node id='-92897' action='modify' visible='true' lat='-33.84440148614' lon='151.20139437724' />
  <node id='-92895' action='modify' visible='true' lat='-33.84447981808' lon='151.20114755802' />
  <node id='-92893' action='modify' visible='true' lat='-33.84450148436' lon='151.20099304518' />
  <node id='-92891' action='modify' visible='true' lat='-33.84411149064' lon='151.20083652567' />
  <node id='-92889' action='modify' visible='true' lat='-33.84408482433' lon='151.20068803281' />
  <node id='-92887' action='modify' visible='true' lat='-33.8439731591' lon='151.20070408609' />
  <node id='-92885' action='modify' visible='true' lat='-33.84357982966' lon='151.20091679209' />
  <node id='-92883' action='modify' visible='true' lat='-33.84348483033' lon='151.20089471882' />
  <node id='-92881' action='modify' visible='true' lat='-33.84332483122' lon='151.20062582634' />
  <node id='-92879' action='modify' visible='true' lat='-33.84327017838' lon='151.20046365561' />
  <node id='-92877' action='modify' visible='true' lat='-33.84332408339' lon='151.20046063636' />
  <node id='-92875' action='modify' visible='true' lat='-33.84355321574' lon='151.2004018137' />
  <node id='-92873' action='modify' visible='true' lat='-33.84387654611' lon='151.20030950733' />
  <node id='-92871' action='modify' visible='true' lat='-33.84398321153' lon='151.20019713435' />
  <node id='-92869' action='modify' visible='true' lat='-33.84416987569' lon='151.20014496118' />
  <node id='-92867' action='modify' visible='true' lat='-33.84466653371' lon='151.19994830847' />
  <node id='-92865' action='modify' visible='true' lat='-33.84484319661' lon='151.20008074805' />
  <node id='-92863' action='modify' visible='true' lat='-33.84533651747' lon='151.20086735889' />
  <node id='-92861' action='modify' visible='true' lat='-33.84551651221' lon='151.2011803979' />
  <node id='-92859' action='modify' visible='true' lat='-33.84577650395' lon='151.20181048924' />
  <node id='-92857' action='modify' visible='true' lat='-33.8457698375' lon='151.20193088886' />
  <node id='-92855' action='modify' visible='true' lat='-33.84580316972' lon='151.20201516859' />
  <node id='-92853' action='modify' visible='true' lat='-33.84575650461' lon='151.20202319523' />
  <node id='-92851' action='modify' visible='true' lat='-33.84574983817' lon='151.20211951493' />
  <node id='-92849' action='modify' visible='true' lat='-33.8457698375' lon='151.20232419428' />
  <node id='-92847' action='modify' visible='true' lat='-33.8457131727' lon='151.20239643405' />
  <node id='-92845' action='modify' visible='true' lat='-33.84597316384' lon='151.20272151302' />
  <node id='-92843' action='modify' visible='true' lat='-33.84641648023' lon='151.20286599256' />
  <node id='-92841' action='modify' visible='true' lat='-33.84709978296' lon='151.2029904055' />
  <node id='-92839' action='modify' visible='true' lat='-33.84741976674' lon='151.20322317809' />
  <node id='-92837' action='modify' visible='true' lat='-33.84753309404' lon='151.20341180416' />
  <node id='-92835' action='modify' visible='true' lat='-33.84752976089' lon='151.20367267' />
  <node id='-92833' action='modify' visible='true' lat='-33.84837637779' lon='151.20362049684' />
  <node id='-92831' action='modify' visible='true' lat='-33.84861969527' lon='151.20362852348' />
  <node id='-92829' action='modify' visible='true' lat='-33.84862302838' lon='151.20283388599' />
  <node id='-92827' action='modify' visible='true' lat='-33.84909299577' lon='151.20277769951' />
  <node id='-92825' action='modify' visible='true' lat='-33.84949963214' lon='151.20282585935' />
  <node id='-92823' action='modify' visible='true' lat='-33.84979627548' lon='151.2029904055' />
  <node id='-92821' action='modify' visible='true' lat='-33.8502029085' lon='151.20325929798' />
  <node id='-92819' action='modify' visible='true' lat='-33.85043955469' lon='151.20352417714' />
  <node id='-92817' action='modify' visible='true' lat='-33.85051621459' lon='151.20364859008' />
  <node id='-92815' action='modify' visible='true' lat='-33.85056621014' lon='151.20377300302' />
  <node id='-92813' action='modify' visible='true' lat='-33.85057954228' lon='151.20383721615' />
  <node id='-92811' action='modify' visible='true' lat='-33.85055287799' lon='151.20389741596' />
  <node id='-92809' action='modify' visible='true' lat='-33.85049288332' lon='151.20395360245' />
  <node id='-92807' action='modify' visible='true' lat='-33.85040622428' lon='151.20396965573' />
  <node id='-92805' action='modify' visible='true' lat='-33.85031623211' lon='151.20397768237' />
  <node id='-92803' action='modify' visible='true' lat='-33.85024623813' lon='151.20394958913' />
  <node id='-92801' action='modify' visible='true' lat='-33.8494596352' lon='151.20392952252' />
  <node id='-92799' action='modify' visible='true' lat='-33.8492729826' lon='151.20397366905' />
  <node id='-92797' action='modify' visible='true' lat='-33.84901966769' lon='151.20408202871' />
  <node id='-92795' action='modify' visible='true' lat='-33.84866244788' lon='151.20464977516' />
  <node id='-92793' action='modify' visible='true' lat='-33.84865773415' lon='151.2048243027' />
  <node id='-92791' action='modify' visible='true' lat='-33.84870559643' lon='151.2048584404' />
  <node id='-92789' action='modify' visible='true' lat='-33.84876687485' lon='151.20501168409' />
  <node id='-92787' action='modify' visible='true' lat='-33.84888471785' lon='151.20578925396' />
  <node id='-92785' action='modify' visible='true' lat='-33.84888000413' lon='151.20607303858' />
  <node id='-92783' action='modify' visible='true' lat='-33.84880929835' lon='151.20619222812' />
  <node id='-92781' action='modify' visible='true' lat='-33.84868202779' lon='151.20619222812' />
  <node id='-92779' action='modify' visible='true' lat='-33.84860189438' lon='151.20607303858' />
  <node id='-92777' action='modify' visible='true' lat='-33.8485359021' lon='151.20599925458' />
  <node id='-92775' action='modify' visible='true' lat='-33.84837563493' lon='151.2059084435' />
  <node id='-92773' action='modify' visible='true' lat='-33.84826721873' lon='151.20513654933' />
  <node id='-92771' action='modify' visible='true' lat='-33.84823422247' lon='151.20501168409' />
  <node id='-92769' action='modify' visible='true' lat='-33.84661739003' lon='151.20517060348' />
  <node id='-92767' action='modify' visible='true' lat='-33.8458732936' lon='151.20509435039' />
  <node id='-92765' action='modify' visible='true' lat='-33.84571329896' lon='151.20554785562' />
  <node id='-92763' action='modify' visible='true' lat='-33.84495463656' lon='151.20621616124' />
  <node id='-92761' action='modify' visible='true' lat='-33.844501174' lon='151.20631288429' />
  <node id='-92759' action='modify' visible='true' lat='-33.84451784036' lon='151.20644532387' />
  <node id='-92757' action='modify' visible='true' lat='-33.8443978425' lon='151.20649749704' />
  <node id='-92755' action='modify' visible='true' lat='-33.84451450709' lon='151.20652559028' />
  <node id='-92753' action='modify' visible='true' lat='-33.84456783941' lon='151.20674632292' />
  <node id='-92751' action='modify' visible='true' lat='-33.844501174' lon='151.20681856269' />
  <node id='-92749' action='modify' visible='true' lat='-33.84442117543' lon='151.20680250941' />
  <node id='-92747' action='modify' visible='true' lat='-33.84437117629' lon='151.20683461597' />
  <node id='-92745' action='modify' visible='true' lat='-33.84431451056' lon='151.20683461597' />
  <node id='-92743' action='modify' visible='true' lat='-33.84425117823' lon='151.20680652273' />
  <node id='-92741' action='modify' visible='true' lat='-33.84413118' lon='151.20684665593' />
  <node id='-92739' action='modify' visible='true' lat='-33.84399118185' lon='151.20687474918' />
  <node id='-92737' action='modify' visible='true' lat='-33.84396784881' lon='151.20718377487' />
  <node id='-92735' action='modify' visible='true' lat='-33.84398451527' lon='151.20761721349' />
  <node id='-92733' action='modify' visible='true' lat='-33.84402784806' lon='151.20791419922' />
  <node id='-92731' action='modify' visible='true' lat='-33.8442178454' lon='151.20793827914' />
  <node id='-92729' action='modify' visible='true' lat='-33.84420117899' lon='151.20815098513' />
  <node id='-92727' action='modify' visible='true' lat='-33.84444784163' lon='151.20873692994' />
  <node id='-92725' action='modify' visible='true' lat='-33.84464783784' lon='151.20890950273' />
  <node id='-92723' action='modify' visible='true' lat='-33.84461783844' lon='151.20896970254' />
  <node id='-92721' action='modify' visible='true' lat='-33.8449244985' lon='151.20927872823' />
  <node id='-92719' action='modify' visible='true' lat='-33.84510449411' lon='151.20936300796' />
  <node id='-92717' action='modify' visible='true' lat='-33.8466577738' lon='151.20946334097' />
  <node id='-92715' action='modify' visible='true' lat='-33.84703109004' lon='151.20942722109' />
  <node id='-92713' action='modify' visible='true' lat='-33.847287744' lon='151.20931886143' />
  <node id='-92711' action='modify' visible='true' lat='-33.84792104269' lon='151.20939511452' />
  <node id='-92709' action='modify' visible='true' lat='-33.84857766848' lon='151.20970012689' />
  <node id='-92707' action='modify' visible='true' lat='-33.8487551152' lon='151.20997827042' />
  <node id='-92705' action='modify' visible='true' lat='-33.84903793816' lon='151.21036421751' />
  <node id='-92703' action='modify' visible='true' lat='-33.84914163968' lon='151.2105969209' />
  <node id='-92701' action='modify' visible='true' lat='-33.84989582875' lon='151.21136881507' />
  <node id='-92699' action='modify' visible='true' lat='-33.84961300863' lon='151.2117263837' />
  <node id='-92697' action='modify' visible='true' lat='-33.84946688453' lon='151.21178881631' />
  <node id='-92695' action='modify' visible='true' lat='-33.84926890955' lon='151.21177746493' />
  <node id='-92693' action='modify' visible='true' lat='-33.84927362325' lon='151.21190800585' />
  <node id='-92691' action='modify' visible='true' lat='-33.84749182787' lon='151.21166395108' />
  <node id='-92690' action='modify' visible='true' lat='-33.84740697954' lon='151.2124755751' />
  <way id='-107739' action='modify' visible='true'>
    <nd ref='-92690' />
    <nd ref='-92691' />
    <nd ref='-92693' />
    <nd ref='-92695' />
    <nd ref='-92697' />
    <nd ref='-92699' />
    <nd ref='-92701' />
    <nd ref='-92703' />
    <nd ref='-92705' />
    <nd ref='-92707' />
    <nd ref='-92709' />
    <nd ref='-92711' />
    <nd ref='-92713' />
    <nd ref='-92715' />
    <nd ref='-92717' />
    <nd ref='-92719' />
    <nd ref='-92721' />
    <nd ref='-92723' />
    <nd ref='-92725' />
    <nd ref='-92727' />
    <nd ref='-92729' />
    <nd ref='-92731' />
    <nd ref='-92733' />
    <nd ref='-92735' />
    <nd ref='-92737' />
    <nd ref='-92739' />
    <nd ref='-92741' />
    <nd ref='-92743' />
    <nd ref='-92745' />
    <nd ref='-92747' />
    <nd ref='-92749' />
    <nd ref='-92751' />
    <nd ref='-92753' />
    <nd ref='-92755' />
    <nd ref='-92757' />
    <nd ref='-92759' />
    <nd ref='-92761' />
    <nd ref='-92763' />
    <nd ref='-92765' />
    <nd ref='-92767' />
    <nd ref='-92769' />
    <nd ref='-92771' />
    <nd ref='-92773' />
    <nd ref='-92775' />
    <nd ref='-92777' />
    <nd ref='-92779' />
    <nd ref='-92781' />
    <nd ref='-92783' />
    <nd ref='-92785' />
    <nd ref='-92787' />
    <nd ref='-92789' />
    <nd ref='-92791' />
    <nd ref='-92793' />
    <nd ref='-92795' />
    <nd ref='-92797' />
    <nd ref='-92799' />
    <nd ref='-92801' />
    <nd ref='-92803' />
    <nd ref='-92805' />
    <nd ref='-92807' />
    <nd ref='-92809' />
    <nd ref='-92811' />
    <nd ref='-92813' />
    <nd ref='-92815' />
    <nd ref='-92817' />
    <nd ref='-92819' />
    <nd ref='-92821' />
    <nd ref='-92823' />
    <nd ref='-92825' />
    <nd ref='-92827' />
    <nd ref='-92829' />
    <nd ref='-92831' />
    <nd ref='-92833' />
    <nd ref='-92835' />
    <nd ref='-92837' />
    <nd ref='-92839' />
    <nd ref='-92841' />
    <nd ref='-92843' />
    <nd ref='-92845' />
    <nd ref='-92847' />
    <nd ref='-92849' />
    <nd ref='-92851' />
    <nd ref='-92853' />
    <nd ref='-92855' />
    <nd ref='-92857' />
    <nd ref='-92859' />
    <nd ref='-92861' />
    <nd ref='-92863' />
    <nd ref='-92865' />
    <nd ref='-92867' />
    <nd ref='-92869' />
    <nd ref='-92871' />
    <nd ref='-92873' />
    <nd ref='-92875' />
    <nd ref='-92877' />
    <nd ref='-92879' />
    <nd ref='-92881' />
    <nd ref='-92883' />
    <nd ref='-92885' />
    <nd ref='-92887' />
    <nd ref='-92889' />
    <nd ref='-92891' />
    <nd ref='-92893' />
    <nd ref='-92895' />
    <nd ref='-92897' />
    <nd ref='-92899' />
    <nd ref='-92901' />
    <nd ref='-92903' />
    <nd ref='-92905' />
    <nd ref='-92907' />
    <nd ref='-92909' />
    <nd ref='-92911' />
    <nd ref='-92913' />
    <nd ref='-92915' />
    <nd ref='-92917' />
    <nd ref='-92919' />
    <nd ref='-92921' />
    <nd ref='-92923' />
    <nd ref='-92925' />
    <nd ref='-92927' />
    <nd ref='-92929' />
    <nd ref='-92931' />
    <nd ref='-92933' />
    <nd ref='-92935' />
    <nd ref='-92937' />
    <nd ref='-92939' />
    <nd ref='-92941' />
    <nd ref='-92943' />
    <nd ref='-92945' />
    <nd ref='-92947' />
    <nd ref='-92949' />
    <nd ref='-92951' />
    <nd ref='-92953' />
    <nd ref='-92955' />
    <nd ref='-92957' />
    <nd ref='-92959' />
    <nd ref='-92961' />
    <nd ref='-92963' />
    <nd ref='-92965' />
    <nd ref='-92967' />
    <nd ref='-92969' />
    <nd ref='-92971' />
    <nd ref='-92973' />
    <nd ref='-92975' />
    <nd ref='-92977' />
    <nd ref='-92979' />
    <nd ref='-92981' />
    <nd ref='-92983' />
    <nd ref='-92985' />
    <nd ref='-92987' />
    <nd ref='-92989' />
    <nd ref='-92991' />
    <nd ref='-92993' />
    <nd ref='-92995' />
    <nd ref='-92997' />
    <nd ref='-92999' />
    <nd ref='-93001' />
    <nd ref='-93003' />
    <nd ref='-93005' />
    <nd ref='-93007' />
    <nd ref='-93009' />
    <nd ref='-93011' />
    <nd ref='-93013' />
    <nd ref='-93015' />
    <nd ref='-93017' />
    <nd ref='-93019' />
    <nd ref='-93021' />
    <nd ref='-93023' />
    <nd ref='-93025' />
    <nd ref='-93027' />
    <nd ref='-93029' />
    <nd ref='-93031' />
    <nd ref='-93033' />
    <nd ref='-93035' />
    <nd ref='-93037' />
    <nd ref='-93039' />
    <nd ref='-93041' />
    <nd ref='-93043' />
    <nd ref='-93045' />
    <nd ref='-93047' />
    <nd ref='-93049' />
    <nd ref='-93051' />
    <nd ref='-93053' />
    <nd ref='-93055' />
    <nd ref='-93057' />
    <nd ref='-93059' />
    <nd ref='-93061' />
    <nd ref='-93063' />
    <nd ref='-93065' />
    <nd ref='-93067' />
    <nd ref='-93069' />
    <nd ref='-93071' />
    <nd ref='-93073' />
    <nd ref='-93075' />
    <nd ref='-93077' />
    <nd ref='-93079' />
    <nd ref='-93081' />
    <nd ref='-93083' />
    <nd ref='-93085' />
    <nd ref='-93087' />
    <nd ref='-93089' />
    <nd ref='-93091' />
    <nd ref='-93093' />
    <nd ref='-93095' />
    <nd ref='-93097' />
    <nd ref='-93099' />
    <nd ref='-93101' />
    <nd ref='-93117' />
    <nd ref='-93119' />
    <nd ref='-93121' />
    <nd ref='-93123' />
    <nd ref='-93125' />
    <nd ref='-93127' />
    <nd ref='-93129' />
    <nd ref='-93131' />
    <nd ref='-93133' />
    <nd ref='-93135' />
    <nd ref='-93137' />
    <nd ref='-93139' />
    <nd ref='-93141' />
    <nd ref='-93143' />
    <nd ref='-93145' />
    <nd ref='-93147' />
    <nd ref='-93149' />
    <nd ref='-93151' />
    <nd ref='-93153' />
    <nd ref='-93155' />
    <nd ref='-93157' />
    <nd ref='-93159' />
    <nd ref='-93161' />
    <nd ref='-93163' />
    <nd ref='-93165' />
    <nd ref='-93167' />
    <nd ref='-93169' />
    <nd ref='-93171' />
    <nd ref='-93173' />
    <nd ref='-93175' />
    <nd ref='-93177' />
    <nd ref='-93179' />
    <nd ref='-93181' />
    <nd ref='-93183' />
    <nd ref='-93185' />
    <nd ref='-93187' />
    <nd ref='-93189' />
    <nd ref='-93191' />
    <nd ref='-93193' />
    <nd ref='-93195' />
    <nd ref='-93197' />
    <nd ref='-93199' />
    <nd ref='-93201' />
    <nd ref='-93203' />
    <nd ref='-93205' />
    <nd ref='-93207' />
    <nd ref='-93209' />
    <nd ref='-93211' />
    <nd ref='-107961' />
    <nd ref='-107963' />
    <nd ref='-107965' />
    <nd ref='-107967' />
    <nd ref='-107969' />
    <nd ref='-107971' />
    <nd ref='-107973' />
    <nd ref='-107975' />
    <nd ref='-107977' />
    <nd ref='-107979' />
    <nd ref='-107981' />
    <nd ref='-107983' />
    <nd ref='-107985' />
    <nd ref='-107987' />
    <nd ref='-107989' />
    <nd ref='-107991' />
    <nd ref='-107795' />
    <nd ref='-107794' />
    <nd ref='-107793' />
    <nd ref='-107792' />
    <nd ref='-107791' />
    <nd ref='-107790' />
    <nd ref='-107789' />
    <nd ref='-107788' />
    <nd ref='-107787' />
    <nd ref='-107786' />
    <nd ref='-107785' />
    <nd ref='-107784' />
    <nd ref='-107783' />
    <nd ref='-107782' />
    <nd ref='-107781' />
    <nd ref='-107780' />
    <nd ref='-107779' />
    <nd ref='-107778' />
    <nd ref='-107777' />
    <nd ref='-107776' />
    <nd ref='-107775' />
    <nd ref='-107774' />
    <nd ref='-107773' />
    <nd ref='-107772' />
    <nd ref='-107771' />
    <nd ref='-107770' />
    <nd ref='-107769' />
    <nd ref='-107768' />
    <nd ref='-107767' />
    <nd ref='-107766' />
    <nd ref='-107765' />
    <nd ref='-107764' />
    <nd ref='-107763' />
    <nd ref='-107762' />
    <nd ref='-107761' />
    <nd ref='-107760' />
    <nd ref='-107759' />
    <nd ref='-107758' />
    <nd ref='-107757' />
    <nd ref='-107756' />
    <nd ref='-107755' />
    <nd ref='-107754' />
    <nd ref='-107753' />
    <nd ref='-107752' />
    <nd ref='-107751' />
    <nd ref='-107750' />
    <nd ref='-107749' />
    <nd ref='-107796' />
    <nd ref='-107807' />
    <nd ref='-107806' />
    <nd ref='-107805' />
    <nd ref='-107804' />
    <nd ref='-107803' />
    <nd ref='-107802' />
    <nd ref='-107801' />
    <nd ref='-107800' />
    <nd ref='-107799' />
    <nd ref='-107798' />
    <nd ref='-107797' />
    <nd ref='-107816' />
    <nd ref='-107815' />
    <nd ref='-107814' />
    <nd ref='-107813' />
    <nd ref='-107812' />
    <nd ref='-107811' />
    <nd ref='-107810' />
    <nd ref='-107809' />
    <nd ref='-107808' />
    <nd ref='-107817' />
    <nd ref='-107835' />
    <nd ref='-107834' />
    <nd ref='-107833' />
    <nd ref='-107832' />
    <nd ref='-107831' />
    <nd ref='-107830' />
    <nd ref='-107829' />
    <nd ref='-107828' />
    <nd ref='-107827' />
    <nd ref='-107826' />
    <nd ref='-107825' />
    <nd ref='-107824' />
    <nd ref='-107823' />
    <nd ref='-107822' />
    <nd ref='-107821' />
    <nd ref='-107820' />
    <nd ref='-107819' />
    <nd ref='-107818' />
    <nd ref='-107836' />
    <nd ref='-107840' />
    <nd ref='-107839' />
    <nd ref='-107838' />
    <nd ref='-107837' />
    <nd ref='-107843' />
    <nd ref='-107844' />
    <nd ref='-107845' />
    <nd ref='-107846' />
    <nd ref='-107847' />
    <tag k='name' v='Milsons Point to Wollstoncraft' />
    <tag k='role' v='primary' />
    <tag k='photo' v='136319147@N08/51395108784' />
    <tag k='style' v='oneway' />
    <tag k='transport' v='train;carshuffle' />
  </way>
</osm>
