<?xml version='1.0' encoding='UTF-8'?>
<osm version='0.6' upload='false' generator='JOSM'>
  <node id='-98258' action='modify' visible='true' lat='-33.68493405491' lon='150.32718718852' />
  <node id='-98260' action='modify' visible='true' lat='-33.6850418832' lon='150.32762930026' />
  <node id='-98262' action='modify' visible='true' lat='-33.68583977969' lon='150.32830981038' />
  <node id='-98264' action='modify' visible='true' lat='-33.68612290246' lon='150.3277220971' />
  <node id='-98266' action='modify' visible='true' lat='-33.68836211341' lon='150.32781489393' />
  <node id='-98268' action='modify' visible='true' lat='-33.69134763725' lon='150.32722718065' />
  <node id='-98270' action='modify' visible='true' lat='-33.69587719952' lon='150.32923777871' />
  <node id='-98272' action='modify' visible='true' lat='-33.69626323071' lon='150.33152676727' />
  <node id='-98274' action='modify' visible='true' lat='-33.69852791213' lon='150.33115557993' />
  <node id='-98276' action='modify' visible='true' lat='-33.69842497336' lon='150.3305060021' />
  <node id='-98278' action='modify' visible='true' lat='-33.69924848007' lon='150.32942337238' />
  <node id='-98280' action='modify' visible='true' lat='-33.70181359288' lon='150.32848588891' />
  <node id='-98282' action='modify' visible='true' lat='-33.7023282652' lon='150.32788270949' />
  <node id='-98284' action='modify' visible='true' lat='-33.70304880126' lon='150.32802190474' />
  <node id='-98286' action='modify' visible='true' lat='-33.70460565317' lon='150.32721766552' />
  <node id='-98288' action='modify' visible='true' lat='-33.70479864938' lon='150.32820749841' />
  <node id='-98290' action='modify' visible='true' lat='-33.70815671394' lon='150.32766618355' />
  <node id='-98292' action='modify' visible='true' lat='-33.70832397043' lon='150.32794457405' />
  <node id='-98294' action='modify' visible='true' lat='-33.70873567732' lon='150.32814563385' />
  <node id='-98296' action='modify' visible='true' lat='-33.70975764816' lon='150.32798703116' />
  <node id='-98298' action='modify' visible='true' lat='-33.71003966688' lon='150.32810732949' />
  <node id='-98300' action='modify' visible='true' lat='-33.71011432987' lon='150.32840260721' />
  <node id='-98302' action='modify' visible='true' lat='-33.71014617061' lon='150.32857211849' />
  <node id='-98304' action='modify' visible='true' lat='-33.71013252458' lon='150.32894394969' />
  <node id='-98306' action='modify' visible='true' lat='-33.71015071929' lon='150.32952356891' />
  <node id='-98308' action='modify' visible='true' lat='-33.71045093135' lon='150.33001569843' />
  <node id='-98310' action='modify' visible='true' lat='-33.71038725009' lon='150.33068280735' />
  <node id='-98312' action='modify' visible='true' lat='-33.71058174903' lon='150.33074086465' />
  <node id='-98314' action='modify' visible='true' lat='-33.71067502409' lon='150.33125124723' />
  <node id='-98316' action='modify' visible='true' lat='-33.71082297743' lon='150.33123771436' />
  <node id='-98318' action='modify' visible='true' lat='-33.71089534582' lon='150.33136144347' />
  <node id='-98320' action='modify' visible='true' lat='-33.71099666146' lon='150.33138657595' />
  <node id='-98322' action='modify' visible='true' lat='-33.71111256288' lon='150.32970133894' />
  <node id='-98324' action='modify' visible='true' lat='-33.71158215065' lon='150.33035478331' />
  <node id='-98326' action='modify' visible='true' lat='-33.71177834751' lon='150.33054424351' />
  <node id='-98328' action='modify' visible='true' lat='-33.71198740926' lon='150.33121702055' />
  <node id='-98330' action='modify' visible='true' lat='-33.71212892769' lon='150.33117448867' />
  <node id='-98332' action='modify' visible='true' lat='-33.71209033177' lon='150.33105075956' />
  <node id='-98334' action='modify' visible='true' lat='-33.71189091928' lon='150.33047851242' />
  <node id='-98336' visible='true' lat='-33.6866001' lon='150.3259459' />
  <node id='-98338' visible='true' lat='-33.6865501' lon='150.3258773' />
  <node id='-98340' visible='true' lat='-33.6863471' lon='150.3257556' />
  <node id='-98342' visible='true' lat='-33.6860129' lon='150.3257666' />
  <node id='-98344' visible='true' lat='-33.6858876' lon='150.3259762' />
  <node id='-98346' visible='true' lat='-33.6857716' lon='150.326282' />
  <node id='-98348' visible='true' lat='-33.6856936' lon='150.3263511' />
  <node id='-98350' visible='true' lat='-33.6856019' lon='150.3264322' />
  <node id='-98352' visible='true' lat='-33.6853073' lon='150.3265556' />
  <node id='-98354' visible='true' lat='-33.6851823' lon='150.3267058' />
  <node id='-98356' visible='true' lat='-33.6850456' lon='150.3268587' />
  <node id='-98358' visible='true' lat='-33.684864' lon='150.3269899' />
  <node id='-98360' visible='true' lat='-33.6846784' lon='150.3270993' />
  <node id='-98362' visible='true' lat='-33.6845366' lon='150.3271544' />
  <node id='-98364' visible='true' lat='-33.6843962' lon='150.3273378' />
  <node id='-98366' visible='true' lat='-33.6841323' lon='150.3273596' />
  <node id='-98368' visible='true' lat='-33.6840695' lon='150.327329' />
  <node id='-98370' visible='true' lat='-33.6839439' lon='150.327364' />
  <node id='-98372' visible='true' lat='-33.6837528' lon='150.3273596' />
  <node id='-98374' visible='true' lat='-33.683578' lon='150.3273334' />
  <node id='-98376' visible='true' lat='-33.6834342' lon='150.3273421' />
  <node id='-98378' visible='true' lat='-33.6832759' lon='150.3272831' />
  <node id='-98380' visible='true' lat='-33.6829855' lon='150.3273224' />
  <node id='-98382' visible='true' lat='-33.6828927' lon='150.3273028' />
  <node id='-98384' visible='true' lat='-33.682697' lon='150.3273356' />
  <node id='-98386' visible='true' lat='-33.6824385' lon='150.3272656' />
  <node id='-98388' visible='true' lat='-33.6823002' lon='150.3272962' />
  <node id='-98390' visible='true' lat='-33.682211' lon='150.3273443' />
  <node id='-98392' visible='true' lat='-33.682126' lon='150.327352' />
  <node id='-98394' visible='true' lat='-33.6819088' lon='150.3274329' />
  <node id='-98396' visible='true' lat='-33.6816294' lon='150.3274942' />
  <node id='-98398' visible='true' lat='-33.6815257' lon='150.3276451' />
  <node id='-98400' visible='true' lat='-33.6812235' lon='150.3277173' />
  <node id='-98402' visible='true' lat='-33.6810524' lon='150.3276582' />
  <node id='-98404' visible='true' lat='-33.6808248' lon='150.3276998' />
  <node id='-98406' visible='true' lat='-33.6801334' lon='150.3277326' />
  <node id='-98408' visible='true' lat='-33.6798901' lon='150.3276473' />
  <node id='-98410' visible='true' lat='-33.6797481' lon='150.327656' />
  <node id='-98412' visible='true' lat='-33.679699' lon='150.3276488' />
  <node id='-98414' visible='true' lat='-33.6793093' lon='150.3278784' />
  <node id='-98416' visible='true' lat='-33.6791538' lon='150.3280132' />
  <node id='-98418' visible='true' lat='-33.6788621' lon='150.328046' />
  <node id='-98420' visible='true' lat='-33.6787146' lon='150.3280033' />
  <node id='-98422' visible='true' lat='-33.6786607' lon='150.3278874' />
  <node id='-98424' visible='true' lat='-33.6785638' lon='150.3278465' />
  <node id='-98426' visible='true' lat='-33.6784325' lon='150.3278327' />
  <node id='-98428' visible='true' lat='-33.6794088' lon='150.3277651' />
  <node id='-98430' visible='true' lat='-33.6794874' lon='150.3276192' />
  <node id='-98432' action='modify' visible='true' lat='-33.6794803' lon='150.3274732' />
  <node id='-98434' visible='true' lat='-33.6795648' lon='150.3274253' />
  <node id='-98436' visible='true' lat='-33.6795826' lon='150.3274216' />
  <node id='-98438' visible='true' lat='-33.6796251' lon='150.3274885' />
  <node id='-98440' visible='true' lat='-33.6783799' lon='150.3278272' />
  <node id='-98442' visible='true' lat='-33.6782368' lon='150.3278121' />
  <node id='-98444' visible='true' lat='-33.678233' lon='150.3277333' />
  <node id='-98446' visible='true' lat='-33.6788148' lon='150.3277611' />
  <node id='-98448' visible='true' lat='-33.6789119' lon='150.3277054' />
  <node id='-98450' visible='true' lat='-33.6792539' lon='150.3274035' />
  <node id='-98452' visible='true' lat='-33.6780393' lon='150.3278163' />
  <node id='-98454' visible='true' lat='-33.6779393' lon='150.3278442' />
  <node id='-98456' visible='true' lat='-33.6778092' lon='150.3280873' />
  <node id='-98458' visible='true' lat='-33.6849798' lon='150.3267952' />
  <node id='-98460' visible='true' lat='-33.6849012' lon='150.3267952' />
  <node id='-98462' visible='true' lat='-33.6848738' lon='150.3266416' />
  <node id='-98464' visible='true' lat='-33.684869' lon='150.3266151' />
  <node id='-98466' visible='true' lat='-33.6848583' lon='150.3265549' />
  <way id='-98468' action='modify' visible='true'>
    <nd ref='-98334' />
    <nd ref='-98332' />
    <nd ref='-98330' />
    <nd ref='-98328' />
    <nd ref='-98326' />
    <nd ref='-98324' />
    <nd ref='-98322' />
    <nd ref='-98320' />
    <nd ref='-98318' />
    <nd ref='-98316' />
    <nd ref='-98314' />
    <nd ref='-98312' />
    <nd ref='-98310' />
    <nd ref='-98308' />
    <nd ref='-98306' />
    <nd ref='-98304' />
    <nd ref='-98302' />
    <nd ref='-98300' />
    <nd ref='-98298' />
    <nd ref='-98296' />
    <nd ref='-98294' />
    <nd ref='-98292' />
    <nd ref='-98290' />
    <nd ref='-98288' />
    <nd ref='-98286' />
    <nd ref='-98284' />
    <nd ref='-98282' />
    <nd ref='-98280' />
    <nd ref='-98278' />
    <nd ref='-98276' />
    <nd ref='-98274' />
    <nd ref='-98272' />
    <nd ref='-98270' />
    <nd ref='-98268' />
    <nd ref='-98266' />
    <nd ref='-98264' />
    <nd ref='-98262' />
    <nd ref='-98260' />
    <nd ref='-98258' />
    <nd ref='-98356' />
    <tag k='role' v='transit_connection' />
    <tag k='style' v='return' />
  </way>
  <way id='-98470' action='modify' visible='true'>
    <nd ref='-98336' />
    <nd ref='-98338' />
    <nd ref='-98340' />
    <nd ref='-98342' />
    <nd ref='-98344' />
    <nd ref='-98346' />
    <nd ref='-98348' />
    <nd ref='-98350' />
    <nd ref='-98352' />
    <nd ref='-98354' />
    <nd ref='-98356' />
    <nd ref='-98358' />
    <nd ref='-98360' />
    <nd ref='-98362' />
    <nd ref='-98364' />
    <nd ref='-98366' />
    <nd ref='-98368' />
    <nd ref='-98370' />
    <nd ref='-98372' />
    <nd ref='-98374' />
    <nd ref='-98376' />
    <nd ref='-98378' />
    <nd ref='-98380' />
    <nd ref='-98382' />
    <nd ref='-98384' />
    <nd ref='-98386' />
    <nd ref='-98388' />
    <nd ref='-98390' />
    <nd ref='-98392' />
    <nd ref='-98394' />
    <nd ref='-98396' />
    <nd ref='-98398' />
    <nd ref='-98400' />
    <nd ref='-98402' />
    <nd ref='-98404' />
    <nd ref='-98406' />
    <nd ref='-98408' />
    <nd ref='-98410' />
    <nd ref='-98412' />
    <nd ref='-98438' />
    <nd ref='-98436' />
    <nd ref='-98434' />
    <nd ref='-98432' />
    <nd ref='-98430' />
    <nd ref='-98428' />
    <nd ref='-98414' />
    <nd ref='-98416' />
    <nd ref='-98418' />
    <nd ref='-98420' />
    <nd ref='-98422' />
    <nd ref='-98424' />
    <nd ref='-98426' />
    <nd ref='-98440' />
    <nd ref='-98442' />
    <nd ref='-98444' />
    <nd ref='-98446' />
    <nd ref='-98448' />
    <nd ref='-98450' />
    <tag k='name' v='Minnehaha Track' />
    <tag k='photo' v='136319147@N08/24611248501' />
    <tag k='role' v='primary' />
    <tag k='style' v='return' />
    <tag k='transport' v='car;train+foot' />
  </way>
  <way id='-98472' action='modify' visible='true'>
    <nd ref='-98444' />
    <nd ref='-98452' />
    <nd ref='-98454' />
    <nd ref='-98456' />
    <tag k='name' v='Katoomba Creek' />
    <tag k='role' v='sidetrack' />
    <tag k='style' v='return' />
  </way>
  <way id='-98474' action='modify' visible='true'>
    <nd ref='-98356' />
    <nd ref='-98458' />
    <nd ref='-98460' />
    <nd ref='-98462' />
    <nd ref='-98464' />
    <nd ref='-98466' />
    <tag k='role' v='sidetrack' />
    <tag k='style' v='return' />
  </way>
</osm>
